{
    "content": [
        "3a4127bc2c3cf2ef2ff6571ce2852c00\t{\"Browser_Bits\":\"32\",\"Platform\":\"iOS\",\"Platform_Version\":\"8.1\",\"isMobileDevice\":true}",
        "3af03dfb0ef1f0ba4b9cbc0e45477320\t[]",
        "3a9357ba0b1007ca3bf5f354dd737d78\t[]",
        "3a9b2e868a33756b783bf547b2f547f3\t[]",
        "3af6189405fe7b98921f8261bfb7ada2\t{\"Platform\":\"WinVista\",\"Platform_Version\":\"6.0\"}",
        "3a88519bbdbfb109e8f18acff46df08e\t{\"Browser_Bits\":\"32\",\"Platform\":\"ChromeOS\"}",
        "3a27b34a3f01b59de8ddee5892a11447\t[]",
        "3ae9e042e341ce31d8797d96752d9062\t[]",
        "3a71d204aca0879388980874a0c1ba4f\t[]",
        "3a0804a0f5f30855e7faaf01b5d5d143\t{\"Browser_Bits\":\"32\",\"Platform\":\"MacOSX\",\"Platform_Version\":\"10.10\"}",
        "3a16e8013ffc34b1f3cabeb1050b0698\t{\"Browser_Bits\":\"32\",\"Platform\":\"WinXP\",\"Platform_Version\":\"5.2\",\"Win32\":true}",
        "3a5544c5a4c345dc1b2a826c7f91798f\t[]",
        "3ab38a46be3ee23bdb6b9f5c2d1eacd7\t[]",
        "3a0d11f69e01c9e613cf5067d9bb92ac\t[]",
        "3ad1b2fee279ea9b9c68d3da65037586\t[]",
        "3a0f27515b2e98078aaec1f3fcaebbfb\t[]",
        "3a7a33851b0e6a9d7a2d1802e2685202\t[]",
        "3a133b56aebf1583d3051de054afd590\t{\"Browser_Bits\":\"32\",\"Platform\":\"Win8\",\"Platform_Version\":\"6.2\",\"Win32\":true}",
        "3a2cb20336926fce22095c03d12a0569\t{\"Platform\":\"iOS\",\"Platform_Version\":\"8.1\",\"Win32\":false,\"isMobileDevice\":true,\"isTablet\":true}",
        "3a94b7948ad5b5e5139f68dd502792e2\t{\"Platform\":\"WinXP\",\"Platform_Version\":\"5.1\"}",
        "3aa707ba54d608c60805c69da320e565\t{\"Platform\":\"iOS\",\"Platform_Version\":\"10.3\",\"Win32\":false,\"isMobileDevice\":true,\"isTablet\":true}",
        "3ade365efd345a3e12626e8c06eb0c6a\t{\"Platform_Version\":\"10.3\",\"isTablet\":true}",
        "3ac012a123743e7fde308d11a7d074bf\t{\"Platform_Version\":\"4.2\",\"isTablet\":true}",
        "3a1f75713e8c6724b272c83c39b8341b\t{\"Platform_Version\":\"4.4\",\"isTablet\":true}",
        "3a6f8f39175e5ec01f2eff303ece9106\t{\"Platform_Version\":\"10.0\",\"isTablet\":true}",
        "3a0a8a9c207f89160206f532bb2a592e\t{\"Platform_Version\":\"7.1\",\"isTablet\":true}",
        "3a6d5c404721125b62b9d4d2ea8dad26\t{\"Browser_Bits\":\"32\",\"Platform\":\"Android\",\"isMobileDevice\":true}",
        "3a793d8e99d01c042284ed080547d91e\t{\"Browser_Bits\":\"32\",\"Platform\":\"Win8\",\"Platform_Version\":\"6.2\",\"Win32\":true}",
        "3a83f61843379ef2d3b7a60b71c5389c\t{\"Platform_Version\":\"6.1\"}",
        "3a3d64173fa624343833a09a79fe828b\t{\"Platform_Version\":\"4.4\"}",
        "3addb02e34200a70efed7b7f32e43f42\t{\"Platform_Version\":\"4.4\",\"isTablet\":true}",
        "3adce782249f1152f5ac3cfeabfd55d6\t{\"Platform_Version\":\"4.2\",\"isTablet\":true}",
        "3abca5927fa8bf65940be21e0a14b853\t{\"Platform_Version\":\"4.2\"}",
        "3ab13b7ed45ca2bfbf8d58ce2f0d36ac\t{\"Platform_Version\":\"4.4\"}",
        "3a01453a3f38734ab6e7315d1d9495ce\t{\"Platform_Version\":\"4.4\"}",
        "3af6235a5cfc189ab9d9f1e56bc7fe1d\t{\"Platform_Version\":\"4.4\"}",
        "3a7ba1882889531b841ccbbf67fcb933\t[]",
        "3aa7e7df753e19c1ef9fe211966050c1\t{\"Platform_Version\":\"5.1\"}",
        "3ad71a940d2b0480fd408f30790150ce\t{\"Browser_Bits\":\"32\",\"Platform\":\"Android\"}",
        "3a7a5805f422299af61f523bf4d11454\t{\"Platform_Version\":\"4.2\"}",
        "3a322cdc9f7e14323e9df5517838f37d\t[]",
        "3a4ed0ab83d58ff84fd2519bd647b570\t{\"Platform_Version\":\"4.4\",\"isTablet\":true}",
        "3a1578dfbf163ddcd0c8eefe04c6e67e\t{\"Platform_Version\":\"4.2\",\"isTablet\":true}",
        "3ae0225b54cbb0ba304bba5990c89042\t{\"Platform_Version\":\"8.1\",\"isTablet\":true}",
        "3a2187edc4b15e3de146f3ea7d66bfbe\t{\"Platform_Version\":\"5.0\"}",
        "3a518acee2adeeab80d224f857340c31\t{\"Platform_Version\":\"4.4\"}",
        "3af24d43895bdfd749f29ebc0d67c1ee\t{\"Platform\":\"Win8.1\",\"Platform_Version\":\"6.3\"}",
        "3a6c8fe20ef8d494be2bd1ff030b4f44\t[]",
        "3a86c53e117463f6a7026378eda19a8e\t{\"Platform\":\"Win7\",\"Platform_Version\":\"6.1\"}",
        "3a40162dc90b19d63898487b9f36e4e2\t{\"Platform_Version\":\"4.2\"}",
        "3aa3745ef712d54a2fa7eab307063be3\t{\"Platform\":\"Win10\",\"Platform_Version\":\"10.0\",\"Win32\":true}",
        "3a3a934b8f8aa7f4cd3d98ff2cc513b9\t{\"Platform\":\"Win7\",\"Platform_Version\":\"6.1\",\"Win32\":true}",
        "3a2bc93938a8f2c843b30505911462c7\t{\"Platform\":\"WinXP\",\"Platform_Version\":\"5.2\",\"Win32\":true}",
        "3a401c095293e1824fe73192f8c73720\t{\"Platform\":\"Win8.1\",\"Platform_Version\":\"6.3\",\"Win32\":true}",
        "3ac2ed933845164e745dda4068f3f09a\t{\"Platform\":\"Win8.1\",\"Platform_Version\":\"6.3\",\"Win32\":true}",
        "3a438e59e805afdef638e02c9ebc9bb9\t{\"Platform\":\"Win7\",\"Platform_Version\":\"6.1\",\"Win32\":true}",
        "3af5c10c58781142dd57c05046066b1d\t{\"Platform\":\"WinXP\",\"Platform_Version\":\"5.2\",\"Win32\":true}",
        "3a7f3dce1a69d81cb086524a15858b5f\t{\"Platform\":\"WinXP\",\"Platform_Version\":\"5.2\",\"Win32\":true}",
        "3a41fb812eb6c19848d0e29e227d5e19\t{\"Platform\":\"Win7\",\"Platform_Version\":\"6.1\",\"Win32\":true}",
        "3a20272914a5d13da230d863ec29045f\t[]",
        "3ae29e6d1bbbbc996bb3474fd947ece5\t{\"Platform_Version\":\"5.0\"}",
        "3a8226e7eadd9b7c088f8b9d4933ede2\t{\"Platform_Version\":\"4.4\",\"isTablet\":true}",
        "3af2333bffffc84996ba4d5f33b6918d\t{\"Platform_Version\":\"4.2\",\"isTablet\":true}",
        "3ac5488776715ae172f50f6723b1883f\t{\"Platform_Version\":\"5.1\"}",
        "3a792920ed6832c0cb74147ba42344ed\t{\"Platform_Version\":\"5.0\",\"isTablet\":true}",
        "3acf9211cdf08276ee6d87faf2573c06\t{\"Platform_Version\":\"4.2\",\"isTablet\":true}",
        "3a5faaf631b3179fccbfcd3391d61708\t{\"Platform_Version\":\"4.2\"}",
        "3a8debef55a230c2905ad6290cc9dc36\t{\"Platform_Version\":\"4.4\",\"isTablet\":true}",
        "3ab56cf0d736e977d89d978d392666c9\t{\"Platform_Version\":\"4.3\",\"isTablet\":true}",
        "3aa729a8bfce6b18529c2413e3214cb5\t{\"Platform_Version\":\"5.0\",\"isTablet\":true}",
        "3a994d5dfe78643293c31f1f8f8b2518\t{\"Platform_Version\":\"4.4\",\"isTablet\":true}",
        "3a5b96cecd56e1c8f92bfcb56571e580\t{\"Platform_Version\":\"4.4\",\"isTablet\":true}",
        "3a9fc4daca8cd2771dd464a23921cf04\t{\"Platform_Version\":\"4.2\"}",
        "3a06c92ee9ac5743f71962ba10dd6e94\t{\"Platform_Version\":\"4.2\",\"isTablet\":true}",
        "3a9f0527eb5a32d9e393a79ee97adc42\t{\"Platform_Version\":\"4.2\",\"isTablet\":true}",
        "3a8461bde1735e3712de20df5f983c13\t{\"Platform_Version\":\"4.3\",\"isTablet\":true}",
        "3a1248bf3d21f6693cfbffe07ce50414\t{\"Browser_Bits\":\"32\",\"Platform\":\"Android\",\"Platform_Version\":\"7.0\"}",
        "3ada4a4561254c8e729fd0ef5ffc4818\t{\"Browser_Bits\":\"32\",\"Platform\":\"Android\"}",
        "3a5c7c157a723e20fe1ff72ad7d119fb\t{\"Platform_Version\":\"10.2\"}",
        "3ab59e60b537d14abee728bfdc8c6cb9\t{\"Platform_Version\":\"4.4\",\"isTablet\":true}",
        "3ae24cb06a252e58dc74871d27483cf0\t{\"Platform_Version\":\"7.0\"}",
        "3a88de13d42cff79fdfa09215f0a2b76\t{\"Browser_Bits\":\"32\",\"Platform\":\"Win8\",\"Platform_Version\":\"6.2\",\"Win32\":true}",
        "3a8a5e9b3217d1a186615631dd796e14\t{\"isTablet\":true}",
        "3a77b6aead2632aab95f356d06baec14\t{\"Platform_Version\":\"9.2\"}",
        "3a892ca1ec12eff702753c17d72d4313\t{\"Platform_Version\":\"8.2\",\"isTablet\":true}",
        "3ac3dd56e8c8b56c07b563bbabad4b90\t{\"Platform_Version\":\"7.1\",\"isTablet\":true}",
        "3a3bb0f424ab70c3483d9f521df3802b\t{\"Browser_Bits\":\"32\",\"Platform\":\"iOS\",\"isMobileDevice\":true}",
        "3a52bebbb858bf158668e57e8f35069d\t{\"Platform_Version\":\"10.0\",\"isTablet\":true}",
        "3a7a206e01a2fe48478a62faa7909860\t{\"Platform_Version\":\"9.0\"}",
        "3aaeb19530ed2d4921a89bf87b6ab933\t{\"Browser_Bits\":\"32\",\"Platform\":\"WinVista\",\"Platform_Version\":\"6.0\",\"Win32\":true}",
        "3a30fefc3b686364324b0177e4efda42\t{\"Platform_Version\":\"4.4\",\"isTablet\":true}",
        "3a3ba7504b7bf9bd72b88dd346ba06c6\t{\"Platform_Version\":\"4.4\",\"isTablet\":true}",
        "3a821ee270c7c7d5ab29012f9feb27a8\t{\"Platform_Version\":\"10.1\"}",
        "3a6ab9e3d852b950673fb06e7639c15d\t{\"Platform_Version\":\"9.0\"}",
        "3aec72e373d616083e007699304ffd79\t{\"Platform_Version\":\"4.2\",\"isTablet\":true}",
        "3a2a8e703d8b59ed908203a55f8071e0\t{\"Browser_Bits\":\"32\",\"Platform\":\"MacOSX\",\"Platform_Version\":\"10\"}",
        "3aaf54e7ad2818fb6b664ff780c5522d\t{\"Browser_Bits\":\"32\",\"Platform\":\"FreeBSD\"}",
        "3a32c382e69605190a00666f68910240\t{\"Browser_Bits\":\"32\",\"Platform\":\"WinXP\",\"Platform_Version\":\"5.2\",\"Win32\":true}",
        "3a92a08d7ba6395175433b9dd8d90a56\t{\"Browser_Bits\":\"32\",\"Platform\":\"WinXP\",\"Platform_Version\":\"5.1\",\"Win32\":true}",
        "3add86be2b6afe453807f86b9995a67e\t{\"Browser_Bits\":\"32\",\"Platform\":\"WinVista\",\"Platform_Version\":\"6.0\",\"Win32\":true}",
        "3a3990a629a03e0287475ddd52410f16\t{\"Browser_Bits\":\"32\",\"Platform\":\"Linux\"}",
        "3a600d0ff9baf3a3dd6452a801b0e3fe\t{\"Browser_Bits\":\"32\",\"Platform\":\"WinXP\",\"Platform_Version\":\"5.2\",\"Win32\":true}",
        "3a286cf55bb4d6d2ed0ee7714ae9d44b\t{\"Browser_Bits\":\"32\",\"Platform\":\"Win8\",\"Platform_Version\":\"6.2\",\"Win32\":true}",
        "3a0e434c24a375fc178e6de8bb7a5e1b\t{\"Browser_Bits\":\"32\",\"Platform\":\"Win7\",\"Platform_Version\":\"6.1\",\"Win32\":true}",
        "3a071752e24c36ea8f74ac28bd266b9c\t{\"Browser_Bits\":\"32\",\"Platform\":\"WinXP\",\"Platform_Version\":\"5.1\",\"Win32\":true}",
        "3a41bc71bd6a383937785d49e34d78ef\t{\"Browser_Bits\":\"32\",\"Platform\":\"Maemo\"}",
        "3a440005bc52a75a0936aa3b6aa5d132\t{\"Browser_Bits\":\"32\",\"Platform\":\"Win8\",\"Platform_Version\":\"6.2\",\"Win32\":true}",
        "3aeeae25963ee07de18fb067efe280b6\t{\"Browser_Bits\":\"32\",\"Platform\":\"Win8\",\"Platform_Version\":\"6.2\",\"Win32\":true}",
        "3aea9c0774958ee9de1482ff9d2215e7\t{\"Browser_Bits\":\"32\",\"Platform\":\"MacOSX\",\"Platform_Version\":\"10\"}",
        "3a59ef5c02eb71f1f7827c7ae083c69a\t{\"Browser_Bits\":\"32\",\"Platform\":\"Win7\",\"Platform_Version\":\"6.1\",\"Win32\":true}",
        "3aaa3e1c241db3356831f2ba0df107e6\t{\"Browser_Bits\":\"32\",\"Platform\":\"WinXP\",\"Platform_Version\":\"5.1\",\"Win32\":true}",
        "3a722fc4831ec1b314372e39fccaf334\t{\"Browser_Bits\":\"32\",\"Platform\":\"FreeBSD\"}",
        "3ad30ec8393a30b2684fdbb6a334d9c3\t{\"Browser_Bits\":\"32\",\"Platform\":\"WinVista\",\"Platform_Version\":\"6.0\",\"Win32\":true}",
        "3a079bce8090e057744d1a735a094e63\t{\"Browser_Bits\":\"32\",\"Platform\":\"MacOSX\",\"Platform_Version\":\"10.10\"}",
        "3a41f78336c43a3b608109f2f0460675\t{\"Browser_Bits\":\"32\",\"Platform\":\"FreeBSD\"}",
        "3a50464a6c03124218d6e7d24618330a\t{\"Browser_Bits\":\"32\",\"Platform\":\"SunOS\"}",
        "3abb224864362bb4e6e979f0407c5db8\t{\"Browser_Bits\":\"32\",\"Platform\":\"Linux\"}",
        "3a1606dc8af95dcf71d4fb3a974057b5\t{\"Browser_Bits\":\"32\",\"Platform\":\"WinXP\",\"Platform_Version\":\"5.2\",\"Win32\":true}",
        "3af99d3985aa5f25cfba519d674b3f55\t{\"Browser_Bits\":\"32\",\"Platform\":\"MacOSX\",\"Platform_Version\":\"10\"}",
        "3a5f45dae43cb421dedc4ed46c158450\t{\"Browser_Bits\":\"32\",\"Platform\":\"Linux\"}",
        "3a13876434be60e2cf299dc3bfe70aab\t{\"Browser_Bits\":\"32\",\"Platform\":\"WinVista\",\"Platform_Version\":\"6.0\",\"Win32\":true}",
        "3af5367884c3239c2d8f5406877dc232\t{\"Browser_Bits\":\"32\",\"Platform\":\"MacOSX\",\"Platform_Version\":\"10\"}",
        "3a88646641de4b12bc7e32f72c2dc5a4\t{\"Browser_Bits\":\"32\",\"Platform\":\"MacOSX\",\"Platform_Version\":\"10.9\"}",
        "3a36b308dda4dcd158d5f9def155cf50\t{\"Browser_Bits\":\"32\",\"Platform\":\"Win32\",\"Win32\":true}",
        "3aae06709447c8433d9976e4d7beeae9\t{\"Browser_Bits\":\"32\",\"Platform\":\"WinXP\",\"Platform_Version\":\"5.1\",\"Win32\":true}",
        "3a2315f3a1218318477ff69df0e3a083\t{\"Browser_Bits\":\"32\",\"Platform\":\"Win7\",\"Platform_Version\":\"6.1\",\"Win32\":true}",
        "3ab842206cc7f9500c9f96314baa489b\t{\"Browser_Bits\":\"32\",\"Platform\":\"Win8.1\",\"Platform_Version\":\"6.3\",\"Win32\":true}",
        "3a93db2e9a48793ad013a6614d0ca9c2\t{\"Browser_Bits\":\"32\",\"Platform\":\"Win8\",\"Platform_Version\":\"6.2\",\"Win32\":true}",
        "3ab1239b22864810976fd3b2e2834ff5\t{\"Browser_Bits\":\"32\",\"Platform\":\"Win32\",\"Win32\":true}",
        "3afa119d583e5abf64671ab25f3f2c86\t{\"Browser_Bits\":\"32\",\"Platform\":\"WinXP\",\"Platform_Version\":\"5.2\",\"Win32\":true}",
        "3a7d501866d82b177578af833630897a\t{\"Browser_Bits\":\"32\",\"Platform\":\"Win8\",\"Platform_Version\":\"6.2\",\"Win32\":true}",
        "3a26becae8ef08bf3ea4f543ff592a39\t{\"Browser_Bits\":\"32\",\"Platform\":\"Win32\",\"Win32\":true}",
        "3a31aa909b46703bffb5b710d6086fc8\t{\"Browser_Bits\":\"32\",\"Platform\":\"WinXP\",\"Platform_Version\":\"5.1\",\"Win32\":true}",
        "3ae1b078832cb6d4d20973e1e49af172\t{\"Browser_Bits\":\"32\",\"Platform\":\"WinXP\",\"Platform_Version\":\"5.1\",\"Win32\":true}",
        "3aecb16db25a5ba78d6ff429df5e07e1\t{\"Browser_Bits\":\"32\",\"Platform\":\"MacOSX\",\"Platform_Version\":\"10\"}",
        "3a969bd0d3465ec1a4c376d37bceb3b4\t{\"Browser_Bits\":\"32\",\"Platform\":\"MacOSX\",\"Platform_Version\":\"10.10\"}",
        "3a8cf391637c3e8dab91c03923e74c12\t{\"Browser_Bits\":\"32\",\"Platform\":\"Linux\"}",
        "3a8e9b61d7f4ff30fd649c8f758699be\t{\"Browser_Bits\":\"32\",\"Platform\":\"iOS\",\"Platform_Version\":\"8.1\",\"isMobileDevice\":true}",
        "3afd2a5a0cfc65882915f4683af5d1d9\t{\"Browser_Bits\":\"32\",\"Platform\":\"iOS\"}",
        "3a567d3b19091e0f17d6d4ad0bbd4474\t{\"Browser_Bits\":\"32\",\"Platform\":\"Android\"}",
        "3a12b0be9501633dcb694e9de848ebd8\t{\"Browser_Bits\":\"32\",\"Platform\":\"Android\",\"Platform_Version\":\"4.3\",\"isTablet\":true}",
        "3a7d4e9482cb9190872e6a5b2b4fa55b\t{\"Browser_Bits\":\"32\",\"Platform\":\"MacOSX\",\"Platform_Version\":\"10.9\"}",
        "3a0be91ea7fc90f16b6e6a8939668094\t{\"Browser_Bits\":\"32\",\"Platform\":\"Linux\"}",
        "3aa01768a569531bfc1edfc7a2af6d34\t{\"Browser_Bits\":\"32\",\"Platform\":\"WinXP\",\"Platform_Version\":\"5.2\",\"Win32\":true}",
        "3a448abf24aaa30570010f5b08750bae\t{\"Browser_Bits\":\"32\",\"Platform\":\"WinXP\",\"Platform_Version\":\"5.2\",\"Win32\":true}",
        "3a4ec68655371d549154016b95cff3c3\t{\"Browser_Bits\":\"32\",\"Platform\":\"MacOSX\",\"Platform_Version\":\"10.10\"}",
        "3acabd6559f7dfc83dc045adfb46fd5e\t{\"Browser_Bits\":\"32\",\"Platform\":\"WinXP\",\"Platform_Version\":\"5.2\",\"Win32\":true}",
        "3abe50f77e1ff17b2413f4b5b99c7373\t{\"Browser_Bits\":\"32\",\"Platform\":\"MacOSX\",\"Platform_Version\":\"10\"}",
        "3a879162a805cb41b6c18d2dd49b7a79\t{\"Browser_Bits\":\"32\",\"Platform\":\"MacOSX\",\"Platform_Version\":\"10.9\"}",
        "3ad0f43eb7f372204e6f3f2926a50b40\t{\"Browser_Bits\":\"32\",\"Platform\":\"Linux\"}",
        "3ac41e4d2857b5d0c353ed5e7c972459\t{\"isTablet\":true}",
        "3acf8fcdb99ea4cd828a5a51e242915f\t{\"Platform_Version\":\"4.3\",\"isTablet\":true}",
        "3af50a47afc137af390b149d12c5bea9\t{\"Platform_Version\":\"5.1\"}",
        "3acc66f71e9b5993c2de6a41ec20cce6\t[]",
        "3aaf5bf96c83fa5f28f1f51ed28be392\t{\"isTablet\":true}",
        "3a4a99bab34f8e4148abc1d81a96bd5e\t{\"isTablet\":true}",
        "3ab8304597de65dbcc165d11fbfd36db\t{\"Browser_Bits\":\"32\",\"Platform\":\"Win7\",\"Platform_Version\":\"6.1\",\"Win32\":true}",
        "3ac2dafa56de73a2108173b97d430e9c\t{\"Browser_Bits\":\"32\",\"Platform\":\"FreeBSD\"}",
        "3a34ed041057fb0233c6f24c905837aa\t{\"Platform_Version\":\"4.4\"}",
        "3ae36a143910f0d5cee8daf05594b310\t{\"Browser_Bits\":\"32\",\"Platform\":\"Win32\",\"Win32\":true}",
        "3aa009a5819ba4562caf1618bd16083e\t{\"Platform_Version\":\"4.3\",\"isTablet\":true}",
        "3ae79ac39104973e2c4cc5adc6303de4\t{\"Platform_Version\":\"4.4\",\"isTablet\":true}",
        "3a73d48c2bc52247335ff136f357d128\t{\"Platform_Version\":\"4.4\",\"isTablet\":true}",
        "3a91890fe186668ef983aaeac7fd58fe\t{\"Platform_Version\":\"9.0\"}",
        "3a3dbda54f92b4a6db1058f49f30139c\t[]",
        "3a479a27f356eba3fe6a2d36b6b4268a\t{\"Platform_Version\":\"4.3\",\"isTablet\":true}",
        "3a07ef2eed37c72035e273d35b109871\t{\"Platform_Version\":\"7.0\"}",
        "3a685fa6dbee93fc92e7ab03273e128a\t{\"Platform_Version\":\"4.2\",\"isTablet\":true}",
        "3a94692caa97f6dfad3f30f594e093ad\t{\"Platform_Version\":\"4.3\",\"isTablet\":true}",
        "3a953c841ae384b84a733e0dfd14317a\t{\"Platform_Version\":\"4.2\",\"isTablet\":true}",
        "3a8d0962cef393642b781380569fa458\t{\"Platform_Version\":\"5.0\",\"isTablet\":true}",
        "3a1015ca6b5e61a990cdfef3e57c2128\t{\"Platform_Version\":\"4.3\",\"isTablet\":true}",
        "3a6a7b3a1bed981d04a16edd95dea83b\t{\"Platform_Version\":\"4.4\",\"isTablet\":true}",
        "3a0c8cbfc38e500d6ffca9b29deca23e\t{\"Platform_Version\":\"10.0\"}",
        "3af8c5545a1f25b160ee391fc6e8fe17\t{\"Platform_Version\":\"4.3\",\"isTablet\":true}",
        "3a763894e26f17ddacbf0add517ebe82\t{\"Platform_Version\":\"4.2\",\"isTablet\":true}",
        "3a030e8f99f4af01b3f2d1709f83990b\t{\"Platform_Version\":\"4.4\",\"isTablet\":true}",
        "3a2b64d102ee590b432f5e2ce2b258d0\t{\"Platform_Version\":\"4.3\",\"isTablet\":true}",
        "3a870a1a280839cea25af0e569d52b50\t{\"Platform_Version\":\"4.4\",\"isTablet\":true}",
        "3a8e6e87a49b977c4cf885cefbb11ac6\t{\"Platform_Version\":\"4.4\",\"isTablet\":true}",
        "3a265f18244e1727c062064973339c00\t{\"Platform_Version\":\"4.3\",\"isTablet\":true}",
        "3a39eef02abe842312948f0a47ba640b\t{\"Platform_Version\":\"4.2\",\"isTablet\":true}",
        "3a354bec959e97e0279729c709a2bd8a\t{\"Platform_Version\":\"4.2\",\"isTablet\":true}",
        "3aabdaf4bebc25edcd31cc8115ff9706\t{\"Browser_Bits\":\"32\",\"Platform\":\"WinVista\",\"Platform_Version\":\"6.0\",\"Win32\":true}",
        "3abc07f685b1d8287ed1afe6f8b884ce\t{\"Platform_Version\":\"4.2\",\"isTablet\":true}",
        "3acdd20e43779495aa3dac3f0249c26c\t{\"Platform_Version\":\"4.2\",\"isTablet\":true}",
        "3a39b403c13c91130db55d8457cd1c84\t{\"Platform_Version\":\"4.3\",\"isTablet\":true}",
        "3a883b829a7db105821892650aa902bf\t{\"Platform_Version\":\"4.2\",\"isTablet\":true}",
        "3ad11235c2ab7d4ee0e62a89e85714ee\t{\"Platform_Version\":\"9.1\",\"isTablet\":true}",
        "3a57ca7beb14a1c093b36c1759aa8273\t{\"Browser_Bits\":\"32\",\"Platform\":\"Win7\",\"Platform_Version\":\"6.1\",\"Win32\":true}",
        "3a29f6acca7c41026d3470912f350371\t{\"Browser_Bits\":\"32\",\"Platform\":\"WinXP\",\"Platform_Version\":\"5.1\",\"Win32\":true}",
        "3a4e864f38606c142da7a2587fa4d40c\t{\"Platform_Version\":\"4.4\",\"isTablet\":true}",
        "3a88fb096652ba72c7c6faf0402b88a8\t{\"Platform_Version\":\"4.2\",\"isTablet\":true}",
        "3aba3325573f63977389a1af9831e1c3\t{\"Platform_Version\":\"4.2\",\"isTablet\":true}",
        "3a0c4285197b60d44b1e59cf8bcc1b0c\t{\"Platform_Version\":\"4.2\",\"isTablet\":true}",
        "3adff05fc71baede9c745507205f6451\t{\"Platform_Version\":\"4.4\",\"isTablet\":true}",
        "3af7d1de68dc4507ef25aacd7facf700\t{\"Platform_Version\":\"4.2\",\"isTablet\":true}",
        "3ac2290277c9605ebbe8804a3d0ab95b\t{\"Platform_Version\":\"4.3\",\"isTablet\":true}",
        "3ad001b6f58761b128419f096eab3788\t{\"Platform_Version\":\"4.2\",\"isTablet\":true}",
        "3a4e09103828cee9f87fabd5daf1feae\t{\"Platform_Version\":\"4.2\",\"isTablet\":true}",
        "3a20f087a6b447fb8acbd48d1e2980f9\t{\"Platform_Version\":\"4.2\",\"isTablet\":true}",
        "3a725f83770663fdaf50813b76fcc8b6\t{\"Platform_Version\":\"4.2\",\"isTablet\":true}",
        "3a005ff863b81451682e1fe2824760a7\t{\"Platform_Version\":\"4.2\",\"isTablet\":true}",
        "3a7e88eb237eec49a8e7b9d0054b27d3\t{\"Platform_Version\":\"8.0\",\"isTablet\":true}",
        "3a6cf2043a62ec8d73ffaf150a062921\t{\"Platform_Version\":\"4.3\",\"isTablet\":true}",
        "3a481cc0433e0b36f9fb6889dbc34f14\t{\"Platform_Version\":\"4.2\",\"isTablet\":true}",
        "3adf9caed20184713fddae1bc45aad06\t{\"Platform_Version\":\"4.2\",\"isTablet\":true}",
        "3a83a75a9ad6a128c24b2c33e643a774\t{\"Browser_Bits\":\"32\",\"Platform\":\"Win8\",\"Platform_Version\":\"6.2\",\"Win32\":true}",
        "3a362874dd76261669472cd2dc061206\t{\"Browser_Bits\":\"32\",\"Platform\":\"ChromeOS\"}",
        "3aeaff6b6511d37707b1a93dd424d0f5\t{\"Platform_Version\":\"4.2\",\"isTablet\":true}",
        "3a189a39892116ffd4fa9db37f1e345c\t{\"Platform_Version\":\"4.2\",\"isTablet\":true}",
        "3a1c091feced34b06526d6b00c6aabbd\t{\"Platform_Version\":\"4.2\",\"isTablet\":true}",
        "3a772c543100d4f749f221f1379dca18\t{\"Browser_Bits\":\"32\",\"Platform\":\"WinXP\",\"Platform_Version\":\"5.2\",\"Win32\":true}",
        "3a6f2ee849e4b00910f976d643963ee5\t{\"Browser_Bits\":\"32\",\"Platform\":\"OpenBSD\"}",
        "3ae8c9e81ecdd7db416b7e61c4f7313a\t{\"Browser_Bits\":\"32\",\"Platform\":\"WinVista\",\"Platform_Version\":\"6.0\",\"Win32\":true}",
        "3ac144c1b149d2707a5838102e194483\t{\"Browser_Bits\":\"32\",\"Platform\":\"FreeBSD\"}",
        "3a63cedaa0876d6cb45bfbec8b61bbf5\t{\"Browser_Bits\":\"32\",\"Platform\":\"WinXP\",\"Platform_Version\":\"5.1\",\"Win32\":true}",
        "3a63398ce35151d64d20707e68b774e8\t{\"Browser_Bits\":\"32\",\"Platform\":\"Win7\",\"Platform_Version\":\"6.1\",\"Win32\":true}",
        "3a3abe0afe41e95442ad2ffe9987df64\t{\"Browser_Bits\":\"32\",\"Platform\":\"Win7\",\"Platform_Version\":\"6.1\",\"Win32\":true}",
        "3a3fec8ca807e998641308903f480f8c\t{\"Platform_Version\":\"8.1\"}",
        "3a5152885069d10073d86632960af7be\t{\"Platform_Version\":\"8.0\",\"isTablet\":true}",
        "3a661795aab009ce786a623817eb6c3c\t{\"Platform_Version\":\"8.1\",\"isTablet\":true}",
        "3abe297aa2fce9289ec7dd6caecccfd2\t{\"Platform_Version\":\"10.0\"}",
        "3a3217f5e60eeed52deaefbc2e4b19c4\t{\"Platform_Version\":\"9.3\"}",
        "3a88a1f1b42ae0245927d19e453d5922\t{\"Platform_Version\":\"9.1\"}",
        "3a8c965787393a0f7ea8e82b37013ecc\t{\"Browser_Bits\":\"32\",\"Platform\":\"MacOSX\",\"Platform_Version\":\"10.9\"}",
        "3ae333cedeb1c7489ef40cb83cca125c\t[]",
        "3a79d301159619e8bbcbd08dbf3c4001\t{\"Platform_Version\":\"8.3\"}",
        "3addeee5c1a64d088ea2c0119bd8c578\t{\"isMobileDevice\":true}",
        "3a8115c6266879d7fd1593fd3fe33a26\t[]",
        "3a7aa3c9d7a9e81246e114a93ff8ff10\t{\"Platform_Version\":\"7.1\",\"isTablet\":true}",
        "3ae6c78c0fc2b1f07e2e6e7f12c06a67\t{\"Platform_Version\":\"6.0\"}",
        "3a12984916e38d1c6e65aaf43d8685fe\t{\"Platform_Version\":\"6.1\"}",
        "3ae26f51255052057653a611b6e7e269\t{\"Browser_Bits\":\"32\",\"Platform\":\"Android\",\"isMobileDevice\":true}",
        "3aaa713f2dc03dab43c0af7177fedb80\t[]",
        "3a1f81c40e246394dab6c6b7599cc47f\t{\"Browser_Bits\":\"32\",\"Platform\":\"iOS\",\"Platform_Version\":\"8.4\",\"isTablet\":true}",
        "3ae219c0dabc2cad22370b805d8049f9\t{\"Browser_Bits\":\"32\",\"Platform\":\"iOS\",\"Platform_Version\":\"7.0\",\"isTablet\":true}",
        "3a912b4b0310f83c5126d13807307748\t{\"Browser_Bits\":\"32\",\"Platform\":\"JAVA\"}",
        "3a6820d200622cbb8bc73238d1c45288\t{\"Browser_Bits\":\"32\",\"Platform\":\"iOS\",\"isTablet\":true}",
        "3a45d0cbea939062a768f26abe9d1c11\t{\"Browser_Bits\":\"32\",\"Platform\":\"iOS\",\"isTablet\":true}",
        "3a0d454a1401ab384b78474a2b716d19\t{\"Browser_Bits\":\"32\",\"Platform\":\"Android\"}",
        "3a00298baf8b755e6d346da070f4e268\t{\"isMobileDevice\":true}",
        "3af7278bd968b49551aa21d514ffe102\t{\"Browser_Bits\":\"32\",\"Platform\":\"OpenBSD\"}",
        "3a787f7370d699d06c6da742b650d2f2\t{\"Browser_Bits\":\"32\",\"Platform\":\"Linux\"}",
        "3a2bc109fcc3569e26c79b1ca450c80c\t{\"Platform_Version\":\"8.3\",\"isTablet\":true}",
        "3a8f62d51b8c92f738a9a01e3ab829ae\t{\"Platform_Version\":\"9.1\"}",
        "3aa29577455a9b4c62e5cec176be0be3\t{\"Platform_Version\":\"8.2\"}",
        "3a9113575538a8a26b5bb3c8b90fdb69\t{\"Platform_Version\":\"9.3\"}",
        "3a4cb9987d203be999bf46ca6f74486d\t{\"Platform_Version\":\"8.3\",\"isTablet\":true}",
        "3ac37952252a38c583aa5c2b010bd751\t{\"Browser_Bits\":\"32\",\"Platform\":\"iOS\",\"isMobileDevice\":true}",
        "3a610b36015d1d36f1a93d0d1c4a09df\t{\"Platform_Version\":\"9.1\"}",
        "3a99aecb56ec695e7f8cee94079e9235\t{\"isTablet\":true}",
        "3ad3e18eca3c767b522ce1d4497b3836\t{\"Platform_Version\":\"7.0\"}",
        "3a78226d565566cda450695be30f65a5\t{\"Platform_Version\":\"8.0\",\"isTablet\":true}",
        "3af5fca74ea6ed16749310a1527e2e14\t{\"Platform_Version\":\"9.3\"}",
        "3ae703fce3b8bbe721f5734584a2b61b\t{\"Platform_Version\":\"9.0\",\"isTablet\":true}",
        "3ad67771a6dc262a0584e964372e094f\t{\"Platform_Version\":\"8.3\"}",
        "3a8184109ff229b85e8e0b09c83a204a\t{\"Platform_Version\":\"9.1\"}",
        "3a340509fc7a2daa9e9fa44d2bc237d5\t{\"Platform_Version\":\"9.3\",\"isTablet\":true}",
        "3aff348d6534ea8e35fbf2dd4b4594dc\t{\"Browser_Bits\":\"32\",\"Platform\":\"MeeGo\",\"isMobileDevice\":true,\"isTablet\":true}",
        "3ad76257c4165f24cc76fa0deb039954\t{\"isTablet\":true}",
        "3ace1dd7e5c9ec3b7a33b58b3b871000\t{\"Platform_Version\":\"8.4\"}",
        "3ab171850ac093ea7fae5c941d2c6052\t{\"Platform_Version\":\"8.0\",\"isTablet\":true}",
        "3a4116d8fd05628bccf1351cd25fac92\t[]",
        "3a81f0c7e244354d1ef0074fcf071cde\t{\"Platform_Version\":\"8.4\"}",
        "3aed31faeb813b05ee2fc77301876fb7\t{\"Platform_Version\":\"10.3\"}",
        "3a408ac9f7b3b99e398c93de2cbb94b2\t{\"Browser_Bits\":\"32\",\"Platform\":\"MacOSX\",\"Platform_Version\":\"10.11\"}",
        "3a06d717f9311fb9d3e6cbcdabe94869\t{\"Browser_Bits\":\"32\",\"Platform\":\"MacOSX\",\"Platform_Version\":\"10.11\"}",
        "3af231bda9b3a7cb347f423b11e4287a\t{\"Browser_Bits\":\"32\",\"Platform\":\"MacOSX\",\"Platform_Version\":\"10\"}",
        "3ae7b2c0b1c83596053a61cf60fa0967\t{\"Browser_Bits\":\"32\",\"Platform\":\"SymbianOS\"}",
        "3ad2477ddeda6ac96eb0661569f72eb2\t{\"Platform_Version\":\"4.4\",\"isTablet\":true}",
        "3a27b52f444b0d3b83dfe5532ee294eb\t{\"Platform_Version\":\"6.0\"}",
        "3abbe5a2c495acebfb6ecbd2d447e6e6\t[]",
        "3a482e30e1556272525481a0ceb442b1\t{\"Platform_Version\":\"9.1\",\"isTablet\":true}",
        "3a06e2c80ebbeff5b7345ca50895ab7f\t{\"Browser_Bits\":\"32\",\"Platform\":\"HP-UX\"}",
        "3a50275bd5b564bd493cca891bb36dcf\t{\"Browser_Bits\":\"32\",\"Platform\":\"Linux\"}",
        "3a2c34581db0c3dc4d837e31d72298ef\t{\"Platform\":\"WinVista\",\"Platform_Version\":\"6.0\",\"Win32\":true}",
        "3ae6f242d35a454a18e4d755ae022c91\t{\"Platform\":\"WinXP\",\"Platform_Version\":\"5.2\"}",
        "3a8cf8e55e00da1aae4332a7f3682c3c\t{\"Browser_Bits\":\"32\",\"Platform\":\"FreeBSD\"}",
        "3ad3e89cb485328f68981957d1218e3a\t[]",
        "3a3087e61fee49f469e3284458959cb2\t{\"Browser_Bits\":\"32\",\"Platform\":\"HP-UX\"}",
        "3afb92db38f570bce90fbba1a96e4d02\t{\"Browser_Bits\":\"32\",\"Platform\":\"WinVista\",\"Platform_Version\":\"6.0\",\"Win32\":true}",
        "3a4f10ac07a7e8b1e94a9e07563bd860\t{\"Browser_Bits\":\"32\",\"Platform\":\"Win7\",\"Platform_Version\":\"6.1\",\"Win32\":true}",
        "3a25c22647802e11999a4f04b0383f4d\t{\"Browser_Bits\":\"32\",\"Platform\":\"WinXP\",\"Platform_Version\":\"5.2\",\"Win32\":true}",
        "3aca09835e4405d1c705dd13535dc0b8\t{\"Browser_Bits\":\"32\",\"Platform\":\"Win8.1\",\"Platform_Version\":\"6.3\",\"Win32\":true}",
        "3a74638d77be724ab1aea8c417ee58fb\t{\"Browser_Bits\":\"32\",\"Platform\":\"MacOSX\",\"Platform_Version\":\"10\"}",
        "3a4e6ddecd022aaca6151f2d0265f127\t{\"Browser_Bits\":\"32\",\"Platform\":\"Win32\",\"Win32\":true}",
        "3a3bac81930cc60eef04552c29c5a44b\t{\"Browser_Bits\":\"32\",\"Platform\":\"WinXP\",\"Platform_Version\":\"5.2\",\"Win32\":true}",
        "3a7091ad8853cce99b6e8126ee8c053d\t{\"Browser_Bits\":\"32\",\"Platform\":\"Linux\"}",
        "3aeb063b9dd22f0b63d4a3168634aff3\t{\"Browser_Bits\":\"32\",\"Platform\":\"WinXP\",\"Platform_Version\":\"5.2\",\"Win32\":true}",
        "3aaa447f2aa4dbe8940204c0039c8ceb\t{\"Browser_Bits\":\"32\",\"Platform\":\"DragonFly BSD\"}",
        "3afb0640ce6dbfb8cb8b88add3d46a4a\t{\"Browser_Bits\":\"32\",\"Platform\":\"Win8.1\",\"Platform_Version\":\"6.3\",\"Win32\":true}",
        "3adc6c36702e7717ca3d63a709eae306\t{\"Browser_Bits\":\"32\",\"Platform\":\"Win8.1\",\"Platform_Version\":\"6.3\",\"Win32\":true}",
        "3a2fedbd14774dddcd1ddf1cc604b062\t{\"Browser_Bits\":\"32\",\"Platform\":\"OS\\\/2\"}",
        "3a718a99289906c268045400a448ad49\t{\"Browser_Bits\":\"32\",\"Platform\":\"SunOS\"}",
        "3a12c302991b331f6b055ce5e2123d5b\t{\"Browser_Bits\":\"32\",\"Platform\":\"MacOSX\",\"Platform_Version\":\"10.10\"}",
        "3a3fe0ceeea6218f21dd650b43ae7d89\t{\"Browser_Bits\":\"32\",\"Platform\":\"Win7\",\"Platform_Version\":\"6.1\",\"Win32\":true}",
        "3a5eb5c7b7ed9a871fd2a7c99d4a72c6\t{\"Browser_Bits\":\"32\",\"Platform\":\"Win8\",\"Platform_Version\":\"6.2\",\"Win32\":true}",
        "3a401c96d44dd6a5ca37a9519288dda3\t{\"Browser_Bits\":\"32\",\"Platform\":\"Win7\",\"Platform_Version\":\"6.1\",\"Win32\":true}",
        "3ae8e1eb92e8cb83df4c366ae5387fef\t{\"Platform_Version\":\"8.3\",\"isTablet\":true}",
        "3af1c822d0b7ee1dfeb3324686a897eb\t{\"Platform_Version\":\"8.1\"}",
        "3a64ddd703e509c715f3c787b93e9cd6\t{\"Browser_Bits\":\"32\",\"Platform\":\"WinXP\",\"Platform_Version\":\"5.1\",\"Win32\":true}",
        "3a5458e145a8843c8662d8614ddbb712\t{\"Browser_Bits\":\"32\",\"Platform\":\"Win8\",\"Platform_Version\":\"6.2\",\"Win32\":true}",
        "3aeee667767ac174ffc03e0f4d1545d4\t{\"Platform_Version\":\"9.1\"}",
        "3a8146f66d5f3403d2bf55dffc6429c0\t{\"Platform_Version\":\"9.2\"}",
        "3a45cda61febc4099283ad8db9bf5b1d\t{\"Browser_Bits\":\"32\",\"Platform\":\"Android\"}",
        "3a3035311981ea5049316546edb203de\t[]",
        "3a8919a6762427e7858c09abdb6d6cd1\t[]",
        "3a5d766fb20ad376ea9e9341b5e01925\t{\"Browser_Bits\":\"32\",\"Platform\":\"Win7\",\"Platform_Version\":\"6.1\",\"Win32\":true}",
        "3a9a8c7cc908e127f55d867d3523b266\t{\"Browser_Bits\":\"32\",\"Platform\":\"Android\",\"isMobileDevice\":true}",
        "3a724df87ee599ad2becf9f6660f57f5\t{\"Platform_Version\":\"4.4\"}",
        "3af322c5a40127b590ab927385ba4d11\t{\"Browser_Bits\":\"32\",\"Platform\":\"OS\\\/2\"}",
        "3a86d3557519bb62ccd6553bf42dd84a\t{\"Browser_Bits\":\"32\",\"Platform\":\"FreeBSD\"}",
        "3a575b49e1a5bdc53f88cc5605c337e6\t{\"Browser_Bits\":\"32\",\"Platform\":\"Linux\"}",
        "3a2d07ba9ef276ce20232120f17defc6\t{\"Browser_Bits\":\"32\",\"Platform\":\"Win32\",\"Win32\":true}",
        "3a231e9bdd423e17f3e92fe378b3b59a\t{\"Browser_Bits\":\"32\",\"Platform\":\"WinVista\",\"Platform_Version\":\"6.0\",\"Win32\":true}",
        "3a35e47e4c7a188f76734ca3b2c11dc9\t{\"Browser_Bits\":\"32\",\"Platform\":\"MacOSX\",\"Platform_Version\":\"10.9\"}",
        "3a11910f92b0ac1489b8e3e2da127009\t{\"Browser_Bits\":\"32\",\"Platform\":\"NetBSD\"}",
        "3aff74bef06bb9fa408d36d9db394513\t{\"Browser_Bits\":\"32\",\"Platform\":\"NetBSD\"}",
        "3a652c536171f9e97c4d6c5426634600\t{\"Browser_Bits\":\"32\",\"Platform\":\"MacOSX\",\"Platform_Version\":\"10.10\"}",
        "3a55e2735ed314783427d2eeb58a38b3\t{\"Browser_Bits\":\"32\",\"Platform\":\"Win8\",\"Platform_Version\":\"6.2\",\"Win32\":true}",
        "3a3c552c6b801139a9b75def96b5734a\t{\"Browser_Bits\":\"32\",\"Platform\":\"MacOSX\",\"Platform_Version\":\"10\"}",
        "3a73d1b4b169d6d545fbd832b7a68000\t{\"Browser_Bits\":\"32\",\"Platform\":\"Win8\",\"Platform_Version\":\"6.2\",\"Win32\":true}",
        "3ad85a6f58470740d9bdc24dedbc59fc\t{\"Browser_Bits\":\"32\",\"Platform\":\"FreeBSD\"}",
        "3ad151f7e74e7e675fa0063e80facc0e\t{\"Browser_Bits\":\"32\",\"Platform\":\"WinXP\",\"Platform_Version\":\"5.2\",\"Win32\":true}",
        "3a4ea19c7a58e49f1140d93001dec5bf\t{\"Browser_Bits\":\"32\",\"Platform\":\"WinVista\",\"Platform_Version\":\"6.0\",\"Win32\":true}",
        "3a5cfc42be7a51d6274e4baf7c5d2c01\t{\"Browser_Bits\":\"32\",\"Platform\":\"Win32\",\"Win32\":true}",
        "3a7bd4e61601d4103f33f0f0d3541ee2\t{\"Browser_Bits\":\"32\",\"Platform\":\"OS\\\/2\"}",
        "3aee1371360953daba86f54ae56e24dc\t{\"Browser_Bits\":\"32\",\"Platform\":\"HP-UX\"}",
        "3a75102cbcabaed3360e0b1ff29feca8\t{\"Browser_Bits\":\"32\",\"Platform\":\"WinXP\",\"Platform_Version\":\"5.2\",\"Win32\":true}",
        "3a6fc352904c9f22c6c8fc53b08bbf51\t[]",
        "3a7914459f5517df260f45e04da49a19\t[]",
        "3adb755f9065924c8d483eebe07e2bc3\t{\"Platform\":\"Win8\",\"Platform_Version\":\"6.2\",\"Win32\":true}",
        "3a4a571e7d7c3d1e4ec92b5ac37b32e1\t[]",
        "3a53e827db4bbea6770cdf0fc9bcd9bc\t{\"Browser_Bits\":\"32\",\"Platform\":\"MacOSX\",\"Platform_Version\":\"10.10\"}",
        "3a5811cd511846738d2bfa9985e97981\t{\"Browser_Bits\":\"32\",\"Platform\":\"MacOSX\",\"Platform_Version\":\"10\"}",
        "3a9dff39fda6dc1b5c56318be0261da4\t[]",
        "3ae00a24bd5ab6430af16a7128a0f678\t{\"Browser_Bits\":\"32\",\"Platform\":\"iOS\",\"isMobileDevice\":true}",
        "3a65c1c73fde535fa533abf9472e26e3\t{\"Platform_Version\":\"8.4\"}",
        "3a67b96db83f3f11154f16bf9b1ce003\t{\"Browser_Bits\":\"32\",\"Platform\":\"HP-UX\"}",
        "3adacc707d568e8780f9fc9a1eb26a0e\t{\"Browser_Bits\":\"32\",\"Platform\":\"OpenVMS\"}",
        "3afb3ef1fbb2df1a25f6d495a8afba8c\t[]",
        "3a70ecd1d8606a1f4a9c64bb28ce9889\t[]"
    ]
}