{
    "content": [
        "7117c7fb44ef75cc158499fcc49eb565\t11\tjig browser",
        "7132ece0785c5ba591370711a7ccdc3b\t23\tsie\\-s[\\d][\\d]\\\/.* up\\.browser\\\/[\\d]\\.[\\d].*",
        "7142447ea05862f7989044407b0610ad\t10\tgurujibot\\\/.*",
        "71732d92098305766826db8483d1d8eb\t6\tkindle",
        "71860c77c6745379b0d44304d66b6a13\t18\tpage analyzer v[\\d]\\.[\\d].*",
        "71860c77c6745379b0d44304d66b6a13\t13\tpage analyzer.*",
        "71b0c0aad031d1d579f6ad1c8c582b28\t13\tcherrypicker.*\\\/.*",
        "71b6ab2cd9dd488fed9f4c02e9aee229\t6\tnetbox",
        "71c62b74c5bf5afbbd5dd1656ee89a31\t13\tavant\\\/ie [\\d][\\d]\\.[\\d]",
        "71c62b74c5bf5afbbd5dd1656ee89a31\t12\tavant\\\/ie [\\d]\\.[\\d]",
        "71d2291399579c62896689c16a183dd0\t11\tnsplayer\\\/[\\d]\\..*",
        "71e313451fa9eae455f2c0881269d49c\t11\tshowxml\\\/[\\d]\\.[\\d].*"
    ]
}