{
    "content": [
        "0b01d06a0a60bdd5a9c67e208af0c357\t23\tpt\\-gi[\\d][\\d][\\d] .* midp\\\/midp\\-[\\d]\\.[\\d].*",
        "0b35cc6f8392fc5aedbd188779deabcb\t9\taacrawler.*",
        "0b39e01e5c9b1971eebe4c7af6795af3\t12\tapachebench\\\/.*",
        "0b3f45b266a97d7029dde7c2ba372093\t106\tiphone os\\\/.* salesforce[\\d]\\\/.* mozilla\\\/[\\d]\\.[\\d] \\(.*cpu iphone os [\\d].[\\d].* like mac os x.*\\) applewebkit.* \\(.*khtml.*like.*gecko.*\\) mobile\\\/.*",
        "0b3f45b266a97d7029dde7c2ba372093\t103\tiphone os\\\/.* salesforce[\\d]\\\/.* mozilla\\\/[\\d]\\.[\\d] \\(.*cpu iphone os .* like mac os x.*\\) applewebkit.* \\(.*khtml.*like.*gecko.*\\) mobile\\\/.*",
        "0b3f45b266a97d7029dde7c2ba372093\t16\tiphone simulator",
        "0b40a8ff6d0ea60bd34db582aedba2f4\t7\tw[\\d]m\\\/[\\d]\\.[\\d].*",
        "0b44f01586afa12a6bac77928d42d047\t45\tmitsu\\-m[\\d][\\d][\\d]\\\/\\([\\d][\\d][\\d][\\d]\\.[\\d][\\d]\\.[\\d][\\d]\\)ver_[\\d][\\d]\\.[\\d][\\d]\\.[\\d][\\d]\\\/wap[\\d]\\.[\\d]\\.[\\d] .*",
        "0b57653385448c6326b39fddca9d3301\t11\tlinkchecker",
        "0b66838da809b15546927157c74c721b\t14\tlivelapbot\\\/[\\d]\\.[\\d].*",
        "0b716900b0cb1ff47e3674d99c06e99c\t12\ttheinformant.*",
        "0b8450656b7d07c7688cac7778000524\t13\tnewspaper\\\/[\\d]\\.[\\d].*",
        "0b9a46b605996f5c3155f91b704d535a\t14\tvms_mosaic\\\/[\\d]\\.[\\d].*",
        "0bc7b92b4771f5c38b1e9b566c8c0721\t29\tpic%[\\d][\\d]collage\\\/[\\d]\\.[\\d][\\d].* cfnetwork\\\/.*",
        "0be4f4ff2f8b833aacf8fe2316d3708d\t21\tkddi\\-googlebot\\-mobile",
        "0be716d7c62cfa24642db2db8a1ac84f\t48\tmacappstore\\\/.* \\(.*macintosh; os x [\\d][\\d]\\.[\\d][\\d].*\\) applewebkit.*",
        "0be716d7c62cfa24642db2db8a1ac84f\t47\tmacappstore\\\/.* \\(.*macintosh; os x [\\d][\\d]\\.[\\d].*\\) applewebkit.*",
        "0be716d7c62cfa24642db2db8a1ac84f\t43\tmacappstore\\\/.* \\(.*macintosh; os x .*\\) applewebkit.*"
    ]
}