{
    "content": [
        "508b110ee8691c08eca72fa6b170abc0\t[]",
        "50e2c27a2ce70a32d9789901f8349a56\t[]",
        "5075e48fd8f85a232f196c52d9df4381\t[]",
        "5093c70de29a6af363daaa4fe8d6e62a\t[]",
        "50cadf0475050e1f13e128a4c45d6396\t[]",
        "5050752eea37fe2ea6d6d0d97faea777\t[]",
        "509e76e4172e2535fee617d31dc72bf4\t[]",
        "508a6a247d1a340b6c4f98cb88d67795\t{\"Browser_Bits\":\"32\",\"Platform\":\"iOS\",\"Platform_Version\":\"8.1\",\"isMobileDevice\":true}",
        "50c1386f8d30061b75ae098052f72dbf\t{\"Browser_Bits\":\"32\",\"Platform\":\"iOS\",\"Platform_Version\":\"8.0\",\"isMobileDevice\":true,\"isTablet\":true}",
        "50c5e2591486e0910911e08f1e4a4747\t{\"Browser_Bits\":\"32\",\"Platform\":\"Win10\",\"Platform_Version\":\"6.4\",\"Win32\":true}",
        "5089cf0dd7599d3f83403832d486798f\t{\"Platform_Version\":\"10.9\"}",
        "50c9d4b226b725559b5be497c19d4962\t[]",
        "500299600c91f8f362d39cbbe848473d\t[]",
        "5023583f15b537ce7698006cd695ffc3\t[]",
        "501143b1ad320590039d5031d699f793\t[]",
        "506d89b59b2f669eebf605e8ee2ce964\t[]",
        "50c47393345bfdd922600f5fa6bf0581\t[]",
        "5051e43f457a2f31da5d5f8129b792ad\t[]",
        "50341858f09f5e6a83a76124fc3e555b\t[]",
        "500a85df2e938cc672322e5338a5dace\t{\"Browser_Bits\":\"32\",\"Platform\":\"Android\",\"isMobileDevice\":true}",
        "508f322bc0aa8774b377064e271fb2e8\t{\"Platform\":\"iOS\",\"Platform_Version\":\"8.1\",\"Win32\":false,\"isMobileDevice\":true,\"isTablet\":true}",
        "50797fe134e325a7124142208f4d53cb\t{\"Platform\":\"WinXP\",\"Platform_Version\":\"5.1\"}",
        "5079761990c02a58efcfdf83730ff440\t{\"Platform\":\"WinXP\",\"Platform_Version\":\"5.1\"}",
        "508037f96ae3ffbdf734c0f1e886e89a\t{\"Platform\":\"iOS\",\"Platform_Version\":\"10.0\",\"Win32\":false,\"isMobileDevice\":true,\"isTablet\":true}",
        "506c145af95495044b86f2670968f2d0\t{\"Platform\":\"MacOSX\",\"Platform_Version\":\"10\",\"Win32\":false}",
        "50b2b60ee08081f25b3d2c361bad444d\t{\"Platform\":\"iOS\",\"Platform_Version\":\"10.1\",\"Win32\":false,\"isMobileDevice\":true,\"isTablet\":true}",
        "50deb1681412a513938c468deb5585ad\t{\"Platform\":\"iOS\",\"Platform_Version\":\"8.2\",\"Win32\":false,\"isMobileDevice\":true,\"isTablet\":true}",
        "504756cf75738aa6eec1ba10b9281212\t{\"Platform\":\"iOS\",\"Platform_Version\":\"8.0\",\"Win32\":false,\"isMobileDevice\":true,\"isTablet\":true}",
        "50f0487d221635950b4a179303a79186\t{\"Platform_Version\":\"8.1\",\"isTablet\":true}",
        "5034c6ca1c30df8319acecba0e9a18e5\t{\"Browser_Bits\":\"32\",\"Platform\":\"iOS\",\"isMobileDevice\":true}",
        "5018a7a366980d72eda0bc8e90d808fa\t{\"Platform_Version\":\"8.3\",\"isTablet\":true}",
        "50d3e90d5951b91d778965d39ab20126\t{\"Browser_Bits\":\"32\",\"Platform\":\"Android\",\"Platform_Version\":\"5.0\"}",
        "5019c8b94d1b2f558aaa821209152e53\t{\"Platform_Version\":\"4.4\",\"isTablet\":true}",
        "50843fa0b3afdebcdd851cb3f86a4be7\t{\"Platform_Version\":\"6.0\"}",
        "5086cfe8584088b31bcb0732dfb4fb99\t{\"Platform_Version\":\"4.2\"}",
        "50711793744f6d646b7db4d49cc41f42\t{\"Platform\":\"WinPhone8\",\"Platform_Version\":\"8.0\"}",
        "50f1b79dce632dc56e8a70c16ccbf40c\t{\"Platform\":\"iOS\",\"Platform_Version\":\"8.3\"}",
        "508359912e225c66470e283bf99b2318\t{\"Browser_Bits\":\"32\",\"Platform\":\"Android\",\"isMobileDevice\":true}",
        "50ee340148b237190fb98b59153a976e\t[]",
        "50c6551b0da550bd4b2853df5335be38\t[]",
        "50f0f11bd73e4115c83ec306cb6b4f81\t{\"Browser_Bits\":\"32\",\"Platform\":\"WinVista\",\"Platform_Version\":\"6.0\",\"Win32\":true}",
        "50bd1dcfa2be3c5cc0368b9e2f69b242\t{\"Platform_Version\":\"4.2\"}",
        "50b7aa7ce4e64828136c578334f2a4ba\t{\"Platform\":\"SymbianOS\"}",
        "50dafccf972ed23b6f46995c5894c1bc\t{\"Browser_Bits\":\"32\",\"Platform\":\"Android\"}",
        "50d6f34601ccd187f4d4c6e1abe997a6\t{\"Browser_Bits\":\"32\",\"Platform\":\"Android\"}",
        "507070fb77f036bdb6489769596d1847\t{\"Browser_Bits\":\"32\",\"Platform\":\"SymbianOS\"}",
        "50d8b027de6b831d0cc9be3129dd87e9\t{\"Browser_Bits\":\"32\",\"Platform\":\"Android\"}",
        "50450645d436c71842259e481a952e1c\t{\"Browser_Bits\":\"32\",\"Platform\":\"WinXP\",\"Platform_Version\":\"5.2\",\"Win32\":true}",
        "50a6a7f794c1f9803115b5a19f60c417\t{\"Browser_Bits\":\"32\",\"Platform\":\"WinVista\",\"Platform_Version\":\"6.0\",\"Win32\":true}",
        "506263f5713651086c16581c85fb40dd\t{\"Browser_Bits\":\"32\",\"Platform\":\"Linux\"}",
        "50567a819cdf74d7b69bfc4712aa939c\t[]",
        "50034bcee330c6a690dbcb247db1dd73\t{\"Platform\":\"WinXP\",\"Platform_Version\":\"5.1\",\"Win32\":true}",
        "506352c98714cac463f5a643ba9f5cf9\t{\"Platform\":\"Win10\",\"Platform_Version\":\"10.0\",\"Win32\":true}",
        "50ff1c4f5d3914a31256b7c36ac0357b\t{\"Platform\":\"Win8\",\"Platform_Version\":\"6.2\",\"Win32\":true}",
        "50ebf1093e91531a7cc70a8bf452425b\t{\"Platform_Version\":\"9.0\",\"isTablet\":true}",
        "50e815555da281b7b0de34694709a6e9\t{\"Platform\":\"Win8\",\"Platform_Version\":\"6.2\",\"Win32\":true}",
        "50470134f22a704cd581030d750b2f18\t{\"Platform\":\"WinXP\",\"Platform_Version\":\"5.2\",\"Win32\":true}",
        "50a143f59b64fdfdb37838a6e539a7ea\t{\"Platform\":\"WinXP\",\"Platform_Version\":\"5.2\",\"Win32\":true}",
        "5002993c6edfba25e6b0e9f6e385a478\t{\"Platform\":\"WinXP\",\"Platform_Version\":\"5.1\",\"Win32\":true}",
        "50308cee3dbd37e646da6dcf95fc17d6\t{\"Platform_Version\":\"4.4\",\"isTablet\":true}",
        "50ff4c433d9efddd22dc2ca4223d343d\t{\"Platform_Version\":\"4.4\",\"isTablet\":true}",
        "50d6ab0e25b11d9167bb8e3298343300\t{\"Platform_Version\":\"4.3\",\"isTablet\":true}",
        "508f88271e3c3e98cfbfe26cba9a70ba\t{\"Platform_Version\":\"4.3\",\"isTablet\":true}",
        "50c7b007b2fc36848f4c47945e8557ac\t{\"Platform_Version\":\"4.4\",\"isTablet\":true}",
        "5056939a7b5b2becd3d67973892e6bb7\t{\"Platform_Version\":\"4.2\",\"isTablet\":true}",
        "50793ff06e99d120342b2ecf805bb9d5\t{\"Platform_Version\":\"4.2\",\"isTablet\":true}",
        "50c98001c972046c8a2e1b0891d84044\t{\"Platform_Version\":\"4.3\"}",
        "501485348dc437f05f7533ae12d6a889\t{\"Platform_Version\":\"4.3\",\"isTablet\":true}",
        "50a9c1b43c9d83effcc940a053653e44\t{\"Platform_Version\":\"4.2\",\"isTablet\":true}",
        "5014407aeacbf493058dfa2351a860f8\t{\"Platform\":\"Win8\",\"Platform_Version\":\"6.2\"}",
        "503bc1ae16afc5c6af80c8e1eb30e418\t{\"Platform_Version\":\"4.4\",\"isTablet\":true}",
        "5037de0c10ec8eb3d969ed32058b825b\t{\"Platform_Version\":\"6.0\"}",
        "50d0e0e07cd2e0678d1a097dbf178202\t{\"Platform_Version\":\"4.2\",\"isTablet\":true}",
        "507d5669afbc476b15cc680e4d5eaf69\t{\"Platform_Version\":\"4.4\",\"isTablet\":true}",
        "5007f32eed0cafc250d892327db31a74\t[]",
        "50f7603478ac5ecedf3c1def5231b3de\t{\"Platform_Version\":\"4.3\",\"isTablet\":true}",
        "5014f3ae800fb8536bc23002c7bc5545\t{\"Platform_Version\":\"4.2\",\"isTablet\":true}",
        "50b0b5446f76e36d75914872602ad48b\t{\"Platform_Version\":\"4.2\",\"isTablet\":true}",
        "500480844789e9e72ab5d0083343f5e0\t{\"Platform_Version\":\"5.1\"}",
        "50aab538a2d1ab12cfc8047e76bca375\t{\"Browser_Bits\":\"32\",\"Platform\":\"Android\",\"Platform_Version\":\"6.1\"}",
        "50e41f5dfc41254298d458a7c1534af3\t{\"Platform_Version\":\"8.2\"}",
        "5015f3eb34883e8d71e644591c42fd34\t{\"Platform_Version\":\"8.0\",\"isTablet\":true}",
        "505dc35deda8a805c752674552fd598b\t{\"Platform_Version\":\"9.2\"}",
        "50bc21bbe781b01261eeaa849ca4effc\t{\"Platform_Version\":\"8.4\"}",
        "5047800847023862c798e7144446be0e\t{\"Platform_Version\":\"5.0\",\"isTablet\":true}",
        "50501b441502be168c24ed2ab433a52c\t{\"Platform_Version\":\"5.0\"}",
        "50a636272bb702eff8aa58146e90c193\t{\"Browser_Bits\":\"32\",\"Platform\":\"Win8\",\"Platform_Version\":\"6.2\",\"Win32\":true}",
        "505da67e13e21b52d4418c8906fb09d4\t{\"Browser_Bits\":\"32\",\"Platform\":\"Win7\",\"Platform_Version\":\"6.1\",\"Win32\":true}",
        "50f6d1f86ae727a9806125d9c1245bfa\t{\"Platform_Version\":\"4.4\",\"isTablet\":true}",
        "50448730bd851c5e5c9b9ac441485d78\t{\"Platform_Version\":\"4.3\",\"isTablet\":true}",
        "502f43d5e990fb6928a10c818dd25460\t{\"Platform_Version\":\"8.3\"}",
        "50eb23e5a45cb5a69283616f1a95e3b6\t{\"Platform_Version\":\"4.4\",\"isTablet\":true}",
        "50b9a89430464c404f1fcba111b692b0\t{\"Browser_Bits\":\"32\",\"Platform\":\"Win7\",\"Platform_Version\":\"6.1\",\"Win32\":true}",
        "50ebb2d7989f24dfc4ffdfc9ea00fc7a\t{\"Platform_Version\":\"8.4\"}",
        "50531e9ea867aea1aa685063dd2567d3\t{\"Browser_Bits\":\"32\",\"Platform\":\"Win10\",\"Platform_Version\":\"6.4\",\"Win32\":true}",
        "50cd3bf66cdd3a3f2ada579cd738ba18\t[]",
        "5047413fcf8a89c756696574f92289a6\t{\"Platform_Version\":\"4.3\",\"isTablet\":true}",
        "509f68696932371bdeac74224fc9ec8a\t{\"Platform_Version\":\"4.2\",\"isTablet\":true}",
        "50fb8603f880437964891a96c0b397b7\t{\"Platform_Version\":\"4.4\",\"isTablet\":true}",
        "5087430535887f949282f5bddf601f65\t{\"Platform_Version\":\"4.2\",\"isTablet\":true}",
        "504fb630f75f8565a2145eb9eea97436\t{\"Browser_Bits\":\"32\",\"Platform\":\"Android\",\"isMobileDevice\":true}",
        "50f4b5d0ef73d70dc74b260c7cad91b5\t{\"isMobileDevice\":true}",
        "50c46e602ba6c8b768e1fd2c8431d76d\t{\"Browser_Bits\":\"32\",\"Platform\":\"Win8\",\"Platform_Version\":\"6.2\",\"Win32\":true}",
        "50112b0b16b2c89a257ab0c3660023e0\t{\"Browser_Bits\":\"32\",\"Platform\":\"WinXP\",\"Platform_Version\":\"5.2\",\"Win32\":true}",
        "502be7134c0431cf36cb5606df10c775\t{\"Browser_Bits\":\"32\",\"Platform\":\"Maemo\"}",
        "50161ea6614e614f8496a3bff4f48508\t{\"Browser_Bits\":\"32\",\"Platform\":\"WinXP\",\"Platform_Version\":\"5.1\",\"Win32\":true}",
        "505f1deb1fa970871db0f7131824629d\t{\"Browser_Bits\":\"32\",\"Platform\":\"WinXP\",\"Platform_Version\":\"5.1\",\"Win32\":true}",
        "50fd8c792209be4e46dfc1c56e9a0e3a\t{\"Browser_Bits\":\"32\",\"Platform\":\"WinXP\",\"Platform_Version\":\"5.1\",\"Win32\":true}",
        "50f98593d0bab8c14dff064f5df91134\t{\"Browser_Bits\":\"32\",\"Platform\":\"WinVista\",\"Platform_Version\":\"6.0\",\"Win32\":true}",
        "5004962580b2643d96d6cd79a9b63ae8\t{\"Browser_Bits\":\"32\",\"Platform\":\"WinXP\",\"Platform_Version\":\"5.2\",\"Win32\":true}",
        "50390549611df2faa34da93f1e43d1d5\t{\"Browser_Bits\":\"32\",\"Platform\":\"Win8\",\"Platform_Version\":\"6.2\",\"Win32\":true}",
        "50bbfe6fe90eb213060806fefd632ea4\t{\"Browser_Bits\":\"32\",\"Platform\":\"Win8.1\",\"Platform_Version\":\"6.3\",\"Win32\":true}",
        "50574b32f99e95703381d2c0e05d8518\t{\"Browser_Bits\":\"32\",\"Platform\":\"Win8.1\",\"Platform_Version\":\"6.3\",\"Win32\":true}",
        "5077d06b0688fed3b1069cd8c365700d\t{\"Browser_Bits\":\"32\",\"Platform\":\"MacOSX\",\"Platform_Version\":\"10.9\"}",
        "50b42447f33d9f3abd2a2ac59b31654a\t{\"Browser_Bits\":\"32\",\"Platform\":\"WinXP\",\"Platform_Version\":\"5.1\",\"Win32\":true}",
        "50eb3a1a79e5de2099c34af93aad78b6\t{\"Browser_Bits\":\"32\",\"Platform\":\"Linux\"}",
        "505f668ceac90dca4d1d3b1a706bbdd8\t{\"Browser_Bits\":\"32\",\"Platform\":\"WinXP\",\"Platform_Version\":\"5.1\",\"Win32\":true}",
        "50c940ec92859e9737f446d726c20638\t{\"Browser_Bits\":\"32\",\"Platform\":\"WinXP\",\"Platform_Version\":\"5.2\",\"Win32\":true}",
        "504e246100955952474c330cbb7d9ade\t{\"Browser_Bits\":\"32\",\"Platform\":\"Linux\"}",
        "509cd99c9cebb7a05fb1544b6686e598\t{\"Browser_Bits\":\"32\",\"Platform\":\"WinXP\",\"Platform_Version\":\"5.2\",\"Win32\":true}",
        "507a9eed80df8ed8b0072015aebf022a\t[]",
        "505f70d9526c77ce26dbf35bd12c0627\t{\"Browser_Bits\":\"32\",\"Platform\":\"WinVista\",\"Platform_Version\":\"6.0\",\"Win32\":true}",
        "501e64dc4818a84bce231e966c976edd\t{\"Browser_Bits\":\"32\",\"Platform\":\"Win8\",\"Platform_Version\":\"6.2\",\"Win32\":true}",
        "5051210d3208ebe2ab5b2ce2fbeb7526\t{\"Browser_Bits\":\"32\",\"Platform\":\"WinXP\",\"Platform_Version\":\"5.2\",\"Win32\":true}",
        "50698c3babf305cadd0e88de5aaa5693\t{\"Browser_Bits\":\"32\",\"Platform\":\"Linux\"}",
        "506f9b4849875c3d97bdf31b889ca8b0\t{\"Browser_Bits\":\"32\",\"Platform\":\"WinXP\",\"Platform_Version\":\"5.1\",\"Win32\":true}",
        "50b95578da18f0a905e17051274c082a\t{\"Browser_Bits\":\"32\",\"Platform\":\"WinXP\",\"Platform_Version\":\"5.2\",\"Win32\":true}",
        "50ef20feee374adb23f7ac9aad508c7f\t{\"Browser_Bits\":\"32\",\"Platform\":\"Win7\",\"Platform_Version\":\"6.1\",\"Win32\":true}",
        "50576339454a7c4df830ce7a4a9a96cb\t{\"Browser_Bits\":\"32\",\"Platform\":\"MacOSX\",\"Platform_Version\":\"10.10\"}",
        "50de600de37b10278c9214793ed1aecc\t{\"Platform_Version\":\"9.2\",\"isTablet\":true}",
        "50d8f591a11925c69db78f89071a4e54\t{\"Browser_Bits\":\"32\",\"Platform\":\"Android\",\"Platform_Version\":\"4.4\",\"isTablet\":true}",
        "5004554b0417dd7f829cef64e294043a\t{\"Browser_Bits\":\"32\",\"Platform\":\"iOS\",\"Platform_Version\":\"8.4\",\"isTablet\":true}",
        "500376e54b27d8a2075c9aa6586be10c\t{\"Browser_Bits\":\"32\",\"Platform\":\"Android\",\"Platform_Version\":\"5.1\"}",
        "50189f1cd30d9ec5c420b2a6a0b8ba80\t{\"Browser_Bits\":\"32\",\"Platform\":\"Win7\",\"Platform_Version\":\"6.1\",\"Win32\":true}",
        "50d9df25623b2575c4b558a11b0c0a06\t{\"Browser_Bits\":\"32\",\"Platform\":\"MacOSX\",\"Platform_Version\":\"10\"}",
        "5065854e5c3f1e702a89403ce46716db\t{\"Browser_Bits\":\"32\",\"Platform\":\"MacOSX\",\"Platform_Version\":\"10.10\"}",
        "50dd6b1d4f37c6ecf2db5b7a91689ec6\t{\"Platform_Version\":\"4.4\",\"isTablet\":true}",
        "50ac681246ade9fd95b41e6d09a16324\t{\"Platform_Version\":\"4.2\",\"isTablet\":true}",
        "50e13e946565bc608dd7726b5d9c19ac\t{\"Platform_Version\":\"4.2\"}",
        "50271af8a1588f2d33b9ef415b9ffe4d\t{\"Platform_Version\":\"4.4\",\"isTablet\":true}",
        "50aebad8c56ba683f37b7fd6d4deeaf2\t{\"isTablet\":true}",
        "5067d8bf6a8151ab8cf2deadff128821\t{\"isTablet\":true}",
        "50d02de143f3928b7ccd363c5f6ce1f1\t{\"Browser_Bits\":\"32\",\"Platform\":\"Win10\",\"Platform_Version\":\"6.4\",\"Win32\":true}",
        "506cbea5c3e0565ad7fd579ee97c6121\t{\"Platform_Version\":\"4.2\",\"isTablet\":true}",
        "507c109c5e31749172c62ba81dd4793a\t{\"Platform_Version\":\"4.2\",\"isTablet\":true}",
        "50d81210c65263e9d9b9fcef829fb2e6\t{\"Platform_Version\":\"4.2\",\"isTablet\":true}",
        "505993b99d80d482ba6a4045220799b3\t{\"Platform_Version\":\"4.2\",\"isTablet\":true}",
        "50718ef7e710131cfd5847530a77670b\t{\"Browser_Bits\":\"32\",\"Platform\":\"ChromeOS\"}",
        "508d2cad417844e5a85786de7b1cb4d0\t{\"Platform_Version\":\"4.3\",\"isTablet\":true}",
        "508507a29a390b954adab89b2894b68e\t{\"Platform_Version\":\"4.3\",\"isTablet\":true}",
        "504398651d7799008a4d1c3f78a8960a\t{\"Platform_Version\":\"4.2\",\"isTablet\":true}",
        "50301bf0492da220e31d46ef9c7b59ae\t{\"Platform_Version\":\"4.2\",\"isTablet\":true}",
        "502ca6b827907dbb2a8dabd6bf8c0be8\t{\"Platform_Version\":\"4.4\",\"isTablet\":true}",
        "500b307b76afcfefcd12233ad0c79b03\t{\"Platform_Version\":\"4.3\",\"isTablet\":true}",
        "5089fc78af36d16b797e4b1799b81b97\t{\"Platform_Version\":\"4.3\",\"isTablet\":true}",
        "50f35af01e21cdde70ada85b1ed7b2b7\t{\"Platform_Version\":\"4.3\",\"isTablet\":true}",
        "5063b656499cb7de2fdf876d10fac4fd\t{\"Platform_Version\":\"4.3\",\"isTablet\":true}",
        "50b1932a9f84d27813a108318f822ab5\t{\"Platform_Version\":\"4.2\",\"isTablet\":true}",
        "50ff15aaad9983a693ccf6f4247a5868\t{\"Platform_Version\":\"4.2\",\"isMobileDevice\":false}",
        "502e772c8b2994630825bf66b9d8681d\t{\"Platform_Version\":\"4.2\",\"isTablet\":true}",
        "501e57964a89f8b74fb15b88baa22855\t{\"Platform_Version\":\"9.3\"}",
        "504c845e02a84264e0382267128af6d6\t{\"Platform_Version\":\"4.4\",\"isTablet\":true}",
        "50c5f8fb59103c509a9ec9fe76c02ce3\t{\"Platform_Version\":\"4.4\",\"isTablet\":true}",
        "502f88cacdabb398c04afd6ee570c1d5\t{\"Platform_Version\":\"4.2\",\"isTablet\":true}",
        "50e4a7a1a37826b48575868c5f621718\t{\"Platform_Version\":\"4.3\",\"isTablet\":true}",
        "50f74b813e9a3485c2f66e4142a14c99\t{\"Platform_Version\":\"4.3\",\"isTablet\":true}",
        "5079d9bc45af17c8ec071419b157ab98\t{\"Platform_Version\":\"4.4\",\"isTablet\":true}",
        "50c18def7345af9106b63f9d8ffed47b\t{\"Platform_Version\":\"4.3\"}",
        "50c7789b8dd06602c77d4c78be4f224b\t{\"Platform_Version\":\"4.4\",\"isTablet\":true}",
        "50e2629b93acce9359751b9adaa1264d\t{\"Platform_Version\":\"4.2\",\"isTablet\":true}",
        "506067ba786593a5e42d96b7ec3768e8\t{\"Platform_Version\":\"4.3\",\"isTablet\":true}",
        "50340ac240da01217dff5002d56a6edf\t{\"Platform_Version\":\"4.4\",\"isTablet\":true}",
        "50de9e8e5147bd20f961ab29451b3f0e\t{\"Platform_Version\":\"4.2\",\"isTablet\":true}",
        "502dded43312df608e6ca6744154ab50\t{\"Platform_Version\":\"4.4\",\"isTablet\":true}",
        "5098c285fe5e875fcb08d4b3869cc8bf\t{\"Browser_Bits\":\"32\",\"Platform\":\"WinVista\",\"Platform_Version\":\"6.0\",\"Win32\":true}",
        "50c0a3db2eff83bf59f291fc9639b641\t{\"Platform_Version\":\"4.2\",\"isTablet\":true}",
        "50ff7477df0dd8d3d1520f98a89ed4b2\t{\"Platform_Version\":\"7.1\",\"isTablet\":true}",
        "50bf466cdb3b7dd3929873a28b34e688\t[]",
        "505bc32d6cdf78f3b361750b0e6b1a89\t{\"Platform_Version\":\"10.3\"}",
        "50c20f254f82502e0ea51b9f8ef1d245\t{\"Platform_Version\":\"4.2\",\"isTablet\":true}",
        "5017e5c591f561a50ff582d3b122358c\t{\"Platform_Version\":\"4.2\",\"isTablet\":true}",
        "50df57d6c0853d21175105fcd0d9c514\t{\"Platform_Version\":\"4.2\",\"isTablet\":true}",
        "507b1a8dc217f0e51c0050dc7ef5d0d7\t{\"Platform_Version\":\"4.2\",\"isTablet\":true}",
        "50d684e91077da1d13f4b6225a65844e\t{\"Browser_Bits\":\"32\",\"Platform\":\"Win8.1\",\"Platform_Version\":\"6.3\",\"Win32\":true}",
        "5005652f70b90c278abf928de17cdc3a\t{\"Browser_Bits\":\"32\",\"Platform\":\"Win10\",\"Platform_Version\":\"6.4\",\"Win32\":true}",
        "50f14521cdbdec4b2cff63956452895d\t{\"Platform_Version\":\"7.0\",\"isTablet\":true}",
        "50b5b55a5aa1c174b94d0e8cdba46a93\t{\"Platform_Version\":\"4.4\",\"isTablet\":true}",
        "5079c75aa203bae5e8a560ac7e58e1dc\t{\"Platform_Version\":\"4.2\",\"isTablet\":true}",
        "5095baceb476774081934c5a73730457\t{\"Platform_Version\":\"4.4\",\"isTablet\":true}",
        "503974f0acb5bcf869cd92dc512421f2\t{\"Browser_Bits\":\"32\",\"Platform\":\"FreeBSD\"}",
        "50b2c4085b95542458ebc41849222dc9\t{\"Platform_Version\":\"4.2\",\"isTablet\":true}",
        "50f71d87dc4c40b88e34e5ca5d0ec1d6\t{\"Platform_Version\":\"4.2\",\"isTablet\":true}",
        "50f965d6ce3e4874a465171b2ed9a2a0\t{\"Platform_Version\":\"4.2\",\"isMobileDevice\":false}",
        "509808b977f9729eec75dc422fb8b92f\t{\"Platform_Version\":\"4.2\",\"isTablet\":true}",
        "501ce3168ff464cc6c1bd859019d0919\t{\"Platform_Version\":\"7.0\",\"isTablet\":true}",
        "50e4fe9069101db66382846597575266\t{\"Browser_Bits\":\"32\",\"Platform\":\"Win8\",\"Platform_Version\":\"6.2\",\"Win32\":true}",
        "5071b4c2b71543380861e6334cbea7ca\t{\"Platform_Version\":\"4.2\",\"isTablet\":true}",
        "5036d9d4a44d1b79c7a7a8a8e996f8a3\t{\"Browser_Bits\":\"32\",\"Platform\":\"Win7\",\"Platform_Version\":\"6.1\",\"Win32\":true}",
        "50fb59ae7d5db895e7938ee84fa602a4\t[]",
        "5050ab4c4d69b22137adf6efe3d60b4d\t{\"Browser_Bits\":\"32\",\"Platform\":\"ChromeOS\"}",
        "50b3f8325163216e00579f1b8a394bab\t{\"Browser_Bits\":\"32\",\"Platform\":\"Win8\",\"Platform_Version\":\"6.2\",\"Win32\":true}",
        "50cb0ce6a5dc5fb416442d31bfa291d6\t{\"Browser_Bits\":\"32\",\"Platform\":\"Win7\",\"Platform_Version\":\"6.1\",\"Win32\":true}",
        "50027b79d764b3f45d5ed486bd36e5b2\t{\"Browser_Bits\":\"32\",\"Platform\":\"Win7\",\"Platform_Version\":\"6.1\",\"Win32\":true}",
        "504439cda93f24b771fa53f3eacad85f\t{\"Browser_Bits\":\"32\",\"Platform\":\"Win7\",\"Platform_Version\":\"6.1\",\"Win32\":true}",
        "50d770c351831f60daaa367a2b8d5d3d\t{\"Browser_Bits\":\"32\",\"Platform\":\"Win10\",\"Platform_Version\":\"10.0\",\"Win32\":true}",
        "50ea70d75d5f85bf6974873d4aa20030\t{\"Platform_Version\":\"8.3\"}",
        "50659322aa91cabeafec4582ee33b6c5\t{\"Platform_Version\":\"10.1\"}",
        "5060c9ea44a1d1dda93b1f660f5fe956\t{\"Platform_Version\":\"8.1\"}",
        "50f3109c1a1c7179bf9a90b5c1aab5b7\t{\"Platform_Version\":\"8.4\",\"isTablet\":true}",
        "509df1fb2ebead1f0713a0fd282ca4f3\t{\"Platform_Version\":\"9.3\",\"isTablet\":true}",
        "5042f0ddb98759a28c7da80673e4309d\t{\"Platform_Version\":\"9.3\"}",
        "502b779be7dc2709cd3285f5b6350a39\t{\"Platform_Version\":\"9.2\"}",
        "504c1a250ccc534e0b7247032265bd73\t{\"Platform_Version\":\"8.0\"}",
        "5057d9ee7e5b4f9bf41aa10a0ab93937\t{\"Browser_Bits\":\"32\",\"Platform\":\"ChromeOS\"}",
        "502ea824a018b34e09df931d94e16154\t[]",
        "50b703e5a467d7f5b8494a2d7e22af02\t{\"Platform_Version\":\"4.3\",\"isTablet\":true}",
        "50e5ca6a91f9a3f221183a2251e1c3a0\t{\"Platform_Version\":\"10.1\"}",
        "5049673cac78ea20f09a66ad4b6d82cb\t[]",
        "508cba9b63e8c7074dacb42a2bbf562a\t[]",
        "50cbc6361da8724008d3aef913f01002\t{\"Browser_Bits\":\"32\",\"Platform\":\"Darwin\"}",
        "50c418b157adea1fbb6fa80342c19a2b\t{\"Browser_Bits\":\"32\",\"Platform\":\"Darwin\"}",
        "5044143bf1516c04b3a5cca266cdde06\t{\"Browser_Bits\":\"32\",\"Platform\":\"iOS\",\"Platform_Version\":\"9.1\",\"isTablet\":true}",
        "504f74abe33af391603f0a17f30090f1\t{\"Browser_Bits\":\"32\",\"Platform\":\"iOS\",\"Platform_Version\":\"8.4\"}",
        "50a463bed663f973d13c4b7ab15fbf32\t{\"Browser_Bits\":\"32\",\"Platform\":\"iOS\",\"Platform_Version\":\"7.0\"}",
        "507ebad27a6882fb1b58a2f28746469f\t{\"Browser_Bits\":\"32\",\"Platform\":\"iOS\",\"Platform_Version\":\"7.1\"}",
        "501a3e3e826dd639e538a995449b105b\t{\"Browser_Bits\":\"32\",\"Platform\":\"JAVA\"}",
        "502e145b265c393412e5c4789372043f\t{\"Browser_Bits\":\"32\",\"Platform\":\"JAVA\"}",
        "50b25a1da30256c29ab39deae0935281\t{\"Platform_Version\":\"8.0\"}",
        "50259d536fd1879e4877a2bc183df103\t{\"Platform_Version\":\"9.2\"}",
        "50d04cb92df12ae8bd107fe488439ee7\t{\"isTablet\":true}",
        "500d55e74a421f0e8ed8a3d675476069\t{\"Platform_Version\":\"8.4\"}",
        "5002f50cd273238031a997b1f793e756\t{\"Platform_Version\":\"8.0\",\"isTablet\":true}",
        "50571afe524cecf64afb7dacd144d4b5\t{\"Platform_Version\":\"9.1\",\"isTablet\":true}",
        "50def8e542c1953ca681c3f048a9d62f\t{\"Platform_Version\":\"10.3\"}",
        "5010ac7b2e836b9fb72cb9a19ddc518d\t{\"Platform_Version\":\"9.3\",\"isTablet\":true}",
        "5094c25161849c0adaf7add637bfb411\t{\"Platform_Version\":\"9.2\"}",
        "507c23c33de7c71ba45ed3042b7abc92\t{\"Platform_Version\":\"7.1\"}",
        "5093ae5ebeb0ecdf54553ecaf782ea3e\t{\"Platform_Version\":\"9.0\"}",
        "50be7c71d0f4be90814f975d8f0989cc\t[]",
        "50aa19663beefc11cc85b692f1257b10\t{\"Platform_Version\":\"9.1\"}",
        "50e745864c6754a98cf2dccd25bb64ca\t{\"Platform_Version\":\"10.3\",\"isTablet\":true}",
        "50549ba926b57406a41dfe3aad869e0e\t{\"Platform_Version\":\"8.4\"}",
        "50d6c28dd1abba3a13c71e600f70a5db\t{\"Platform_Version\":\"10.2\",\"isTablet\":true}",
        "50fac4b9723763fab6a22909ff7468d4\t{\"Platform_Version\":\"7.0\"}",
        "508085a726a711078c3880a411d60280\t{\"Platform_Version\":\"7.0\",\"isTablet\":true}",
        "50f4b2e199db68d78965c630ddb2330b\t{\"Platform_Version\":\"9.1\"}",
        "50b01684f8d96ad87ef5d56c646be0ca\t{\"Platform_Version\":\"9.2\"}",
        "50f76ab092dceecc9c6c470a253edc23\t{\"Platform_Version\":\"9.0\"}",
        "50915824e6b66bbbe47a0372db571e69\t{\"Platform_Version\":\"8.2\"}",
        "503c8eae3b6ad462b3f7fa2e7b34a179\t{\"Platform_Version\":\"9.1\",\"isTablet\":true}",
        "50964fc47abd0063b799ed4429308975\t{\"Platform_Version\":\"9.3\"}",
        "50cefa67bca0196eb5ff581700f2b0c5\t{\"Platform_Version\":\"9.2\"}",
        "501d00f1d2315c3707259cd8fa9a5e46\t{\"Platform_Version\":\"10.1\"}",
        "50498a2db404e463d4f253fedee9a0cb\t{\"Platform_Version\":\"8.0\"}",
        "5012b1d38c5483c73e9282737d110636\t{\"Platform_Version\":\"7.0\",\"isTablet\":true}",
        "5000416191da3c85512796d21cb51d4b\t{\"Platform_Version\":\"8.2\"}",
        "50c79aea19f07793ca443346be8b7d3a\t{\"Platform_Version\":\"10.3\",\"isTablet\":true}",
        "5026e791e5e26e4f0aff22ca51747fa3\t{\"Platform_Version\":\"8.2\"}",
        "50682c3f29e8ccac5846446469ff6830\t{\"Browser_Bits\":\"32\",\"Platform\":\"SymbianOS\"}",
        "502442ebb38ad1ba6797417bc8dde399\t{\"Platform_Version\":\"7.0\"}",
        "50256dcba96ae013c785374a60055b8f\t[]",
        "508090756c64cdcb23ccfa912b8d1dfe\t{\"Browser_Bits\":\"32\",\"Platform\":\"iOS\",\"Platform_Version\":\"9.3\"}",
        "50ffc04193f7a3e8b48970661f2567b7\t{\"Platform_Version\":\"9.0\"}",
        "509dec6ef6db903193bc357e975c303b\t{\"Platform_Version\":\"9.1\"}",
        "50851245b5840f6c0f9977259a673222\t{\"Browser_Bits\":\"32\",\"Platform\":\"MacOSX\",\"Platform_Version\":\"10\"}",
        "50fdd2dccd67b483c6f6abfb4dc69887\t{\"Browser_Bits\":\"32\",\"Platform\":\"SunOS\"}",
        "5064f1af8fd1351f7b139a2a05341e3c\t{\"Platform_Version\":\"10.10\"}",
        "501f6ce3126bd9b0b46f206e3672726e\t{\"Platform\":\"Win7\",\"Platform_Version\":\"6.1\",\"Win32\":true}",
        "50e7b0a34ca3577de80746f330f321e3\t{\"Browser_Bits\":\"32\",\"Platform\":\"FreeBSD\"}",
        "50bfb556bf4b04d7b89db7d2a8196f82\t[]",
        "505af38583464feac310e9aa8adbd640\t{\"Browser_Bits\":\"32\",\"Platform\":\"Win32\",\"Win32\":true}",
        "50c356ae7c2601d2cd95c5b3397ba95d\t{\"Browser_Bits\":\"32\",\"Platform\":\"WinXP\",\"Platform_Version\":\"5.2\",\"Win32\":true}",
        "502409ac6d02e27d5a8fbaf972c559f5\t{\"Browser_Bits\":\"32\",\"Platform\":\"Win8\",\"Platform_Version\":\"6.2\",\"Win32\":true}",
        "5056c05c8dbfe5aa30fa866bdec7f8e0\t{\"Browser_Bits\":\"32\",\"Platform\":\"WinVista\",\"Platform_Version\":\"6.0\",\"Win32\":true}",
        "504e3b8026a5d0f9da471d068183a619\t{\"Browser_Bits\":\"32\",\"Platform\":\"WinXP\",\"Platform_Version\":\"5.2\",\"Win32\":true}",
        "5048b96554e8d0e5fa01da8a24faa252\t{\"Browser_Bits\":\"32\",\"Platform\":\"WinXP\",\"Platform_Version\":\"5.2\",\"Win32\":true}",
        "50fae9bc99bbb52fb054067ff222c316\t{\"Browser_Bits\":\"32\",\"Platform\":\"Win7\",\"Platform_Version\":\"6.1\",\"Win32\":true}",
        "50b29252ab329b838495f4e4e2c497ac\t{\"Browser_Bits\":\"32\",\"Platform\":\"Win7\",\"Platform_Version\":\"6.1\",\"Win32\":true}",
        "50bd29eb970c59aa10e677bcabcf4026\t{\"Browser_Bits\":\"32\",\"Platform\":\"Win7\",\"Platform_Version\":\"6.1\",\"Win32\":true}",
        "50b2c9ec76af1801290489aeb0aeb87e\t{\"Browser_Bits\":\"32\",\"Platform\":\"Win10\",\"Platform_Version\":\"6.4\",\"Win32\":true}",
        "500f533381cbea3ac4930efea20bc7a1\t{\"Browser_Bits\":\"32\",\"Platform\":\"WinXP\",\"Platform_Version\":\"5.2\",\"Win32\":true}",
        "50da459a16bf06b5aad2e6c1383a351c\t{\"Browser_Bits\":\"32\",\"Platform\":\"WinXP\",\"Platform_Version\":\"5.2\",\"Win32\":true}",
        "50b81b8a575297bc188cddbda575c818\t{\"Browser_Bits\":\"32\",\"Platform\":\"WinXP\",\"Platform_Version\":\"5.1\",\"Win32\":true}",
        "5078509dbf379a3c34f3a8a36eb1b085\t{\"Browser_Bits\":\"32\",\"Platform\":\"WinXP\",\"Platform_Version\":\"5.1\",\"Win32\":true}",
        "506ed98fd9e6f5c2b814cf4d0612d889\t{\"Browser_Bits\":\"32\",\"Platform\":\"DragonFly BSD\"}",
        "503f52e2070daa1c2196a0ce3e41d9f5\t{\"Browser_Bits\":\"32\",\"Platform\":\"DragonFly BSD\"}",
        "50b26ae9a732a38b48d17775470c8ebf\t{\"Browser_Bits\":\"32\",\"Platform\":\"OS\\\/2\"}",
        "50137d7f6b83cb95eae784d899ddd6f4\t[]",
        "50d3be798e42c2a0b77e6f7362a3c068\t{\"Browser_Bits\":\"32\",\"Platform\":\"MacOSX\",\"Platform_Version\":\"10\"}",
        "5068c6623c3623d9eb9bab09a5d47d76\t{\"Browser_Bits\":\"32\",\"Platform\":\"MacOSX\",\"Platform_Version\":\"10.10\"}",
        "500455176ccf722681f6cd221ed3dc26\t{\"Browser_Bits\":\"32\",\"Platform\":\"WinXP\",\"Platform_Version\":\"5.2\",\"Win32\":true}",
        "503af14a4613ce873e3c25c3351ff17d\t{\"Browser_Bits\":\"32\",\"Platform\":\"WinVista\",\"Platform_Version\":\"6.0\",\"Win32\":true}",
        "50a82729ebf5583f0e6c80cdfbfbe869\t{\"Browser_Bits\":\"32\",\"Platform\":\"WinVista\",\"Platform_Version\":\"6.0\",\"Win32\":true}",
        "50aa257e76fdaa0c4dfd63beb37932f9\t{\"Platform_Version\":\"10.2\"}",
        "50fc251bc7618959eeff8dcb334448df\t{\"Platform_Version\":\"10.1\",\"isTablet\":true}",
        "506a7e59adac46660ec26d1d2001a083\t{\"Browser_Bits\":\"32\",\"Platform\":\"MacOSX\",\"Platform_Version\":\"10\"}",
        "50e2215f30ad61adc219c704ff3233a6\t[]",
        "50e716917aaf0cfdda12b77185c8f094\t[]",
        "507f5bc381027de3ab332489a1690c9c\t[]",
        "502b7c88b566880b3d4990b53a3686d4\t[]",
        "50e599e6f00581c0a8bbb720eb0ac585\t[]",
        "5039c0be293db89080e53498c058ef32\t{\"Platform_Version\":\"4.4\"}",
        "508e17a7d5bbdd6452509f6021fcee90\t{\"Browser_Bits\":\"32\",\"Platform\":\"Android\",\"isMobileDevice\":true}",
        "50d1012aa9307ac11b44a9d29becf41e\t{\"Platform_Version\":\"4.4\",\"isTablet\":true}",
        "50f5ff3261e8ad96504421bb2abd5d6c\t{\"isTablet\":true}",
        "50a1795c36fa92fa9e5bc16c182945b7\t{\"Browser_Bits\":\"32\",\"Platform\":\"OpenBSD\"}",
        "506474090352210411d675ff03972ea8\t{\"Browser_Bits\":\"32\",\"Platform\":\"Win7\",\"Platform_Version\":\"6.1\",\"Win32\":true}",
        "5078d6b52db235d7a4bd9522441d2e23\t{\"Browser_Bits\":\"32\",\"Platform\":\"WinXP\",\"Platform_Version\":\"5.2\",\"Win32\":true}",
        "50e976f670b1f8b5e7eac2dc2303f188\t{\"Browser_Bits\":\"32\",\"Platform\":\"FreeBSD\"}",
        "50320dbd4dc00188a9c8907fa0ea38e0\t{\"Browser_Bits\":\"32\",\"Platform\":\"WinVista\",\"Platform_Version\":\"6.0\",\"Win32\":true}",
        "500a7b720d821210afd2be937bd5cd05\t{\"Browser_Bits\":\"32\",\"Platform\":\"Linux\"}",
        "50a14b45d0eff892dc8c9b6d593b9a26\t{\"Browser_Bits\":\"32\",\"Platform\":\"MacOSX\",\"Platform_Version\":\"10.9\"}",
        "509cf46deb058c95a6038f94c52395cb\t[]",
        "5059fb1955e5532a18b26083c0b954c3\t{\"Browser_Bits\":\"32\",\"Platform\":\"Win7\",\"Platform_Version\":\"6.1\",\"Win32\":true}",
        "5069fd21595073820de7ce9c5148c552\t{\"Browser_Bits\":\"32\",\"Platform\":\"MacOSX\",\"Platform_Version\":\"10.9\"}",
        "50de3f0fab7ec464d4659f523cf19845\t{\"Browser_Bits\":\"64\",\"Platform\":\"IRIX64\"}",
        "509cc5e34940a2006028186942e557ae\t[]",
        "50c8466a94c52ea04e704d03ad62ae39\t{\"Browser_Bits\":\"32\",\"Platform\":\"WinVista\",\"Platform_Version\":\"6.0\",\"Win32\":true}",
        "5031d45d9d3557a776762ffdc1ce96c9\t[]",
        "50401b524a39eb5cdb42fe46aa7fbe7a\t[]",
        "50d6fd8a12e6bdd0e6c4e44d2142cd3d\t{\"Platform_Version\":\"8.1\",\"isTablet\":true}",
        "506f745bce1bcfa05d4e3f622667ef51\t{\"Platform_Version\":\"8.4\"}",
        "503dbfa571ea0408150bfe675ec045d3\t[]",
        "50c098f7d7a58e8fb026e8cf39ec049d\t{\"Platform_Version\":\"9.3\"}",
        "50aa261fa7f431d9957413efa49ca67a\t{\"Browser_Bits\":\"32\",\"Platform\":\"iOS\",\"Platform_Version\":\"9.2\"}",
        "50fbbb494eb63e082eeb41246f87f21c\t{\"Platform_Version\":\"7.1\"}",
        "50405aa5466a26b629a13b3357e11aa9\t{\"Platform_Version\":\"8.4\"}",
        "502afca369e0e92cdbee0dae0c2566c5\t{\"Browser_Bits\":\"32\",\"Platform\":\"iOS\",\"Platform_Version\":\"9.0\"}",
        "50cf3024d1cf5f1d8ff03e137383397a\t{\"Browser_Bits\":\"32\",\"Platform\":\"iOS\",\"Platform_Version\":\"7.1\"}",
        "50eccb2f3a85fd27af2381c5e3056413\t{\"Browser_Bits\":\"32\",\"Platform\":\"Linux\"}",
        "50af59508a971e8fe5474c5a84924245\t[]",
        "508b61dfc234f7d1456d272d3e2d35b5\t{\"Browser_Bits\":\"32\",\"Platform\":\"WinXP\",\"Platform_Version\":\"5.1\",\"Win32\":true}",
        "50eb57607ee6bcd8ef489d6b6bd05349\t[]",
        "50ff60980dad071ef4ee250c766e8f99\t{\"Platform_Version\":\"8.1\"}"
    ]
}