{
    "content": [
        "fe2ad96877cdf493ffb78d9bce13f1b6\t[]",
        "fe1b3df93b34ecda5f762e9ed81897f0\t[]",
        "fe8fe0cb71ce32dba6411468b040eb42\t[]",
        "fe1b95f798e6785611b54f6936dbb9a0\t[]",
        "fedd2775e0bd74ccffba5971b5c4eb19\t[]",
        "fec15a8db780b33ee09997b15e5e2588\t[]",
        "feab992496396d7b5e9d5290090a9771\t[]",
        "fec7eda01417d19fd5c7083c9e8eb0c5\t[]",
        "fef51bf854414ba253b624d1b20e6c27\t[]",
        "fe9411631352e2db87996ee2662d4adc\t{\"Browser_Bits\":\"32\",\"Platform\":\"iOS\",\"Platform_Version\":\"7.1\"}",
        "feffff4e444d01b5dbe102db76726ea2\t[]",
        "fe5d0f7ca92e723860c53f22996a3684\t[]",
        "fefa8a02e08ab9db60b931e166ac168c\t{\"Platform_Version\":\"5.1\"}",
        "fe99d6183cbc7cdb667ce007c53c5511\t{\"Browser_Bits\":\"32\",\"Platform\":\"Win10\",\"Platform_Version\":\"6.4\",\"Win32\":true}",
        "fe5190e9308c330577d4ebb8034685dc\t{\"Platform\":\"iOS\",\"Win32\":false,\"isMobileDevice\":true,\"isTablet\":true}",
        "fe4fe5b6a8aa64c6f37ab16431a16a86\t{\"Platform\":\"iOS\",\"Platform_Version\":\"10.2\",\"Win32\":false,\"isMobileDevice\":true,\"isTablet\":true}",
        "fef61faef20eb3b4ea36ea0257333453\t{\"Platform\":\"iOS\",\"Platform_Version\":\"9.2\",\"Win32\":false,\"isMobileDevice\":true,\"isTablet\":true}",
        "fefc5d325c5395bdad15f32cf48e8273\t{\"Platform\":\"iOS\",\"Platform_Version\":\"10.2\",\"Win32\":false,\"isMobileDevice\":true,\"isTablet\":true}",
        "fe9b10f9a60003be4cc3e9a6d240e354\t{\"Platform\":\"iOS\",\"Win32\":false,\"isMobileDevice\":true,\"isTablet\":true}",
        "fe559f9a40faab62dcad84f38e5279d8\t{\"Platform\":\"Win8\",\"Platform_Version\":\"6.2\"}",
        "fef44b91ded5ee67970ae1a701d711d3\t{\"Platform_Version\":\"10.0\"}",
        "fed8a6061d6326f0b54f5c5a6dee9bd7\t{\"Platform_Version\":\"5.0\"}",
        "feca7e0b11392c73fe0f44ede32f5dd8\t{\"Platform_Version\":\"10.3\",\"isTablet\":true}",
        "fe291aba3c6a0531afadfed6e2908d98\t{\"Platform_Version\":\"10.2\",\"isTablet\":true}",
        "fea138cdf33c5f87b8bf86f599dfb32d\t{\"Platform_Version\":\"9.3\",\"isTablet\":true}",
        "fe16f644983c36c3f819f4405c29e80f\t{\"Platform_Version\":\"9.3\",\"isTablet\":true}",
        "fe616869f9e294ece4b9cd389d9e0a17\t{\"Platform_Version\":\"9.2\"}",
        "fe46afed5f93c9bbe08ed9b1eeacd523\t{\"Browser_Bits\":\"32\",\"Platform\":\"iOS\",\"Platform_Version\":\"8.2\",\"isTablet\":true}",
        "fe6b05f5b29bf76bef3e10b948866a41\t{\"Browser_Bits\":\"32\",\"Platform\":\"Win8.1\",\"Platform_Version\":\"6.3\",\"Win32\":true}",
        "fee51075e122904ba57860c7585b0bca\t{\"Platform\":\"iOS\",\"Platform_Version\":\"10.2\",\"isTablet\":true}",
        "febb116b51e1f7914786e070848c1130\t{\"Browser_Bits\":\"32\",\"Platform\":\"Android\",\"isMobileDevice\":true}",
        "fe10ea5bc1f512dfc5701db2f8660fd2\t{\"Platform\":\"iOS\",\"Platform_Version\":\"9.0\",\"isTablet\":true}",
        "fecd1b5f4801996abb8f50378e506499\t{\"Platform\":\"iOS\",\"Platform_Version\":\"8.3\"}",
        "fe96931ad33251dd9d8d437bf67b74ca\t{\"Browser_Bits\":\"32\",\"Platform\":\"Android\",\"isMobileDevice\":true}",
        "feffc185634b6f8eb539a84642e7dd7b\t{\"Platform_Version\":\"4.2\",\"isTablet\":true}",
        "fe67d6c1c24a4c181f70b9b2c38b28f9\t{\"Platform\":\"iOS\",\"Platform_Version\":\"7.1\"}",
        "fe6b9ebe1a959278448fe62c6dc0136f\t{\"Platform_Version\":\"4.4\"}",
        "fe74e0d630ba996cb121157919483222\t{\"Browser_Bits\":\"32\",\"Platform\":\"Win8.1\",\"Platform_Version\":\"6.3\",\"Win32\":true}",
        "fee062dc1ea031747449361ccd8958c3\t{\"Browser_Bits\":\"32\",\"Platform\":\"Series40\"}",
        "fe06bdfdd7dd1a8e1fc0f4339dd76452\t{\"Browser_Bits\":\"32\",\"Platform\":\"Android\"}",
        "febd42f69f66cc15b5b0ba21a971b475\t{\"Platform_Version\":\"4.4\"}",
        "febfe8b39ce10ae3b5904d304a0573cd\t{\"Platform_Version\":\"7.1\"}",
        "fe7bf5e7775ea3da4a77bda2f6ed7c3c\t[]",
        "fe9f6df46161c2f5887e133a6b8243dc\t{\"Platform_Version\":\"7.1\"}",
        "fe121c512a8b75b779efb506f2fb3042\t{\"Platform\":\"Win7\",\"Platform_Version\":\"6.1\"}",
        "fe625daca785ea4873801aa5e12fcd3e\t[]",
        "fe034f667a35dd01902b9c922a22aa1f\t[]",
        "fe68217cd2f0817c04b324a540506ad6\t{\"Platform\":\"WinVista\",\"Platform_Version\":\"6.0\",\"Win32\":true}",
        "fef71a82865eda6856b51e34c08a85a9\t{\"Platform\":\"WinVista\",\"Platform_Version\":\"6.0\",\"Win32\":true}",
        "fe6d191aa9b0860231330d0eba8ab901\t{\"Platform\":\"WinVista\",\"Platform_Version\":\"6.0\",\"Win32\":true}",
        "fe796623bcbf927978c2053b4819430d\t{\"Platform\":\"WinXP\",\"Platform_Version\":\"5.2\",\"Win32\":true}",
        "fe219218da637f99051f9d13cc2e6c02\t[]",
        "fea19f38f4b776ab24b4861d59c393ed\t{\"Platform\":\"WinXP\",\"Platform_Version\":\"5.2\",\"Win32\":true}",
        "feeab415721eee102da452e3ae8aecf1\t{\"Platform_Version\":\"5.0\",\"isTablet\":true}",
        "fe1bba630550156418021e55f56e03c0\t{\"Platform_Version\":\"4.3\",\"isTablet\":true}",
        "feccc4504a7a1cbed44fdaa81aa26d69\t[]",
        "fedb2747df721c27b7cdc3a00e571b0f\t{\"Platform_Version\":\"7.1\"}",
        "fe2d900ba131d282c5654aaf3bf459bb\t{\"Platform_Version\":\"7.0\"}",
        "feb6ef43de46b0806d3295961bfe20a0\t{\"Platform_Version\":\"4.3\",\"isTablet\":true}",
        "fece388b0dba84ae51fff0bcd729e60a\t{\"Platform_Version\":\"4.3\",\"isTablet\":true}",
        "fe0bc196e57c593082254d32d38dec4e\t{\"Platform\":\"WinVista\",\"Platform_Version\":\"6.0\"}",
        "fe3a183ac3cbfa92f9f13126fd57fd05\t{\"Platform_Version\":\"4.2\"}",
        "fe0f5e2be5799a6d74844e30d9482fc6\t{\"Platform_Version\":\"4.3\",\"isTablet\":true}",
        "fef20f324e59434f20fd4e1edd3aa09c\t{\"Platform_Version\":\"4.4\",\"isTablet\":true}",
        "fe38ee89a4a335865bd0738f568a5571\t{\"Platform_Version\":\"4.4\",\"isTablet\":true}",
        "fe0e8d9bdac0f33b369321e80c9e3a57\t[]",
        "feb4a18e46f21ae7280af4e327112c10\t{\"Browser_Bits\":\"32\",\"Platform\":\"MacOSX\",\"Platform_Version\":\"10\"}",
        "febcc22b012debd37f461f638b49e34b\t{\"Browser_Bits\":\"32\",\"Platform\":\"Android\",\"Platform_Version\":\"4.4\"}",
        "fe199fe599fa054dbfdaf478da02b98a\t{\"Browser_Bits\":\"32\",\"Platform\":\"Android\",\"Platform_Version\":\"5.0\"}",
        "fec95deeadb0e4339c9d7b6e08deee00\t{\"Browser_Bits\":\"32\",\"Platform\":\"Android\"}",
        "fee4730e137d75c00f64c238e112df48\t{\"Browser_Bits\":\"32\",\"Platform\":\"Android\",\"Platform_Version\":\"6.1\"}",
        "feee247d55ebd8328743d6e3b553bf72\t{\"Platform_Version\":\"9.2\"}",
        "fe303c49f1aaea4b8c28783befab0810\t{\"Platform_Version\":\"9.0\",\"isTablet\":true}",
        "fe973a35d18e9dbe0819f31dd20220db\t[]",
        "feb8a710a23872235b4bda5e4fa0f5f4\t[]",
        "fec3abdff87d8eca9649c524e06a6d03\t[]",
        "feea50ad18f6114b1033695b97fa5142\t{\"Platform_Version\":\"4.2\",\"isTablet\":true}",
        "feb21d537c4d53d62849588676ae7523\t{\"Platform_Version\":\"10.0\"}",
        "fe41a1c5f9de73447f23bc26ddee53ef\t{\"Platform_Version\":\"4.2\",\"isTablet\":true}",
        "fe183b89697f9497b7cada04ff644750\t{\"Platform_Version\":\"4.2\"}",
        "fe55735714f7129728cc0214f126921b\t{\"Platform_Version\":\"4.2\",\"isTablet\":true}",
        "fe8c99debd306b045da4e82404e804c2\t{\"Platform_Version\":\"5.0\",\"isTablet\":true}",
        "fec59c8ad8898502959519ba94e0104e\t{\"Platform_Version\":\"4.2\",\"isTablet\":true}",
        "fe1a5595c855465a68f28b709c105e76\t{\"Platform_Version\":\"4.4\",\"isTablet\":true}",
        "fe6558d3327cfa5b217caf0fc4a12b36\t{\"Platform_Version\":\"5.1\"}",
        "fe1b0db05370d3067322fe2ccd5fe8ed\t{\"Browser_Bits\":\"32\",\"Platform\":\"Win7\",\"Platform_Version\":\"6.1\",\"Win32\":true}",
        "fe09f0593c040f2fab397caf3a2e9a48\t{\"Browser_Bits\":\"32\",\"Platform\":\"Win8\",\"Platform_Version\":\"6.2\",\"Win32\":true}",
        "fe72fcfa1c00d10fb34941c8c090f8b3\t{\"Browser_Bits\":\"32\",\"Platform\":\"Win8\",\"Platform_Version\":\"6.2\",\"Win32\":true}",
        "fe336671bda4182485008eda21a1d838\t{\"Platform_Version\":\"4.2\",\"isTablet\":true}",
        "feeffa7eb7a0e96d99bd71935780483d\t{\"Platform_Version\":\"4.2\"}",
        "fe3c63bf3e2439c9cc31bb80ca858392\t{\"Platform_Version\":\"4.2\",\"isTablet\":true}",
        "feaeccb02510eb4def1da2a91d217127\t{\"Platform_Version\":\"4.2\",\"isTablet\":true}",
        "fe110fad779db08d9c7f3abae9c499c2\t{\"Platform_Version\":\"4.2\",\"isTablet\":true}",
        "feb06b7dbee19d7f4170b10dd23a1770\t{\"Browser_Bits\":\"32\",\"Platform\":\"Android\",\"isTablet\":true}",
        "fecdb472f67f0b79fbc3dc89bc173df4\t{\"Browser_Bits\":\"32\",\"Platform\":\"SymbianOS\",\"isTablet\":true}",
        "fe90e0217242900dc893a8c6f2ca8bf5\t{\"Browser_Bits\":\"32\",\"Platform\":\"MacOSX\",\"Platform_Version\":\"10\"}",
        "fe03f2c24995c87363ba04512942a104\t{\"Browser_Bits\":\"32\",\"Platform\":\"FreeBSD\"}",
        "fe7fabae1b4a1932a3d15a152e8b04aa\t{\"Browser_Bits\":\"32\",\"Platform\":\"FreeBSD\"}",
        "fee89139d0a0dfb0f95a356fa1596799\t{\"Browser_Bits\":\"32\",\"Platform\":\"MacOSX\",\"Platform_Version\":\"10\"}",
        "fe2997289bcb755ffaa636884a6fee17\t{\"Browser_Bits\":\"32\",\"Platform\":\"Win8\",\"Platform_Version\":\"6.2\",\"Win32\":true}",
        "fed6d750e5e8bf9afe87564943d5ffac\t{\"Browser_Bits\":\"32\",\"Platform\":\"Win8\",\"Platform_Version\":\"6.2\",\"Win32\":true}",
        "fe4ccb49c05465ff5581a2a50a139fd6\t[]",
        "feea724bec7574996954a9530c85897a\t{\"Browser_Bits\":\"32\",\"Platform\":\"FreeBSD\"}",
        "fefeb4d49b165f0b134f5760140668e4\t{\"Browser_Bits\":\"32\",\"Platform\":\"Win7\",\"Platform_Version\":\"6.1\",\"Win32\":true}",
        "fe99dc533f520985c1b817d19c2066a1\t{\"Browser_Bits\":\"32\",\"Platform\":\"WinVista\",\"Platform_Version\":\"6.0\",\"Win32\":true}",
        "fe2d70d88048beaa214b38c1dec026a6\t{\"Browser_Bits\":\"32\",\"Platform\":\"FreeBSD\"}",
        "fef32de4fdec726b472355dcbd41490b\t{\"Browser_Bits\":\"32\",\"Platform\":\"Linux\"}",
        "fedd6d9c7a93ab3f0c1af6fc4d1a7fba\t{\"Browser_Bits\":\"32\",\"Platform\":\"MacOSX\",\"Platform_Version\":\"10.10\"}",
        "febc79a14429b9f179303e585d2ccced\t{\"Browser_Bits\":\"32\",\"Platform\":\"Win8\",\"Platform_Version\":\"6.2\",\"Win32\":true}",
        "fe9e9f78fa87b417f71a99ed05bf077b\t{\"Browser_Bits\":\"32\",\"Platform\":\"WinXP\",\"Platform_Version\":\"5.2\",\"Win32\":true}",
        "fe3219796eeed131ecf7e2971e83c6fa\t{\"Browser_Bits\":\"32\",\"Platform\":\"WinVista\",\"Platform_Version\":\"6.0\",\"Win32\":true}",
        "fecc38de28972b192865423f5f7908d3\t{\"Browser_Bits\":\"32\",\"Platform\":\"WinXP\",\"Platform_Version\":\"5.2\",\"Win32\":true}",
        "fe0171916454a929769a306f095163d0\t{\"Browser_Bits\":\"32\",\"Platform\":\"WinVista\",\"Platform_Version\":\"6.0\",\"Win32\":true}",
        "fe0ee3267031be3236d15e111c5fcb8f\t{\"Browser_Bits\":\"32\",\"Platform\":\"Win8\",\"Platform_Version\":\"6.2\",\"Win32\":true}",
        "fe8647448935bd20d6bf1755da318b27\t{\"Browser_Bits\":\"32\",\"Platform\":\"WinXP\",\"Platform_Version\":\"5.2\",\"Win32\":true}",
        "fedd450a9ea36aa8c5a6e960807dbcc5\t{\"Browser_Bits\":\"32\",\"Platform\":\"Linux\"}",
        "fe5b1d0874ca1007d727f1160dd88cd2\t{\"Browser_Bits\":\"32\",\"Platform\":\"Win7\",\"Platform_Version\":\"6.1\",\"Win32\":true}",
        "fe5e4925860aee601d178ee6a0c1e384\t{\"Browser_Bits\":\"32\",\"Platform\":\"Win8\",\"Platform_Version\":\"6.2\",\"Win32\":true}",
        "fe8649b3702f3860f60168809e0db5e8\t{\"Browser_Bits\":\"32\",\"Platform\":\"MacOSX\",\"Platform_Version\":\"10.9\"}",
        "fe995197b9f7081a4917f0b234a54d29\t{\"Browser_Bits\":\"32\",\"Platform\":\"Win8\",\"Platform_Version\":\"6.2\",\"Win32\":true}",
        "fe27229ed488eafcb15f5353d15b19f3\t{\"Browser_Bits\":\"32\",\"Platform\":\"MacOSX\",\"Platform_Version\":\"10.10\"}",
        "fe69e5abdf257d2412c9809919614b74\t{\"Browser_Bits\":\"32\",\"Platform\":\"WinXP\",\"Platform_Version\":\"5.2\",\"Win32\":true}",
        "fefeb9a5165289ff027b449afa1ce539\t{\"Browser_Bits\":\"32\",\"Platform\":\"Win8\",\"Platform_Version\":\"6.2\",\"Win32\":true}",
        "fe48a870597d99d29a9d906e81534210\t{\"Browser_Bits\":\"32\",\"Platform\":\"Win8\",\"Platform_Version\":\"6.2\",\"Win32\":true}",
        "fec28981960f0ef65a37a60c750bb487\t{\"Browser_Bits\":\"32\",\"Platform\":\"WinXP\",\"Platform_Version\":\"5.2\",\"Win32\":true}",
        "fee264e541f6ded93714f24215e1bdc3\t{\"Browser_Bits\":\"32\",\"Platform\":\"WinXP\",\"Platform_Version\":\"5.1\",\"Win32\":true}",
        "fe6b8388794050a5a14e8f1185cc7a1b\t[]",
        "fedf6c8a77d146e95dfd14ef8293a32f\t{\"Browser_Bits\":\"32\",\"Platform\":\"Win8\",\"Platform_Version\":\"6.2\",\"Win32\":true}",
        "fe7d0aa6da31b84749344bdf5b42c407\t{\"Browser_Bits\":\"32\",\"Platform\":\"WinXP\",\"Platform_Version\":\"5.2\",\"Win32\":true}",
        "fee7a8a3b4f64b91a278dd3a8e1a976f\t{\"Browser_Bits\":\"32\",\"Platform\":\"SunOS\"}",
        "fe283287bb2646ef537e6b554fd378a8\t{\"Browser_Bits\":\"32\",\"Platform\":\"Win8.1\",\"Platform_Version\":\"6.3\",\"Win32\":true}",
        "fe7d9f1d34df6476305b57a7c5721853\t{\"Browser_Bits\":\"32\",\"Platform\":\"MacOSX\",\"Platform_Version\":\"10.10\"}",
        "fe0c31b7cde7ec21104aff700da82cd5\t{\"Browser_Bits\":\"32\",\"Platform\":\"Win7\",\"Platform_Version\":\"6.1\",\"Win32\":true}",
        "fe800db9e5d13b5001317b3ce1d51838\t{\"Browser_Bits\":\"32\",\"Platform\":\"Win7\",\"Platform_Version\":\"6.1\",\"Win32\":true}",
        "fef7418629c226818f4a0bdbeab3fe34\t{\"Browser_Bits\":\"32\",\"Platform\":\"Linux\"}",
        "fe220098b062f756d0781d4fe90d7c63\t{\"Browser_Bits\":\"32\",\"Platform\":\"WinVista\",\"Platform_Version\":\"6.0\",\"Win32\":true}",
        "fe6de02871ab7d59b74ca0c6a4d4c907\t{\"Browser_Bits\":\"32\",\"Platform\":\"FreeBSD\"}",
        "fe7df270ada7ba8ae5f3956e6ed7db0f\t{\"Browser_Bits\":\"32\",\"Platform\":\"Win8\",\"Platform_Version\":\"6.2\",\"Win32\":true}",
        "fe7705a436c846757f0a8a2cb6039f31\t{\"Browser_Bits\":\"32\",\"Platform\":\"iOS\",\"Platform_Version\":\"7.0\",\"isMobileDevice\":true}",
        "fe88e60da03e32898706bd4149e8c0a1\t{\"Platform_Version\":\"10.1\",\"isTablet\":true}",
        "fe15f969e9e26bedb2aba57c7644ece3\t{\"Browser_Bits\":\"32\",\"Platform\":\"Android\",\"isTablet\":true}",
        "fed7f1897f997a3dc69af88a50f67885\t{\"Browser_Bits\":\"32\",\"Platform\":\"iOS\",\"Platform_Version\":\"9.3\"}",
        "fe7b7b8f85475d52ffe451a9ea99a910\t{\"Browser_Bits\":\"32\",\"Platform\":\"WinXP\",\"Platform_Version\":\"5.1\",\"Win32\":true}",
        "febee02fa015c4372ba20bf6b9d98459\t{\"Browser_Bits\":\"32\",\"Platform\":\"Linux\"}",
        "fe40a413e1bbe5b47a826282a76811c3\t{\"Browser_Bits\":\"32\",\"Platform\":\"WinVista\",\"Platform_Version\":\"6.0\",\"Win32\":true}",
        "fe24b559c605f4c9e853559368c5ce6f\t[]",
        "fe57d007607539fa997afdb0c166ab1a\t{\"Browser_Bits\":\"32\",\"Platform\":\"Win8\",\"Platform_Version\":\"6.2\",\"Win32\":true}",
        "fe96fde96bdc2fff5e5c31801b366953\t{\"Browser_Bits\":\"32\",\"Platform\":\"ChromeOS\"}",
        "fe14381749d964c8cb0cc60dc8d92fbc\t{\"Browser_Bits\":\"32\",\"Platform\":\"MacOSX\",\"Platform_Version\":\"10.9\"}",
        "fe8e89398e10426fb12d661d4eb7179a\t{\"Browser_Bits\":\"32\",\"Platform\":\"WinVista\",\"Platform_Version\":\"6.0\",\"Win32\":true}",
        "feda358cdf56724ecc4bacb0850bfbca\t{\"isTablet\":true}",
        "feffabd211c228b1af75ac944416c333\t{\"Platform_Version\":\"4.3\",\"isTablet\":true}",
        "fe7fdc8c3dc03d3f0e7aa5ce71ed346a\t{\"isTablet\":true}",
        "feedf4f0f0d36c7bdbf1ef8d4fb4121c\t{\"isTablet\":true}",
        "fe34205373082847b7f0217bf3c91cc4\t{\"Browser_Bits\":\"64\",\"Platform\":\"Xbox OS 10\",\"Win64\":true}",
        "fe1466355d98fd5a15d3bd484c8d81c2\t{\"Browser_Bits\":\"32\",\"Platform\":\"Win8\",\"Platform_Version\":\"6.2\",\"Win32\":true}",
        "fed31f82342332a808fb57795f56e216\t{\"Platform_Version\":\"4.4\",\"isTablet\":true}",
        "fef749ed139742b955f32093340c4bee\t{\"Platform_Version\":\"4.4\",\"isTablet\":true}",
        "feb97bf5c47698ab6cddf58adac97aff\t{\"Platform_Version\":\"4.2\",\"isTablet\":true}",
        "fe0b9d67103544b87d966dd496dfea81\t{\"Browser_Bits\":\"32\",\"Platform\":\"Win10\",\"Platform_Version\":\"6.4\",\"Win32\":true}",
        "fe0f8a9dbe82025aaee4621b727eaf6c\t{\"Platform_Version\":\"4.2\",\"isTablet\":true}",
        "fe72f29b4b3ed5ae6338d6b1a8868137\t{\"Platform_Version\":\"4.4\",\"isTablet\":true}",
        "fec80011b9e2dccb33db315a84f160a5\t{\"Platform_Version\":\"9.0\"}",
        "fe81a07403ca2ebcca47acd028705491\t{\"Platform_Version\":\"9.0\",\"isTablet\":true}",
        "fee73abd5344ac45bf3380aa4973130d\t{\"Platform_Version\":\"10.0\"}",
        "fe8dbd1325186380e7ef45efcb83a7ac\t{\"Platform_Version\":\"4.4\",\"isTablet\":true}",
        "fedefdf3c283cb94231876c8d979bf1e\t{\"Browser_Bits\":\"32\",\"Platform\":\"Win32\",\"Win32\":true}",
        "fe3b1418dde62443ba6d8bb769adca70\t{\"Platform_Version\":\"4.2\",\"isTablet\":true}",
        "fe6d842f3cd8241ca3756b2998cfd8ef\t{\"Platform_Version\":\"4.3\",\"isTablet\":true}",
        "fec1616a76e19121169becff347a58a4\t[]",
        "fe1c474406efa643cd31fb59844f6c96\t{\"Platform_Version\":\"10.0\",\"isTablet\":true}",
        "fe35b740f87f14e5d820fb9678dc4b54\t{\"Platform_Version\":\"4.3\",\"isTablet\":true}",
        "fe5b3ee66c17299ea4b4e448d2e3a30d\t{\"Browser_Bits\":\"32\",\"Platform\":\"Win8.1\",\"Platform_Version\":\"6.3\",\"Win32\":true}",
        "fe5cfcb1899049bfac4cf493be419e97\t{\"Platform_Version\":\"4.4\",\"isTablet\":true}",
        "fef41ca903df38279dfbecfd720f4142\t{\"Platform_Version\":\"4.2\",\"isTablet\":true}",
        "fef73cf206b4d3ea90fe7824c0a8d5ad\t{\"Platform_Version\":\"10.0\"}",
        "fe2b824b988d8cdaf78447cfe464ad9f\t{\"Browser_Bits\":\"32\",\"Platform\":\"Win32\",\"Win32\":true}",
        "fe1682bd88007fb16415cedd87655773\t{\"Platform_Version\":\"4.2\",\"isTablet\":true}",
        "fe02960b28346832c04e236f9b36a9a1\t{\"Platform_Version\":\"4.2\",\"isTablet\":true}",
        "fe7eaa2acc8de4389317cf2e157aaba4\t{\"Platform_Version\":\"4.4\"}",
        "fe919f8a2ddd9518fbc564c339fa815c\t{\"Browser_Bits\":\"32\",\"Platform\":\"Win10\",\"Platform_Version\":\"6.4\",\"Win32\":true}",
        "fe98b0d6e661b71570ea367efa9adec6\t{\"Platform_Version\":\"4.3\",\"isTablet\":true}",
        "fe8e2b731128ba9bf91da459699b5b72\t{\"Platform_Version\":\"4.3\",\"isTablet\":true}",
        "fe511b8669f3fe79a52b780062e3ce53\t{\"Platform_Version\":\"4.2\",\"isTablet\":true}",
        "feaf015c4e93f4206ebec6a986d4b68f\t{\"Platform_Version\":\"4.4\",\"isTablet\":true}",
        "fef983dc1959b4479a5d9a88262ce2ff\t{\"Platform_Version\":\"8.4\",\"isTablet\":true}",
        "fef8ac84fe0758efac39f3fddccc892e\t{\"Browser_Bits\":\"32\",\"Platform\":\"Win10\",\"Platform_Version\":\"6.4\",\"Win32\":true}",
        "fe5b37b0329d3a8a16276d88095c5f1d\t{\"Platform_Version\":\"4.4\",\"isTablet\":true}",
        "fe91bb703c29b3aaf38d79d793750205\t{\"Platform_Version\":\"4.2\",\"isTablet\":true}",
        "fe5b386399e36ad7044b61dcca45d272\t{\"Browser_Bits\":\"32\",\"Platform\":\"WinXP\",\"Platform_Version\":\"5.2\",\"Win32\":true}",
        "fed8c5646b9d1e973ee5d0b40d1a38dc\t{\"Browser_Bits\":\"32\",\"Platform\":\"WinXP\",\"Platform_Version\":\"5.1\",\"Win32\":true}",
        "fea26aa787e8315b4ad308ce923cbf7a\t{\"Platform_Version\":\"4.2\",\"isTablet\":true}",
        "fe93b8efa268b87cc4ff2ff1f7386605\t{\"Browser_Bits\":\"32\",\"Platform\":\"MacOSX\",\"Platform_Version\":\"10.10\"}",
        "fe395ae26f7cd5806ca7f667d6462f1c\t{\"Platform_Version\":\"4.2\",\"isTablet\":true}",
        "fe31d4a979a242a8196c2af0d69b1b05\t{\"Platform_Version\":\"4.2\",\"isTablet\":true}",
        "fef20d383ab461e2a74e503df769372e\t{\"Platform_Version\":\"10.3\"}",
        "fee4a4acafd6de12cba7138eb6d19749\t{\"Platform_Version\":\"4.3\",\"isTablet\":true}",
        "fe2329e33d5b2545a0fc58924f83fcbd\t{\"Platform_Version\":\"4.4\",\"isTablet\":true}",
        "fe3900e79198c70a08de43247cf19d24\t{\"Platform_Version\":\"4.3\",\"isTablet\":true}",
        "fe1f63e4118b3e52358fb13caecce929\t{\"Platform_Version\":\"4.2\",\"isTablet\":true}",
        "fe421e8f8a043923f74af5bd77f69650\t{\"Platform_Version\":\"10.1\"}",
        "fed851bad97f1c7404c228074ed0b073\t{\"Platform_Version\":\"4.4\",\"isTablet\":true}",
        "fe1a23063ed268d9e6ac07c72c844b1e\t{\"Platform_Version\":\"4.3\",\"isTablet\":true}",
        "fe90c10bceacbb19fbe22bcab330526f\t{\"Browser_Bits\":\"32\",\"Platform\":\"WinVista\",\"Platform_Version\":\"6.0\",\"Win32\":true}",
        "fe5799d32af2c47f754ce0831f809604\t{\"Browser_Bits\":\"32\",\"Platform\":\"Win10\",\"Platform_Version\":\"6.4\",\"Win32\":true}",
        "fe1c2b9aa01c0521520b09b88a04b1f2\t{\"Platform_Version\":\"4.3\",\"isTablet\":true}",
        "fef7be64c6e953eccb1be4e40ea10c98\t{\"Platform_Version\":\"8.1\",\"isTablet\":true}",
        "fe71a7fafe4b15b8a1b6a9b14e00bda8\t{\"Platform_Version\":\"9.1\",\"isTablet\":true}",
        "feaf0622d739591946d7d37e4e13e736\t{\"Platform_Version\":\"4.4\",\"isTablet\":true}",
        "fe0e7e729ed7591de375c93223b31067\t{\"Platform_Version\":\"4.2\",\"isMobileDevice\":false}",
        "feaff6c9df0f4b147a3221b8b55ee7c5\t{\"Platform_Version\":\"9.0\"}",
        "fe8d225480b4691ab14b8f5b01ff008d\t{\"Platform_Version\":\"4.4\",\"isTablet\":true}",
        "fe13799e0a24927b1cd0a1ff87833294\t{\"Browser_Bits\":\"32\",\"Platform\":\"WinXP\",\"Platform_Version\":\"5.1\",\"Win32\":true}",
        "fe6dd815f4c694533dd7989506ccfe65\t{\"Platform_Version\":\"4.4\",\"isTablet\":true}",
        "feb91953870a12b3a80f45ef9f40d06c\t{\"Browser_Bits\":\"32\",\"Platform\":\"WinXP\",\"Platform_Version\":\"5.2\",\"Win32\":true}",
        "fe2180ec642acda7821ccd4aad24a77b\t{\"Platform_Version\":\"9.1\",\"isTablet\":true}",
        "fe86b47a57fcf270720f7b7c5d27ba71\t{\"Platform_Version\":\"9.0\",\"isTablet\":true}",
        "fe8c3bf750df132711394c5f39b128fc\t{\"Platform_Version\":\"7.1\"}",
        "fe5e5216b20100efb9f7cf9afd25c99b\t{\"Browser_Bits\":\"32\",\"Platform\":\"ChromeOS\"}",
        "fe9ff5a62770f51c7cd3e22bf439e7c3\t{\"Platform_Version\":\"4.4\",\"isTablet\":true}",
        "fe4249df89888dea364bd5cdd234fef4\t{\"Platform_Version\":\"7.0\",\"isTablet\":true}",
        "fe9195c5275ae798dedfbc7e12d7b0fd\t{\"Platform_Version\":\"9.3\"}",
        "fe51d31f72c8e1f5dcd8cb7acce3758a\t{\"Platform_Version\":\"4.3\",\"isTablet\":true}",
        "fe7245fe7d43d510a58cd0d44b0dcacf\t{\"Platform_Version\":\"4.2\",\"isTablet\":true}",
        "fe74a2d05b039024d54c0c5fb3414e57\t{\"Platform_Version\":\"8.0\"}",
        "fe1180db1e65ec533c1d009faa2f85da\t{\"Browser_Bits\":\"32\",\"Platform\":\"NetBSD\"}",
        "fe56be6d8a2bb8d57ba3fa7ec04592ee\t[]",
        "fe4e333d749c3622757e1e4c6f2f98b4\t{\"Browser_Bits\":\"32\",\"Platform\":\"Win8\",\"Platform_Version\":\"6.2\",\"Win32\":true}",
        "fe7bed52de2d2923659c885658e0eb02\t{\"Browser_Bits\":\"32\",\"Platform\":\"WinVista\",\"Platform_Version\":\"6.0\",\"Win32\":true}",
        "fed087f6f65c14d8c6e52f6e670c77d4\t{\"Platform_Version\":\"4.3\",\"isTablet\":true}",
        "fe663cbab153f10cd3ae2f691eb3f5f2\t{\"Platform_Version\":\"4.3\",\"isTablet\":true}",
        "fe2c7d489b04dbc1cf9b88d74a75b68b\t{\"Platform_Version\":\"4.3\",\"isTablet\":true}",
        "fe0ef6c0330273f0ca55bbd96ab8dbb3\t{\"Browser_Bits\":\"32\",\"Platform\":\"WinXP\",\"Platform_Version\":\"5.1\",\"Win32\":true}",
        "fe4ef69feb503c610481ade2536ee35e\t{\"Browser_Bits\":\"32\",\"Platform\":\"WinXP\",\"Platform_Version\":\"5.1\",\"Win32\":true}",
        "feca4021e256cea6c0b527936778bc93\t{\"Platform_Version\":\"7.0\",\"isTablet\":true}",
        "fe45499750a3eb2cdf15a6298812700c\t{\"isTablet\":true}",
        "fe2b477a9788e44a952827cd59837a7e\t{\"Platform_Version\":\"8.1\"}",
        "fe60ee65bedef9621afd66ca7ec25056\t{\"Platform_Version\":\"8.3\"}",
        "fee4d2f8b2b851e4162b2400e69fc28a\t{\"Platform_Version\":\"10.0\",\"isTablet\":true}",
        "fe8b354f452eaf53173427304ca73e97\t{\"Platform_Version\":\"8.0\",\"isTablet\":true}",
        "fe1511a7227dd5503b34c742566723e7\t[]",
        "fe6a91866e64da00f66eb360ad860087\t{\"Platform_Version\":\"10.0\",\"isTablet\":true}",
        "fe9c9242d89ae504b5a28650e0f36307\t{\"Platform_Version\":\"10.0\",\"isTablet\":true}",
        "feb907c3fbe83fe945490558936ec9b9\t{\"Platform_Version\":\"10.0\"}",
        "fe8a0dc957f35378bd7eab757e0a07fb\t{\"Platform_Version\":\"10.3\"}",
        "fe981089a664eff2546de5b0cf96946c\t{\"Platform_Version\":\"8.2\"}",
        "fe9b47cb6311b6390e26118b455a217f\t{\"Platform_Version\":\"10.0\"}",
        "fe5f69ed722de09b65546a52b2f9023f\t{\"Browser_Bits\":\"32\",\"Platform\":\"Win32\",\"Win32\":true}",
        "fe7686519db8afcc28aefe329dba9cc4\t{\"Platform_Version\":\"7.1\"}",
        "fe6d311c4810f9b7889e39ee6ba157f4\t[]",
        "fed5826799493859008d4903895da064\t{\"Platform_Version\":\"8.4\"}",
        "fecf77b82df2d8bfb2e7959b14927c89\t[]",
        "fef8b22430c0b10154436a055c0e22b1\t{\"Browser_Bits\":\"32\",\"Platform\":\"Win8\",\"Platform_Version\":\"6.2\",\"Win32\":true}",
        "fe50fe2e17afbdfa7c93dba14fd8594d\t{\"Browser_Bits\":\"32\",\"Platform\":\"WinXP\",\"Platform_Version\":\"5.1\",\"Win32\":true}",
        "fe1aa598aa46400e60cc09faec307936\t{\"Platform_Version\":\"4.4\"}",
        "fede4b59fd067117c194693a5b014813\t{\"Browser_Bits\":\"32\",\"Platform\":\"iOS\",\"Platform_Version\":\"7.0\"}",
        "fe3f78cefb740a14a79d78089fcbc9ae\t{\"Browser_Bits\":\"32\",\"Platform\":\"Android\",\"Platform_Version\":\"4.3\"}",
        "fe1f6b536829292391f07786abdacf77\t{\"Platform_Version\":\"10.10\"}",
        "fef9ace86a88eb5a31b1ef69f42ae38f\t{\"Platform_Version\":\"6.0\"}",
        "fe2b611ed97fbc09629662569e8d458a\t{\"isTablet\":true}",
        "fec36cc2846c07cd3e74dc54fa841004\t{\"isMobileDevice\":true}",
        "fee7eda778a9381ddbfbffbd87d13de5\t{\"Browser_Bits\":\"32\",\"Platform\":\"iOS\",\"Platform_Version\":\"7.1\",\"isTablet\":true}",
        "fef7a20eef1ad9416d04c607115ce725\t{\"Browser_Bits\":\"32\",\"Platform\":\"iOS\",\"Platform_Version\":\"8.3\",\"isTablet\":true}",
        "feb095ad22f544b388ba0164ac6c48f6\t{\"Browser_Bits\":\"32\",\"Platform\":\"iOS\",\"Platform_Version\":\"7.0\",\"isTablet\":true}",
        "fe9d9332fe4cdf2dc8b62dd1e21efd05\t{\"Browser_Bits\":\"32\",\"Platform\":\"iOS\",\"isTablet\":true}",
        "fe68a96030b2ff5f2220e9ecbfd91a59\t{\"Browser_Bits\":\"32\",\"Platform\":\"Brew\",\"Platform_Version\":\"2.0\"}",
        "fe397c5dbbb48073c018839e393b57f2\t{\"Platform_Version\":\"9.0\"}",
        "fed31faaaa6ed0ae59a278c9271f27cd\t{\"Platform_Version\":\"10.2\"}",
        "fe68b2534bf8dac5f8b502302498551b\t{\"Platform_Version\":\"7.1\"}",
        "feeaf9fc8dbcac8e3e310a3332b10e6c\t{\"Platform_Version\":\"8.3\"}",
        "fe82dfd25a9100c028eaa014a8abd0ba\t[]",
        "fe21d36e78d0aff66dacc90285267045\t{\"Platform_Version\":\"9.0\"}",
        "fe378c6078f74438011f1473cf6e593d\t{\"Platform_Version\":\"8.3\"}",
        "fe0c3fdfef0c45a1772eadf5e3ad90c9\t{\"Platform_Version\":\"7.0\"}",
        "fe16024f61a69336226c2594a61e0b72\t[]",
        "fec43f135e1148ebd04bcec59311b6d8\t{\"Platform_Version\":\"8.3\"}",
        "fe8c812f819861c34b5a0659e64d9660\t{\"Platform_Version\":\"8.0\"}",
        "fe54963c7d0de973e5e077db85b541af\t{\"Platform_Version\":\"10.2\",\"isTablet\":true}",
        "fe0e72193056564f2cc4725a1499155a\t{\"Platform_Version\":\"10.2\"}",
        "fe37a371166bebf8ec6cba8254ba46c2\t{\"Platform_Version\":\"7.1\"}",
        "feb6b3834f420cefb7eec484c5396b33\t{\"Platform_Version\":\"10.2\",\"isTablet\":true}",
        "fefa697c5490051bdf0c8de830007b37\t{\"Platform_Version\":\"7.0\"}",
        "fe22c0f3db63bdc31585b6bb6e7ac9b5\t{\"Platform_Version\":\"8.2\",\"isTablet\":true}",
        "fe243cdb50a0704054494b6975f5ce36\t{\"Platform_Version\":\"9.3\"}",
        "fe21f724daa67a90cd78fb1ce5b42b0d\t{\"Platform_Version\":\"9.1\",\"isTablet\":true}",
        "fe90c9b61b7d6e3943ac556a342d0a6a\t{\"Browser_Bits\":\"32\",\"Platform\":\"iOS\",\"isMobileDevice\":true}",
        "fe1c086245f75c681f62270f78734c5e\t{\"Platform_Version\":\"9.3\"}",
        "fe5f0f5f210cc08efb86cb808b734fa5\t{\"Platform_Version\":\"9.1\",\"isTablet\":true}",
        "feafc3349ec5aa7321f505dde4ae2d27\t{\"Platform_Version\":\"7.0\",\"isTablet\":true}",
        "fe25282b2ac23a28853a08974c4f5d20\t[]",
        "fea234e49a99fde9a59d457e6ae1c20f\t{\"Platform_Version\":\"10.0\",\"isTablet\":true}",
        "fe41936cec994e409890338ac1df26e5\t{\"Platform_Version\":\"8.4\"}",
        "fedc7b0b8b37280eeca1685bd7106fcb\t{\"Platform_Version\":\"8.0\",\"isTablet\":true}",
        "fe921bc2b5572c259897a88c54d3e235\t{\"Platform_Version\":\"8.3\"}",
        "fe25634742e96ad46fc4cb8142e51dfe\t{\"Platform_Version\":\"8.1\"}",
        "feece8acdcf251950655547badc960eb\t{\"Platform_Version\":\"8.2\"}",
        "fef4b585c4020407711ba7d6f41ae4a5\t{\"isTablet\":true}",
        "fec789bd517a97bc78e2fc27919059a7\t[]",
        "fed48e3cc5922593e806845e3184490f\t{\"Platform_Version\":\"7.1\"}",
        "fe76b2a05a81efa2897125eee0b52231\t{\"Platform_Version\":\"8.0\"}",
        "fe578026135928ccfef18e5eb93347ec\t{\"Platform_Version\":\"8.0\"}",
        "fe0c520cdb22f1bbcd3b429a26cc52fb\t{\"Platform_Version\":\"8.3\",\"isTablet\":true}",
        "fe44c8ce0eb4b8d746ddf612ac3a84ff\t[]",
        "feeda34f4f305db382b59abf99e35e93\t{\"Platform_Version\":\"9.1\",\"isTablet\":true}",
        "fed0efa48556b9858bd04b1b49cdfbc7\t{\"Platform_Version\":\"9.3\"}",
        "fecf1e7f1f349c59f831334accb6bc64\t{\"Platform_Version\":\"10.1\",\"isTablet\":true}",
        "feec64b87777f2aac4d40e62469c0633\t{\"Platform_Version\":\"8.4\",\"isTablet\":true}",
        "fe37f5cd761d94a8a23f4a5bfc9ae029\t{\"Browser_Bits\":\"32\",\"Platform\":\"Android\",\"isMobileDevice\":true}",
        "fe10bdda995768e73de808bf2f6d8560\t{\"Browser_Bits\":\"32\",\"Platform\":\"OS\\\/2\"}",
        "fe811134c8f85fcf33f7543e0fc86d0a\t{\"Platform_Version\":\"2.0\"}",
        "fe396a86b24159315a622e5c87dfa039\t{\"Platform\":\"Win7\",\"Platform_Version\":\"6.1\",\"Win32\":true}",
        "fecb281663500dd7edd391c697e783c4\t[]",
        "fea0ee77dc8290afc86ef6b57f12ef18\t{\"Browser_Bits\":\"32\",\"Platform\":\"OpenBSD\"}",
        "fe2df4337c1e75925566fdd7e1b2dba5\t{\"Browser_Bits\":\"32\",\"Platform\":\"OpenBSD\"}",
        "fe7d3c32ced8fe627b1f7ec60ce06be6\t{\"Browser_Bits\":\"32\",\"Platform\":\"PalmOS\",\"isMobileDevice\":true}",
        "feedbdd3fb2f487c3655514e19d5611b\t{\"Browser_Bits\":\"32\",\"Platform\":\"MacOSX\",\"Platform_Version\":\"10.10\"}",
        "feb5dd8637ecd8587ee4260e94d5db47\t{\"Browser_Bits\":\"32\",\"Platform\":\"WinVista\",\"Platform_Version\":\"6.0\",\"Win32\":true}",
        "feee793ba550e1b787388d91013f5aae\t{\"Browser_Bits\":\"32\",\"Platform\":\"WinXP\",\"Platform_Version\":\"5.2\",\"Win32\":true}",
        "fe720408ea4c4239d14a1b64d4b69109\t{\"Browser_Bits\":\"32\",\"Platform\":\"WinXP\",\"Platform_Version\":\"5.1\",\"Win32\":true}",
        "fe2582a8724dd4c5034fa6d602781076\t{\"Browser_Bits\":\"32\",\"Platform\":\"WinVista\",\"Platform_Version\":\"6.0\",\"Win32\":true}",
        "fe099458de2d8ea634176727fc7aef87\t{\"Browser_Bits\":\"32\",\"Platform\":\"MacOSX\",\"Platform_Version\":\"10\"}",
        "feb02b989eef0812ace49c7d67f52b8a\t{\"Browser_Bits\":\"32\",\"Platform\":\"Android\",\"isMobileDevice\":true}",
        "febbd94cf2b13998177464bf6d792817\t{\"Browser_Bits\":\"32\",\"Platform\":\"Linux\"}",
        "fe38626c757320139296133a209f1934\t{\"Platform\":\"Win7\",\"Platform_Version\":\"6.1\"}",
        "fe246fde91c56e8c6931d07730f19fa5\t{\"Platform\":\"Win7\",\"Platform_Version\":\"6.1\"}",
        "fe4b568f519980e039810cab5395f821\t{\"Browser_Bits\":\"32\",\"Platform\":\"macOS\",\"Platform_Version\":\"10.12\"}",
        "fefe4fe36a0702e5a642930514e3e3a4\t{\"Browser_Bits\":\"32\",\"Platform\":\"Win7\",\"Platform_Version\":\"6.1\",\"Win32\":true}",
        "fe5bd2ecd2d2f0f13d855bbdece5d386\t{\"Browser_Bits\":\"32\",\"Platform\":\"Win7\",\"Platform_Version\":\"6.1\",\"Win32\":true}",
        "fe103faf959fe42e99b583d93bb86047\t[]",
        "fe9439f22e09d24a299e5b1fb9381516\t{\"Browser_Bits\":\"32\",\"Platform\":\"Win7\",\"Platform_Version\":\"6.1\",\"Win32\":true}",
        "fe2262667467a50591d32a63681f0ea2\t{\"Browser_Bits\":\"32\",\"Platform\":\"Win7\",\"Platform_Version\":\"6.1\",\"Win32\":true}",
        "fe7eb76d817765fbdcb7016b5ef597b1\t{\"Browser_Bits\":\"32\",\"Platform\":\"WinVista\",\"Platform_Version\":\"6.0\",\"Win32\":true}",
        "fee7d79abdac9656cfb07d38d377053c\t{\"Browser_Bits\":\"32\",\"Platform\":\"Win7\",\"Platform_Version\":\"6.1\",\"Win32\":true}",
        "fe42924ef5294ce77cfaaddc35c33c1d\t{\"Platform_Version\":\"9.2\",\"isTablet\":true}",
        "feb6be9b030fa54f3f0e1cfbaf00d109\t{\"Platform_Version\":\"8.4\"}",
        "feb3186acbcd834f8e3a8b707e7d35c3\t{\"Browser_Bits\":\"32\",\"Platform\":\"WinVista\",\"Platform_Version\":\"6.0\",\"Win32\":true}",
        "fedab12955ece31ea34c6304244a88ed\t{\"Platform\":\"FirefoxOS\"}",
        "fe1b70f1654336026c14a1b8d777a012\t{\"Browser_Bits\":\"32\",\"Platform\":\"Maemo\"}",
        "fe9f22dbf41bd90155731689da8fdc1f\t{\"Browser_Bits\":\"32\",\"Platform\":\"Maemo\"}",
        "fe473ea0e1e9344aaedd196c254da8b5\t{\"Platform\":\"Win7\",\"Platform_Version\":\"6.1\"}",
        "fec71669591123ebc893ea2fe7dec5c7\t{\"Browser_Bits\":\"32\",\"Platform\":\"Win32\",\"Win32\":true}",
        "fec847b2120e220f0f7a287674a1430d\t{\"Platform_Version\":\"7.1\",\"isTablet\":true}",
        "fe0638abc7d7dee2362aa35e9ee92666\t[]",
        "fed9c222c8b9070890b05b8a1580c094\t{\"Browser_Bits\":\"32\",\"Platform\":\"MacOSX\",\"Platform_Version\":\"10\"}",
        "fe50180f0d2f75f7e63acc3ff4c3eab3\t{\"Browser_Bits\":\"32\",\"Platform\":\"FreeBSD\"}",
        "fee51e2d0c7bad70d207f9dfc4f48ca5\t{\"Browser_Bits\":\"32\",\"Platform\":\"Win8.1\",\"Platform_Version\":\"6.3\",\"Win32\":true}",
        "fea17e8a328adb6de8e95c59895f379b\t{\"Browser_Bits\":\"32\",\"Platform\":\"MacOSX\",\"Platform_Version\":\"10\"}",
        "fe1e28dcad2e90a994943f1c3094da5e\t{\"Browser_Bits\":\"32\",\"Platform\":\"Win7\",\"Platform_Version\":\"6.1\",\"Win32\":true}",
        "fe8b402b9fe9ceae115bc9957693ff67\t{\"Browser_Bits\":\"32\",\"Platform\":\"macOS\",\"Platform_Version\":\"10.12\"}",
        "fe0c217001db37b8c34ed9be4aa16e2f\t{\"Browser_Bits\":\"32\",\"Platform\":\"WinVista\",\"Platform_Version\":\"6.0\",\"Win32\":true}",
        "fe6bb473657c0f731ac543f633d5e608\t[]",
        "fe1e7b403e19ab2ba18e11fb5061d421\t{\"Browser_Bits\":\"32\",\"Platform\":\"Win32\",\"Win32\":true}",
        "fe94bddab0df1633275b73528104df50\t{\"Browser_Bits\":\"32\",\"Platform\":\"Win7\",\"Platform_Version\":\"6.1\",\"Win32\":true}",
        "fe78cd7631772ceff8a8211386327b7e\t{\"Browser_Bits\":\"32\",\"Platform\":\"OpenBSD\"}",
        "fed2e1eebec73185ddb47ac6aed6c924\t{\"Browser_Bits\":\"32\",\"Platform\":\"Win7\",\"Platform_Version\":\"6.1\",\"Win32\":true}",
        "fec4a3e376bea9e1d9f0393267f5bb61\t{\"Browser_Bits\":\"32\",\"Platform\":\"WinXP\",\"Platform_Version\":\"5.1\",\"Win32\":true}",
        "fea2f7286d26d29325bd13ac08cf1b8c\t{\"Browser_Bits\":\"32\",\"Platform\":\"Win8\",\"Platform_Version\":\"6.2\",\"Win32\":true}",
        "fe60b7ca4af0af9b2e7129f7b23b958b\t{\"Browser_Bits\":\"32\",\"Platform\":\"AIX\"}",
        "feb672724755e48c5039a722a6a1ba23\t{\"Browser_Bits\":\"32\",\"Platform\":\"Win8.1\",\"Platform_Version\":\"6.3\",\"Win32\":true}",
        "fec73af4c57eb9fd204344e826cf8330\t{\"Platform\":\"WinVista\",\"Platform_Version\":\"6.0\"}",
        "fea1640202b70605f1efc0d16356dd78\t{\"Platform\":\"Win8\",\"Platform_Version\":\"6.2\",\"Win32\":true}",
        "fe63211dbddc4b14c91d396fa60acc55\t{\"Browser_Bits\":\"32\",\"Platform\":\"MacOSX\",\"Platform_Version\":\"10.10\"}",
        "fe913f703506b1738e3976e5c675609a\t[]",
        "fedf4aad196b9162a103c935287aa714\t[]",
        "fec291e2e67c7ecdd6c861ca9512fa06\t{\"Browser_Bits\":\"64\",\"Platform\":\"Win64\",\"Win64\":true}",
        "fe2eba1a54a0585ea9267c2a8bc141b6\t[]",
        "fe90b252bfada6a64f895ba11a6787f2\t{\"Browser_Bits\":\"32\",\"Platform\":\"MacOSX\",\"Platform_Version\":\"10\"}",
        "feb111abbc6b9e91538837826c260e38\t[]",
        "fec7dd29356ca5576c227ff27a48efd4\t[]",
        "fedf3616d0a97d5f8e1c675fd99436f1\t[]",
        "fe6a65411eb66fcf9585748472da4f40\t[]",
        "fe849cee7f1d4a2a74418b077d3e200d\t[]"
    ]
}