{
    "content": [
        "516ac76abf2e31e201f6a1adcdbbbd15\t[]",
        "51f18bd10d4839f07281483d6a48199b\t[]",
        "51100f3b1d840eb3d44e64db69221a6b\t[]",
        "5173a6b7aa119f64ad8fe75e297183cb\t[]",
        "510c91b1db6c0f6118d5c5807c60e05e\t[]",
        "51320b589b9f4d033ce70ed08d716993\t[]",
        "51a0ce732829b0f7006fb49a2628df54\t[]",
        "519f79477a1808add0e25d0beca83389\t[]",
        "513b7f8af1e0d0467fd870f452f489b4\t[]",
        "51f25898626c0c4a83a51556460c4b3f\t{\"Browser_Bits\":\"32\",\"Platform\":\"MacOSX\",\"Platform_Version\":\"10\"}",
        "518be0ed87d18dc5418a79d14e8c544d\t[]",
        "517e6200fa10063a31456584b16acaea\t[]",
        "5155b0949adf750a9679a3fd36efc61d\t[]",
        "51e9e953ec0582104fe427e2bdec0e64\t[]",
        "51ac43a387dddf01fa041c06bff61143\t{\"Browser_Bits\":\"32\",\"Platform\":\"WinXP\",\"Platform_Version\":\"5.1\",\"Win32\":true}",
        "51e9ebf60c85fcac7a311bc71b7ab34c\t{\"Platform\":\"WinXP\",\"Platform_Version\":\"5.1\"}",
        "51cc4bf101ab5e78dbead44cac4bb087\t[]",
        "51043143ccbc28efbbca0ad7c064174a\t[]",
        "51560fad9881e7162b09c48e9bf51c44\t{\"Browser_Bits\":\"32\",\"Platform\":\"WinXP\",\"Platform_Version\":\"5.2\",\"Win32\":true}",
        "514432a19ae6846e623a773540c5d42b\t{\"Browser_Bits\":\"32\",\"Platform\":\"Win7\",\"Platform_Version\":\"6.1\",\"Win32\":true}",
        "51c444f409598157b52ba44beeeecec1\t{\"Browser_Bits\":\"32\",\"Platform\":\"Win8.1\",\"Platform_Version\":\"6.3\",\"Win32\":true}",
        "51be3b0f0ddf1d38db4986e5b9207106\t{\"Browser_Bits\":\"32\",\"Platform\":\"MacOSX\",\"Platform_Version\":\"10.9\"}",
        "51101d4d39ef9b29167870c6a25dcf0b\t{\"Platform\":\"iOS\",\"Platform_Version\":\"10.2\",\"Win32\":false,\"isMobileDevice\":true,\"isTablet\":true}",
        "51d4fed20ed047c68e0db21725a76553\t{\"Platform\":\"Win7\",\"Platform_Version\":\"6.1\"}",
        "51994d61b7266defe1339b64bf975ccf\t{\"Platform\":\"iOS\",\"Platform_Version\":\"9.1\",\"Win32\":false,\"isMobileDevice\":true,\"isTablet\":true}",
        "51b8b306eadd2429d314621a806daa97\t{\"Platform\":\"WinXP\",\"Platform_Version\":\"5.2\"}",
        "5197994e79069a12f516459e2b350e08\t{\"Browser_Bits\":\"32\",\"Platform\":\"Win32\",\"Win32\":true}",
        "513571849c3337cca141aeb5ef5f4b49\t{\"Platform_Version\":\"4.2\",\"isTablet\":true}",
        "516a1c5ff08f93634b60bf474773cb43\t{\"Browser_Bits\":\"32\",\"Platform\":\"Win7\",\"Platform_Version\":\"6.1\",\"Win32\":true}",
        "513a18e50b742cbcd8146d6a941ee29e\t{\"Platform_Version\":\"5.1\"}",
        "51c202f23b39b6b293d82ff276a7d122\t{\"Platform_Version\":\"4.2\",\"isTablet\":true}",
        "51813d868e2cdf8e4cfbabf4860f8855\t{\"Platform\":\"iOS\",\"Platform_Version\":\"8.0\"}",
        "5100263d4b4e2a9b608853c01d4b8b93\t{\"Platform\":\"iOS\",\"Platform_Version\":\"8.0\"}",
        "51d783801af99b054dd7ac09c3892b99\t{\"Platform\":\"iOS\",\"Platform_Version\":\"7.0\"}",
        "5162c093ab1b94d7bfe1baf6296e2167\t{\"Platform_Version\":\"4.4\",\"isTablet\":true}",
        "5165f38101cf9c3c434091a0031de366\t{\"Platform\":\"iOS\",\"Platform_Version\":\"8.4\"}",
        "518c86a4a05330e1a4eb044dd92a84a7\t{\"Browser_Bits\":\"32\",\"Platform\":\"Android\",\"isMobileDevice\":true}",
        "5121db0fd7c4c6bcf87a484bbc5b02fa\t{\"Platform_Version\":\"5.0\"}",
        "51756f8f440a2bd490e7460726c58a0f\t[]",
        "51a07406fcd5118f7f1b0b88079f33a9\t{\"Browser_Bits\":\"32\",\"Platform\":\"Series40\"}",
        "51b7fe6801db87982f9fa87e99e5dd53\t{\"Browser_Bits\":\"32\",\"Platform\":\"Android\",\"Platform_Version\":\"4.2\"}",
        "518add4924bdd410443ca33fd8bd64d4\t{\"Platform\":\"JAVA\"}",
        "51a3e1a97ba87e451f0cc56146573a32\t{\"Platform\":\"JAVA\"}",
        "514cf4c9d1558011876b63addcda743c\t{\"Platform\":\"SymbianOS\"}",
        "519b4265d2652c3878a03db9311d7f46\t{\"Platform_Version\":\"4.2\"}",
        "51cd5cb16fdf28952b60a34e5f199311\t{\"Platform_Version\":\"4.4\",\"isTablet\":true}",
        "513bf02c9a743ff52442231e6c1cc9ff\t{\"Platform_Version\":\"4.4\"}",
        "511ce0865563c917358829955c49716c\t{\"Browser_Bits\":\"32\",\"Platform\":\"WinVista\",\"Platform_Version\":\"6.0\",\"Win32\":true}",
        "51388a3c4cc02f524875ac028e614822\t{\"Platform\":\"WinXP\",\"Platform_Version\":\"5.2\",\"Win32\":true}",
        "51b0af73a86e5a3fba703de16b5c2f05\t{\"Platform\":\"WinXP\",\"Platform_Version\":\"5.2\",\"Win32\":true}",
        "51284ea4ed5d617b3908f5fc1158abc7\t{\"Platform_Version\":\"4.3\",\"isTablet\":true}",
        "511748383bd5ecdd4a98a67af4ea1f12\t{\"Platform_Version\":\"4.4\",\"isTablet\":true}",
        "51b8b3544f3fd0142c09c0d18ce600cb\t{\"Platform_Version\":\"4.3\",\"isTablet\":true}",
        "516d86d1a62d2c623e214ba8922a68b8\t{\"Platform_Version\":\"4.2\"}",
        "519a39a5411c999230784604780ca257\t{\"Platform_Version\":\"4.4\",\"isTablet\":true}",
        "51dc05e26e23f748679c4bd2d69e5560\t{\"Platform_Version\":\"4.3\",\"isTablet\":true}",
        "51eef4e00f5566c13153abc02f7531fa\t{\"Platform_Version\":\"4.2\",\"isTablet\":true}",
        "51264a2dfcd72b06e6c8851725986440\t{\"Platform_Version\":\"4.2\",\"isTablet\":true}",
        "510abfb8a391a5c6c9a81a285cc077e7\t[]",
        "51876d19da96b8a76531e75329788815\t{\"Browser_Bits\":\"32\",\"Platform\":\"Android\",\"Platform_Version\":\"4.3\"}",
        "51d6e3e034930c4fae6d7839f7fc0e97\t{\"Browser_Bits\":\"32\",\"Platform\":\"Android\",\"Platform_Version\":\"5.1\"}",
        "511cceb7cd19d37fed4448ce3fe75c67\t{\"Browser_Bits\":\"32\",\"Platform\":\"Android\",\"Platform_Version\":\"6.0\"}",
        "5150c536fe49a4f351176cf42d58bb41\t{\"Browser_Bits\":\"32\",\"Platform\":\"Android\",\"Platform_Version\":\"4.4\"}",
        "51c97e478b1be93f9a75dad06196551d\t{\"Browser_Bits\":\"32\",\"Platform\":\"Android\",\"Platform_Version\":\"7.0\"}",
        "512ccdd1c63b5343efddaa3065595de8\t{\"Browser_Bits\":\"32\",\"Platform\":\"Android\",\"Platform_Version\":\"7.1\"}",
        "51806aa76ed852fcaa73f4d93fe5d393\t{\"Platform_Version\":\"8.0\"}",
        "51b09fbcaea99bc942c91e246b325803\t{\"Platform_Version\":\"7.0\"}",
        "51a3c558d58ae47d82d180d76acc0e6a\t{\"Platform_Version\":\"9.1\"}",
        "516cfaf82a2865eb8a99bebdf3cf553c\t{\"Platform_Version\":\"8.3\"}",
        "517599aff7006980fa75c90133f5ff13\t{\"Platform_Version\":\"7.0\"}",
        "51f0537595dc1b44a1828c1425e9b072\t{\"Platform_Version\":\"10.2\"}",
        "5151f1ca73bffdcd0cd9500dcf06eacc\t{\"Platform_Version\":\"9.1\"}",
        "51e3d4980959d78fa02bd149437d3a85\t{\"isTablet\":true}",
        "51256600010a4d8447856f6ae4ea5cc1\t{\"Platform_Version\":\"8.4\"}",
        "518e25e3c99f2f333a28f166062fe957\t{\"Platform_Version\":\"10.1\"}",
        "5149168a09c92649b8413ccbe9fae83a\t{\"Platform_Version\":\"4.4\",\"isTablet\":true}",
        "514a72d555e9e914f00f1d38f5f5ce41\t{\"Platform_Version\":\"10.1\",\"isTablet\":true}",
        "5145817946de50eae1e53bd8cb192f6b\t{\"Platform_Version\":\"10.2\"}",
        "517bc254b6f85e6859be8acb629a1db5\t{\"Browser_Bits\":\"32\",\"Platform\":\"Win7\",\"Platform_Version\":\"6.1\",\"Win32\":true}",
        "5130a04a60848158f23c692e4fae2806\t{\"Platform_Version\":\"4.4\",\"isTablet\":true}",
        "51bb1a89767e1711b47cd98c1d51d836\t{\"Platform_Version\":\"4.2\",\"isTablet\":true}",
        "51fb713a2cdfcf2032e4f79392936507\t{\"Browser_Bits\":\"32\",\"Platform\":\"Android\",\"isMobileDevice\":true}",
        "5141dee2a13d0921cd6e12cabb1d77ff\t{\"Browser_Bits\":\"32\",\"Platform\":\"MacOSX\",\"Platform_Version\":\"10.10\"}",
        "51f69963ae6da9310dda3981454d79b2\t{\"Browser_Bits\":\"32\",\"Platform\":\"Win10\",\"Platform_Version\":\"6.4\",\"Win32\":true}",
        "51959b23e6148a2277509d2ebba425a0\t{\"Browser_Bits\":\"32\",\"Platform\":\"WinVista\",\"Platform_Version\":\"6.0\",\"Win32\":true}",
        "5122907b6f3da305c35e5befab4eedce\t{\"Platform_Version\":\"5.0\"}",
        "51514f9119474db62acb71d5abb0b308\t{\"Platform_Version\":\"8.1\"}",
        "5183a95620bdccb71ac8768ac941e9fd\t{\"Platform_Version\":\"10.1\"}",
        "51630932a2fffd212660c25f67f452f5\t{\"Browser_Bits\":\"32\",\"Platform\":\"WinXP\",\"Platform_Version\":\"5.1\",\"Win32\":true}",
        "51edb84a4eb4b24973e65ef7af7e12b9\t{\"Platform_Version\":\"4.2\",\"isTablet\":true}",
        "514863d69d7f0ad18ba5700643bc1651\t{\"Platform_Version\":\"4.3\"}",
        "516b6991d141d83461699f61a1e192f2\t{\"Platform_Version\":\"4.2\",\"isTablet\":true}",
        "51afd4754c8022a6ad141320e0d8db63\t{\"Platform_Version\":\"4.2\",\"isTablet\":true}",
        "51ac57a8cd3ee25cebbd5814ff588173\t{\"Platform_Version\":\"5.0\"}",
        "51691e59546e15e51b74a49f07babf72\t{\"Platform_Version\":\"4.4\",\"isTablet\":true}",
        "51d2dc2354752ba8d3ae39b8d515883d\t{\"Browser_Bits\":\"32\",\"Platform\":\"Android\"}",
        "51442a0554b4af1b001d69bad9e47bcf\t{\"Browser_Bits\":\"32\",\"Platform\":\"SymbianOS\"}",
        "5183cad6febdce85814fd1c84a3ef7af\t{\"Browser_Bits\":\"32\",\"Platform\":\"Android\",\"isTablet\":true}",
        "511e02282db291cb135e38a0fd47a10c\t{\"Browser_Bits\":\"32\",\"Platform\":\"MacOSX\",\"Platform_Version\":\"10.9\"}",
        "51ad51e7f7697e54aa069e69bc83006a\t{\"Browser_Bits\":\"32\",\"Platform\":\"Win8.1\",\"Platform_Version\":\"6.3\",\"Win32\":true}",
        "5184998c6db7a045b1568ef73afd6127\t{\"Browser_Bits\":\"32\",\"Platform\":\"MacOSX\",\"Platform_Version\":\"10\"}",
        "51ed148e22fb53d2f6dd553e4e73f025\t{\"Browser_Bits\":\"32\",\"Platform\":\"Win8.1\",\"Platform_Version\":\"6.3\",\"Win32\":true}",
        "51b421b4973f96c9d14921c71566e42b\t{\"Platform_Version\":\"8.3\"}",
        "51a8205bfea85bbe858fb041a4f837a5\t{\"Browser_Bits\":\"32\",\"Platform\":\"WinVista\",\"Platform_Version\":\"6.0\",\"Win32\":true}",
        "51d0db95dbf48958366ab0ed44c21ceb\t{\"Browser_Bits\":\"32\",\"Platform\":\"Win8.1\",\"Platform_Version\":\"6.3\",\"Win32\":true}",
        "519179bc10a6e39f6e344a4e1905d6f4\t{\"Browser_Bits\":\"32\",\"Platform\":\"WinVista\",\"Platform_Version\":\"6.0\",\"Win32\":true}",
        "51f331e31d757ab880d835a3f3eef564\t{\"Browser_Bits\":\"32\",\"Platform\":\"WinXP\",\"Platform_Version\":\"5.1\",\"Win32\":true}",
        "51186d4e0f5766fb7ae3205b98a1a853\t{\"Browser_Bits\":\"32\",\"Platform\":\"WinVista\",\"Platform_Version\":\"6.0\",\"Win32\":true}",
        "51d2c89de0c4a3ddf6f39a657ec4e933\t{\"Browser_Bits\":\"32\",\"Platform\":\"Win7\",\"Platform_Version\":\"6.1\",\"Win32\":true}",
        "517672eaae8403ff37e08e642befa914\t{\"Browser_Bits\":\"32\",\"Platform\":\"Linux\"}",
        "519b73f9a046a7dce35fea4c8151db75\t{\"Browser_Bits\":\"32\",\"Platform\":\"Win7\",\"Platform_Version\":\"6.1\",\"Win32\":true}",
        "5138c080c680c8ff64af32cd9a44f5e2\t{\"Browser_Bits\":\"32\",\"Platform\":\"WinXP\",\"Platform_Version\":\"5.1\",\"Win32\":true}",
        "5150f341812b0289749adffcf5bdcbd1\t{\"Browser_Bits\":\"32\",\"Platform\":\"MacOSX\",\"Platform_Version\":\"10\"}",
        "51090df11a6359da193b896852d1dce9\t{\"Browser_Bits\":\"32\",\"Platform\":\"Win8\",\"Platform_Version\":\"6.2\",\"Win32\":true}",
        "516d2a22efff52ff0077eff37c7e274b\t{\"Browser_Bits\":\"32\",\"Platform\":\"Win8.1\",\"Platform_Version\":\"6.3\",\"Win32\":true}",
        "51ba791d71ae42606e4df0c790285d45\t{\"Browser_Bits\":\"32\",\"Platform\":\"WinXP\",\"Platform_Version\":\"5.1\",\"Win32\":true}",
        "51338edadcf10edf6b3d890e6a455b87\t{\"Browser_Bits\":\"32\",\"Platform\":\"FreeBSD\"}",
        "51582f8e1d3720caca8f7c9284c84229\t{\"Browser_Bits\":\"32\",\"Platform\":\"Win8\",\"Platform_Version\":\"6.2\",\"Win32\":true}",
        "51e3712132abf6ebcb875325baf71605\t{\"Browser_Bits\":\"32\",\"Platform\":\"Linux\"}",
        "51468488647c8d365b8620f8c8d7d303\t{\"Browser_Bits\":\"32\",\"Platform\":\"Linux\"}",
        "519e31758b476948345b926add8c9950\t{\"Browser_Bits\":\"32\",\"Platform\":\"MacOSX\",\"Platform_Version\":\"10.9\"}",
        "5134a765769a4adb44db47fbb4712b58\t{\"Browser_Bits\":\"32\",\"Platform\":\"Win8\",\"Platform_Version\":\"6.2\",\"Win32\":true}",
        "516398fee326b11be091b2466d0df85a\t{\"Browser_Bits\":\"32\",\"Platform\":\"WinXP\",\"Platform_Version\":\"5.1\",\"Win32\":true}",
        "51a1ffd0beb201d86f4145ca11ecc041\t{\"Browser_Bits\":\"32\",\"Platform\":\"MacOSX\",\"Platform_Version\":\"10\"}",
        "513507a5231babf0d999008713304010\t{\"Browser_Bits\":\"32\",\"Platform\":\"Win7\",\"Platform_Version\":\"6.1\",\"Win32\":true}",
        "511a5e2a88bd7ac78637b5841d008f73\t{\"Browser_Bits\":\"32\",\"Platform\":\"Win8.1\",\"Platform_Version\":\"6.3\",\"Win32\":true}",
        "5111f8c43d8decae0b59fed5710aff70\t[]",
        "512a8c7654001951f3955b50627bda0c\t{\"Browser_Bits\":\"32\",\"Platform\":\"WinXP\",\"Platform_Version\":\"5.1\",\"Win32\":true}",
        "51706d358b9464afddfc0291ec6a107d\t{\"Browser_Bits\":\"32\",\"Platform\":\"MacOSX\",\"Platform_Version\":\"10.9\"}",
        "5152651a8a188f29dcaab214134b3b70\t{\"Browser_Bits\":\"32\",\"Platform\":\"Win8.1\",\"Platform_Version\":\"6.3\",\"Win32\":true}",
        "51630a4731439f6e95ac19529919f983\t{\"Browser_Bits\":\"32\",\"Platform\":\"Win8\",\"Platform_Version\":\"6.2\",\"Win32\":true}",
        "510c349b721dd08d4a013064a62378b1\t{\"Browser_Bits\":\"32\",\"Platform\":\"Win7\",\"Platform_Version\":\"6.1\",\"Win32\":true}",
        "51f08539353df88718cf5554e08f9502\t{\"Browser_Bits\":\"32\",\"Platform\":\"WinXP\",\"Platform_Version\":\"5.1\",\"Win32\":true}",
        "51f2e0e95ce813cf19a3281bf6b0a122\t{\"Browser_Bits\":\"32\",\"Platform\":\"MacOSX\",\"Platform_Version\":\"10.10\"}",
        "514c027ed2b078d0d5d89481a5adfda5\t{\"Browser_Bits\":\"32\",\"Platform\":\"WinXP\",\"Platform_Version\":\"5.1\",\"Win32\":true}",
        "5110192c378c5851527e883d20fe2492\t{\"Browser_Bits\":\"32\",\"Platform\":\"Win8.1\",\"Platform_Version\":\"6.3\",\"Win32\":true}",
        "5100b9724ad0f40d2ac8409f6b2d5eb5\t{\"Browser_Bits\":\"32\",\"Platform\":\"FreeBSD\"}",
        "5100340c027ca67241c7279e30d64c8c\t{\"Browser_Bits\":\"32\",\"Platform\":\"Linux\"}",
        "512882f67f84e9bbce5a9f4853050681\t{\"Browser_Bits\":\"32\",\"Platform\":\"WinXP\",\"Platform_Version\":\"5.2\",\"Win32\":true}",
        "513ef50df942e4fe05e549333d52f108\t{\"Browser_Bits\":\"32\",\"Platform\":\"WinXP\",\"Platform_Version\":\"5.2\",\"Win32\":true}",
        "51e34eb33f99685ffc8db2b1de0e4b15\t{\"Browser_Bits\":\"32\",\"Platform\":\"WinVista\",\"Platform_Version\":\"6.0\",\"Win32\":true}",
        "51882670b613c1f151e01a00cfee462b\t{\"Browser_Bits\":\"32\",\"Platform\":\"MacOSX\",\"Platform_Version\":\"10\"}",
        "5184fc6b460632aca9f8d4635ccc90de\t{\"Browser_Bits\":\"32\",\"Platform\":\"MacOSX\",\"Platform_Version\":\"10.10\"}",
        "512855ddbe2e45903b53ef2e4fc3f070\t{\"Browser_Bits\":\"32\",\"Platform\":\"WinXP\",\"Platform_Version\":\"5.2\",\"Win32\":true}",
        "517a2e44c0bf547083c7bc6c382a7c26\t{\"Browser_Bits\":\"32\",\"Platform\":\"MacOSX\",\"Platform_Version\":\"10.10\"}",
        "516aaece8d70ebdca51569ad2e9c105e\t{\"Browser_Bits\":\"32\",\"Platform\":\"MacOSX\",\"Platform_Version\":\"10.10\"}",
        "51ca15c1614b2294e1e5c592525c496a\t{\"Browser_Bits\":\"32\",\"Platform\":\"Win7\",\"Platform_Version\":\"6.1\",\"Win32\":true}",
        "51a9d119325cb313cc65a371c1078515\t{\"Browser_Bits\":\"32\",\"Platform\":\"ChromeOS\"}",
        "51eb5e65451868cd5c0a257ac5a5c82b\t{\"Browser_Bits\":\"32\",\"Platform\":\"WinXP\",\"Platform_Version\":\"5.2\",\"Win32\":true}",
        "51fccbb547aa094d26f3a32349487ae3\t{\"Browser_Bits\":\"32\",\"Platform\":\"MacOSX\",\"Platform_Version\":\"10.10\"}",
        "5186ab2bea44bed9d4526cc4ac68c315\t{\"Browser_Bits\":\"32\",\"Platform\":\"MacOSX\",\"Platform_Version\":\"10.9\"}",
        "514b0b69ced45afddc04bacb2e26064a\t{\"Browser_Bits\":\"32\",\"Platform\":\"MacOSX\",\"Platform_Version\":\"10.9\"}",
        "517c75ac0a238fc813d447feeb9c754f\t{\"Browser_Bits\":\"32\",\"Platform\":\"Win8.1\",\"Platform_Version\":\"6.3\",\"Win32\":true}",
        "5131787454f4911054501ed6c5fe7e6c\t{\"isTablet\":true}",
        "51b7e7dab1839e481491329e74fcb7a8\t{\"Platform_Version\":\"4.2\",\"isTablet\":true}",
        "514639d754753d0b55c865ef6ae88811\t{\"isTablet\":true}",
        "51b18ea9aa15bc222aa25cb8ef34dad5\t{\"Platform_Version\":\"4.4\",\"isTablet\":true}",
        "516779556fa0163ebbf4b6ae87f0ea31\t{\"Platform_Version\":\"4.3\"}",
        "51e24563b75551063478d7494674cebe\t{\"Platform_Version\":\"5.1\"}",
        "510958e8b05083bfec08444f1a0bbe01\t{\"Platform_Version\":\"4.4\",\"isTablet\":true}",
        "515e54ec26a0259fc7c626ada3d1b635\t{\"Browser_Bits\":\"32\",\"Platform\":\"Android\",\"isMobileDevice\":true}",
        "510efaa2ab68e1e2daeb42eac03d7d8b\t{\"isTablet\":true}",
        "51ae6662f12cfb7ae123240d1be08e20\t{\"Browser_Bits\":\"32\",\"Platform\":\"Android\",\"isMobileDevice\":true}",
        "51ebd004570f780ec9dfe3cce2c1fa35\t{\"Browser_Bits\":\"32\",\"Platform\":\"Linux\"}",
        "51b7e7334b6ce3b6ca4b82ecf2bc4ff7\t{\"Platform_Version\":\"4.2\",\"isTablet\":true}",
        "513750e6b2bf6ae4286fe2511be21824\t{\"Platform_Version\":\"4.4\",\"isTablet\":true}",
        "51b92f2926be5d5c5cb8d147ee8f4392\t{\"Platform_Version\":\"4.4\",\"isTablet\":true}",
        "51d39c02e1a7a38441899475380e1d23\t{\"Platform_Version\":\"4.4\",\"isTablet\":true}",
        "511cfb312935985eee4566bd08bef99d\t{\"Platform_Version\":\"6.1\"}",
        "51eb030b98d079a3bc44ab488a647b00\t{\"Browser_Bits\":\"32\",\"Platform\":\"FreeBSD\"}",
        "5110465dd96e2c17ba9dfa2d9f71c17e\t{\"Platform_Version\":\"4.2\",\"isTablet\":true}",
        "519636509cd7626ed9de0164c4a40222\t{\"Platform_Version\":\"4.3\",\"isTablet\":true}",
        "51a4ec3ca4a7587a4706d2c44c9b9c04\t[]",
        "5111e01d0d2ac294d2c83efd6257bf7a\t{\"Browser_Bits\":\"32\",\"Platform\":\"MacOSX\",\"Platform_Version\":\"10\"}",
        "51cc46cd71f4bd3ec715f79b7da5868c\t{\"Platform_Version\":\"4.4\",\"isTablet\":true}",
        "51ba460a2f7f8faf4fe46fcc4b7fec78\t{\"Browser_Bits\":\"32\",\"Platform\":\"MacOSX\",\"Platform_Version\":\"10.10\"}",
        "51e35d6f741d08f383e5949bd20c6c21\t{\"Platform_Version\":\"4.3\",\"isTablet\":true}",
        "5186299d4e9e80f9681531e8664d74e5\t{\"Browser_Bits\":\"32\",\"Platform\":\"MacOSX\",\"Platform_Version\":\"10.9\"}",
        "5136a54b92bb7a03fa700eeea8d7322a\t{\"Platform_Version\":\"4.2\",\"isTablet\":true}",
        "51d2bde96f52c467012998472e21724f\t{\"Platform_Version\":\"4.2\",\"isTablet\":true}",
        "51d149b9018fc9e6395d29a8b026f0ae\t{\"Platform_Version\":\"4.2\",\"isTablet\":true}",
        "51d437d31f6847d7d5aec348057c7560\t{\"Platform_Version\":\"5.0\",\"isTablet\":true}",
        "51b424eb1676098c685d6c24da809e12\t{\"Platform_Version\":\"4.3\",\"isTablet\":true}",
        "51032a5f15f4780b683a7dcc3b5214f4\t{\"Platform_Version\":\"4.4\",\"isTablet\":true}",
        "51149951d464ac470abde1a8ba38abc6\t{\"Platform_Version\":\"4.3\",\"isTablet\":true}",
        "51544ec8181b5d42de6ed42312711aa4\t{\"Platform_Version\":\"4.3\",\"isTablet\":true}",
        "51306bac649ef22bb0c593f25474eadf\t{\"Platform_Version\":\"4.2\",\"isTablet\":true}",
        "51fb76a05dcff4e1b6527e028d2bb08c\t{\"Platform_Version\":\"4.3\",\"isTablet\":true}",
        "51bff2948b4365843799487a7c121a68\t{\"Platform_Version\":\"4.2\",\"isTablet\":true}",
        "5160753905a06e71a522478f68e04bd1\t{\"Platform_Version\":\"4.2\",\"isTablet\":true}",
        "510401c2344a8698c53298551ad906be\t{\"Platform_Version\":\"4.2\",\"isTablet\":true}",
        "5100e70e42380b3fd2024adff3458690\t{\"Platform_Version\":\"4.3\",\"isTablet\":true}",
        "51f5443a882918088d8c92f6ca7abfbc\t{\"Platform_Version\":\"9.0\"}",
        "5163a2d04e63404186599d393362689e\t{\"Platform_Version\":\"8.3\",\"isTablet\":true}",
        "5161bc3bbb151e380ebbf4ea9887e267\t{\"Platform_Version\":\"9.2\",\"isTablet\":true}",
        "51180c097a0e6c91f85e19c5aa046713\t{\"Platform_Version\":\"4.4\",\"isTablet\":true}",
        "51cdb13335f94bf64c8917ef7868d626\t{\"Platform_Version\":\"4.2\",\"isTablet\":true}",
        "51e91154146893378e64068d70894b70\t{\"Platform_Version\":\"4.3\",\"isTablet\":true}",
        "51606fc9e775d548ce94c73602f5fd8f\t{\"Platform_Version\":\"4.2\",\"isTablet\":true}",
        "514c566279ba5b2842a22d363208d41c\t{\"Platform_Version\":\"4.4\",\"isTablet\":true}",
        "510f4c047b816bf22d16abfed6c1a005\t{\"Platform_Version\":\"4.2\",\"isTablet\":true}",
        "516c57cb613e4b4c2025ce075bd0523f\t{\"Platform_Version\":\"4.3\",\"isTablet\":true}",
        "51e6a3766bf6d13dcd8e4b0f034aa75f\t{\"Platform_Version\":\"4.2\",\"isTablet\":true}",
        "5193cc9a22a6c32b946c72c62bc4bab6\t{\"Platform_Version\":\"5.0\",\"isTablet\":true}",
        "515b5487a77160d859fcf76c29e9aaac\t{\"Platform_Version\":\"10.0\",\"isTablet\":true}",
        "51f511c8c49e74b7befe69966b09376d\t{\"Browser_Bits\":\"32\",\"Platform\":\"MacOSX\",\"Platform_Version\":\"10.9\"}",
        "51a55898bb6bc957502ce87b688cc568\t{\"Platform_Version\":\"4.2\",\"isTablet\":true}",
        "51f6fb224a1df83450233c69eb44deb2\t{\"Platform_Version\":\"4.2\",\"isTablet\":true}",
        "5146b52129ccf039892292aba531a41b\t{\"Platform_Version\":\"4.2\",\"isTablet\":true}",
        "51e9ed6815b3084b336752e738fabbee\t{\"Browser_Bits\":\"32\",\"Platform\":\"Win10\",\"Platform_Version\":\"10.0\",\"Win32\":true}",
        "5159e0e34b0459865db04a3693b1dde6\t{\"Platform_Version\":\"10.1\",\"isTablet\":true}",
        "51cb943668663175d42f9e46c0d18381\t{\"Browser_Bits\":\"32\",\"Platform\":\"WinXP\",\"Platform_Version\":\"5.2\",\"Win32\":true}",
        "51d790088b67567e580b16fe45f500d9\t{\"Platform_Version\":\"4.4\",\"isTablet\":true}",
        "513e75d671af2cef76a7acf884710a9b\t{\"Platform_Version\":\"4.4\",\"isTablet\":true}",
        "51d149844c158925d8a20203d7450793\t{\"Platform_Version\":\"4.2\",\"isTablet\":true}",
        "51e696a1278cf583b51246c55d654f67\t{\"Platform_Version\":\"4.2\",\"isTablet\":true}",
        "51813a053a49265e7a4c1f65af32c116\t{\"Browser_Bits\":\"32\",\"Platform\":\"Win10\",\"Platform_Version\":\"6.4\",\"Win32\":true}",
        "5119520e8f1123cc454e4bfc17c5d7ba\t{\"Browser_Bits\":\"32\",\"Platform\":\"FreeBSD\"}",
        "5183995c90e45f408b5a88d006e13705\t{\"Platform_Version\":\"8.0\"}",
        "519dec826aeef756d3b033aa9e0a1a3f\t{\"Platform_Version\":\"4.2\",\"isTablet\":true}",
        "51c6b421c2c36b347adb8a863d1c2097\t{\"Platform_Version\":\"4.2\",\"isTablet\":true}",
        "51596ffa0f723c0cf07952eb6ad8a9ef\t{\"Browser_Bits\":\"32\",\"Platform\":\"Win32\",\"Win32\":true}",
        "5117457e08eb7a7518a4eb1ace73b49b\t{\"Browser_Bits\":\"32\",\"Platform\":\"Win32\",\"Win32\":true}",
        "515c9c79da4b03cc88bb3dd8496ada00\t{\"Browser_Bits\":\"32\",\"Platform\":\"MacOSX\",\"Platform_Version\":\"10.10\"}",
        "51f75bbfe786433b4b5bf825216014b0\t{\"Platform_Version\":\"8.4\"}",
        "5116043bf245227b6a5d7f06004e8008\t{\"Platform_Version\":\"8.3\"}",
        "516490f203d72c49073c85ed52130868\t{\"Platform_Version\":\"9.3\"}",
        "5164aaaf0ab837df217adbe3c3dfb9b5\t{\"Platform_Version\":\"8.3\"}",
        "5146a330f34d00eccca04161261e99cb\t{\"Platform_Version\":\"10.0\",\"isTablet\":true}",
        "51d357bb4c3d9650c5470cd9e5da1d20\t{\"Browser_Bits\":\"32\",\"Platform\":\"MacOSX\",\"Platform_Version\":\"10\"}",
        "515b567f52834da63e81fa4bebe9f89f\t{\"Platform_Version\":\"5.0\"}",
        "51935033f0d07ddea5d87949ba9db5e5\t{\"Platform_Version\":\"8.1\"}",
        "51afb82cdbe21810148da783be5a5618\t{\"Platform_Version\":\"7.1\"}",
        "516aa98814ff7e4ac01abdead8b535be\t{\"Browser_Bits\":\"32\",\"Platform\":\"MacOSX\",\"Platform_Version\":\"10.11\"}",
        "51a3d605b1977912fb748e5cd8438312\t[]",
        "5179461cc67399749449c23b18c631f5\t[]",
        "51b13a1269c6104ed522ee9bb0931257\t{\"Browser_Bits\":\"32\",\"Platform\":\"Win10\",\"Platform_Version\":\"6.4\",\"Win32\":true}",
        "5125bfc4c76439b28e85171b9dcec099\t{\"Browser_Bits\":\"32\",\"Platform\":\"Win8.1\",\"Platform_Version\":\"6.3\",\"Win32\":true}",
        "51820ef90983350ef7a20a595a99f0ac\t[]",
        "514dec4bebb6437c2bc95661f1c8477d\t{\"Browser_Bits\":\"32\",\"Platform\":\"Android\"}",
        "51fd8e8e8c89565a295d13f6ae9c5448\t[]",
        "5155f13304fe165e0cb134e89e5c8aa7\t{\"Browser_Bits\":\"32\",\"Platform\":\"Android\",\"Platform_Version\":\"4.2\"}",
        "51ee906853c38bf5e86ac76ae860a869\t{\"Browser_Bits\":\"32\",\"Platform\":\"Android\",\"Platform_Version\":\"4.2\"}",
        "514a3071966e8d92e35bab0ede898a8b\t[]",
        "5169e696f35b1699567798f1460a35da\t{\"Browser_Bits\":\"32\",\"Platform\":\"WinVista\",\"Platform_Version\":\"6.0\",\"Win32\":true}",
        "518ae9b377c1660db7ff62d712f8303e\t{\"Browser_Bits\":\"32\",\"Platform\":\"WinVista\",\"Platform_Version\":\"6.0\",\"Win32\":true}",
        "511160ff501ac53f649784982ba763cb\t{\"Browser_Bits\":\"32\",\"Platform\":\"Android\",\"isMobileDevice\":true}",
        "51538647c1211dda86946c7758c3632f\t{\"Browser_Bits\":\"32\",\"Platform\":\"iOS\",\"Platform_Version\":\"10.1\",\"isTablet\":true}",
        "5154c410f11f9721cae42da5220c7ec7\t{\"Browser_Bits\":\"32\",\"Platform\":\"iOS\",\"Platform_Version\":\"9.1\",\"isTablet\":true}",
        "516a9d5574e64a99ba99bdf2b2b045f8\t{\"Browser_Bits\":\"32\",\"Platform\":\"iOS\",\"Platform_Version\":\"9.1\",\"isTablet\":true}",
        "5151a50594952526f2346dbb1dfd0b62\t{\"Browser_Bits\":\"32\",\"Platform\":\"iOS\",\"Platform_Version\":\"8.4\",\"isTablet\":true}",
        "51d7c9ad3ef4123423ef85b74c60f844\t{\"Browser_Bits\":\"32\",\"Platform\":\"iOS\",\"Platform_Version\":\"9.2\",\"isTablet\":true}",
        "5120b0bc61d8451b471008342af842ea\t{\"Browser_Bits\":\"32\",\"Platform\":\"iOS\",\"Platform_Version\":\"8.1\",\"isTablet\":true}",
        "51e8881ac1c3df19e2e4cb39edca1c6e\t{\"Browser_Bits\":\"32\",\"Platform\":\"iOS\",\"Platform_Version\":\"7.0\"}",
        "5169ec757b57cc30df4c18d8d2441273\t{\"Browser_Bits\":\"32\",\"Platform\":\"Android\"}",
        "51945957f719e99c25835ac5297caa42\t{\"Browser_Bits\":\"32\",\"Platform\":\"JAVA\"}",
        "51c36bc0dc5796c7b76c4dbe3246fcf3\t{\"Browser_Bits\":\"32\",\"Platform\":\"Android\"}",
        "5146bd027624ad2f312d3ff261540577\t{\"Browser_Bits\":\"32\",\"Platform\":\"JAVA\"}",
        "51610e3c6401868fe54259e6a2661be0\t{\"Browser_Bits\":\"32\",\"Platform\":\"SunOS\"}",
        "51749e8028002b3db46c7e17a8272e65\t{\"Platform_Version\":\"8.3\",\"isTablet\":true}",
        "519c79723a40c27e70d530ad3c6d9fff\t{\"Platform_Version\":\"9.1\"}",
        "51fb1ff3d506d51ee93b1770b6d40104\t{\"Platform_Version\":\"10.1\",\"isTablet\":true}",
        "5125086227dd0416dcc73941db05ad0b\t{\"Platform_Version\":\"8.1\"}",
        "518f4f66789a7d5fe37f5c63c6a9bc64\t{\"Platform_Version\":\"8.0\",\"isTablet\":true}",
        "5100e8697c2b6791402715441968b8be\t{\"Platform_Version\":\"9.0\",\"isTablet\":true}",
        "51f9fd7c12d164849c8881652e54df57\t{\"Platform_Version\":\"8.2\"}",
        "518d771c6e5bb815d57d5aac785ae6fc\t{\"Platform_Version\":\"8.4\"}",
        "5112b48257f1e2134b9f8a041188050f\t{\"Platform_Version\":\"8.1\"}",
        "51233482fa9c9e8dd737c5c1efd0939c\t{\"Platform_Version\":\"10.1\",\"isTablet\":true}",
        "51ce004ce60a83c8489d2cf34d80cc57\t{\"Platform_Version\":\"7.0\"}",
        "511bbd5ef2559a3beaeb71c5ae6500af\t{\"Browser_Bits\":\"32\",\"Platform\":\"Linux\"}",
        "51ee543d01d9a8675a0dc2ef7ab511ae\t{\"Platform_Version\":\"10.3\"}",
        "51e4844a5e72fe9e93df67bbc9d00961\t{\"Platform_Version\":\"10.1\",\"isTablet\":true}",
        "51d7c6a4a026dc6ad57ad9b56f3f3cd6\t{\"Platform_Version\":\"10.2\"}",
        "51d241e63ad59644d7f6b2fa88c0a4eb\t{\"Platform_Version\":\"8.3\",\"isTablet\":true}",
        "5117cc539b6e904297be7858e9457a40\t{\"Platform_Version\":\"7.0\",\"isTablet\":true}",
        "51d4bc7cdd2d4b8f8e1f474084d19b9b\t{\"Platform_Version\":\"10.1\",\"isTablet\":true}",
        "51a29e1a4cca4aac9e4ce9a3b2f6c962\t{\"Platform_Version\":\"9.0\",\"isTablet\":true}",
        "51365e88af8e8409379ad1a0c1ac8da5\t{\"isTablet\":true}",
        "5109d93e4e2348d091fdb91021d7ca15\t{\"Platform_Version\":\"8.0\",\"isTablet\":true}",
        "51264dccf3d040c75e0e8fd5653a0b5e\t{\"Platform_Version\":\"10.1\"}",
        "512c8c2bd7ccd8ab60f18d3ac36dd78b\t{\"isTablet\":true}",
        "516528c49a9d83f7abe7692e0883291a\t{\"Platform_Version\":\"8.3\"}",
        "511ef96160c20004287f9191acf97998\t{\"Platform_Version\":\"9.3\"}",
        "513aac723214c36516c578f9310f9d7f\t{\"Platform_Version\":\"10.0\",\"isTablet\":true}",
        "51556ea6df82f840cfa127f021617993\t{\"Platform_Version\":\"7.1\",\"isTablet\":true}",
        "51297986e67f62c51794b7422e14e14f\t{\"Platform_Version\":\"7.0\"}",
        "51a89fe666d1367fed75145b95c2fb5e\t[]",
        "51a61393ceb6147b602b9388a4392330\t{\"Browser_Bits\":\"32\",\"Platform\":\"MacOSX\",\"Platform_Version\":\"10.11\"}",
        "5197a85ce13e814e60d72f050e67312a\t{\"Browser_Bits\":\"32\",\"Platform\":\"MacOSX\",\"Platform_Version\":\"10.11\"}",
        "51aa56f182fcda750688fb9cf18f28e7\t{\"Platform_Version\":\"7.1\"}",
        "51f757e60670b976ade5aa37c4e67279\t{\"Browser_Bits\":\"32\",\"Platform\":\"iOS\",\"isMobileDevice\":true}",
        "51f38581e87cf34e66eba5243b728233\t{\"Platform_Version\":\"9.3\"}",
        "5108d9af7aa76351a837343ce7329391\t{\"Platform_Version\":\"9.1\"}",
        "51f90fde59cb2c1f11776004a87b895c\t{\"Platform_Version\":\"7.0\"}",
        "5151563ae0e515971f93104cb42d0330\t{\"Browser_Bits\":\"32\",\"Platform\":\"iOS\",\"Platform_Version\":\"9.3\"}",
        "516a99f02e45047975789d73df247eb2\t{\"Platform_Version\":\"8.1\"}",
        "5185d865fc6413d7e240b47aaac26a73\t{\"Platform_Version\":\"8.2\"}",
        "51948e36437d1d93ea69b325f4279951\t{\"isTablet\":true}",
        "5133ee55fcece5d3f23749272ac5730b\t{\"Platform_Version\":\"9.1\"}",
        "51ff282dca8591d8c2cd25143916f60e\t{\"Platform_Version\":\"9.1\"}",
        "51091a72dacd1497f82799056a1391d1\t[]",
        "51909625eb7b25ab17266f343f4a092b\t{\"Platform_Version\":\"9.1\",\"isTablet\":true}",
        "51dfa7552c5857c7ced76a82b9a91527\t{\"Platform_Version\":\"8.1\",\"isTablet\":true}",
        "519b9f3190d64f53d65553df4736bd39\t{\"Platform_Version\":\"8.4\",\"isTablet\":true}",
        "51503278148e59778b9d3fe2eac83a25\t{\"Browser_Bits\":\"32\",\"Platform\":\"Linux\"}",
        "51b4e21ab81e6a0c72da0b4770cad87b\t[]",
        "510a21643fcf7c30a59241adf3988e4a\t{\"Browser_Bits\":\"32\",\"Platform\":\"Android\",\"Platform_Version\":\"4.3\",\"isMobileDevice\":true}",
        "51b8af0b088d2ca89936ff7961439ab0\t{\"Platform_Version\":\"7.1\"}",
        "51b7f76cea6e22e7d81d1e2248a400ca\t[]",
        "511c17d774202f93799ffb23bdc4ee54\t{\"Browser_Bits\":\"32\",\"Platform\":\"FreeBSD\"}",
        "517cec68eb4b8168466290229d457e6d\t[]",
        "517d8936ab9bb88e74acd4cf333c0a9a\t[]",
        "513b1e9c9f833d54f42a309dd817f8b3\t{\"Browser_Bits\":\"32\",\"Platform\":\"MacOSX\",\"Platform_Version\":\"10\"}",
        "51c961de7b4c7b62f06a094f12da4352\t{\"Browser_Bits\":\"32\",\"Platform\":\"MacOSX\",\"Platform_Version\":\"10\"}",
        "510b399d964bb9f538064640d7945507\t[]",
        "5168e9119d34c791d7619fa47513147e\t{\"Browser_Bits\":\"32\",\"Platform\":\"MacOSX\",\"Platform_Version\":\"10.10\"}",
        "512d517503e02bde9b79a0cbdb4e18f6\t{\"Browser_Bits\":\"32\",\"Platform\":\"Win8\",\"Platform_Version\":\"6.2\",\"Win32\":true}",
        "519feabdebdcea13f18abb245b89efbe\t{\"Browser_Bits\":\"32\",\"Platform\":\"WinXP\",\"Platform_Version\":\"5.2\",\"Win32\":true}",
        "510f01c98d3e7effc66affe542322c9b\t{\"Browser_Bits\":\"32\",\"Platform\":\"WinXP\",\"Platform_Version\":\"5.2\",\"Win32\":true}",
        "514f084a6142a251ebd3a9c0cdfa0e1a\t{\"Browser_Bits\":\"32\",\"Platform\":\"WinVista\",\"Platform_Version\":\"6.0\",\"Win32\":true}",
        "514dd40e61de0eb09f13207c37999eab\t{\"Browser_Bits\":\"32\",\"Platform\":\"Win8\",\"Platform_Version\":\"6.2\",\"Win32\":true}",
        "51279bc1968c395f1a9374098425ab06\t{\"Browser_Bits\":\"32\",\"Platform\":\"HP-UX\"}",
        "51f91877d3ea4a7e255d5fa587f9a62b\t{\"Browser_Bits\":\"32\",\"Platform\":\"Linux\"}",
        "513bdf7cf3e4559f98882a48252213ab\t{\"Browser_Bits\":\"32\",\"Platform\":\"WinXP\",\"Platform_Version\":\"5.1\",\"Win32\":true}",
        "51f20af382792bd828130e90a6bbf384\t{\"Browser_Bits\":\"32\",\"Platform\":\"Win8\",\"Platform_Version\":\"6.2\",\"Win32\":true}",
        "515a6b865c64c435dd7a982110d55c22\t{\"Browser_Bits\":\"32\",\"Platform\":\"Win8\",\"Platform_Version\":\"6.2\",\"Win32\":true}",
        "51f90282c5ac7092832fcf13d6af0bdc\t{\"Platform\":\"WinVista\",\"Platform_Version\":\"6.0\"}",
        "51fe4e560913d46bfd8b238030cb462d\t{\"Platform\":\"WinVista\",\"Platform_Version\":\"6.0\"}",
        "51face93549e93693dd98bd0918bc3f3\t{\"Platform\":\"Win8\",\"Platform_Version\":\"6.2\"}",
        "51cee8762185f6c08dbb87d2db93aed3\t{\"Browser_Bits\":\"32\",\"Platform\":\"Win10\",\"Platform_Version\":\"6.4\",\"Win32\":true}",
        "51118456538aaae723349539ed792a90\t{\"Browser_Bits\":\"32\",\"Platform\":\"FreeBSD\"}",
        "51cd7fcfa32c857471b54e5bd3c3e19f\t{\"Browser_Bits\":\"32\",\"Platform\":\"Win8\",\"Platform_Version\":\"6.2\",\"Win32\":true}",
        "51c85fd1c0a1596f728ecdbb804456bb\t{\"Browser_Bits\":\"32\",\"Platform\":\"WinXP\",\"Platform_Version\":\"5.2\",\"Win32\":true}",
        "51ffabf85852b3261c48b0e50cf23037\t{\"Browser_Bits\":\"32\",\"Platform\":\"Win8.1\",\"Platform_Version\":\"6.3\",\"Win32\":true}",
        "51ae50c7f07e0013691a7efe44a4cad7\t{\"Browser_Bits\":\"32\",\"Platform\":\"WinXP\",\"Platform_Version\":\"5.1\",\"Win32\":true}",
        "515c31e168e5d671cdcd931137054140\t{\"Browser_Bits\":\"32\",\"Platform\":\"WinXP\",\"Platform_Version\":\"5.2\",\"Win32\":true}",
        "512ad06a277234aa42dfe8033ce9bb08\t{\"Browser_Bits\":\"32\",\"Platform\":\"Linux\"}",
        "5198e7659df772749f18c927eb390c16\t{\"Browser_Bits\":\"32\",\"Platform\":\"Win8.1\",\"Platform_Version\":\"6.3\",\"Win32\":true}",
        "51336837a798218568fb25734c1be79d\t{\"Browser_Bits\":\"32\",\"Platform\":\"Win7\",\"Platform_Version\":\"6.1\",\"Win32\":true}",
        "51fb0f7ded1a1c868138967be62d1737\t{\"Browser_Bits\":\"32\",\"Platform\":\"Win8.1\",\"Platform_Version\":\"6.3\",\"Win32\":true}",
        "5194faea55c873879e716a980e633022\t{\"Browser_Bits\":\"32\",\"Platform\":\"Linux\"}",
        "519bf701c4b8a5baabc742d74fd4c400\t{\"Platform_Version\":\"9.1\",\"isTablet\":true}",
        "51e20cae0cb52a105ab573fbb7539966\t{\"Browser_Bits\":\"32\",\"Platform\":\"WinVista\",\"Platform_Version\":\"6.0\",\"Win32\":true}",
        "513bca6976a2692d5252e4ea3cd77631\t{\"Browser_Bits\":\"32\",\"Platform\":\"WinVista\",\"Platform_Version\":\"6.0\",\"Win32\":true}",
        "51367e0698585d1843a51f2bc78f2e2d\t{\"Browser_Bits\":\"32\",\"Platform\":\"iOS\",\"isMobileDevice\":true}",
        "514b46d84935b3ee1e546f079a222c8b\t{\"Platform_Version\":\"9.3\"}",
        "517e8316df225b3748a07cc45a8cc33f\t{\"Platform_Version\":\"8.3\",\"isTablet\":true}",
        "51e64f83e98a026971c588118f903dc6\t{\"Platform\":\"FirefoxOS\"}",
        "517e0f1c3f517b0177f17286f7b40ead\t{\"isTablet\":true}",
        "519f235a5f2b2a80579f6f1f6de3ebd7\t{\"Browser_Bits\":\"32\",\"Platform\":\"WinVista\",\"Platform_Version\":\"6.0\",\"Win32\":true}",
        "51413b843ae44ab38c019966d7c6263d\t{\"Browser_Bits\":\"32\",\"Platform\":\"WinXP\",\"Platform_Version\":\"5.2\",\"Win32\":true}",
        "516f8b33ad7373fa7ade84a9e2a462d6\t{\"Browser_Bits\":\"32\",\"Platform\":\"Linux\"}",
        "519b899d5bd439c22e98d716dfa8b1d2\t{\"Browser_Bits\":\"32\",\"Platform\":\"Linux\"}",
        "51ddcb9b79317980418d5b60720ea6f1\t{\"Browser_Bits\":\"32\",\"Platform\":\"MacOSX\",\"Platform_Version\":\"10\"}",
        "5186941feeb154c33c0fcd93fe9f087d\t{\"Browser_Bits\":\"64\",\"Platform\":\"IRIX64\"}",
        "51b6f8ecc96aca55b166619ad6dfa964\t{\"Browser_Bits\":\"32\",\"Platform\":\"Android\",\"isMobileDevice\":true}",
        "5117369680e8863cd9f9bd67d81db424\t{\"Platform_Version\":\"6.1\",\"isTablet\":true}",
        "5111ddca300b552da46af0c966842a7b\t{\"Platform_Version\":\"4.3\",\"isTablet\":true}",
        "5172ee1ef4e910bbcef0f94930b196c7\t{\"Browser_Bits\":\"32\",\"Platform\":\"MacOSX\",\"Platform_Version\":\"10.10\"}",
        "51bfedb18ef6b6c93e04f7bb5d560198\t{\"Browser_Bits\":\"32\",\"Platform\":\"WinXP\",\"Platform_Version\":\"5.2\",\"Win32\":true}",
        "512bcffb8fd0ae08c58c1fa6f4870a6f\t{\"Browser_Bits\":\"32\",\"Platform\":\"Win7\",\"Platform_Version\":\"6.1\",\"Win32\":true}",
        "512fb0cd7650a8ed5d758fc25c322db7\t{\"Browser_Bits\":\"32\",\"Platform\":\"MacOSX\",\"Platform_Version\":\"10\"}",
        "51fd9172cf713617f8228bbae24322c1\t{\"Browser_Bits\":\"32\",\"Platform\":\"WinXP\",\"Platform_Version\":\"5.1\",\"Win32\":true}",
        "5118a81248fac7033813f0c369acc8b7\t{\"Browser_Bits\":\"32\",\"Platform\":\"Win7\",\"Platform_Version\":\"6.1\",\"Win32\":true}",
        "51c03e1636aa93d3f364854a7859c670\t{\"Browser_Bits\":\"32\",\"Platform\":\"MacOSX\",\"Platform_Version\":\"10.10\"}",
        "516398db285f7438f17b80fb6a05a450\t{\"Browser_Bits\":\"32\",\"Platform\":\"OpenBSD\"}",
        "512722a619d469fd1cdb7dbab50299fc\t{\"Browser_Bits\":\"32\",\"Platform\":\"WinXP\",\"Platform_Version\":\"5.2\",\"Win32\":true}",
        "51736e3c9cc0281027ad0d26edfc23e0\t{\"Browser_Bits\":\"32\",\"Platform\":\"Win8.1\",\"Platform_Version\":\"6.3\",\"Win32\":true}",
        "51ac82b855a5bf2b322e2628d3837cfa\t{\"Browser_Bits\":\"32\",\"Platform\":\"HP-UX\"}",
        "51ada5fa7c036c7266c3837ac4d1a94f\t{\"Platform\":\"Win8\",\"Platform_Version\":\"6.2\"}",
        "511b5681a40d66577b93f9920a566390\t{\"Platform_Version\":\"8.0\"}",
        "5157bf9d6922cbf31e715e2489ddfd3c\t{\"Browser_Bits\":\"32\",\"Platform\":\"MacOSX\",\"Platform_Version\":\"10\"}",
        "5160394d265f3b78efe905a609e308e0\t{\"Platform_Version\":\"4.4\"}",
        "5117ceec0dec6a0fc2f8722a6f038d37\t{\"Browser_Bits\":\"32\",\"Platform\":\"iOS\",\"Platform_Version\":\"9.3\"}",
        "51ed0e72fc11504e482338670d034f50\t{\"Browser_Bits\":\"64\",\"Platform\":\"IRIX64\"}",
        "511775fb37c6a9ae7e0a0a5dade77371\t{\"Browser_Bits\":\"32\",\"Platform\":\"OpenVMS\"}",
        "516e07c008e5a6e0159317fe08a7d49f\t[]",
        "512fbabe0b1dbb3ce562d1647a5574aa\t[]",
        "51173a63eacbed7b155080bc89788b40\t[]"
    ]
}