{
    "content": [
        "351a1d2ad68bc401c305b0715268ecd7\t29\tisc header collector handlers.*",
        "352a7502b8f17714189dd6fee43c7331\t18\tmqqbrowser\\\/mini[\\d]\\.[\\d].*",
        "353c8773694fbf1251dec54d98b614a1\t11\tsurf knight",
        "354022db715e655b28cb12b0ebf4d196\t8\teventax\\\/.*",
        "35465d1451f76ba420d335c10ba465ac\t13\tlg\\\/u[\\d][\\d][\\d][\\d]\\\/v[\\d]\\.[\\d]",
        "358385b99db4dc262ee007b70abe3b90\t25\tamigavoyager\\\/[\\d]\\.[\\d] \\(.*amigaos.*",
        "3583fc2882858801bb8acfb2e5d67d80\t27\tvulcan\\-color up\\.browser\\\/[\\d]\\.[\\d].*",
        "358d385c335a5bdd51b259f81244e506\t9\tbitcomet\\\/.*"
    ]
}