{
    "content": [
        "9d3ef4de6a86f0f19c5ad42e93438a9e\t40\tdocweb link crawler \\(http\\:\\\/\\\/doc\\.php\\.net\\)",
        "9d3ff71b05581b2f029af0e2c2fd54f0\t34\tgoodreaderipad\\\/[\\d]\\.[\\d].* cfnetwork\\\/[\\d][\\d][\\d]\\.[\\d].*",
        "9d3ff71b05581b2f029af0e2c2fd54f0\t32\tgoodreaderipad\\\/[\\d]\\.[\\d].* cfnetwork\\\/[\\d][\\d][\\d].*",
        "9d3ff71b05581b2f029af0e2c2fd54f0\t29\tgoodreaderipad\\\/[\\d]\\.[\\d].* cfnetwork\\\/.*",
        "9d44d79e45040685a5d4e964dacce48e\t10\tca\\-crawler",
        "9d453bc0a95b65e41cdf53e4e3959709\t17\tkonka_a[\\d][\\d] kwap[\\d]\\.[\\d]",
        "9d482fc9a4c5a43c2a58eb0b3e74a60b\t9\tfly\\-mx[\\d][\\d][\\d]",
        "9d5b7360adaaba7872d3ba6ee627c1b6\t6\tsmbot\\\/.*",
        "9d5e3ecdeb4cdb7acfd63075ae046672\t13\tkevin http\\:\\\/\\\/.*",
        "9d8c21ab6885c241b9ca3cf3cdf03b94\t8\tlynx.[\\d]\\.[\\d].*",
        "9d8c21ab6885c241b9ca3cf3cdf03b94\t4\tlynx.*\tlynx",
        "9d903ccd68212f85fc2e700e4733e52f\t22\tadobe dreamweaver [\\d][\\d]\\.[\\d]\tadobe air [\\d][\\d]\\.[\\d] for ios",
        "9d903ccd68212f85fc2e700e4733e52f\t14\tadobe air [\\d][\\d]\\.[\\d]",
        "9d903ccd68212f85fc2e700e4733e52f\t13\tadobe air [\\d]\\.[\\d]",
        "9da07da60869bfb1088bf7c47fbc8ac5\t29\tvm[\\d][\\d][\\d][\\d]\\\/[\\d][\\d][\\d]\\.[\\d][\\d][\\d] up\\.browser\\\/[\\d]\\.[\\d].*",
        "9da0a109127b718469fbae700c03e157\t11\tpecl\\:\\:http\\\/.*",
        "9dbfefadda0a5d5eb5db05abfce0cd58\t33\tpanasonic\\-x[\\d][\\d][\\d]\\\/[\\d]\\.[\\d] up\\.browser\\\/[\\d]\\.[\\d].*",
        "9dc6fda64f0eca7e4b68a61882fdc375\t13\tgarlikcrawler",
        "9dca71d5ed3bc701f3692e7ba08350d7\t11\tintravnews\\\/.*",
        "9de87f9bde62d03f0edfe4f9e42e00e0\t37\tphilips\\-fisio [\\d][\\d][\\d]\\\/[\\d]\\.[\\d][\\d] up\\.browser\\\/[\\d]\\.[\\d].*",
        "9dea066a75e54f6a4c38df05db532000\t45\texactseek\\-pagereaper\\-.* \\(crawler@exactseek\\.com\\)",
        "9df22f196a33acd0b372fe502de51211\t7\tauto\\.de",
        "9df3538e7d576793a161291cc8e3f124\t8\tvadixbot",
        "9df3b01c60df20d13843841ff0d4482c\t14\taccess browser.*",
        "9df3b01c60df20d13843841ff0d4482c\t12\taccess robot.*"
    ]
}