{
    "content": [
        "c9502b071ed98e2e693f8489080ebea2\t[]",
        "c909fbd958941dcf2ec5249a45672f89\t[]",
        "c9bcacb4f9d82bb5f10f0a12b153401b\t[]",
        "c9eb0e7cec62c223a66675df648ccc63\t[]",
        "c9ce9c1832ebf692b0b80dd918ea5c90\t[]",
        "c9276e81630a7cd777aa5f449d289a01\t[]",
        "c91ca3b661ac84b1a4833b86f13ab158\t[]",
        "c97db53219c5f16d8050017eca319aee\t[]",
        "c908f70bfc555b45c95be9d5e5f416af\t[]",
        "c938a839f339db49d381e95497ff44ef\t[]",
        "c959e7c8b8a6fa85db19ee217e214c21\t{\"Browser_Bits\":\"32\",\"Platform\":\"Linux\"}",
        "c93b450c6e55bca06868d49e121048bf\t{\"Platform\":\"Win10\",\"Platform_Version\":\"6.4\"}",
        "c99b58b34ea7d898711b97b068e46c78\t{\"Platform\":\"Win8.1\",\"Platform_Version\":\"6.3\"}",
        "c9310eb3bcab1bc28b4f90157c6d2309\t{\"Platform\":\"iOS\",\"Platform_Version\":\"10.3\",\"Win32\":false,\"isMobileDevice\":true,\"isTablet\":true}",
        "c94d7642429b79609e7740dd5ef77dd0\t{\"Platform\":\"iOS\",\"Platform_Version\":\"9.3\",\"Win32\":false,\"isMobileDevice\":true,\"isTablet\":true}",
        "c958567ed189fc9d17af66ce56adef1e\t{\"Platform_Version\":\"4.2\"}",
        "c92bd62688f33ab4d06d0d1db1802a1f\t{\"Platform_Version\":\"4.2\"}",
        "c95f65973ccc77c6641d1bdcd63650e0\t{\"Platform_Version\":\"4.4\",\"isTablet\":true}",
        "c954a1be6255cd818151442ceef4576f\t{\"Platform_Version\":\"4.2\"}",
        "c94c81c16d2756bf0c0440c5682f0bbf\t{\"Platform_Version\":\"9.0\",\"isTablet\":true}",
        "c91a1e38881ed4e9c54a1153e8c14c8a\t[]",
        "c994fec778c52462c3f59632acba5ac2\t[]",
        "c9e9104e1dfa329a85f20beda13f078c\t{\"Platform_Version\":\"4.4\"}",
        "c9b17766bd16cf986098d400c77c3f0e\t{\"Platform_Version\":\"4.4\",\"isTablet\":true}",
        "c99a6106b6c11cab41ed0d5e58ae3fd2\t{\"Platform_Version\":\"4.4\",\"isTablet\":true}",
        "c9ece50c7312399509e16fa601eb3f65\t{\"Platform_Version\":\"6.0\"}",
        "c9d2db1d315d28911c7d06d216077e2e\t{\"Platform_Version\":\"4.2\",\"isTablet\":true}",
        "c979872885155babb715e9403f9bfc6e\t{\"Platform_Version\":\"7.1\"}",
        "c9e8198ff9ef268cfa2f3c1c50a5bf61\t{\"Platform\":\"iOS\",\"isTablet\":true}",
        "c93dbd7edf1890f7ac23c58bf8a1f2b3\t{\"Browser_Bits\":\"32\",\"Platform\":\"MacOSX\",\"Platform_Version\":\"10.11\"}",
        "c9f50a312f92d2848b76ae57e2799f4a\t{\"Platform_Version\":\"4.4\",\"isTablet\":true}",
        "c9d13b2676442c891e2969217e8707d2\t{\"Platform_Version\":\"4.2\"}",
        "c954d0e7021c7867400f18b91c482cf0\t{\"Platform_Version\":\"4.3\"}",
        "c943076f55dc9820ed46e4eb21a8348b\t[]",
        "c9e8cd77e599c8bbf06626beee3c574e\t{\"Platform_Version\":\"4.3\"}",
        "c965231a93964af7958c3ccd93081740\t[]",
        "c959e424f4a678e532db60fdf83b35d8\t{\"Browser_Bits\":\"32\",\"Platform\":\"Android\"}",
        "c949ee5628a4d6269caffd0e2f67d90d\t{\"Browser_Bits\":\"32\",\"Platform\":\"Win7\",\"Platform_Version\":\"6.1\",\"Win32\":true}",
        "c92a6c0763cbd9aa2c515c06d92fa339\t{\"Platform\":\"JAVA\"}",
        "c977c81f29b1437f25ea1e28a99589a7\t{\"Browser_Bits\":\"32\",\"Platform\":\"Android\",\"isMobileDevice\":true}",
        "c957142911f24200c884a3a4cff94848\t[]",
        "c90206558902ff9a12fffd2196eb66e1\t{\"Platform_Version\":\"5.0\"}",
        "c970518ec64261d7eee30a0067f3ce50\t{\"Platform\":\"Win7\",\"Platform_Version\":\"6.1\"}",
        "c96585b3c1d5751a3bce5ed980e7c644\t{\"Platform\":\"Win7\",\"Platform_Version\":\"6.1\",\"Win32\":true}",
        "c94f7a3ed4c8d492becd67a775026e2c\t{\"Platform\":\"Win7\",\"Platform_Version\":\"6.1\",\"Win32\":true}",
        "c9d538b5f2ef1667c9650c6cd5298de4\t{\"Platform\":\"Win10\",\"Platform_Version\":\"10.0\",\"Win32\":true}",
        "c9af756ecbad781f4074aa68d9fcbced\t{\"Platform\":\"Win8.1\",\"Platform_Version\":\"6.3\",\"Win32\":true}",
        "c91f5404a2b994897e489fbc3549e1d3\t[]",
        "c97561cbdb3dc26078e64b0ec57531e0\t{\"Platform\":\"WinXP\",\"Platform_Version\":\"5.2\",\"Win32\":true}",
        "c96fee3500fe7807641f5f42d241bbbe\t{\"Platform_Version\":\"4.2\",\"isTablet\":true}",
        "c9dd3582890e2d0b2c84ae2de05e8ed9\t{\"Platform_Version\":\"4.2\",\"isTablet\":true}",
        "c91aeec327ffffb052ac029dfba27a6f\t{\"Platform_Version\":\"4.3\",\"isTablet\":true}",
        "c94f9cbc5dede2f5adbcbe2b0487e087\t{\"Platform_Version\":\"4.4\",\"isTablet\":true}",
        "c92f3c85fe5258dd01369384020c0904\t{\"Platform_Version\":\"4.4\",\"isTablet\":true}",
        "c9d58878ff56c483bd80cbcc8535ade7\t{\"Platform_Version\":\"7.1\"}",
        "c9b8ad871534583a260ac6e99376ae6f\t{\"Platform_Version\":\"5.1\",\"isTablet\":true}",
        "c902be64016c7cde215b6f5379409c21\t{\"Platform_Version\":\"5.0\"}",
        "c914ed2053c07bbbd0257496fbf2249d\t{\"Platform_Version\":\"4.3\",\"isTablet\":true}",
        "c9e3d8e587ad129017b105d6e66df2f7\t{\"Platform_Version\":\"4.4\",\"isTablet\":true}",
        "c93a40d6dfe8b2e32af9dacae906e1a8\t{\"isTablet\":true}",
        "c93b71147db85ba098383febc48fe2c1\t{\"Platform_Version\":\"4.3\",\"isTablet\":true}",
        "c9cd2c951a41d641e6e4202a71210801\t{\"Platform_Version\":\"4.3\",\"isTablet\":true}",
        "c9f58f84adfe1b7af4549629780b8e82\t{\"Platform_Version\":\"4.4\",\"isTablet\":true}",
        "c931c26b717f9a19572186154709b585\t[]",
        "c959903e76f49fd8ae1d96a657d408cc\t{\"Browser_Bits\":\"32\",\"Platform\":\"Android\",\"Platform_Version\":\"4.3\"}",
        "c9b25cf49f4a002b58b36c7eeadb19ac\t{\"Browser_Bits\":\"32\",\"Platform\":\"Android\",\"Platform_Version\":\"7.1\"}",
        "c9b2b9325d245aa486e286b204363230\t[]",
        "c946406ecb0f54212e896a12f017ff7c\t{\"Platform_Version\":\"4.2\",\"isTablet\":true}",
        "c9d452b73ba4d959f5f14b83adbc9fe2\t{\"Platform_Version\":\"4.4\",\"isTablet\":true}",
        "c9349f37ad2d1a3d32fa8c6fc8ddc4ee\t{\"Platform_Version\":\"4.4\",\"isTablet\":true}",
        "c98314bbe06cef218d4f2aba69838eb5\t{\"Platform_Version\":\"7.1\"}",
        "c9d12670518d902c1abd47452e29a4d9\t{\"Platform_Version\":\"4.4\",\"isTablet\":true}",
        "c955bf95087eb51595e6c788105d7440\t{\"Platform_Version\":\"4.2\",\"isTablet\":true}",
        "c927b16219c561dddaca1e5546e1ac45\t{\"Platform_Version\":\"8.4\"}",
        "c9080f4618af2e1d29061a315008dd83\t{\"Platform_Version\":\"8.2\"}",
        "c9eca8e6a18a061e4f6bc7f781a63deb\t{\"Platform_Version\":\"8.3\"}",
        "c9495cda0db285cafd004df1f80072f5\t{\"Platform_Version\":\"4.4\",\"isTablet\":true}",
        "c907765be57a515c6d2da2885764c409\t{\"Platform_Version\":\"9.3\"}",
        "c94f11c4bb4f0ba51860fb727aaa4870\t{\"Browser_Bits\":\"32\",\"Platform\":\"MacOSX\",\"Platform_Version\":\"10\"}",
        "c9d792a34b10aff5a688b53fcd126e4d\t{\"Platform_Version\":\"9.0\"}",
        "c99350450bc618f72d71599505ff5abd\t{\"Platform_Version\":\"8.2\"}",
        "c9168d8df2c4f1e614f7484464319bc9\t{\"Platform_Version\":\"10.0\"}",
        "c976ad63d7f5e3104b1a7955737110c5\t{\"Platform_Version\":\"4.2\",\"isMobileDevice\":false}",
        "c9775028ae102c16c246e54f327a497c\t{\"Browser_Bits\":\"32\",\"Platform\":\"MacOSX\",\"Platform_Version\":\"10\"}",
        "c96934d0e23f5ef9e0b73e4a62e664c4\t{\"Platform_Version\":\"4.2\",\"isTablet\":true}",
        "c9e39816dab4e9faeed58b3cd7fa1169\t{\"Platform_Version\":\"4.2\",\"isTablet\":true}",
        "c9b23b0c34108c6ad283868ca6c2985f\t{\"Browser_Bits\":\"32\",\"Platform\":\"MacOSX\",\"Platform_Version\":\"10.9\"}",
        "c9a7721c56217d9261df7c5e1c33c94c\t{\"Platform_Version\":\"9.2\"}",
        "c9a999e1fc85f56cd96d764ee7803a0e\t{\"Platform_Version\":\"10.1\"}",
        "c9a4b90ba859cc7a01501ccd44f2a348\t{\"Platform_Version\":\"8.2\"}",
        "c9a0cdfc7b5f3b4475a61c05446e7901\t{\"Platform_Version\":\"4.4\"}",
        "c9be7a113ec598f6c98cf9fd797990b1\t{\"Platform_Version\":\"4.2\",\"isTablet\":true}",
        "c9f2a827e708f60badf430f8004cc38b\t{\"Platform_Version\":\"4.2\",\"isTablet\":true}",
        "c9b78c9563acd4994216683f754500dd\t{\"Platform_Version\":\"4.3\",\"isTablet\":true}",
        "c9532731571006950b3808f59bc04bc7\t{\"Platform_Version\":\"4.2\",\"isTablet\":true}",
        "c939af0fcff14320882546d14ec99679\t{\"Platform_Version\":\"4.4\",\"isTablet\":true}",
        "c9af0670f1fbdcdf742ec12d92b5cc08\t{\"Browser_Bits\":\"32\",\"Platform\":\"MacOSX\",\"Platform_Version\":\"10.11\"}",
        "c988d15a35ecea679d62d270fb850f9f\t[]",
        "c956ddaa8c8c34eeb95cd225e54dc24f\t{\"Browser_Bits\":\"32\",\"Platform\":\"WinXP\",\"Platform_Version\":\"5.2\",\"Win32\":true}",
        "c9e710b0e85361cbd7674be4f337931e\t{\"Platform_Version\":\"5.0\"}",
        "c9837e5a406f816072dba3a6175894b8\t{\"Browser_Bits\":\"32\",\"Platform\":\"WinXP\",\"Platform_Version\":\"5.1\",\"Win32\":true}",
        "c90059ca3fc6fd6165c3999b4a089e54\t{\"Browser_Bits\":\"32\",\"Platform\":\"WinXP\",\"Platform_Version\":\"5.1\",\"Win32\":true}",
        "c9dfc583192feb294533264bfed04621\t{\"Browser_Bits\":\"32\",\"Platform\":\"Win8\",\"Platform_Version\":\"6.2\",\"Win32\":true}",
        "c9107218005d9feb8ad9840a6192876d\t{\"Browser_Bits\":\"32\",\"Platform\":\"Win7\",\"Platform_Version\":\"6.1\",\"Win32\":true}",
        "c9b78e9c0ecee864d8674de05eaf5d2f\t{\"Browser_Bits\":\"32\",\"Platform\":\"MacOSX\",\"Platform_Version\":\"10.10\"}",
        "c94217b04ba7b3ca4c522a9e321edac1\t{\"Browser_Bits\":\"32\",\"Platform\":\"WinVista\",\"Platform_Version\":\"6.0\",\"Win32\":true}",
        "c923355b368c92be9252b72dcdda7f46\t{\"Browser_Bits\":\"32\",\"Platform\":\"WinXP\",\"Platform_Version\":\"5.2\",\"Win32\":true}",
        "c9232318962b30e49b82982596d1fe1c\t{\"Browser_Bits\":\"32\",\"Platform\":\"Win7\",\"Platform_Version\":\"6.1\",\"Win32\":true}",
        "c93fd63df6dc8653e9cfa41fb4aaa7c9\t{\"Browser_Bits\":\"32\",\"Platform\":\"FreeBSD\"}",
        "c9b260bbe2dad85d2da0fc4557c7cc62\t{\"Browser_Bits\":\"32\",\"Platform\":\"Win8.1\",\"Platform_Version\":\"6.3\",\"Win32\":true}",
        "c9cc7fdfe2e15cd8d67844b6eb7a4ab6\t{\"Browser_Bits\":\"32\",\"Platform\":\"Win7\",\"Platform_Version\":\"6.1\",\"Win32\":true}",
        "c93836dbe1116118411e26ce1bc8953c\t{\"Browser_Bits\":\"32\",\"Platform\":\"FreeBSD\"}",
        "c9cb9724d84bcfdf01e43d357309ce2f\t{\"Browser_Bits\":\"32\",\"Platform\":\"WinVista\",\"Platform_Version\":\"6.0\",\"Win32\":true}",
        "c96465bf090e2b81dc1353974b89e5dc\t{\"Browser_Bits\":\"32\",\"Platform\":\"WinXP\",\"Platform_Version\":\"5.2\",\"Win32\":true}",
        "c934a7e73eb58ab20d70736cd2f6b69e\t{\"Browser_Bits\":\"32\",\"Platform\":\"Win8\",\"Platform_Version\":\"6.2\",\"Win32\":true}",
        "c9ace862d34e4d64ed996eb2d73eb344\t{\"Browser_Bits\":\"32\",\"Platform\":\"Win8\",\"Platform_Version\":\"6.2\",\"Win32\":true}",
        "c94b397b314dc5bae6b5889738c5553d\t{\"Browser_Bits\":\"32\",\"Platform\":\"Win8\",\"Platform_Version\":\"6.2\",\"Win32\":true}",
        "c9ff4671a5861a7833b587fec923288b\t{\"Browser_Bits\":\"32\",\"Platform\":\"WinVista\",\"Platform_Version\":\"6.0\",\"Win32\":true}",
        "c90761a4c0750ea41f587ee77f3305f5\t{\"Browser_Bits\":\"32\",\"Platform\":\"WinXP\",\"Platform_Version\":\"5.2\",\"Win32\":true}",
        "c99d62972cfc30d860473448beabbee1\t{\"Browser_Bits\":\"32\",\"Platform\":\"Win7\",\"Platform_Version\":\"6.1\",\"Win32\":true}",
        "c91b3289c59ad03e21b035da44d2842c\t{\"Browser_Bits\":\"32\",\"Platform\":\"Win8.1\",\"Platform_Version\":\"6.3\",\"Win32\":true}",
        "c9a518a357770be12b4bd0b8c0de3c5d\t{\"Browser_Bits\":\"32\",\"Platform\":\"WinVista\",\"Platform_Version\":\"6.0\",\"Win32\":true}",
        "c97c8eb7a74e11cf4e9fdb9ab160ab37\t{\"Browser_Bits\":\"32\",\"Platform\":\"WinVista\",\"Platform_Version\":\"6.0\",\"Win32\":true}",
        "c91c400a78b12d4ed6566bbc9f6b61d8\t{\"Browser_Bits\":\"32\",\"Platform\":\"WinXP\",\"Platform_Version\":\"5.1\",\"Win32\":true}",
        "c971607427d0056becd9013bf2ff63d0\t{\"Browser_Bits\":\"32\",\"Platform\":\"Linux\"}",
        "c90c17d49abf1db12b3231a9a4b82a49\t{\"Browser_Bits\":\"32\",\"Platform\":\"MacOSX\",\"Platform_Version\":\"10.9\"}",
        "c95659157dac492e2f2bdf88236d1c02\t{\"Browser_Bits\":\"32\",\"Platform\":\"WinXP\",\"Platform_Version\":\"5.2\",\"Win32\":true}",
        "c9acbc5e29fa4622d860844bc7e88d31\t{\"Browser_Bits\":\"32\",\"Platform\":\"iOS\",\"Platform_Version\":\"8.3\",\"isTablet\":true}",
        "c975c4ba480d760071c370f96b816e5a\t{\"Browser_Bits\":\"32\",\"Platform\":\"iOS\",\"Platform_Version\":\"9.2\"}",
        "c91867dc77e51c99cd82a37f83a1c9d6\t{\"Browser_Bits\":\"32\",\"Platform\":\"iOS\",\"Platform_Version\":\"8.0\"}",
        "c93e0fd3e192125c937690ef1ce02844\t{\"Browser_Bits\":\"32\",\"Platform\":\"MacOSX\",\"Platform_Version\":\"10.9\"}",
        "c98da51114f5c66e1643c6a9e162ed7f\t{\"Browser_Bits\":\"32\",\"Platform\":\"Win8.1\",\"Platform_Version\":\"6.3\",\"Win32\":true}",
        "c99d1147860a6556618149606a4f626d\t{\"Browser_Bits\":\"32\",\"Platform\":\"Win7\",\"Platform_Version\":\"6.1\",\"Win32\":true}",
        "c9b8781637632b66122ad64c337fb571\t{\"Browser_Bits\":\"32\",\"Platform\":\"Linux\"}",
        "c9e7c6bc3c550771ee173eb9aeed021a\t{\"Platform_Version\":\"8.4\"}",
        "c927062ce99928f40fe8cf58519b27f6\t{\"Browser_Bits\":\"32\",\"Platform\":\"Linux\"}",
        "c93c29c40d2b8c040cb2915ea9a5f7fb\t{\"Browser_Bits\":\"32\",\"Platform\":\"MacOSX\",\"Platform_Version\":\"10\"}",
        "c942d9c52b60a92e07298c983f9be2db\t{\"Browser_Bits\":\"32\",\"Platform\":\"MacOSX\",\"Platform_Version\":\"10.10\"}",
        "c9633667abfb909353a7456d2f6a8254\t{\"Browser_Bits\":\"32\",\"Platform\":\"MacOSX\",\"Platform_Version\":\"10.10\"}",
        "c90c7ba735acc60b3427617ba900433e\t{\"Browser_Bits\":\"32\",\"Platform\":\"WinVista\",\"Platform_Version\":\"6.0\",\"Win32\":true}",
        "c964b6355afb78c469b9c6e80539eb7a\t{\"Browser_Bits\":\"32\",\"Platform\":\"Win8.1\",\"Platform_Version\":\"6.3\",\"Win32\":true}",
        "c9338cfaf88d281010423bc077c364b8\t{\"isTablet\":true}",
        "c978d421d1daea94b169cf773acc3b99\t[]",
        "c9bbe0d397d64fab90d65a5170301674\t{\"isTablet\":true}",
        "c9c90c32351f91415127fae77dd60119\t{\"isTablet\":true}",
        "c9aa55731a9658f5b87ae0dcf4c3d051\t{\"isTablet\":true}",
        "c9d948bc779c5fc23ba2b8beb04baac8\t{\"Browser_Bits\":\"32\",\"Platform\":\"Linux\"}",
        "c9b3019f8b15848f4ff4dbb76ea83260\t{\"Platform_Version\":\"4.2\",\"isTablet\":true}",
        "c91df5d361eb02df3581411bb74add71\t{\"Platform_Version\":\"4.3\",\"isTablet\":true}",
        "c9fc9ebef43db1ce1d720b72633c6c48\t{\"Platform_Version\":\"4.2\",\"isTablet\":true}",
        "c986440169e8b64f7a1fc82b828f8c61\t{\"Platform_Version\":\"4.4\",\"isTablet\":true}",
        "c9f8edd3e2d183414736dabf882cdae2\t{\"Platform_Version\":\"4.2\",\"isTablet\":true}",
        "c9e55075c63e7b090d23eb1cb1296cae\t{\"Platform_Version\":\"6.0\",\"isTablet\":true}",
        "c96344d71cb4ab89692cbc66f57dacca\t{\"Platform_Version\":\"8.3\"}",
        "c969216cc3f2bf294258aac5d970649a\t{\"Platform_Version\":\"8.0\"}",
        "c956f2ad0257b255f0424825840e5a94\t{\"Platform_Version\":\"4.4\",\"isTablet\":true}",
        "c9f4e2aca5739093f63d89c6c9206ab0\t{\"Platform_Version\":\"4.3\",\"isTablet\":true}",
        "c97b2ca81c72be0f4042cd5569d01510\t{\"Platform_Version\":\"8.0\",\"isTablet\":true}",
        "c97ae0ed70b0388446df42bb4731691e\t{\"Platform_Version\":\"4.3\",\"isTablet\":true}",
        "c9368b23902d760eebeef89841511c9a\t{\"Platform_Version\":\"4.4\",\"isTablet\":true}",
        "c91152242739653412c6aa1d39042bdf\t{\"Platform_Version\":\"4.4\",\"isTablet\":true}",
        "c96f210d8b820f2cfd361b941cc5a279\t{\"Platform_Version\":\"4.3\",\"isTablet\":true}",
        "c98fbcda66906729081f4fc0bb4c22fe\t{\"Platform_Version\":\"4.3\",\"isTablet\":true}",
        "c9c2d2ed96666c47f3629fd162ebfc0a\t{\"Platform_Version\":\"5.1\"}",
        "c9a2672ee03d37c462fafb90bded5cdd\t{\"Platform_Version\":\"4.2\",\"isTablet\":true}",
        "c98e8230cba6ae9ec180841d739cb647\t{\"Browser_Bits\":\"32\",\"Platform\":\"MacOSX\",\"Platform_Version\":\"10\"}",
        "c93c7f22bdee833c00c9304fa054c71c\t{\"Platform_Version\":\"4.3\",\"isTablet\":true}",
        "c99ff2d7a7aa4a3f9cd8637954119f94\t{\"Platform_Version\":\"4.2\",\"isTablet\":true}",
        "c94d2892f58d33b0919d688b62f452e5\t{\"Platform_Version\":\"7.0\"}",
        "c91cc8680bdb5f13781262fb28699880\t{\"Platform_Version\":\"4.2\",\"isTablet\":true}",
        "c9937edbab61de7267607fae2b31f2cb\t{\"Platform_Version\":\"4.2\",\"isTablet\":true}",
        "c91922d257c6d0362aedc89cf5d8765e\t{\"Platform_Version\":\"4.2\",\"isTablet\":true}",
        "c9c3e14acb49ad3de5063b695320944f\t{\"Platform_Version\":\"4.2\",\"isTablet\":true}",
        "c937b24782bf9fa1857e8e76d87c34f0\t{\"Platform_Version\":\"4.4\",\"isTablet\":true}",
        "c9302d98c288555522e30716c6e75734\t[]",
        "c9f70d4250e1f165ba28497efba2352d\t{\"Platform_Version\":\"4.2\",\"isTablet\":true}",
        "c9829bfc4b0c34d540cb71ec06d2a70d\t{\"Platform_Version\":\"4.2\",\"isTablet\":true}",
        "c9ddea6b4aeba36baa389abe19605616\t{\"Platform_Version\":\"4.2\",\"isTablet\":true}",
        "c925342baa39201b704b0c5d64d33818\t{\"Browser_Bits\":\"32\",\"Platform\":\"ChromeOS\"}",
        "c9603330a2fb575456b140ca11d53dd6\t{\"Platform_Version\":\"4.2\",\"isTablet\":true}",
        "c918436b2cdc6234a9778e4dce6f4f52\t{\"Platform_Version\":\"9.2\",\"isTablet\":true}",
        "c9540f8f78fe90807a07a678a96b2801\t{\"Platform_Version\":\"4.2\",\"isTablet\":true}",
        "c92082f935922d63e5560f785815ae83\t{\"Platform_Version\":\"4.2\",\"isTablet\":true}",
        "c9257758e0994d6153be61d09c2bc1ee\t{\"Browser_Bits\":\"32\",\"Platform\":\"webOS\",\"Platform_Version\":\"3.0\"}",
        "c9b83fb125efabdd2e950d66c2fde4e7\t{\"Platform_Version\":\"5.0\",\"isTablet\":true}",
        "c9d06221914917727bd1ca0675a86ba6\t{\"Platform_Version\":\"4.4\",\"isTablet\":true}",
        "c972b26b2eff7588c359a874d5c5590d\t{\"Platform_Version\":\"4.2\",\"isTablet\":true}",
        "c9f89e84de86e4df3efe055c627b6da4\t[]",
        "c9a36dc4c558d7b3fdd1b5d05615522d\t{\"Browser_Bits\":\"32\",\"Platform\":\"Win8.1\",\"Platform_Version\":\"6.3\",\"Win32\":true}",
        "c91d1a12b0f72ddec8d053f9aa9bcde5\t{\"Browser_Bits\":\"32\",\"Platform\":\"MacOSX\",\"Platform_Version\":\"10\"}",
        "c95ef8f167f07427c3583bcade424051\t{\"Platform_Version\":\"4.4\",\"isTablet\":true}",
        "c9194c558e5876bea18c8aa22490c36d\t{\"Platform_Version\":\"4.3\",\"isTablet\":true}",
        "c99671c823b7ab4a6f5801ed588a6944\t{\"Platform_Version\":\"4.2\",\"isTablet\":true}",
        "c91a622b3c84a556629c3fadf223493e\t{\"Platform_Version\":\"7.1\"}",
        "c9c73b2b0ebb68fbb84850bd72bf1448\t{\"Platform_Version\":\"4.3\",\"isTablet\":true}",
        "c9f57a8120489c3da52c1feb9c5fee5f\t{\"Platform_Version\":\"4.3\",\"isTablet\":true}",
        "c940dfeb3560f69dfcc688da7214b074\t{\"Platform_Version\":\"4.4\"}",
        "c94be0ca371b2e32549acfb643608608\t{\"Platform_Version\":\"4.4\",\"isTablet\":true}",
        "c98d6d93238b27cb8e722310b93c0854\t{\"Platform_Version\":\"4.3\",\"isTablet\":true}",
        "c99ad4a4c414ef42fb4e9f7df4c1b721\t{\"Platform_Version\":\"4.2\",\"isTablet\":true}",
        "c94535db7d8fecf970d656c9fc62d7ae\t{\"Platform_Version\":\"4.2\",\"isTablet\":true}",
        "c9f636cfddc67b675b955ad6b9dd6b50\t[]",
        "c9f75cd7a7f80587b94b898d9affb874\t{\"Platform_Version\":\"4.3\",\"isTablet\":true}",
        "c9e62f9165d4570eceb5d74851130d29\t{\"Platform_Version\":\"4.3\",\"isTablet\":true}",
        "c9dc2969587a4fea17fcbe381b431175\t{\"Platform_Version\":\"4.2\",\"isTablet\":true}",
        "c98626e037008fec04a14999bbc76343\t{\"Browser_Bits\":\"32\",\"Platform\":\"OpenBSD\"}",
        "c964cb4d387bdc3e1e8a08aac0804f50\t{\"Platform_Version\":\"4.4\",\"isTablet\":true}",
        "c913c7f74ceefd60cdfd8a705960429e\t{\"Platform_Version\":\"4.4\",\"isTablet\":true}",
        "c9714bb7deb1d4315c4acf15e1675a46\t{\"Browser_Bits\":\"32\",\"Platform\":\"Win7\",\"Platform_Version\":\"6.1\",\"Win32\":true}",
        "c9e5088d7c623599d5e1a1257443eaa7\t{\"Browser_Bits\":\"32\",\"Platform\":\"MacOSX\",\"Platform_Version\":\"10.10\"}",
        "c9284608f7b5bcfedfb8c01d7ad7f83a\t{\"Platform_Version\":\"7.1\",\"isTablet\":true}",
        "c9ac7fd39f4681bbb2a7d283ba46aec1\t{\"Browser_Bits\":\"32\",\"Platform\":\"WinXP\",\"Platform_Version\":\"5.1\",\"Win32\":true}",
        "c97e21b98dacffa30fe79c013db0367f\t{\"Platform_Version\":\"4.2\",\"isTablet\":true}",
        "c978d04920e6a20ebee1a8b2ec54882a\t{\"Browser_Bits\":\"32\",\"Platform\":\"WinVista\",\"Platform_Version\":\"6.0\",\"Win32\":true}",
        "c9b094f2038c5c64f83ba0287dc25af4\t{\"Platform_Version\":\"4.3\",\"isTablet\":true}",
        "c9435f0917373eaa0b63f7b74d1e156f\t{\"Browser_Bits\":\"32\",\"Platform\":\"WinVista\",\"Platform_Version\":\"6.0\",\"Win32\":true}",
        "c926fdc6f12be60d05a3ef9ff828030c\t{\"Browser_Bits\":\"32\",\"Platform\":\"WinXP\",\"Platform_Version\":\"5.1\",\"Win32\":true}",
        "c905698cf850a33e7362657a9b164c20\t{\"Platform_Version\":\"10.2\"}",
        "c9066bfaf064ccae478dec3c86ade267\t{\"Platform_Version\":\"10.2\",\"isTablet\":true}",
        "c9a9b850584981ae63e3744b173d06e8\t[]",
        "c9987b4c1db4a892ec5aad3b6caa37c8\t{\"Platform_Version\":\"10.1\"}",
        "c97acc2bc470346290eb8881d38b499e\t{\"Platform_Version\":\"9.1\"}",
        "c91bbe99b8552e76d8646f87c92b1331\t{\"Platform_Version\":\"4.3\"}",
        "c9dde738ed65120f191f341798efaf2b\t{\"Browser_Bits\":\"32\",\"Platform\":\"Win7\",\"Platform_Version\":\"6.1\",\"Win32\":true}",
        "c90ccade946d327e4929d27745d99c4a\t{\"Browser_Bits\":\"32\",\"Platform\":\"MacOSX\",\"Platform_Version\":\"10.10\"}",
        "c9c5984ed08278805cec44175c10fbda\t{\"Browser_Bits\":\"32\",\"Platform\":\"Linux\"}",
        "c903ee23ab932c0af70c2dc0778e8556\t{\"Browser_Bits\":\"32\",\"Platform\":\"WinXP\",\"Platform_Version\":\"5.1\",\"Win32\":true}",
        "c9cc055e5bb48f25a529899b64c14a1c\t{\"Platform_Version\":\"4.1\"}",
        "c91d085e7f7621dfaceb3a05fd9ebc3d\t{\"Browser_Bits\":\"32\",\"Platform\":\"Linux\"}",
        "c906df43c2c0d1993abb8518f68a1ace\t[]",
        "c97a1acaa4bd8dfddf2f0874f2d2ea87\t{\"Browser_Bits\":\"32\",\"Platform\":\"Brew\",\"Platform_Version\":\"2.0\"}",
        "c9f2b195cd3faa54a53a75e5fd45b172\t[]",
        "c9d6574c0652dba11a0c3e6103f95c65\t{\"Browser_Bits\":\"32\",\"Platform\":\"MacOSX\",\"Platform_Version\":\"10\"}",
        "c91325e852834ff618dc18c36d15b59f\t{\"Browser_Bits\":\"32\",\"Platform\":\"Android\"}",
        "c9dab5847ec794cdf39f9aaa93b009f7\t{\"Browser_Bits\":\"32\",\"Platform\":\"Android\"}",
        "c9a8b238c9b9d19e92b278f589c55fbb\t{\"Browser_Bits\":\"32\",\"Platform\":\"Android\",\"Platform_Version\":\"4.3\"}",
        "c903ef3c2f4a725fdbe0622ccf594d49\t{\"Browser_Bits\":\"32\",\"Platform\":\"Android\",\"Platform_Version\":\"4.2\"}",
        "c9e7ed8178285d7f8bf3f840bb17bdba\t{\"Browser_Bits\":\"32\",\"Platform\":\"Android\",\"Platform_Version\":\"4.3\"}",
        "c99994e82ebfbc423107d128eae88d10\t[]",
        "c99d1c8dba8078de5a0d9efee0db073c\t{\"Browser_Bits\":\"32\",\"Platform\":\"MacOSX\",\"Platform_Version\":\"10\"}",
        "c9e1764e053124036985d894d1341742\t{\"Browser_Bits\":\"32\",\"Platform\":\"Unix\"}",
        "c909c821de6d4260d0d45c0e1233445a\t{\"Browser_Bits\":\"32\",\"Platform\":\"Linux\"}",
        "c9db9d44053cb3c79bddb5f1f80e5757\t{\"Browser_Bits\":\"32\",\"Platform\":\"Win10\",\"Platform_Version\":\"6.4\",\"Win32\":true}",
        "c975d48b3d0d761db0cebc4fa138d6c7\t{\"Browser_Bits\":\"32\",\"Platform\":\"Win10\",\"Platform_Version\":\"6.4\",\"Win32\":true}",
        "c90dea65d7936657277f1a73468eb911\t{\"Platform_Version\":\"4.3\"}",
        "c9ffba97b91205e74e69527bf75a8952\t{\"Platform_Version\":\"4.3\"}",
        "c9177dba42bd3022335b5aa6ea890994\t{\"Platform_Version\":\"4.4\"}",
        "c93ebe95c1e706e5c17dae41236efd15\t{\"Browser_Bits\":\"32\",\"Platform\":\"iOS\",\"Platform_Version\":\"7.0\",\"isTablet\":true}",
        "c93e6fc4b6bf7bc02355c920a4771c59\t{\"Browser_Bits\":\"32\",\"Platform\":\"iOS\",\"Platform_Version\":\"9.0\",\"isTablet\":true}",
        "c9adf8cd09571b46ba58b313e11e7f79\t{\"Browser_Bits\":\"32\",\"Platform\":\"iOS\",\"Platform_Version\":\"8.3\"}",
        "c931c064765da93fdb95e3c1229799f6\t{\"Browser_Bits\":\"32\",\"Platform\":\"JAVA\"}",
        "c90fdadd00c3b4ff7504c5d304fafab9\t{\"Browser_Bits\":\"32\",\"Platform\":\"JAVA\"}",
        "c9d8a86b93e23cd70efeaeaf0129fc78\t{\"Browser_Bits\":\"32\",\"Platform\":\"JAVA\"}",
        "c962bec43341c845106e964fa8aed9aa\t{\"Browser_Bits\":\"32\",\"Platform\":\"FreeBSD\"}",
        "c9f63c570873c6878a4df06bb453ed7c\t{\"Platform_Version\":\"7.0\"}",
        "c9b50edc8722812c4500b2ff55118e40\t{\"Platform_Version\":\"10.0\"}",
        "c9b9f0a1bd2f5008ff9a3a226ad55575\t{\"Platform_Version\":\"9.1\"}",
        "c9f0407424c7c9ed13a391160c422244\t{\"Platform_Version\":\"8.2\",\"isTablet\":true}",
        "c9d7d26f1739642be5ba3fe12aceff3f\t{\"Platform_Version\":\"8.2\"}",
        "c923e27727d9098b0ac742b4828c6fd0\t{\"Platform_Version\":\"7.0\"}",
        "c943f357c3ba71a3288fa839f4826f5a\t{\"Platform_Version\":\"7.1\"}",
        "c9d43f2773caf20630bd965d683821ea\t{\"Platform_Version\":\"10.1\"}",
        "c94549e63052aba87c1ebf0276de25dc\t{\"Platform_Version\":\"7.1\"}",
        "c9a35a0930197788a0e6b934e12a41d7\t{\"Platform_Version\":\"10.3\"}",
        "c9ec9624e1970a336ce876cc75132147\t{\"Platform_Version\":\"8.0\",\"isTablet\":true}",
        "c963a12a16067ada5743f951bb74e820\t{\"Platform_Version\":\"9.3\"}",
        "c9d1d1b364db73142d35b05433f6b147\t{\"Platform_Version\":\"9.1\",\"isTablet\":true}",
        "c972a4fa674aa6fae7ae96418fe0c5dd\t{\"Platform_Version\":\"8.4\",\"isTablet\":true}",
        "c92e532992c3837ec71d51894c9b035e\t{\"Platform_Version\":\"10.1\"}",
        "c92ebf79dc62234832d91e3f56e1e6b8\t{\"Platform_Version\":\"7.1\",\"isTablet\":true}",
        "c98ea6cda7bd9b0639fba34aaa2e8fef\t[]",
        "c9385d1b4c55b90e74af5e03e0161e49\t{\"Platform_Version\":\"8.4\"}",
        "c9a9dc0319cf9387ecfab2897c832f96\t{\"Platform_Version\":\"9.2\"}",
        "c9ac17b2582e82e023819d57f4803975\t{\"Platform_Version\":\"8.1\"}",
        "c949aa7687c905c08ac1aa8a46cf4a75\t{\"Platform_Version\":\"8.0\"}",
        "c96e12792235b0968288e42199cdd500\t[]",
        "c971586279ece7b8130c4b53199b3a48\t{\"Browser_Bits\":\"32\",\"Platform\":\"MacOSX\",\"Platform_Version\":\"10.10\"}",
        "c9c8fe03aeb28b76394f6f5a353af6f3\t{\"Platform_Version\":\"9.2\",\"isTablet\":true}",
        "c9b122bb1e0879c96aee59c34e21aa4d\t{\"Platform_Version\":\"7.1\"}",
        "c915e1b3a8e53b080e3422ee709e6f0e\t{\"Platform_Version\":\"9.0\"}",
        "c93e0f0bba8d48656439d3f4e4aa4575\t{\"Platform_Version\":\"9.3\"}",
        "c90a1c2a3cd596b534271f089b46b87d\t{\"Platform_Version\":\"9.1\"}",
        "c99be3bd322be80a8bd3222a1d7f3e4d\t{\"Platform_Version\":\"6.0\"}",
        "c963f50897b5187de7f4f909672b774b\t{\"Platform_Version\":\"8.3\"}",
        "c9361730f4d8e29bbfa708b23f31d111\t[]",
        "c9f6a57b0212f85faa1a31183daef993\t{\"Platform_Version\":\"8.0\",\"isTablet\":true}",
        "c982ab14070b26b850dafa0aba79acc0\t{\"Platform_Version\":\"8.4\"}",
        "c9a554881cec426069cd034d1c68a365\t{\"Platform_Version\":\"9.2\",\"isTablet\":true}",
        "c9daabb4f82f1f54b3a840d7804774d0\t{\"Platform_Version\":\"8.2\",\"isTablet\":true}",
        "c945637fa267600697d30b2b3c9b3944\t{\"Platform_Version\":\"9.3\",\"isTablet\":true}",
        "c993d582036c79e8b016a747d7c9545a\t{\"Platform_Version\":\"8.3\",\"isTablet\":true}",
        "c96cc63e2f06536fe0122ae21b1336b9\t{\"Platform_Version\":\"9.2\"}",
        "c998d9a038b8042ef7f2c40bddf4fcdd\t{\"Platform_Version\":\"8.3\"}",
        "c94df39f539a9a45f3e4ebe8d758b380\t{\"Browser_Bits\":\"32\",\"Platform\":\"Win32\",\"Win32\":true}",
        "c9543a89166d6f5786a47b0ce7b42d7c\t{\"Browser_Bits\":\"32\",\"Platform\":\"MacOSX\",\"Platform_Version\":\"10\"}",
        "c9e0d1e311d0140a149d4cb5c1089f5c\t{\"Browser_Bits\":\"32\",\"Platform\":\"macOS\",\"Platform_Version\":\"10.12\"}",
        "c95e576263610fe2ddfb745d0d541e62\t[]",
        "c95220b5141bfcabd75940c770057e66\t{\"Platform_Version\":\"10.10\"}",
        "c926f270efc4d803f7b2f0845c981d2c\t{\"Browser_Bits\":\"32\",\"Platform\":\"FreeBSD\"}",
        "c95af0cbf9b2de30fdf16e882bd05239\t{\"Browser_Bits\":\"32\",\"Platform\":\"Linux\"}",
        "c9098a87b86d508a21576ef1f618ff40\t[]",
        "c96649ac5c6b4f91e347adc8f20042e9\t{\"Browser_Bits\":\"32\",\"Platform\":\"Win8.1\",\"Platform_Version\":\"6.3\",\"Win32\":true}",
        "c97f79ac534b4f4dd8bbcea585e5ee8d\t{\"Browser_Bits\":\"32\",\"Platform\":\"WinXP\",\"Platform_Version\":\"5.2\",\"Win32\":true}",
        "c944beaf62b6614b682ff5242df939f1\t{\"Browser_Bits\":\"32\",\"Platform\":\"WinXP\",\"Platform_Version\":\"5.2\",\"Win32\":true}",
        "c9f5a54902912571ca6fd5a797882d62\t{\"Browser_Bits\":\"32\",\"Platform\":\"Win8\",\"Platform_Version\":\"6.2\",\"Win32\":true}",
        "c9c7e0bb4741a0ca10b01e62dbc3f1a0\t{\"Browser_Bits\":\"32\",\"Platform\":\"WinVista\",\"Platform_Version\":\"6.0\",\"Win32\":true}",
        "c905bbc5a69e2fcfe5f409a3e7a85f8f\t{\"Browser_Bits\":\"32\",\"Platform\":\"Win7\",\"Platform_Version\":\"6.1\",\"Win32\":true}",
        "c93ffcd3cbdd5f14c8ac216270c4b0de\t{\"Browser_Bits\":\"32\",\"Platform\":\"Win10\",\"Platform_Version\":\"10.0\",\"Win32\":true}",
        "c9a0236bd348ac2c0f758344777f256b\t{\"Browser_Bits\":\"32\",\"Platform\":\"MacOSX\",\"Platform_Version\":\"10.11\"}",
        "c9270b3649f9f2b01355983af2f1bece\t{\"Platform\":\"WinVista\",\"Platform_Version\":\"6.0\"}",
        "c96480c26bddde6e73d069ee064766dc\t{\"Platform\":\"WinXP\",\"Platform_Version\":\"5.1\"}",
        "c9a2082e9f12a35bf06bc95966a35f20\t{\"Platform\":\"Win8\",\"Platform_Version\":\"6.2\"}",
        "c9b7a8aa73ca44cd8db39b5b1b28ebe7\t{\"Platform\":\"Win8\",\"Platform_Version\":\"6.2\"}",
        "c999afc72ce88cdfa53dbd938aedea11\t{\"Browser_Bits\":\"32\",\"Platform\":\"Win10\",\"Platform_Version\":\"6.4\",\"Win32\":true}",
        "c9e559ac7c35ce28f5e1e0c3ba762579\t{\"Browser_Bits\":\"32\",\"Platform\":\"MacOSX\",\"Platform_Version\":\"10.10\"}",
        "c94fd6c88b5004a6f0ec584771ee085f\t{\"Browser_Bits\":\"32\",\"Platform\":\"Win8\",\"Platform_Version\":\"6.2\",\"Win32\":true}",
        "c95b2af691f877df79f42423236efe6e\t{\"Browser_Bits\":\"32\",\"Platform\":\"SunOS\"}",
        "c94e00de96dcf54e61709c81771845ba\t{\"Browser_Bits\":\"32\",\"Platform\":\"Linux\"}",
        "c9af65a719e54bd2ed7fa8c4507f2b57\t{\"Browser_Bits\":\"32\",\"Platform\":\"OS\\\/2\"}",
        "c98c0480add58e319fd920910964fbc3\t{\"Browser_Bits\":\"32\",\"Platform\":\"OpenBSD\"}",
        "c9c9b64d86907740c97ae3865a26671e\t{\"Browser_Bits\":\"32\",\"Platform\":\"MacOSX\",\"Platform_Version\":\"10\"}",
        "c91dbbc908a2a147917c4ef870e77035\t{\"Browser_Bits\":\"32\",\"Platform\":\"Win7\",\"Platform_Version\":\"6.1\",\"Win32\":true}",
        "c931a8a0843ad8d41d733c1ba0ecedc5\t{\"Browser_Bits\":\"32\",\"Platform\":\"Win8\",\"Platform_Version\":\"6.2\",\"Win32\":true}",
        "c99d144b0855fa372aea2bdc93cc6d79\t[]",
        "c9db13a2f89f6684c3d1b3f4b9eb6ae0\t[]",
        "c9e67c44a279481bd02acef9918de7ee\t{\"Browser_Bits\":\"32\",\"Platform\":\"WinXP\",\"Platform_Version\":\"5.2\",\"Win32\":true}",
        "c901efb19de7fddd327e0b232764f511\t[]",
        "c9a1077968bab1d8bf9e352fc1f27f2f\t{\"Browser_Bits\":\"32\",\"Platform\":\"Android\",\"isMobileDevice\":true}",
        "c9c14ba74126912892c03e36a97815bd\t{\"Platform\":\"FirefoxOS\"}",
        "c9712f67a2e2bdffbed69e4f32022f89\t{\"Platform\":\"Win10\",\"Platform_Version\":\"10.0\"}",
        "c9a15f6bd37d294e85a0e648c04b1e4a\t[]",
        "c9a21b3b2f539fbcf8b7ec4231651b20\t[]",
        "c915b760ecd72a508431851268ad7fe8\t{\"Platform_Version\":\"7.1\",\"isTablet\":true}",
        "c96241bdb1bc84678758a8f4e25345eb\t{\"Browser_Bits\":\"32\",\"Platform\":\"FirefoxOS\",\"Platform_Version\":\"2.5\",\"isMobileDevice\":true}",
        "c925228bb499eadf12fd2cf0c4f65131\t[]",
        "c982854cd33a583fed66d6dfb5abca8c\t[]",
        "c90a41c8850a906babff8024722f4548\t{\"Browser_Bits\":\"32\",\"Platform\":\"MacOSX\",\"Platform_Version\":\"10.10\"}",
        "c953d50d9d79cddb4a451f381ceb27f6\t{\"Browser_Bits\":\"32\",\"Platform\":\"MacOSX\",\"Platform_Version\":\"10\"}",
        "c9ccad91d4749e6d21491d31ecc885f8\t{\"Browser_Bits\":\"32\",\"Platform\":\"Win10\",\"Platform_Version\":\"6.4\",\"Win32\":true}",
        "c9d1e2ddb0189acb8009752766b22fdd\t{\"Browser_Bits\":\"32\",\"Platform\":\"MacOSX\",\"Platform_Version\":\"10.9\"}",
        "c972cded7ffb2fb485ab307137e18988\t{\"Browser_Bits\":\"32\",\"Platform\":\"WinVista\",\"Platform_Version\":\"6.0\",\"Win32\":true}",
        "c9d2617a96114058cb4a61077a5bf3aa\t{\"Browser_Bits\":\"32\",\"Platform\":\"WinVista\",\"Platform_Version\":\"6.0\",\"Win32\":true}",
        "c9467d9a1d38e7c8274fe7482a88af71\t{\"Browser_Bits\":\"32\",\"Platform\":\"WinXP\",\"Platform_Version\":\"5.2\",\"Win32\":true}",
        "c9ebe6aaaf90093e12ec07c9ae8b503f\t{\"Browser_Bits\":\"32\",\"Platform\":\"MacOSX\",\"Platform_Version\":\"10.9\"}",
        "c98dfe4050961240bf31a41d7ea3ee23\t{\"Browser_Bits\":\"32\",\"Platform\":\"WinXP\",\"Platform_Version\":\"5.2\",\"Win32\":true}",
        "c9028905c08a8e8288e9f2612c198d70\t{\"Browser_Bits\":\"32\",\"Platform\":\"MacOSX\",\"Platform_Version\":\"10.11\"}",
        "c928b4820c0742e9e5d172cb32bb5e71\t[]",
        "c98480576efc0672c52c7d802328b96c\t[]",
        "c9fb51f8310ca825ba91947d7f73e079\t{\"Browser_Bits\":\"32\",\"Platform\":\"OpenBSD\"}",
        "c907c5ff90d9b309650892ce2521cc35\t{\"Browser_Bits\":\"32\",\"Platform\":\"OS\\\/2\"}",
        "c916e9f843878c93ee4c7a1a233fb7ee\t{\"Browser_Bits\":\"32\",\"Platform\":\"Darwin\"}",
        "c90936d6d66e5f4419d4b16bf7ce04c9\t{\"Browser_Bits\":\"32\",\"Platform\":\"Linux\"}",
        "c958d1d8e7ef2b183315d47c269357e0\t{\"Browser_Bits\":\"32\",\"Platform\":\"WinXP\",\"Platform_Version\":\"5.2\",\"Win32\":true}",
        "c9ca40e55af5f60666b2d12ba8450d82\t{\"Browser_Bits\":\"32\",\"Platform\":\"OpenBSD\"}",
        "c96a007894dd7c1f8840b3e7871584f5\t{\"Browser_Bits\":\"32\",\"Platform\":\"OS\\\/2\"}",
        "c9ab23a4a09e4ab0be2561207214995f\t{\"Browser_Bits\":\"32\",\"Platform\":\"Darwin\"}",
        "c98a4fe9ecb7dfded31967d6db6bf5da\t[]",
        "c9579cbd33b20665ade4e345eaae784b\t{\"Platform\":\"WinXP\",\"Platform_Version\":\"5.1\",\"Win32\":true}",
        "c90917b73360efc0068d9b3a52d8096d\t[]",
        "c953b0a3c1364f5cd8ab2f70acf4c0df\t{\"Browser_Bits\":\"32\",\"Platform\":\"MacOSX\",\"Platform_Version\":\"10.11\"}",
        "c99700b431c42b845811d8145b541981\t[]",
        "c90f34420e70dfe425d3adf932788245\t{\"Platform_Version\":\"7.1\"}",
        "c9c7d172f94b456dd2fb95a7a1f8c3ba\t[]",
        "c9c6251b3d0b67b30ae58fa5d91b12a3\t{\"Browser_Bits\":\"32\",\"Platform\":\"Win7\",\"Platform_Version\":\"6.1\",\"Win32\":true}",
        "c96f783ec8addf52ace63bb3f4fab7d8\t{\"Browser_Bits\":\"32\",\"Platform\":\"iOS\",\"isMobileDevice\":true,\"isTablet\":true}",
        "c982d00e7ba9223333d8b75e16898e2e\t{\"Platform_Version\":\"8.4\"}",
        "c92c8af26f9b524291748c6c0c67550b\t{\"Platform_Version\":\"8.0\"}"
    ]
}