{
    "content": [
        "e501ca70249f5e847234052153600faa\t23\tsie\\-m[\\d]v\\\/.* up\\.browser\\\/[\\d]\\.[\\d].*",
        "e50e82cf6642d739242672a00b2ecff1\t16\tteleca\\-obigo [\\d]\\.[\\d]",
        "e50e82cf6642d739242672a00b2ecff1\t12\tteleca\\-obigo",
        "e533d0b5dfd77f88ba177c5e2d496cc2\t64\tesatcom\\-es[\\d][\\d][\\d][\\d]\\\/\\([\\d][\\d][\\d][\\d]\\.[\\d]\\.[\\d][\\d]\\)sw[\\d]\\.[\\d]\\\/wap[\\d]\\.[\\d] midp\\\/midp[\\d]\\.[\\d] cldc\\\/cldc[\\d]\\.[\\d]",
        "e55115d17c68ccc7ebc6db809592da3d\t34\tbenq\\-s[\\d][\\d][\\d]c\\\/cldc_[\\d]\\.[\\d] up\\.browser\\\/[\\d]\\.[\\d].*",
        "e57dc5afecf2778055b19b160d7fec94\t24\tkddi\\-kc[\\d]b up\\.browser\\\/[\\d]\\.[\\d].*",
        "e58b5a71c61ac604cd48e134980ef5a9\t4\tred\\\/.*",
        "e5a1ab49bb3729dc30cb9fdb37e5ae24\t7\tnewsme\\\/.*",
        "e5a22851e20fab2191a1e070bf527b6d\t14\tcometbird [\\d][\\d]\\.[\\d]",
        "e5a22851e20fab2191a1e070bf527b6d\t13\tcometbird [\\d]\\.[\\d]",
        "e5d579264e60e3bf0cc503ef3fe68f34\t9\tineturl\\:\\\/.*",
        "e5e14275b851eafcfb6b36d24b45d37c\t33\tsharp\\-tq\\-gx[\\d][\\d]\\\/[\\d]\\.[\\d] .* up\\.browser\\\/[\\d]\\.[\\d].*"
    ]
}