{
    "content": [
        "390907b55f464b423d4669d3ab6aaf7f\t[]",
        "399f2f7c28a871283ef7e52c558e47da\t[]",
        "39454fccf666a5bbd26e726326046ee9\t[]",
        "3936f4a91c33fbff03fd3766085a9d3e\t[]",
        "39f3f0b5b0ec0ec915ee8bc39bfd9cfe\t[]",
        "39e5ebb4fd0ef53bea01d83ddf40661b\t[]",
        "394465f2095b1e9d39a5191d6ac7e59d\t[]",
        "390b0c4e7a6e9aa416515ae8e4637ea5\t[]",
        "39008507d9b975f921990bdae84d26de\t[]",
        "39406f0f6efc45156572b712a0414054\t{\"Browser_Bits\":\"32\",\"Platform\":\"Darwin\"}",
        "39f65edcbe5c73006ec06418abed52da\t{\"Browser_Bits\":\"32\",\"Platform\":\"Win10\",\"Platform_Version\":\"6.4\",\"Win32\":true}",
        "39c704587f8b1a8cd43344649486c1fe\t{\"Platform\":\"Win8\",\"Platform_Version\":\"6.2\"}",
        "39b86da5e8626ec4196527bed74ac75b\t{\"Platform\":\"iOS\",\"Platform_Version\":\"8.0\",\"Win32\":false,\"isMobileDevice\":true,\"isTablet\":true}",
        "39a590ca392f38828c10535ea483e564\t{\"Platform\":\"iOS\",\"Platform_Version\":\"8.2\",\"Win32\":false,\"isMobileDevice\":true,\"isTablet\":true}",
        "3950689ac977b1e5739fa88d5bdf850f\t{\"Platform\":\"iOS\",\"Platform_Version\":\"9.1\",\"Win32\":false,\"isMobileDevice\":true,\"isTablet\":true}",
        "39a9562ee52c296d07c82424fb9d7008\t{\"Platform\":\"iOS\",\"Platform_Version\":\"10.2\",\"Win32\":false,\"isMobileDevice\":true,\"isTablet\":true}",
        "39552d0942bd7ccc6c488a8636e207aa\t{\"Platform\":\"macOS\",\"Platform_Version\":\"10.12\",\"Win32\":false}",
        "39ea5d2a28ef49a109dd7944675425c4\t{\"Platform\":\"iOS\",\"Platform_Version\":\"9.3\",\"Win32\":false,\"isMobileDevice\":true,\"isTablet\":true}",
        "39ae1c4b5ef97b628851d760f6981dd6\t{\"Platform\":\"iOS\",\"Platform_Version\":\"8.2\",\"Win32\":false,\"isMobileDevice\":true,\"isTablet\":true}",
        "39a16f280901757a3e9c354048c45225\t[]",
        "39a26d18e59aeb41e1890943b1eb3c36\t{\"Platform_Version\":\"5.0\"}",
        "39ae5868c17d1f0a77fd98e2d4b75ac3\t{\"Platform_Version\":\"4.2\",\"isTablet\":true}",
        "39daa2f155dc39d1b5de2038eb5a44a5\t{\"Platform_Version\":\"8.4\",\"isTablet\":true}",
        "39db009bf4de87d4fb5fc41371dc3034\t{\"Platform_Version\":\"5.0\"}",
        "3993bd93c51d568d3798f66f4ec1310c\t{\"Platform\":\"iOS\",\"Platform_Version\":\"7.0\"}",
        "39eb305c13c7e2a19688ff6140b87469\t{\"Platform\":\"iOS\",\"Platform_Version\":\"7.1\"}",
        "39aea14ed8c3a917695236c571f8ded4\t[]",
        "39ae7932dc6f55f619de164b3ee3d0c7\t{\"Platform\":\"iOS\",\"Platform_Version\":\"8.1\"}",
        "39e9d4531c7ca88ab85a8d34ac7d1bdd\t{\"Platform_Version\":\"4.4\",\"isTablet\":true}",
        "3948a4b9613464d8682eccfb7cd61eb4\t{\"Platform\":\"iOS\",\"Platform_Version\":\"8.1\",\"isTablet\":true}",
        "393f5ec6a731610302fa2234ad764b95\t{\"Platform\":\"iOS\",\"Platform_Version\":\"9.2\",\"isTablet\":true}",
        "394e2e3200de4b1a68f6b7a2d347b42b\t{\"Platform\":\"iOS\",\"Platform_Version\":\"8.1\"}",
        "39a323e4b94d97cfe78edaa524d40137\t{\"Platform\":\"iOS\",\"Platform_Version\":\"8.3\"}",
        "39eaf32d9e04d0392d32fdfd49f57908\t{\"Platform\":\"iOS\"}",
        "390f555333638ff220bc16c4bfd62b85\t{\"Platform_Version\":\"4.4\",\"isTablet\":true}",
        "391777ce96bb86d599f15ff35a1a1403\t{\"Browser_Bits\":\"32\",\"Platform\":\"JAVA\"}",
        "397a9f07bbdf624625b074ef637415f4\t{\"Browser_Bits\":\"32\",\"Platform\":\"Android\",\"Platform_Version\":\"4.3\"}",
        "39ae8f852f66aafcb67a01d299af6a7f\t{\"Browser_Bits\":\"32\",\"Platform\":\"Series40\"}",
        "39c7e46801c11e4b87ab745539ffdbe0\t{\"Platform_Version\":\"10.3\",\"isTablet\":true}",
        "391025617e6dc805b11f04184d92d09a\t{\"Platform\":\"WinXP\",\"Platform_Version\":\"5.2\",\"Win32\":true}",
        "393e80a52dbb34303a389ef8adfad147\t{\"Platform\":\"WinXP\",\"Platform_Version\":\"5.2\",\"Win32\":true}",
        "39f35f5e230a8312b3b42c89e98b2685\t{\"Platform\":\"WinXP\",\"Platform_Version\":\"5.1\",\"Win32\":true}",
        "3930e7199a4941c028de0c9a83295c55\t{\"Platform\":\"Win7\",\"Platform_Version\":\"6.1\",\"Win32\":true}",
        "395dad2e3e8d670c5fc84a7bc3da8798\t{\"Platform\":\"Win10\",\"Platform_Version\":\"10.0\",\"Win32\":true}",
        "3994dd3755777fff1cd5ec7e84072fc7\t{\"Platform\":\"Win8.1\",\"Platform_Version\":\"6.3\",\"Win32\":true}",
        "3958bef65d777b68c764cb59c6ce7e80\t{\"Platform\":\"Win8.1\",\"Platform_Version\":\"6.3\",\"Win32\":true}",
        "3939a884de242dd089b45de9254e73c7\t{\"Platform_Version\":\"4.2\",\"isTablet\":true}",
        "399d48ee2d3c19b4287e57d2168b413f\t{\"Platform_Version\":\"4.2\",\"isTablet\":true}",
        "39ca8020c27ad5dc9d92971effc06ebd\t{\"Platform_Version\":\"4.2\",\"isTablet\":true}",
        "39d870b6a4fe1eecbbb4e6aa2fbe2604\t[]",
        "39a113f496f6d1f4194e87f2518f198c\t{\"Platform_Version\":\"4.4\",\"isTablet\":true}",
        "392e03e5a53616b51abcade7cbe2df4b\t{\"Platform_Version\":\"5.0\",\"isTablet\":true}",
        "39b8eb6353d67e1f1f2c7fa1e977b94a\t{\"Platform_Version\":\"4.2\",\"isTablet\":true}",
        "3930d3a95c618b416e0230f316b210bd\t[]",
        "39a2737cd83645b562973c754806811c\t{\"Browser_Bits\":\"32\",\"Platform\":\"Android\",\"Platform_Version\":\"4.2\"}",
        "39d3430a6f5cebdf27e1e70fdfd253a6\t{\"Browser_Bits\":\"32\",\"Platform\":\"Android\",\"Platform_Version\":\"6.0\"}",
        "392caca9af917a9ac0a6ecb6f53a7c13\t{\"Browser_Bits\":\"32\",\"Platform\":\"Android\",\"Platform_Version\":\"6.1\"}",
        "397017f44bf9208aa6c11e19f032983b\t{\"Platform_Version\":\"10.2\"}",
        "391ef89dbb7cb566115a7d2b3e16ef1a\t{\"Platform_Version\":\"10.1\"}",
        "39c7c300ed1d807bba04981e54bbda5b\t{\"Platform_Version\":\"9.3\",\"isTablet\":true}",
        "39ea6d05c55102968db6571bfc469bcd\t{\"Platform_Version\":\"9.0\"}",
        "394766c91aaffa6be725a39781b21a35\t{\"Browser_Bits\":\"32\",\"Platform\":\"MacOSX\",\"Platform_Version\":\"10\"}",
        "3987614dc36983121744bdb2285d328f\t{\"Platform_Version\":\"4.4\",\"isTablet\":true}",
        "3960aededd39551fa0d88cd54f531930\t{\"Platform_Version\":\"8.1\"}",
        "396a45701f7e56fd622872fd387f0437\t{\"Platform_Version\":\"7.1\"}",
        "39e303aabccf9b4ee278acb67cf3b254\t[]",
        "3961c2eb324370b2a9510dc629f70931\t{\"Browser_Bits\":\"32\",\"Platform\":\"MacOSX\",\"Platform_Version\":\"10.10\"}",
        "39dc6228ffe88d520e4e087d19ce09fc\t{\"Platform_Version\":\"8.3\"}",
        "39692e0df1f3e6fadae10aeabd3a495a\t{\"Platform_Version\":\"8.2\"}",
        "39abcd43bd2982320c08a44772c9400c\t{\"Browser_Bits\":\"32\",\"Platform\":\"MacOSX\",\"Platform_Version\":\"10.11\"}",
        "39f316ce434c33da8070555df5626fc9\t{\"Platform_Version\":\"7.0\"}",
        "39e239e4c2231b0325fc7a62f2958376\t{\"Platform_Version\":\"9.1\"}",
        "3972a5571d9505b3c3e59e029553e61b\t{\"Platform_Version\":\"4.2\",\"isTablet\":true}",
        "392fa7679f6d9c10f83c47e2388ea74b\t{\"Platform_Version\":\"4.3\"}",
        "39747605db6a4c3acdd39cbbc74cfbb6\t{\"Platform_Version\":\"4.4\",\"isTablet\":true}",
        "39298aa21d14e54f9edd01bdb0974ebc\t{\"Platform_Version\":\"4.2\",\"isTablet\":true}",
        "39f3011e7ed9907e92f4c3935278297e\t{\"Platform_Version\":\"4.4\",\"isTablet\":true}",
        "3909b893bf3b96d3aef4c2191b3b506e\t{\"Platform_Version\":\"4.3\",\"isTablet\":true}",
        "3980c11dd674ccd5b7342f22ad88303e\t{\"Platform_Version\":\"4.2\",\"isTablet\":true}",
        "39f8952a189d4a5737018b422c99d31b\t{\"Browser_Bits\":\"32\",\"Platform\":\"WinXP\",\"Platform_Version\":\"5.1\",\"Win32\":true}",
        "39ed76af6f55c19c30ba8589d8652a92\t{\"Browser_Bits\":\"32\",\"Platform\":\"Linux\"}",
        "39e97fadec6b119d2db645359912d9e4\t{\"Browser_Bits\":\"32\",\"Platform\":\"WinXP\",\"Platform_Version\":\"5.2\",\"Win32\":true}",
        "39e27964a2c6e92f49ec15507b1f9a3c\t{\"Browser_Bits\":\"32\",\"Platform\":\"Maemo\"}",
        "3910e75e437b821787240f0afb4bb386\t{\"Browser_Bits\":\"32\",\"Platform\":\"Win8\",\"Platform_Version\":\"6.2\",\"Win32\":true}",
        "39829a6e18a178dd272506a7c0f37d33\t{\"Browser_Bits\":\"32\",\"Platform\":\"Maemo\"}",
        "39c58d9c8880235d2818de45614b1bc7\t{\"Browser_Bits\":\"32\",\"Platform\":\"Win8.1\",\"Platform_Version\":\"6.3\",\"Win32\":true}",
        "3955457aea0178645fa3ea67ef5e530d\t{\"Browser_Bits\":\"32\",\"Platform\":\"Linux\"}",
        "39bad705f3b6c620115297b952e88028\t{\"Browser_Bits\":\"32\",\"Platform\":\"FreeBSD\"}",
        "39092a5c65315f3fa311c1a4f7b46077\t{\"Browser_Bits\":\"32\",\"Platform\":\"WinXP\",\"Platform_Version\":\"5.2\",\"Win32\":true}",
        "3921e83c3e0c7125a8728104136533d1\t{\"Browser_Bits\":\"32\",\"Platform\":\"WinXP\",\"Platform_Version\":\"5.2\",\"Win32\":true}",
        "39cfa802f555763d77ad408274cdfa24\t{\"Browser_Bits\":\"32\",\"Platform\":\"WinVista\",\"Platform_Version\":\"6.0\",\"Win32\":true}",
        "39f3c9207ffb0ff51bc1213dad352fc3\t{\"Browser_Bits\":\"32\",\"Platform\":\"Linux\"}",
        "3922a1559b9ac7c73c41350afd5fe74f\t{\"Browser_Bits\":\"32\",\"Platform\":\"WinXP\",\"Platform_Version\":\"5.1\",\"Win32\":true}",
        "3923e9e52d2e828c57e96f6283a2a5de\t{\"Browser_Bits\":\"32\",\"Platform\":\"WinXP\",\"Platform_Version\":\"5.1\",\"Win32\":true}",
        "398418892bc2f2b963261566437939d2\t{\"Browser_Bits\":\"32\",\"Platform\":\"Win8\",\"Platform_Version\":\"6.2\",\"Win32\":true}",
        "398deb99225d03b3fdde6c1631fca160\t{\"Browser_Bits\":\"32\",\"Platform\":\"Win7\",\"Platform_Version\":\"6.1\",\"Win32\":true}",
        "399705bb605206f12ee9d78802594311\t{\"Browser_Bits\":\"32\",\"Platform\":\"WinVista\",\"Platform_Version\":\"6.0\",\"Win32\":true}",
        "3935603ed4af276143d7f070ae8b3087\t{\"Browser_Bits\":\"32\",\"Platform\":\"MacOSX\",\"Platform_Version\":\"10.10\"}",
        "39e16b769dd1fcbe3c2fd238ed9c0fa1\t{\"Browser_Bits\":\"32\",\"Platform\":\"WinXP\",\"Platform_Version\":\"5.1\",\"Win32\":true}",
        "399a3a636ba2d5d273160cdd29614397\t{\"Browser_Bits\":\"32\",\"Platform\":\"MacOSX\",\"Platform_Version\":\"10.10\"}",
        "398f604faca691b95a8ce9a2c0baa1d2\t{\"Browser_Bits\":\"32\",\"Platform\":\"Win8.1\",\"Platform_Version\":\"6.3\",\"Win32\":true}",
        "394b5971f713312a3b1036b0737a09a7\t{\"Browser_Bits\":\"32\",\"Platform\":\"WinVista\",\"Platform_Version\":\"6.0\",\"Win32\":true}",
        "397ec4ef726eadb1b1c25b8c8ee62161\t{\"Browser_Bits\":\"32\",\"Platform\":\"Win8.1\",\"Platform_Version\":\"6.3\",\"Win32\":true}",
        "39ae6212b38f50cce0088aad17dfe34b\t{\"Browser_Bits\":\"32\",\"Platform\":\"WinXP\",\"Platform_Version\":\"5.1\",\"Win32\":true}",
        "398f2ea450a60ab4e4baac724f59e487\t{\"Browser_Bits\":\"32\",\"Platform\":\"WinXP\",\"Platform_Version\":\"5.1\",\"Win32\":true}",
        "39d6e2a9aaece29b381ddca5ee3f8cec\t{\"Browser_Bits\":\"32\",\"Platform\":\"Win32\",\"Win32\":true}",
        "391fb341a11d75fb2940222ca0af4071\t{\"Browser_Bits\":\"32\",\"Platform\":\"Win32\",\"Win32\":true}",
        "3967a0a4f5870e4301bd40cbb1942513\t{\"Browser_Bits\":\"32\",\"Platform\":\"WinXP\",\"Platform_Version\":\"5.2\",\"Win32\":true}",
        "39a11d5b4c55c03536477d9f337a553c\t{\"Browser_Bits\":\"32\",\"Platform\":\"MacOSX\",\"Platform_Version\":\"10\"}",
        "39e5074ba4eded7533a03e446aaf8757\t{\"Browser_Bits\":\"32\",\"Platform\":\"Win7\",\"Platform_Version\":\"6.1\",\"Win32\":true}",
        "39e0995d790ed40980f4e23cc4365577\t{\"Browser_Bits\":\"32\",\"Platform\":\"WinVista\",\"Platform_Version\":\"6.0\",\"Win32\":true}",
        "399929baf741d8755831d13c2c2e3c0c\t{\"Browser_Bits\":\"32\",\"Platform\":\"WinXP\",\"Platform_Version\":\"5.2\",\"Win32\":true}",
        "392f604fb4e43bbfaa0316fbab4a331e\t{\"Browser_Bits\":\"32\",\"Platform\":\"FreeBSD\"}",
        "396e679cc9cc594c766d8a1579db7d0d\t{\"Browser_Bits\":\"32\",\"Platform\":\"Win8\",\"Platform_Version\":\"6.2\",\"Win32\":true}",
        "396d5b8d59d504bace038b30d23ecdb9\t{\"Browser_Bits\":\"32\",\"Platform\":\"Win7\",\"Platform_Version\":\"6.1\",\"Win32\":true}",
        "39ed6da41fc07723818125b63710901e\t{\"Browser_Bits\":\"32\",\"Platform\":\"Win8\",\"Platform_Version\":\"6.2\",\"Win32\":true}",
        "3975fe685ae91a76a05a6a830d62a68b\t{\"Browser_Bits\":\"32\",\"Platform\":\"Win32\",\"Win32\":true}",
        "3982f6e5bc794347867f52ece770fe2d\t{\"Browser_Bits\":\"32\",\"Platform\":\"Win7\",\"Platform_Version\":\"6.1\",\"Win32\":true}",
        "3975a25b22f9a58186b8f611c878c5aa\t{\"Browser_Bits\":\"32\",\"Platform\":\"WinXP\",\"Platform_Version\":\"5.1\",\"Win32\":true}",
        "39c3b2f9f419dd01a26460def14a390e\t{\"Browser_Bits\":\"32\",\"Platform\":\"WinXP\",\"Platform_Version\":\"5.2\",\"Win32\":true}",
        "3997a11fb461fb8dd8c45c9286d69f4e\t{\"Browser_Bits\":\"32\",\"Platform\":\"Win8\",\"Platform_Version\":\"6.2\",\"Win32\":true}",
        "390f9603a9a9b1c08b9c7fceb7b270c2\t{\"Browser_Bits\":\"32\",\"Platform\":\"MacOSX\",\"Platform_Version\":\"10.10\"}",
        "392fa1ea36ae288146b4675115c0b106\t{\"Browser_Bits\":\"32\",\"Platform\":\"Win7\",\"Platform_Version\":\"6.1\",\"Win32\":true}",
        "3918cc7cae249d4ec14f6ef943688fdf\t{\"Browser_Bits\":\"32\",\"Platform\":\"WinXP\",\"Platform_Version\":\"5.2\",\"Win32\":true}",
        "39bc85d7c6da0bfdd04c3a54eb4d6433\t{\"Browser_Bits\":\"32\",\"Platform\":\"Linux\"}",
        "3938d7bbd3996406194f959cb5d50571\t{\"Browser_Bits\":\"32\",\"Platform\":\"MacOSX\",\"Platform_Version\":\"10.9\"}",
        "39e1d0b8ee171918aa7753e4fdf3271d\t{\"Browser_Bits\":\"32\",\"Platform\":\"WinXP\",\"Platform_Version\":\"5.1\",\"Win32\":true}",
        "394cef2cbc0b9918fce4758f0c9d580c\t{\"Browser_Bits\":\"32\",\"Platform\":\"MacOSX\",\"Platform_Version\":\"10\"}",
        "39d4c561b4515cd4d080594af6af2ea6\t{\"Browser_Bits\":\"32\",\"Platform\":\"MacOSX\",\"Platform_Version\":\"10.10\"}",
        "39b5c75557eff5bbcddabfc35b65a48a\t{\"Browser_Bits\":\"32\",\"Platform\":\"Win8\",\"Platform_Version\":\"6.2\",\"Win32\":true}",
        "390538d7961b9fe0cdb3fcf76adc3145\t{\"Browser_Bits\":\"32\",\"Platform\":\"Linux\"}",
        "39a414c371630d78ff42c3af307dc146\t[]",
        "3966b941235f695e03f8a83d60248166\t{\"Browser_Bits\":\"32\",\"Platform\":\"SunOS\"}",
        "39acd74f9916cdf37748c439ced7e793\t{\"Browser_Bits\":\"32\",\"Platform\":\"SunOS\"}",
        "395b76acfc804c951a22a614f1a4d806\t{\"Browser_Bits\":\"32\",\"Platform\":\"Win8.1\",\"Platform_Version\":\"6.3\",\"Win32\":true}",
        "394bf7d338b074ad3f6ece5f5b492da4\t{\"Browser_Bits\":\"32\",\"Platform\":\"Win8.1\",\"Platform_Version\":\"6.3\",\"Win32\":true}",
        "39b36cc48ac3f1193a379a49a107823b\t{\"Browser_Bits\":\"32\",\"Platform\":\"MacOSX\",\"Platform_Version\":\"10\"}",
        "394c533c56471dd5f4e00ba7f4fca01b\t{\"Browser_Bits\":\"32\",\"Platform\":\"MacOSX\",\"Platform_Version\":\"10.10\"}",
        "3916376ae86940e3ff8c8d568b02f686\t{\"Browser_Bits\":\"32\",\"Platform\":\"MacOSX\",\"Platform_Version\":\"10.10\"}",
        "39f1aa268a6fe39d21113e9d8d900ef0\t[]",
        "396b12712ab2a0c0ea2929dca5e9078b\t{\"Browser_Bits\":\"32\",\"Platform\":\"MacOSX\",\"Platform_Version\":\"10\"}",
        "39308d7ff270e57218806f7a76b6a086\t{\"Browser_Bits\":\"32\",\"Platform\":\"WinVista\",\"Platform_Version\":\"6.0\",\"Win32\":true}",
        "39eb50aa182dbc65bcae6b3d8a72512a\t{\"Browser_Bits\":\"32\",\"Platform\":\"WinVista\",\"Platform_Version\":\"6.0\",\"Win32\":true}",
        "3988e0c1c4c1fcaaea05f2b91179b65c\t{\"isTablet\":true}",
        "391f247a63e1f2971a0de5d8c440c959\t{\"Platform_Version\":\"4.4\",\"isTablet\":true}",
        "3957130575f04c655b991c00d2a908ee\t{\"Platform_Version\":\"5.0\"}",
        "3993b00bcaabd5ab423aaa4fc027c7c3\t{\"Platform_Version\":\"4.4\",\"isTablet\":true}",
        "39536654fcdf6aab9bb913fe12beafd5\t{\"Platform_Version\":\"4.2\"}",
        "39e98813406e1d37100727b861c224c7\t[]",
        "399fc72bd104baa0040d467108b2527a\t{\"isTablet\":true}",
        "3958d7f22698fcda5f3dd4c5c9fec0c0\t{\"Browser_Bits\":\"32\",\"Platform\":\"MacOSX\",\"Platform_Version\":\"10.9\"}",
        "395a39bea1e52659598a69cd50ef112f\t{\"Platform_Version\":\"4.4\",\"isTablet\":true}",
        "39547b1ccff013c940298d8a67df77e8\t{\"Platform_Version\":\"4.3\",\"isTablet\":true}",
        "39a5bdd3d8299b386fd4704480e0b18a\t{\"Platform_Version\":\"4.3\",\"isTablet\":true}",
        "39ac78a01a97644bcc2285330f6ed94e\t{\"Platform_Version\":\"9.3\"}",
        "39e119fc693d1283a9ce75b97c9a8939\t{\"Platform_Version\":\"4.2\",\"isTablet\":true}",
        "39da372bdc78d0a74f37ba820c912340\t[]",
        "39364f7a66623bb55c7a365a7d2fc0c2\t{\"Platform_Version\":\"4.2\",\"isTablet\":true}",
        "39c8c175ef98f72fbcbea7abb479fef2\t{\"Platform_Version\":\"4.2\",\"isTablet\":true}",
        "394fa83c834b64e75b42599e7968cb99\t{\"Platform_Version\":\"4.2\",\"isTablet\":true}",
        "393235d1ac4f6733966dad7ffff92514\t{\"Platform_Version\":\"4.2\",\"isTablet\":true}",
        "3978309c21dc338a5fd2984d9ede3e92\t{\"Platform_Version\":\"4.2\",\"isTablet\":true}",
        "396dc83659a65713943d5c1db2ead69b\t{\"Platform_Version\":\"4.2\"}",
        "39293cd7a382c94fdf6a5fa19d662407\t{\"Platform_Version\":\"4.4\",\"isTablet\":true}",
        "39ebf0e94a57a96dfaf137278d6c7069\t{\"Platform_Version\":\"4.3\",\"isTablet\":true}",
        "39f077bb457ba416dde22e0d3807476e\t{\"Platform_Version\":\"4.2\",\"isTablet\":true}",
        "39b62eb7ebd6ff36b7f089ce93ccf459\t{\"Platform_Version\":\"4.2\",\"isTablet\":true}",
        "394287f866772cbf9b295c05fcf516c7\t{\"Platform_Version\":\"4.2\",\"isTablet\":true}",
        "39a36a551922c2de186f3a1d6bff5734\t{\"Platform_Version\":\"9.3\"}",
        "39efe7a7c8f335776629b1ca4bb53ad8\t{\"Platform_Version\":\"4.2\",\"isTablet\":true}",
        "39424ad179aabdc89a7f785a14232fb7\t{\"Platform_Version\":\"8.1\",\"isTablet\":true}",
        "39b1b1ca3670563fb43ef231fbe08493\t{\"Browser_Bits\":\"32\",\"Platform\":\"Win8\",\"Platform_Version\":\"6.2\",\"Win32\":true}",
        "39dde87d64f2c230f2f2b4c42f35e274\t{\"Platform_Version\":\"4.2\",\"isTablet\":true}",
        "3962218fcb1ea0ad2db973b8eab424c2\t{\"Platform_Version\":\"4.2\",\"isTablet\":true}",
        "39ffc9a31961fb0cd6054ee119c79540\t{\"Browser_Bits\":\"32\",\"Platform\":\"MacOSX\",\"Platform_Version\":\"10.9\"}",
        "39c417d8e0aaf6bd90ddba9d29672c11\t{\"Platform_Version\":\"4.3\",\"isTablet\":true}",
        "391729933f02b3c5d304fecc45e5da3b\t{\"Platform_Version\":\"4.2\",\"isTablet\":true}",
        "3940846be04a591f9abef36394776095\t{\"Platform_Version\":\"4.4\",\"isTablet\":true}",
        "3995edc833f063bd38bb9695157b12b1\t{\"Platform_Version\":\"4.2\",\"isTablet\":true}",
        "39eee6c62511953e8c86cb2ddee75c45\t{\"Browser_Bits\":\"32\",\"Platform\":\"ChromeOS\"}",
        "3944e353267afd2310a4c18435e8c4f7\t{\"Platform_Version\":\"4.2\",\"isTablet\":true}",
        "396fe8d6ff512bb6839317beae8c81f6\t{\"Platform_Version\":\"4.2\",\"isTablet\":true}",
        "39c26ce6a5c7d42cbdec1ddf38fe498b\t{\"Platform_Version\":\"10.2\"}",
        "394267568028a2e5835f7fb76d0ef480\t{\"Platform_Version\":\"4.3\",\"isTablet\":true}",
        "39a02245bd8ac5972ba5b099c58183b7\t{\"Platform_Version\":\"5.0\"}",
        "399991cecd5a7d832a1a5235b78ef15a\t{\"Platform_Version\":\"7.1\"}",
        "3976bcdcc1bccf6099f12f3f88bf245c\t{\"Browser_Bits\":\"32\",\"Platform\":\"WinXP\",\"Platform_Version\":\"5.2\",\"Win32\":true}",
        "399b16495e8e6006c7f8dd24e5a15524\t{\"Platform_Version\":\"4.4\",\"isTablet\":true}",
        "3960eed33f6edb7479379df3d8fcf7db\t{\"Platform_Version\":\"4.4\",\"isTablet\":true}",
        "39ca0daa49515003ed18c933f7b51ebc\t{\"Browser_Bits\":\"32\",\"Platform\":\"WinXP\",\"Platform_Version\":\"5.1\",\"Win32\":true}",
        "39c798948f77272b40e29b5d63c8ef29\t{\"Platform_Version\":\"4.4\",\"isTablet\":true}",
        "397eb1e193f65d155f215ab287cdab7f\t{\"Platform_Version\":\"4.2\",\"isTablet\":true}",
        "398f4bac1396041287b4827d503cdbf8\t{\"Platform_Version\":\"8.0\"}",
        "3926d0f6fad846749b73a1c6f26eef98\t{\"Platform_Version\":\"4.4\",\"isTablet\":true}",
        "394bb54b33fd61da97eca14cadc86971\t{\"Platform_Version\":\"4.3\",\"isTablet\":true}",
        "39225e757a645620548b06eac304a978\t{\"Platform_Version\":\"4.4\"}",
        "39e608e6728a02764d5273a081a633e6\t{\"Platform_Version\":\"4.2\",\"isTablet\":true}",
        "3909e8bbc26a986a36ac550d15632321\t{\"Platform_Version\":\"4.4\",\"isTablet\":true}",
        "39a2f26cef3318a333c32e12bd05ac0a\t{\"Platform_Version\":\"4.2\",\"isTablet\":true}",
        "39d3c22adab8e1fff19afeb11504b80c\t{\"Platform_Version\":\"4.2\",\"isTablet\":true}",
        "39c7150e676212f472daf706b2f0498a\t{\"Platform_Version\":\"4.2\",\"isTablet\":true}",
        "39cf216af9ed4acb67f535aef6d32c58\t{\"Browser_Bits\":\"32\",\"Platform\":\"Win32\",\"Win32\":true}",
        "39a3aeecb73a53d7e99ea92d2952c7a5\t{\"Browser_Bits\":\"32\",\"Platform\":\"MacOSX\",\"Platform_Version\":\"10.9\"}",
        "394252a7ea6ff1c8b3d18cd2ff9cb8aa\t{\"Browser_Bits\":\"32\",\"Platform\":\"WinXP\",\"Platform_Version\":\"5.2\",\"Win32\":true}",
        "393ad5e829b6b66b8f3226a8f5f15854\t{\"Browser_Bits\":\"32\",\"Platform\":\"iOS\",\"isMobileDevice\":true}",
        "3927b5d7aaee70b421443b6cdd5dfeef\t{\"Browser_Bits\":\"32\",\"Platform\":\"Win8.1\",\"Platform_Version\":\"6.3\",\"Win32\":true}",
        "398a03867f5f664227ccab0f2a6b4cf1\t{\"Browser_Bits\":\"32\",\"Platform\":\"FreeBSD\"}",
        "39cbd45fa8d207210ad08256840fe606\t{\"Browser_Bits\":\"32\",\"Platform\":\"Linux\"}",
        "3920db38ed7d27a68fe6ac8342964d3a\t{\"Browser_Bits\":\"32\",\"Platform\":\"Win7\",\"Platform_Version\":\"6.1\",\"Win32\":true}",
        "3998e643747b2d80be7dff20e27df9d2\t{\"Platform_Version\":\"10.3\"}",
        "395c9850bdafa5696676f09a22e03b17\t{\"Platform_Version\":\"9.1\",\"isTablet\":true}",
        "3950b53e07b5d7dc929dacc71d4a5048\t{\"Platform_Version\":\"10.2\"}",
        "39735cfff2035e9cecb4691a5447afcc\t{\"Platform_Version\":\"9.1\"}",
        "399ba959f4c8bd28577cd9c313c0f229\t{\"Browser_Bits\":\"32\",\"Platform\":\"MeeGo\",\"isMobileDevice\":false}",
        "39f55611395bbc3285a7dea1898e78fb\t{\"Browser_Bits\":\"32\",\"Platform\":\"iOS\",\"isMobileDevice\":true}",
        "393efaf46ee7dcca0f155b707c7b89c9\t{\"Platform_Version\":\"4.2\"}",
        "3970d6126ba1fe98ce4969959c9ced86\t[]",
        "3919fb77bc56a56bdcd7074dc818ccb5\t[]",
        "3959fbc4ee872f81f82ce392921eae8d\t{\"Browser_Bits\":\"32\",\"Platform\":\"iOS\",\"Platform_Version\":\"7.0\"}",
        "39c1cbe7662cf48718c220d5aae36cb2\t[]",
        "393f346d2aea5608be6c2c2e041f666f\t[]",
        "39662d7e180dabdce61b1c649d15bab2\t{\"Browser_Bits\":\"32\",\"Platform\":\"Android\",\"Platform_Version\":\"4.4\"}",
        "39942d91abfc7bfc8b7a3acf5db5de9f\t{\"Browser_Bits\":\"32\",\"Platform\":\"Android\"}",
        "3963b87d216efe6f78b2b65529d5ac7b\t[]",
        "39d894052338f9d37845039223a6272d\t{\"Browser_Bits\":\"32\",\"Platform\":\"WinXP\",\"Platform_Version\":\"5.1\",\"Win32\":true}",
        "39d9ca7da85f3abd70e2495b190d2dff\t{\"Browser_Bits\":\"32\",\"Platform\":\"WinVista\",\"Platform_Version\":\"6.0\",\"Win32\":true}",
        "392ff1e693f69729cce8c74e05f754ba\t{\"Browser_Bits\":\"32\",\"Platform\":\"Win10\",\"Platform_Version\":\"10.0\",\"Win32\":true}",
        "390f212446919c02ef3a6e24d9b33f2d\t[]",
        "39fd9b68e176f13ed654bd9b97a2ed65\t{\"isTablet\":true}",
        "395a5b6b1d469a9eb884cc381d135147\t{\"Platform_Version\":\"7.1\"}",
        "39113a95ddada02521ea53339aa8991a\t{\"Browser_Bits\":\"32\",\"Platform\":\"Android\",\"isMobileDevice\":true}",
        "390ac1f4d00dd2c8a68300f5e13c0511\t{\"Platform_Version\":\"4.2\"}",
        "3933f0988d66c2c8fdaefc333deae811\t{\"Platform_Version\":\"4.4\",\"isTablet\":true}",
        "39a09f741ecb1d964ac30be68b6cc9e4\t{\"Platform_Version\":\"4.3\",\"isTablet\":true}",
        "39220cc1db50284017184172d133f205\t{\"Browser_Bits\":\"32\",\"Platform\":\"iOS\",\"Platform_Version\":\"8.2\",\"isTablet\":true}",
        "392d4f599a266b03cb35c9121215d03c\t{\"Browser_Bits\":\"32\",\"Platform\":\"iOS\",\"Platform_Version\":\"7.1\"}",
        "3983e8fda1b4a81e7c6db199455f93e6\t{\"Browser_Bits\":\"32\",\"Platform\":\"iOS\",\"Platform_Version\":\"10.0\",\"isTablet\":true}",
        "3948192f4acaa84e70cb2519eb2e741c\t{\"Browser_Bits\":\"32\",\"Platform\":\"iOS\",\"Platform_Version\":\"10.1\",\"isTablet\":true}",
        "39bd9f2befa8e35da10e3c8ed95ac603\t{\"Browser_Bits\":\"32\",\"Platform\":\"JAVA\"}",
        "39b46d0111617f8017ae0e3aa1054802\t{\"Browser_Bits\":\"32\",\"Platform\":\"Android\"}",
        "39b5a96c4d57e981bf941c1d7bc26946\t{\"Browser_Bits\":\"32\",\"Platform\":\"Brew\",\"Platform_Version\":\"2.0\"}",
        "39378d6687d01676fc7e610e0e4ad090\t{\"Browser_Bits\":\"32\",\"Platform\":\"Tizen\"}",
        "39336d55e3a305a495bd2c5f1a2c2289\t{\"Browser_Bits\":\"32\",\"Platform\":\"Android\"}",
        "39cacd4a1c005c72dd64f82b6c6b5eb0\t{\"Platform_Version\":\"10.0\"}",
        "3948a6408ad1411cfcebc0e34be387a3\t{\"Platform_Version\":\"9.0\"}",
        "39d0812931caca4e74d0b62b35cc531e\t{\"Platform_Version\":\"9.1\",\"isTablet\":true}",
        "39dd8f428a93e599f37d456eebe01631\t{\"Platform_Version\":\"8.0\"}",
        "39cdc8af366ec0701b8dbe8b8f03b110\t{\"Platform_Version\":\"8.3\"}",
        "39aa146c717e64cc22982de9628c54d1\t{\"Platform_Version\":\"7.0\"}",
        "394b4889af30b80a6f775433bad16382\t{\"Platform_Version\":\"8.0\",\"isTablet\":true}",
        "39018ea8c02a8a730519e1712f02763a\t{\"Platform_Version\":\"8.0\",\"isTablet\":true}",
        "39cc65640cc28794695d96602dd3f12e\t{\"Platform_Version\":\"10.2\"}",
        "397ea6dc33a470533ce3f78d394a243c\t{\"Platform_Version\":\"9.2\",\"isTablet\":true}",
        "39e9d0e93ce225555ed4726872889d2f\t{\"Platform_Version\":\"7.1\"}",
        "39247bc530bd3d840406becb8604b411\t{\"Platform_Version\":\"8.4\",\"isTablet\":true}",
        "3962ca8ddb5061f4f6ceee307a6151bc\t{\"Platform_Version\":\"10.3\"}",
        "393c2aa4d3590b1bb72784da9e24518a\t{\"Platform_Version\":\"10.3\",\"isTablet\":true}",
        "39e91c9e26dd907465256abbed565cab\t{\"Platform_Version\":\"10.0\"}",
        "39aeb169a69afd78d0a212a71d4ba58a\t{\"Platform_Version\":\"10.2\",\"isTablet\":true}",
        "3945e8db21ed24832132a313f4cb24d2\t{\"Platform_Version\":\"7.0\"}",
        "3921083dc8ea27dd359dd3c1b4ecf51c\t{\"Platform_Version\":\"8.3\",\"isTablet\":true}",
        "3952624cf3fba202936af4361ad9e9e5\t[]",
        "39a525441172e35d47b4fc284abe8de6\t{\"Browser_Bits\":\"32\",\"Platform\":\"MacOSX\",\"Platform_Version\":\"10.10\"}",
        "39c09e08563ee56133ab77cb29882446\t{\"Browser_Bits\":\"32\",\"Platform\":\"MacOSX\",\"Platform_Version\":\"10.9\"}",
        "3901e1d0c1e0c2b2aaaccefc5bfd2ac9\t{\"Browser_Bits\":\"32\",\"Platform\":\"MacOSX\",\"Platform_Version\":\"10\"}",
        "39a595aa26218b22679d6ac154b98c5a\t[]",
        "39912faffe012d1d4f65c9a33744a967\t{\"Browser_Bits\":\"32\",\"Platform\":\"CentOS\"}",
        "3950b3d5dbec1cd0c0fec49cc5d360db\t{\"Platform_Version\":\"9.3\"}",
        "39bc66e3755efe34ee7c655eb36e6f8c\t[]",
        "397f5631f4b7764bf38913805c43fa7d\t{\"Platform_Version\":\"7.1\"}",
        "395ad2a8881cefdaaa6e1651eccc43db\t{\"Platform_Version\":\"9.3\",\"isTablet\":true}",
        "393268f4be9b1e45f4ef4cb6ed5d826f\t{\"Platform_Version\":\"9.3\",\"isTablet\":true}",
        "39c2aa77b8624dfc877c3fd2214feb69\t{\"Platform_Version\":\"8.1\"}",
        "395c900ca123de46390ffbcf5bdd88ad\t[]",
        "3925ddbc8a249234de68b6696bc737cf\t{\"Platform_Version\":\"8.3\"}",
        "39b1d498aa295e63dd60b5a734581180\t{\"Platform_Version\":\"8.4\"}",
        "3946aee0cbc66c6ad518229e7cecc8c3\t[]",
        "39a8449fd9465f491a6ebfa0410fa650\t{\"Platform_Version\":\"8.1\",\"isTablet\":true}",
        "39f1cd2571fb65534a0e5cb68e848e08\t{\"Platform_Version\":\"10.0\",\"isTablet\":true}",
        "390b9b636d5abceb09dee580478de52b\t{\"Platform_Version\":\"8.0\",\"isTablet\":true}",
        "398013b6d9e99765cfde4a8adb00b29d\t{\"Browser_Bits\":\"32\",\"Platform\":\"iOS\",\"isMobileDevice\":true}",
        "39c3e922d8a7725347c11b834f652c51\t{\"Platform_Version\":\"8.4\"}",
        "39075028f24155b4cc37ba69a603f089\t{\"Browser_Bits\":\"32\",\"Platform\":\"iOS\",\"Platform_Version\":\"7.1\"}",
        "39b224e2126da70fde6caa6bc6b297e4\t{\"Platform_Version\":\"7.0\"}",
        "39ec8a4f5b118742dc15120ebd787472\t{\"Browser_Bits\":\"32\",\"Platform\":\"OpenBSD\"}",
        "39e70776be1497fb77a84d0d3826a31e\t{\"Browser_Bits\":\"32\",\"Platform\":\"NetBSD\"}",
        "39d281816db57f6ed87e28ed9f17cbbd\t{\"isMobileDevice\":true}",
        "3954a236752925772a7ad4894ee54391\t{\"Browser_Bits\":\"32\",\"Platform\":\"Win7\",\"Platform_Version\":\"6.1\",\"Win32\":true}",
        "39fe41a15a170f4fe38376550f723773\t{\"Browser_Bits\":\"32\",\"Platform\":\"WinXP\",\"Platform_Version\":\"5.1\",\"Win32\":true}",
        "39f8cae3f440e6409ceba5cefb59e9e6\t{\"Browser_Bits\":\"32\",\"Platform\":\"Win7\",\"Platform_Version\":\"6.1\",\"Win32\":true}",
        "390a1501a4a915f975336f5670329c8f\t{\"Browser_Bits\":\"32\",\"Platform\":\"WinVista\",\"Platform_Version\":\"6.0\",\"Win32\":true}",
        "3967d436a5ee33cf1ebb2320a5b084a5\t{\"Browser_Bits\":\"32\",\"Platform\":\"WinXP\",\"Platform_Version\":\"5.1\",\"Win32\":true}",
        "39c5889f06888dc27ae43cc46d7a464b\t{\"Browser_Bits\":\"32\",\"Platform\":\"WinVista\",\"Platform_Version\":\"6.0\",\"Win32\":true}",
        "39bbf0d311cb804ebd848b9312a598a3\t{\"Browser_Bits\":\"32\",\"Platform\":\"Win32\",\"Win32\":true}",
        "39b996c44afb91cc484ebf595f3f09f4\t{\"Browser_Bits\":\"32\",\"Platform\":\"Win32\",\"Win32\":true}",
        "39f4ae5f056f984f15e5641ea6364c5a\t{\"Browser_Bits\":\"32\",\"Platform\":\"OpenBSD\"}",
        "39d0c581b6615dc015ac644d91bcd1a4\t{\"Browser_Bits\":\"32\",\"Platform\":\"WinXP\",\"Platform_Version\":\"5.2\",\"Win32\":true}",
        "39a0c516044a467c01ec2db81d4a842d\t{\"Browser_Bits\":\"32\",\"Platform\":\"WinXP\",\"Platform_Version\":\"5.1\",\"Win32\":true}",
        "39d10f87fe0c2b129704c48c73af6c70\t{\"Browser_Bits\":\"32\",\"Platform\":\"MacOSX\",\"Platform_Version\":\"10.10\"}",
        "393a1807ab5a3c1b548d5bc58cbb23d7\t{\"Browser_Bits\":\"32\",\"Platform\":\"Win8\",\"Platform_Version\":\"6.2\",\"Win32\":true}",
        "390a62f3346220e6792819c7c91d29d9\t{\"Browser_Bits\":\"32\",\"Platform\":\"MacOSX\",\"Platform_Version\":\"10.11\"}",
        "396d3497f68e4eb032b281a8bda0d515\t{\"Platform\":\"Win7\",\"Platform_Version\":\"6.1\"}",
        "399c40be8b1dc8177ac4c0d103d4650e\t{\"Browser_Bits\":\"32\",\"Platform\":\"MacOSX\",\"Platform_Version\":\"10\"}",
        "394ccaa1e50ab23c806c33abdc798d2b\t{\"Platform\":\"Win7\",\"Platform_Version\":\"6.1\"}",
        "39317019cbcc9482670b17bc78a244d1\t{\"Platform\":\"WinXP\",\"Platform_Version\":\"5.1\"}",
        "3934186483d944c1c7c57d090409eb2d\t{\"Browser_Bits\":\"64\",\"Platform\":\"Xbox OS\",\"Win64\":true}",
        "39b469a8ce6915fc11bb07c5d39f9275\t{\"Browser_Bits\":\"32\",\"Platform\":\"Win10\",\"Platform_Version\":\"6.4\",\"Win32\":true}",
        "399255a855302681b4ffb2f2c9888444\t{\"Browser_Bits\":\"32\",\"Platform\":\"OpenBSD\"}",
        "39627413e2e00c7503348b8dbaa61f1b\t{\"Browser_Bits\":\"32\",\"Platform\":\"Win7\",\"Platform_Version\":\"6.1\",\"Win32\":true}",
        "3999ecc372061cebbf6d361a4f47f997\t{\"Browser_Bits\":\"32\",\"Platform\":\"Linux\"}",
        "394f2769f92cc75e4fda1e9700a83ea0\t{\"Browser_Bits\":\"32\",\"Platform\":\"OpenBSD\"}",
        "39cb66c00ad3be836bad9eb86c72d817\t{\"Browser_Bits\":\"32\",\"Platform\":\"Win8\",\"Platform_Version\":\"6.2\",\"Win32\":true}",
        "398f33ceb24bf0ca7d173dcc7b6c8aa5\t{\"Browser_Bits\":\"32\",\"Platform\":\"WinVista\",\"Platform_Version\":\"6.0\",\"Win32\":true}",
        "3966f117100021a9ad5195267961f086\t{\"Browser_Bits\":\"32\",\"Platform\":\"Win8\",\"Platform_Version\":\"6.2\",\"Win32\":true}",
        "396c62ae072ba845461b5836c2734665\t{\"Browser_Bits\":\"32\",\"Platform\":\"MacOSX\",\"Platform_Version\":\"10\"}",
        "39c73826d12c00e8d38d07f545d53394\t[]",
        "39266e94b075e6c703e7baf6c8e2d153\t{\"Browser_Bits\":\"32\",\"Platform\":\"MacOSX\",\"Platform_Version\":\"10.10\"}",
        "39c55779b4b5e831dc14c069e28d4c42\t{\"Browser_Bits\":\"32\",\"Platform\":\"Win8\",\"Platform_Version\":\"6.2\",\"Win32\":true}",
        "391401f481bd342f4f3f19ba47cd7050\t{\"Browser_Bits\":\"32\",\"Platform\":\"MacOSX\",\"Platform_Version\":\"10\"}",
        "391f2bf9473f7498f81e719990e88c32\t{\"isTablet\":true}",
        "39f1b910e10aa6084c1a75bffbd87784\t{\"Platform_Version\":\"7.1\"}",
        "39bbf1a23a7a7cc2f6c431b286c8b9ad\t{\"Platform_Version\":\"7.1\"}",
        "390fd88075518f13d0614011e56179d7\t{\"Platform_Version\":\"10.1\",\"isTablet\":true}",
        "398bdf2d52e46abf63bbc5351d393447\t{\"Platform\":\"FirefoxOS\"}",
        "399c542bc20f07754a3ba303c298568d\t{\"Browser_Bits\":\"32\",\"Platform\":\"WinVista\",\"Platform_Version\":\"6.0\",\"Win32\":true}",
        "3937b2de6ffbc5f1403b594386c5447a\t{\"Browser_Bits\":\"32\",\"Platform\":\"WinXP\",\"Platform_Version\":\"5.2\",\"Win32\":true,\"isMobileDevice\":false}",
        "3986b2070d702c5efa36709e889dad0d\t{\"Browser_Bits\":\"32\",\"Platform\":\"Linux\"}",
        "39d5a0991bc53b8e931352e6745f1625\t{\"Browser_Bits\":\"32\",\"Platform\":\"Win8.1\",\"Platform_Version\":\"6.3\",\"Win32\":true}",
        "39718357c3ec7394db7813420a9c4177\t{\"Browser_Bits\":\"32\",\"Platform\":\"MacOSX\",\"Platform_Version\":\"10\"}",
        "390157efaa4810f8c6678bca087a1ccb\t{\"Platform_Version\":\"7.1\"}",
        "390e4eb8c165ffc6322268f7e02c1e3f\t{\"Platform_Version\":\"6.0\"}",
        "39ff7ed81f01c3f1df4b70c715d9f8a0\t[]",
        "394c7baf8f220a56d8bb0139215e434c\t{\"Browser_Bits\":\"32\",\"Platform\":\"Win10\",\"Platform_Version\":\"10.0\",\"Win32\":true}",
        "39392b50947ca3bb294156e0aa24e2e0\t{\"Browser_Bits\":\"32\",\"Platform\":\"Linux\"}",
        "39a32868a1a47ee2b4d5620babe164b8\t{\"Browser_Bits\":\"32\",\"Platform\":\"Win10\",\"Platform_Version\":\"6.4\",\"Win32\":true}",
        "39afa61c35f3290f6256742f5fce598f\t{\"Browser_Bits\":\"32\",\"Platform\":\"HP-UX\"}",
        "39d7bf12e2fbc569b809119be31bf6a6\t{\"Browser_Bits\":\"32\",\"Platform\":\"Win32\",\"Win32\":true}",
        "39beef8f68896e2fc6921a0e8016dfdd\t{\"Browser_Bits\":\"32\",\"Platform\":\"Win8\",\"Platform_Version\":\"6.2\",\"Win32\":true}",
        "39a4a940c5d6afcc90d3785f8ad3c5af\t{\"Browser_Bits\":\"32\",\"Platform\":\"MacOSX\",\"Platform_Version\":\"10\"}",
        "397aba69e8035b765b988894a4ea9319\t{\"Browser_Bits\":\"32\",\"Platform\":\"WinVista\",\"Platform_Version\":\"6.0\",\"Win32\":true}",
        "3928f503a9d066b864c56f3028dfbf98\t{\"Browser_Bits\":\"32\",\"Platform\":\"OpenBSD\"}",
        "39f00bc259f87e6ada2314729ce0580e\t{\"Browser_Bits\":\"32\",\"Platform\":\"Win8\",\"Platform_Version\":\"6.2\",\"Win32\":true}",
        "3940a654c1df68f3b3b1a8b9f113c3c4\t{\"Browser_Bits\":\"32\",\"Platform\":\"MacOSX\",\"Platform_Version\":\"10\"}",
        "3911b050e6e7a0c05f9b868ebf45638d\t{\"Browser_Bits\":\"32\",\"Platform\":\"MacOSX\",\"Platform_Version\":\"10\"}",
        "391edc28c42e8db82661a0d7605d1a60\t{\"Browser_Bits\":\"32\",\"Platform\":\"MacOSX\",\"Platform_Version\":\"10\"}",
        "3912a57c68ced9a27e61c2485995fe49\t{\"Browser_Bits\":\"32\",\"Platform\":\"BeOS\"}",
        "394a7049e49be568528ec6481cfc352c\t{\"Browser_Bits\":\"32\",\"Platform\":\"MacOSX\",\"Platform_Version\":\"10.10\"}",
        "3909bf5d04c3a559011a89e71e08befa\t{\"Platform_Version\":\"7.0\"}",
        "396373cbc41242ae46e186ce84b63636\t{\"Browser_Bits\":\"32\",\"Platform\":\"MacOSX\",\"Platform_Version\":\"10.12\"}",
        "395ebdfcb3cbb2a0c892b56d542d3b2f\t{\"Browser_Bits\":\"32\",\"Platform\":\"MacOSX\",\"Platform_Version\":\"10.12\"}",
        "394a1cf7aa5b2a5a9ebfbd2fd8ead24b\t{\"Platform_Version\":\"8.0\"}",
        "39b6b250ef5f0d2967344057083a6071\t{\"Platform_Version\":\"8.0\"}",
        "3920bf263109db9b08a7ec576e84466a\t[]",
        "39db8f7341415234451fd0e593f4e04c\t[]",
        "393df5f69633d1f957e2a97951b5094e\t[]",
        "391cbb81e98fd1e1db55af2a4b6ecdf0\t[]",
        "390225e97a7f744b55bf88aec0632f72\t[]",
        "397e2fe583ba8dd933238ad84dc7b9ea\t{\"Platform_Version\":\"8.0\"}",
        "392488e8614ac0d91e5b4c6fb70ea964\t{\"Platform_Version\":\"7.1\"}",
        "3904993cf6506fa76cc322ba27ad311c\t{\"Platform_Version\":\"10.2\"}"
    ]
}