{
    "content": [
        "b4fa84a3a02e6c17e94896895cab8efb\t[]",
        "b4047c5b67465bcc07b3ab4f68b754c4\t[]",
        "b412536156eed1e0dcd2774e787f34cc\t[]",
        "b41e12c1155f4f14f8103b42454c8f91\t[]",
        "b4668bfa5face2aeb536f769131a447a\t{\"Browser_Bits\":\"32\",\"Platform\":\"iOS\",\"Platform_Version\":\"7.0\",\"isMobileDevice\":true}",
        "b4b8c61658b5551cd4cbe0819683ec42\t[]",
        "b4bbaa1c59008a11b03ca328f2695f40\t[]",
        "b4a39fbb9c9ee9e074200b8d60be3edb\t[]",
        "b40af6a23694c57bf6e0fd3dc32e27a5\t{\"Browser_Bits\":\"32\",\"Platform\":\"MacOSX\",\"Platform_Version\":\"10.10\"}",
        "b4eb55e556d3d44686fe76d3251e9b6c\t[]",
        "b4b5cd4bb538afd4d0e613e2b640a64f\t[]",
        "b4cd15520cdc2765696d4d6bb4ac9f2d\t[]",
        "b420b3e17e6704576093a8f17d18a451\t[]",
        "b4da13ac0b02f9b9c81d239ec296e792\t[]",
        "b4ab9eb803155ae8f6eabc9f06688a5f\t{\"Browser_Bits\":\"32\",\"Platform\":\"WinXP\",\"Platform_Version\":\"5.2\",\"Win32\":true}",
        "b42310a9ce9f6a9f228c98c9cb9cdc5f\t[]",
        "b4ed6e9544c48dae9a0323d8c092d23d\t{\"Browser_Bits\":\"32\",\"Platform\":\"Linux\"}",
        "b4238139974a456dd07cbdace0babed4\t[]",
        "b47053c05ce0c40432420f043f710b46\t{\"Browser_Bits\":\"32\",\"Platform\":\"Win8.1\",\"Platform_Version\":\"6.3\",\"Win32\":true}",
        "b4bf88e0cb7caafa54c6bbcaa02b7762\t[]",
        "b48822c77f6f002c87913b9cf0b9c8bb\t{\"Platform\":\"iOS\",\"Platform_Version\":\"9.0\",\"Win32\":false,\"isMobileDevice\":true,\"isTablet\":true}",
        "b4d3e525a17ae85b1275d428d929b570\t{\"Platform\":\"Linux\",\"Win32\":false}",
        "b4a8c1f03b55dd111193e90bf8078ac5\t{\"Platform_Version\":\"10.1\",\"isTablet\":true}",
        "b4fc8f417c8cd137e3960d3eca4a8d29\t{\"Platform_Version\":\"4.3\"}",
        "b4d240097b9289f80e9a478470a60b61\t[]",
        "b4c742d972306375a9b43f6b1dd36f51\t{\"Platform_Version\":\"4.4\"}",
        "b44f950cf433c1855a4a2b653ac44469\t{\"Platform\":\"iOS\",\"Platform_Version\":\"8.3\"}",
        "b4f406b4adc3a847ea917c20ccbb2ee7\t{\"Platform\":\"iOS\",\"Platform_Version\":\"9.0\"}",
        "b43e9eeee939518e3a35bf868ad43879\t{\"Platform\":\"iOS\",\"Platform_Version\":\"8.3\"}",
        "b44e71ad1f80595ba4ce095539e9c9a9\t{\"Platform_Version\":\"4.2\",\"isTablet\":true}",
        "b484cf8a563de7bc4f7cbde6303dc412\t{\"Platform\":\"iOS\",\"Platform_Version\":\"9.3\"}",
        "b4056ae02db58a5b52dd6eac87a49803\t{\"Platform_Version\":\"4.2\",\"isTablet\":true}",
        "b4f852716d5ea63ac9a444bba2c76405\t{\"Platform_Version\":\"4.2\",\"isTablet\":true}",
        "b46f646a78ca9ad39eb4cd3159f63bc4\t{\"Platform\":\"iOS\",\"Platform_Version\":\"10.2\",\"isTablet\":true}",
        "b437ad49d60b51f7f616689c19d820d0\t{\"Platform\":\"iOS\",\"Platform_Version\":\"8.4\",\"isTablet\":true}",
        "b4c38c272596fa3385c488c04dd7c9d1\t{\"Browser_Bits\":\"32\",\"Platform\":\"Series40\"}",
        "b47ef101d49a4617a664e77b01f402c3\t{\"Browser_Bits\":\"32\",\"Platform\":\"Android\",\"Platform_Version\":\"4.3\"}",
        "b4a4b91094b0594b41213c2ab548bc36\t{\"Browser_Bits\":\"32\",\"Platform\":\"Android\",\"Platform_Version\":\"4.3\"}",
        "b45c09fe9a2d62aa2c8ee9d6d744c5d0\t{\"Browser_Bits\":\"32\",\"Platform\":\"Win7\",\"Platform_Version\":\"6.1\",\"Win32\":true}",
        "b41a47ea6a6c4b520598e5dfc45e555e\t{\"Browser_Bits\":\"32\",\"Platform\":\"Win8.1\",\"Platform_Version\":\"6.3\",\"Win32\":true}",
        "b45dd6f1bfacefc73bf8d6dfad99a03b\t{\"Browser_Bits\":\"32\",\"Platform\":\"Win7\",\"Platform_Version\":\"6.1\",\"Win32\":true}",
        "b4f386850541594bd52f2b915b5455e1\t{\"Platform\":\"iOS\",\"Platform_Version\":\"8.1\",\"isTablet\":true}",
        "b4bb710953a27b5e7fa539adca59e79a\t{\"Browser_Bits\":\"32\",\"Platform\":\"Win7\",\"Platform_Version\":\"6.1\",\"Win32\":true}",
        "b432deb4de2bb1c5cb6ef87d15f7652f\t{\"Platform\":\"Win8.1\",\"Platform_Version\":\"6.3\"}",
        "b4ed49748aaee3dd9809c50de79825a3\t{\"Browser_Bits\":\"32\",\"Platform\":\"Inferno OS\"}",
        "b4cd95af9bb41827c97bed42a4464cad\t{\"Platform\":\"Win10\",\"Platform_Version\":\"6.4\"}",
        "b43ec89224a6fc90d63ac542b48ff8d3\t{\"Platform\":\"Win8\",\"Platform_Version\":\"6.2\",\"Win32\":true}",
        "b460578947ce88f64d35a30eee122b52\t{\"Platform\":\"Win10\",\"Platform_Version\":\"10.0\",\"Win32\":true}",
        "b4ba9f996972c50173c82873d621ad53\t{\"Platform\":\"Win8.1\",\"Platform_Version\":\"6.3\",\"Win32\":true}",
        "b449c6d4228e821db808de822f598376\t{\"Platform\":\"Win8\",\"Platform_Version\":\"6.2\",\"Win32\":true}",
        "b4e6d68436fc0970e72061c6b5fe4096\t{\"Platform\":\"Win8.1\",\"Platform_Version\":\"6.3\",\"Win32\":true}",
        "b44f126edf897ebe7f155c6e6fe7f4b0\t{\"Platform\":\"WinVista\",\"Platform_Version\":\"6.0\",\"Win32\":true}",
        "b42c3b06dc310142b425735c282caefb\t{\"Platform\":\"WinVista\",\"Platform_Version\":\"6.0\",\"Win32\":true}",
        "b4eaa023ccb9f9c6a3221d6914feffeb\t{\"Browser_Bits\":\"32\",\"Platform\":\"Linux\"}",
        "b4ee0f3d1329353906fd33be82874117\t{\"Platform\":\"WinVista\",\"Platform_Version\":\"6.0\",\"Win32\":true}",
        "b442d99fc7e0716e4f29830cbff3e1ea\t{\"Platform\":\"Win10\",\"Platform_Version\":\"10.0\",\"Win32\":true}",
        "b4763daa269b25267e48068f4624860a\t{\"Platform_Version\":\"8.0\",\"isTablet\":true}",
        "b4a3b776491bf12870b4905636bf5a4a\t{\"Platform_Version\":\"5.1\",\"isTablet\":true}",
        "b4055e8a80fe4204d02be41c61c640fd\t{\"Platform_Version\":\"4.4\",\"isTablet\":true}",
        "b4c3051b16fdba6d112a49e125222dcf\t{\"Platform_Version\":\"5.1\"}",
        "b405160cbf70a645003b2157f3dc47b4\t{\"Platform_Version\":\"5.1\"}",
        "b43cceba724d23728b7cd588d9f551ee\t{\"Platform_Version\":\"4.4\",\"isTablet\":true}",
        "b44ea6ae159a2aa38220eb22dcd51a9c\t{\"Platform_Version\":\"4.2\",\"isTablet\":true}",
        "b4607953a25b7cd738760fd89aa25b5e\t{\"Platform_Version\":\"4.4\",\"isTablet\":true}",
        "b49e68629bd1f50fb59c62aaa79a9a97\t{\"Platform_Version\":\"4.4\",\"isTablet\":true}",
        "b4b9074cafddbc1adb031536dc55b730\t{\"Browser_Bits\":\"32\",\"Platform\":\"Tizen\",\"isMobileDevice\":true}",
        "b4b47f10c88edf3cb2b70bcb1badc8a7\t{\"Browser_Bits\":\"32\",\"Platform\":\"Tizen\",\"isMobileDevice\":true}",
        "b4de58d25ab6cdaf781d9177aadd8d65\t{\"Platform_Version\":\"5.0\",\"isTablet\":true}",
        "b48f8631f3bb52da4be9dbc44391afc5\t{\"Platform_Version\":\"4.4\",\"isTablet\":true}",
        "b4cdf19adf8206ed6bba23f141786699\t{\"Platform_Version\":\"4.4\",\"isTablet\":true}",
        "b41f7377c9deaf0648bcfa799ac76e23\t{\"Platform_Version\":\"4.4\",\"isTablet\":true}",
        "b4d733b000ad8fb9e1eebdaf8f331a10\t{\"Platform_Version\":\"4.2\",\"isTablet\":true}",
        "b4d46dbbde45c9a75dc86646d6211d53\t{\"Platform_Version\":\"4.3\",\"isTablet\":true}",
        "b43929a4b9233f061d8a7d110d96318f\t{\"isMobileDevice\":true}",
        "b41c74926062ae6b9ec30f7bc2457a0d\t{\"Browser_Bits\":\"32\",\"Platform\":\"Android\",\"Platform_Version\":\"4.3\"}",
        "b4195f7a7645af206316fea305e05603\t{\"Browser_Bits\":\"32\",\"Platform\":\"Android\",\"Platform_Version\":\"7.1\"}",
        "b4497d30953684daf2b3ed3ba86ddb60\t{\"Browser_Bits\":\"32\",\"Platform\":\"Android\",\"Platform_Version\":\"4.2\"}",
        "b49fe0fc0b5e2bd41e0af5b5f405c5db\t{\"Browser_Bits\":\"32\",\"Platform\":\"Android\",\"Platform_Version\":\"7.0\"}",
        "b4ffe63877cdaf6a4afd609d9cbe443c\t{\"Browser_Bits\":\"32\",\"Platform\":\"Android\"}",
        "b45e3d76301c2db0a8f3457b1ad25509\t{\"Browser_Bits\":\"32\",\"Platform\":\"Android\"}",
        "b4ff66a619d428cf2e243638f60c939c\t{\"Platform_Version\":\"8.1\"}",
        "b48254aaa6b537c80d0e1783725a46b7\t{\"Platform_Version\":\"4.2\",\"isTablet\":true}",
        "b41f7a20a34e17e7b02a6c4c53ce545e\t{\"Platform_Version\":\"6.1\"}",
        "b40264aeb4897f3bb1a2a54e759e54c7\t{\"Platform_Version\":\"10.0\"}",
        "b49918cccf1c38ca420047a0189bd212\t[]",
        "b4faf03f5c7c764480da5a2d6ece2e81\t{\"Platform_Version\":\"4.2\",\"isTablet\":true}",
        "b40dd1bd11ac2141f6911747a204eb22\t{\"Platform_Version\":\"10.3\"}",
        "b4a84a90618ea907c58296dda7a28f27\t[]",
        "b421d7ea55f21b81973bcdfaff3ae33c\t{\"Platform_Version\":\"8.3\",\"isTablet\":true}",
        "b478fa4d7394c81ae231a0bba0a8285e\t{\"Platform_Version\":\"4.2\",\"isTablet\":true}",
        "b4d25c4df9afee95f96b811d012d3e85\t{\"Platform_Version\":\"6.1\"}",
        "b45c10d91c0c7c12f9faffac8c17e353\t{\"Platform_Version\":\"7.1\"}",
        "b480e1f093f8eb54e0fb119dcda05172\t{\"Platform_Version\":\"7.1\",\"isTablet\":true}",
        "b4570da80f0b32aa9bde6db7ac9bad83\t{\"Platform_Version\":\"7.0\"}",
        "b4efaf4c4db5a9c1350ab1422c9b9800\t{\"Platform_Version\":\"9.3\"}",
        "b43e581d041d2bcf9a0ceed65ce5e029\t{\"Platform_Version\":\"5.1\"}",
        "b48a3c7547394cffbdbb98215e6bca0f\t{\"Platform_Version\":\"4.2\",\"isTablet\":true}",
        "b4c207e2f834a1bdcf72b5152f4ec9af\t{\"Browser_Bits\":\"32\",\"Platform\":\"MacOSX\",\"Platform_Version\":\"10\"}",
        "b4cd31a8c1e0de298d53feae76b6727d\t{\"Platform_Version\":\"4.2\",\"isTablet\":true}",
        "b44f489ac2b0d83632d7b2f5070e6574\t{\"Browser_Bits\":\"32\",\"Platform\":\"WinXP\",\"Platform_Version\":\"5.2\",\"Win32\":true}",
        "b4a9036d18583845185cdd364750a072\t{\"Platform_Version\":\"8.4\"}",
        "b4890343be725d2768b4adbcba8c4f1b\t{\"Platform_Version\":\"9.0\"}",
        "b415ffde8850798596d74ea022301897\t{\"Platform_Version\":\"10.1\"}",
        "b472d7a5d0a3d5e68630c4a119ab23ea\t{\"Platform_Version\":\"4.4\",\"isTablet\":true}",
        "b495176ef97bea290683b37f42703665\t{\"Platform_Version\":\"4.4\",\"isTablet\":true}",
        "b488d64930d31d9db5e8c951a2d04182\t{\"Platform_Version\":\"4.2\"}",
        "b4f4d76d067a50ff94a6e1bbd2c25a9d\t{\"Platform_Version\":\"4.3\",\"isTablet\":true}",
        "b4e31f9727600f138393115fc156a149\t{\"Platform_Version\":\"4.2\",\"isTablet\":true}",
        "b405adc671f1d6874a458e2674a299e8\t{\"Platform_Version\":\"4.2\",\"isTablet\":true}",
        "b437a9baea96e5672a68ae142cc96058\t{\"Platform_Version\":\"4.3\"}",
        "b41c97eea4b3d8c1dcffd10f20872b5c\t{\"Platform_Version\":\"4.4\",\"isTablet\":true}",
        "b463120addfff53737a902d9aa93124b\t{\"Platform_Version\":\"4.2\",\"isTablet\":true}",
        "b434182fad67e762cec34c09074696f9\t{\"Platform_Version\":\"7.0\"}",
        "b48a796efbc8710aedabdf189f2533f6\t{\"Platform_Version\":\"5.1\"}",
        "b4860260deef3724bf2c06bfe4faa125\t{\"Browser_Bits\":\"32\",\"Platform\":\"Android\",\"Platform_Version\":\"4.2\"}",
        "b4b995a51f0dbd680060ac56e9a34b4e\t{\"Browser_Bits\":\"32\",\"Platform\":\"Win7\",\"Platform_Version\":\"6.1\",\"Win32\":true}",
        "b4b6b90263365ce109bc70152f9208df\t{\"Browser_Bits\":\"32\",\"Platform\":\"Win8\",\"Platform_Version\":\"6.2\",\"Win32\":true}",
        "b43cccf932e80b225377561026654eb3\t{\"Browser_Bits\":\"32\",\"Platform\":\"WinXP\",\"Platform_Version\":\"5.2\",\"Win32\":true}",
        "b4fc48b9b73ec42f8f5e01f2a62bc449\t{\"Browser_Bits\":\"32\",\"Platform\":\"WinVista\",\"Platform_Version\":\"6.0\",\"Win32\":true}",
        "b41bb9ef2f25658d4aee67f41c05f7f9\t{\"Browser_Bits\":\"32\",\"Platform\":\"WinXP\",\"Platform_Version\":\"5.2\",\"Win32\":true}",
        "b4c50887df91867cf3e7f5e74ed84a23\t{\"Browser_Bits\":\"32\",\"Platform\":\"Win7\",\"Platform_Version\":\"6.1\",\"Win32\":true}",
        "b4b7d890109ea682ec85b4730e26ac4c\t{\"Browser_Bits\":\"32\",\"Platform\":\"Win7\",\"Platform_Version\":\"6.1\",\"Win32\":true}",
        "b4517a74c7bd22bd03590c76da6afe58\t{\"Browser_Bits\":\"32\",\"Platform\":\"Win8.1\",\"Platform_Version\":\"6.3\",\"Win32\":true}",
        "b4b135ea0c2f97522a1a5ed343c208ac\t{\"Browser_Bits\":\"32\",\"Platform\":\"MacOSX\",\"Platform_Version\":\"10.10\"}",
        "b45e816410dd866f1d6fdf03655f8a81\t{\"Browser_Bits\":\"32\",\"Platform\":\"Win8\",\"Platform_Version\":\"6.2\",\"Win32\":true}",
        "b4d035fe950d7d3d167c17fc67ad4883\t{\"Browser_Bits\":\"32\",\"Platform\":\"Win8\",\"Platform_Version\":\"6.2\",\"Win32\":true}",
        "b4de3af33787fe7edcedbd48dcd4dd89\t{\"Browser_Bits\":\"32\",\"Platform\":\"Win8.1\",\"Platform_Version\":\"6.3\",\"Win32\":true}",
        "b42d3c7ed4e2847842ef9844c9d9c4ee\t{\"Browser_Bits\":\"32\",\"Platform\":\"MacOSX\",\"Platform_Version\":\"10\"}",
        "b4c03b6b62dc786fa62e4195d00fb70d\t{\"Browser_Bits\":\"32\",\"Platform\":\"MacOSX\",\"Platform_Version\":\"10.9\"}",
        "b4be532f0f7db1aa18c52e5b12dd3a6b\t{\"Browser_Bits\":\"32\",\"Platform\":\"Win8\",\"Platform_Version\":\"6.2\",\"Win32\":true}",
        "b4fdce78d933c8036f04bff5ddf7a0aa\t{\"Browser_Bits\":\"32\",\"Platform\":\"Linux\"}",
        "b461ac4befe35aa60706845d609fb568\t{\"Browser_Bits\":\"32\",\"Platform\":\"Win8\",\"Platform_Version\":\"6.2\",\"Win32\":true}",
        "b46ba5a7371f9aa532518db7d11bbafb\t[]",
        "b44376d7d6e55c31fe4fed67434f9749\t{\"Browser_Bits\":\"32\",\"Platform\":\"Win8\",\"Platform_Version\":\"6.2\",\"Win32\":true}",
        "b4d31d1540d99c13db4b1b421ba955b2\t{\"Browser_Bits\":\"32\",\"Platform\":\"MacOSX\",\"Platform_Version\":\"10\"}",
        "b42d2231487aa7ca6d15bb40e9d33d53\t{\"Browser_Bits\":\"32\",\"Platform\":\"Win8.1\",\"Platform_Version\":\"6.3\",\"Win32\":true}",
        "b405350f84860123a4e12f78f0b2983e\t{\"Browser_Bits\":\"32\",\"Platform\":\"MacOSX\",\"Platform_Version\":\"10\"}",
        "b484561f23ce7c4c916b2f9d6e3f9b66\t{\"Browser_Bits\":\"32\",\"Platform\":\"FreeBSD\"}",
        "b48ade5adceea5bf5ab3be523efb617c\t{\"Browser_Bits\":\"32\",\"Platform\":\"Win8\",\"Platform_Version\":\"6.2\",\"Win32\":true}",
        "b4fb67106ec9b535388b51f16541e960\t{\"Browser_Bits\":\"32\",\"Platform\":\"Win8.1\",\"Platform_Version\":\"6.3\",\"Win32\":true}",
        "b400a7d3a120bb2e8ac2ae317df9efb7\t{\"Browser_Bits\":\"32\",\"Platform\":\"Win7\",\"Platform_Version\":\"6.1\",\"Win32\":true}",
        "b496a0b032b7f8d92ed1d19690c39159\t{\"Browser_Bits\":\"32\",\"Platform\":\"Win8.1\",\"Platform_Version\":\"6.3\",\"Win32\":true}",
        "b490679173c2447fca9eb63d27743500\t{\"Browser_Bits\":\"32\",\"Platform\":\"Win7\",\"Platform_Version\":\"6.1\",\"Win32\":true}",
        "b438b4e38a0809fb3ee409a17ff0bf3c\t{\"Browser_Bits\":\"32\",\"Platform\":\"Win7\",\"Platform_Version\":\"6.1\",\"Win32\":true}",
        "b48a33341c43593e1b77ae6d483ba832\t{\"Browser_Bits\":\"32\",\"Platform\":\"WinXP\",\"Platform_Version\":\"5.2\",\"Win32\":true}",
        "b4f984a0687d66e8d8cf0d56d5591f40\t{\"Browser_Bits\":\"32\",\"Platform\":\"WinVista\",\"Platform_Version\":\"6.0\",\"Win32\":true}",
        "b46b58f1256a2252bd31baaba908a4de\t{\"Browser_Bits\":\"32\",\"Platform\":\"WinXP\",\"Platform_Version\":\"5.2\",\"Win32\":true}",
        "b4bac6bd42da42e4a62e80d1a441747e\t{\"Browser_Bits\":\"32\",\"Platform\":\"Win8\",\"Platform_Version\":\"6.2\",\"Win32\":true}",
        "b48d144d97fee13e4d2db06be95e78db\t{\"Browser_Bits\":\"32\",\"Platform\":\"Win8\",\"Platform_Version\":\"6.2\",\"Win32\":true}",
        "b414c4a3a23942722fff8abcf6eeba26\t{\"Browser_Bits\":\"32\",\"Platform\":\"MacOSX\",\"Platform_Version\":\"10.10\"}",
        "b4811f70bac0ba677c5f23b22180029f\t{\"Browser_Bits\":\"32\",\"Platform\":\"Win7\",\"Platform_Version\":\"6.1\",\"Win32\":true}",
        "b4452b64441cbbcb22a1c5f2ea68ca42\t{\"Browser_Bits\":\"32\",\"Platform\":\"iOS\",\"Platform_Version\":\"8.0\",\"isMobileDevice\":true}",
        "b4000bf0fc20aa26a14c9d7c7d863ac1\t{\"Browser_Bits\":\"32\",\"Platform\":\"iOS\",\"Platform_Version\":\"8.0\"}",
        "b4e11aaa6fbbfaa65b06616d90a6e544\t{\"Browser_Bits\":\"32\",\"Platform\":\"Android\",\"Platform_Version\":\"4.4\"}",
        "b4f5573004d6f3171510e0cae0361f09\t{\"Browser_Bits\":\"32\",\"Platform\":\"iOS\",\"Platform_Version\":\"8.1\",\"isMobileDevice\":true}",
        "b4fc5e7410e1c80b8683ab40765c4b79\t{\"Browser_Bits\":\"32\",\"Platform\":\"Win7\",\"Platform_Version\":\"6.1\",\"Win32\":true}",
        "b42413fc861e50ed7159e9d918d0833d\t{\"Browser_Bits\":\"32\",\"Platform\":\"Win8\",\"Platform_Version\":\"6.2\",\"Win32\":true}",
        "b44ec45a318335bd9a8366f7b3730f80\t{\"Browser_Bits\":\"32\",\"Platform\":\"Win8\",\"Platform_Version\":\"6.2\",\"Win32\":true}",
        "b4cbca2ac117105d25469ffb1a46dd33\t{\"Browser_Bits\":\"32\",\"Platform\":\"Linux\"}",
        "b47809a4c7e7fa1938636e4003d79399\t{\"Browser_Bits\":\"32\",\"Platform\":\"WinVista\",\"Platform_Version\":\"6.0\",\"Win32\":true}",
        "b41a52c8e05dae496ab3df8d0b3353c9\t[]",
        "b4ac4d01ad678747c66dc4c6ad1205fe\t{\"Platform_Version\":\"5.0\"}",
        "b4e0db24a7dbf7d1b5fac6d164d8325c\t{\"Platform_Version\":\"5.1\"}",
        "b42794be52cdb4e03a1f9bf071e754ae\t[]",
        "b45455dffd0acb6e3eab05fddeb80b68\t{\"Platform_Version\":\"4.3\",\"isTablet\":true}",
        "b49988cd1a511a7fded4a77d4822285f\t{\"Platform_Version\":\"10.0\"}",
        "b4edb7490bf4b013d770a261c3319267\t{\"Browser_Bits\":\"32\",\"Platform\":\"Win10\",\"Platform_Version\":\"10.0\",\"Win32\":true}",
        "b42ace3cde23f3839fe0a684a234ec00\t{\"Platform_Version\":\"6.0\"}",
        "b4f504205a0d04652737083d21333ce3\t{\"Platform_Version\":\"9.0\",\"isTablet\":true}",
        "b4148b31fd76ff4105c8b5b597a54b5d\t{\"Platform_Version\":\"4.4\",\"isTablet\":true}",
        "b4cb83550c3402303134521c7533eb3b\t{\"Platform_Version\":\"4.4\",\"isTablet\":true}",
        "b40d8e19f422560deb9bdeb3de215aa2\t{\"Platform_Version\":\"4.3\",\"isTablet\":true}",
        "b48a09582448c2e26c95ab4717188a34\t{\"Platform_Version\":\"4.4\",\"isTablet\":true}",
        "b405b140c56f81bcacb2ae3721de1903\t{\"Platform_Version\":\"8.3\"}",
        "b4fa27b67893873e352a7655306b6b53\t{\"Browser_Bits\":\"32\",\"Platform\":\"Win32\",\"Win32\":true}",
        "b4e5c49cbe262a444c0f9ed8c8867db0\t{\"Platform_Version\":\"4.4\",\"isTablet\":true}",
        "b4dd9a06b8bae0d8c49daebdadb91cca\t{\"Platform_Version\":\"4.3\",\"isTablet\":true}",
        "b485d561c319aff4b7c565f911b7110c\t{\"Browser_Bits\":\"32\",\"Platform\":\"Win8.1\",\"Platform_Version\":\"6.3\",\"Win32\":true}",
        "b43a25cbec881c3a92cd9d2650c80dce\t{\"Platform_Version\":\"8.0\"}",
        "b45c90308fefc2a156f610d0f09cbf04\t{\"Platform_Version\":\"4.3\",\"isTablet\":true}",
        "b4b16cfaa0af3b5d8df8bec658253389\t[]",
        "b401aaf434dddc28d7ebc8f7e0411eb4\t{\"Platform_Version\":\"4.3\",\"isTablet\":true}",
        "b4136d6e9e21a081e081c01b65e53e37\t{\"Platform_Version\":\"4.3\",\"isTablet\":true}",
        "b40dd61f37a3db830d98357eda78666f\t{\"Browser_Bits\":\"32\",\"Platform\":\"MacOSX\",\"Platform_Version\":\"10.9\"}",
        "b448ffbdd36593570daa89752e6d64f1\t{\"Platform_Version\":\"4.2\",\"isTablet\":true}",
        "b4bbd51b92ae905411a666477bcfac75\t{\"Platform_Version\":\"5.0\",\"isTablet\":true}",
        "b48f8a2e57084de583a7dbf2dcbfd0ec\t{\"Platform_Version\":\"4.4\",\"isTablet\":true}",
        "b467db90e3c78b60299bb1b8e2f8c696\t{\"Platform_Version\":\"4.4\",\"isTablet\":true}",
        "b4db332479c137190554b9ece3c599ab\t{\"Browser_Bits\":\"32\",\"Platform\":\"Win32\",\"Win32\":true}",
        "b4191929e431148ce27da876e64e86e7\t{\"Browser_Bits\":\"32\",\"Platform\":\"ChromeOS\"}",
        "b404de4af5212c5b8d98005b8b2fb192\t{\"Platform_Version\":\"4.2\",\"isTablet\":true}",
        "b4e0b88e088b876f3de84b4c1fc36bcb\t{\"Platform_Version\":\"4.3\"}",
        "b449745c28bbdfdfeb5085c27006f278\t{\"Platform_Version\":\"4.4\",\"isTablet\":true}",
        "b4c15ad716dc3cae7fa6dd6227cd0641\t{\"Platform_Version\":\"4.2\",\"isTablet\":true}",
        "b4bea8bc54d31b74c70ea4a468dacac0\t{\"Platform_Version\":\"5.0\"}",
        "b4cf5c71399ed30a0ae8d4e41dc42666\t{\"Browser_Bits\":\"32\",\"Platform\":\"Win10\",\"Platform_Version\":\"6.4\",\"Win32\":true}",
        "b417c025634ed519824fa3430271eda9\t{\"Platform_Version\":\"4.4\",\"isTablet\":true}",
        "b4ee721ca74d93bddbb117f2cab6ed95\t{\"Platform_Version\":\"4.4\",\"isTablet\":true}",
        "b47448e377b66ad57458b1ca030c36f3\t{\"Platform_Version\":\"4.3\",\"isTablet\":true}",
        "b4aa26b6d28e6de8cb8be93fcf8022a3\t{\"Platform_Version\":\"4.4\",\"isTablet\":true}",
        "b49e04b11bd13841fca19f95fcae93b7\t{\"Platform_Version\":\"4.2\",\"isTablet\":true}",
        "b4c203873fbe6485ff6f0c89deafb105\t{\"Platform_Version\":\"4.3\",\"isTablet\":true}",
        "b41c86b4abbcd39a0230404008d0a533\t{\"Browser_Bits\":\"32\",\"Platform\":\"Win32\",\"Win32\":true}",
        "b40f059f8d187676dd8e370dc36a8b3a\t{\"Platform_Version\":\"4.2\",\"isTablet\":true}",
        "b46059b675b49133f2c8c818b804df4d\t{\"Platform_Version\":\"8.3\"}",
        "b49ba949afbfe2d681c2f28f8bb8d167\t{\"Browser_Bits\":\"32\",\"Platform\":\"ChromeOS\"}",
        "b4f7de0ec06160b95d3a0790a5b7f4d2\t{\"Platform_Version\":\"4.4\",\"isTablet\":true}",
        "b4fc5980565e7530decba88c56c9d734\t{\"Platform_Version\":\"4.3\",\"isTablet\":true}",
        "b43d6681995c934c7c559c934ec71049\t{\"Platform_Version\":\"4.2\",\"isTablet\":true}",
        "b40617c54fdeaac35a3ad7bcee839e35\t{\"Browser_Bits\":\"32\",\"Platform\":\"Android\",\"isMobileDevice\":true}",
        "b460c79e569437638fcae2191ecc814d\t{\"isTablet\":true}",
        "b45e519a341d25ce17c161e2033b623a\t{\"Browser_Bits\":\"32\",\"Platform\":\"FreeBSD\"}",
        "b4a695fd0a78f435d21148709e6c38f6\t{\"Browser_Bits\":\"32\",\"Platform\":\"Win32\",\"Win32\":true}",
        "b468bc4352e23bf7b8b67db9a20ea08e\t{\"Browser_Bits\":\"32\",\"Platform\":\"WinVista\",\"Platform_Version\":\"6.0\",\"Win32\":true}",
        "b4c2055cfc764d46ec59e68998a4cee9\t[]",
        "b43b3a402a78eda54c1ed292381a1eaf\t{\"Browser_Bits\":\"32\",\"Platform\":\"WinXP\",\"Platform_Version\":\"5.1\",\"Win32\":true}",
        "b4ebc39cb5aa108b9f48561bb29d77b6\t{\"Platform_Version\":\"10.2\",\"isTablet\":true}",
        "b4d4eec8fda23c18a8ffb51d39714226\t{\"Platform_Version\":\"9.0\"}",
        "b47c1739a26f49625300117f01e9704a\t{\"Platform_Version\":\"8.3\"}",
        "b49ff1c59f735a11b3f8fd4bdd393668\t{\"Platform_Version\":\"9.3\"}",
        "b4a554816ac3c48cb0ebd89dc8bd4851\t{\"Platform_Version\":\"8.2\",\"isTablet\":true}",
        "b4cbc84df70ae5890fd96bc65cdc8682\t{\"Platform_Version\":\"8.3\"}",
        "b4602604dff7dcbe18523cd45bef6719\t{\"Browser_Bits\":\"32\",\"Platform\":\"ChromeOS\"}",
        "b485d9b8a07d848bc5351ea4882dac31\t{\"Browser_Bits\":\"32\",\"Platform\":\"MacOSX\",\"Platform_Version\":\"10.10\"}",
        "b4c17041d660b0d65545c1da2f4c2ba3\t{\"Browser_Bits\":\"32\",\"Platform\":\"Linux\"}",
        "b4381a38c3c6e67877432e9d13c6dc01\t{\"Browser_Bits\":\"32\",\"Platform\":\"MacOSX\",\"Platform_Version\":\"10\"}",
        "b477bf3b836ea181f1b9b111d7361c13\t{\"Platform_Version\":\"8.2\"}",
        "b441b11acc656544c15f5da80bc248d6\t{\"Platform_Version\":\"8.0\"}",
        "b410b67c9df207bccce2b94622eec767\t{\"Platform_Version\":\"8.2\"}",
        "b4d05626260dc9c9ffae5e6f971f193f\t[]",
        "b4b3c82459c3e7e1568deab9a4188125\t{\"Browser_Bits\":\"32\",\"Platform\":\"WinVista\",\"Platform_Version\":\"6.0\",\"Win32\":true}",
        "b475509b38996f5c1903927b6aff1cb0\t{\"Browser_Bits\":\"32\",\"Platform\":\"Win7\",\"Platform_Version\":\"6.1\",\"Win32\":true}",
        "b4f54d423d3bc11a48045efab4fb2c43\t{\"Browser_Bits\":\"32\",\"Platform\":\"MacOSX\",\"Platform_Version\":\"10\"}",
        "b4d6047632cf07417281766a01c7e80b\t{\"Platform\":\"Win8.1\",\"Platform_Version\":\"6.3\"}",
        "b46a1eaa9e9b1c4371c28dc7444dbbad\t{\"Platform\":\"Win8.1\",\"Platform_Version\":\"6.3\"}",
        "b4130d076ea40b3e0aeef5ca89e4eae7\t{\"Browser_Bits\":\"32\",\"Platform\":\"Android\",\"Platform_Version\":\"4.2\"}",
        "b44d3722cde0fde678d8359ad5b19da5\t{\"Platform_Version\":\"4.2\"}",
        "b4769d9b073d92db31b9fae92ce1904e\t{\"Platform_Version\":\"4.2\"}",
        "b42b9a7248236b4b104561c5449805ec\t{\"Platform\":\"Win10\",\"Platform_Version\":\"6.4\",\"Win32\":true}",
        "b4f2ae27d32405166d52947ba2263296\t{\"Browser_Bits\":\"32\",\"Platform\":\"Unix\"}",
        "b4ad7a8559b83f25e4dadece7d86dbdd\t{\"Browser_Bits\":\"32\",\"Platform\":\"MacOSX\",\"Platform_Version\":\"10\"}",
        "b4fbe395d7243121f91c9e5c79878ffe\t{\"Browser_Bits\":\"32\",\"Platform\":\"iOS\",\"Platform_Version\":\"9.2\",\"isTablet\":true}",
        "b4fed1e62c81965a3325d15e319064e2\t{\"Browser_Bits\":\"32\",\"Platform\":\"iOS\",\"Platform_Version\":\"8.2\"}",
        "b4b77b37b53f5076a4600b8f63cfd924\t{\"Browser_Bits\":\"32\",\"Platform\":\"iOS\",\"Platform_Version\":\"8.3\",\"isTablet\":true}",
        "b440b73f7007adc7f5d09d8854e81512\t{\"Browser_Bits\":\"32\",\"Platform\":\"iOS\",\"Platform_Version\":\"9.2\"}",
        "b46a7a61d570cf64ae810565c4839bb9\t{\"Browser_Bits\":\"32\",\"Platform\":\"iOS\",\"Platform_Version\":\"8.0\"}",
        "b498711de7cec1b980acdb938466b3fe\t{\"Browser_Bits\":\"32\",\"Platform\":\"Android\"}",
        "b4035053e10a7de44a8f07bc673fd696\t{\"Browser_Bits\":\"32\",\"Platform\":\"Tizen\"}",
        "b4bc9976abc107460d9d6a2071f49edd\t{\"Browser_Bits\":\"32\",\"Platform\":\"JAVA\"}",
        "b43adb8609796db876895c063b01ea9c\t{\"Browser_Bits\":\"32\",\"Platform\":\"Tizen\"}",
        "b490cb43ef856b75a0c56da49da14327\t{\"Browser_Bits\":\"32\",\"Platform\":\"JAVA\"}",
        "b40370aafef092457137dfff3ed81f7d\t{\"Browser_Bits\":\"32\",\"Platform\":\"Tizen\"}",
        "b47c4d759556848faec9f0c428858631\t{\"Browser_Bits\":\"32\",\"Platform\":\"iOS\",\"Platform_Version\":\"9.1\",\"isTablet\":true}",
        "b4e471f2fa00dee62a5610a4f9eb0c92\t{\"Platform_Version\":\"7.0\"}",
        "b4796870a5226aca2e8c14cb847e334d\t{\"Platform_Version\":\"8.0\"}",
        "b4bb8f904b88b64ff45cd8818d31b86a\t{\"Platform_Version\":\"10.0\"}",
        "b43bd6a06199191108f280716ef4616a\t{\"Platform_Version\":\"9.2\"}",
        "b45488c9f3b2c5b619f5b7ba2562d975\t{\"Platform_Version\":\"10.0\"}",
        "b4b3f9d808b3b4edd63d181a54084395\t[]",
        "b4f6fbef1a0597993b19bc7a2b6b8e32\t{\"Platform_Version\":\"10.0\",\"isTablet\":true}",
        "b4662ef2b6e87b828a1f47d465d01614\t{\"Platform_Version\":\"8.2\",\"isTablet\":true}",
        "b4fba4d0baf68929c6ccb63957601fab\t{\"Platform_Version\":\"10.0\"}",
        "b46064b9d1e60c8d7783684e43232de3\t{\"Platform_Version\":\"10.2\",\"isTablet\":true}",
        "b47abaaa22f39f578aca761dbbfad001\t{\"Platform_Version\":\"9.0\"}",
        "b4021b6a790e83b9e4136cfafea4d978\t{\"Platform_Version\":\"8.0\"}",
        "b47a237ec547426233d46a8afa02ca9e\t[]",
        "b4d19224f56a17741814b4c705b318cb\t{\"Platform_Version\":\"7.1\"}",
        "b4a0ca5dea035ac65adeed5bc27e7ff9\t{\"Platform_Version\":\"10.2\",\"isTablet\":true}",
        "b4b79ec2e8ca2dfb5f8f6d738e632577\t[]",
        "b4b9c8fffaff66e33ef4f308c0c7ab3b\t{\"Platform_Version\":\"8.1\"}",
        "b4993c3eb0dc29e47391f20894d09f2e\t{\"Platform_Version\":\"8.1\"}",
        "b44ae42250323ec10dcb9e1902464ef1\t{\"Platform_Version\":\"8.1\"}",
        "b40e55acdb8ccbd8078da3abe0a828fb\t[]",
        "b4f5bf5b31a50517797a2ad88b96164c\t[]",
        "b40e608b22b1104be5fcb58d30d5c897\t{\"Platform_Version\":\"10.2\"}",
        "b40848ad333891808e80b2acd21a0c42\t{\"Platform_Version\":\"8.4\"}",
        "b488145f2e506eb1a9ddc5f21280883b\t{\"Platform_Version\":\"10.3\",\"isTablet\":true}",
        "b466a6cd7d5c358bb7aaa9f0aa83758b\t{\"Platform_Version\":\"9.3\"}",
        "b41e533ceb044045b518ae8d2927598b\t{\"Platform_Version\":\"8.3\"}",
        "b47959d926250209c6745580eee2fe75\t{\"Platform_Version\":\"8.1\"}",
        "b48ef0cc2ff8c8a95edfd74b70d6b948\t{\"Platform_Version\":\"10.1\",\"isTablet\":true}",
        "b463faa71ba197e941235b785fdb233a\t{\"Platform_Version\":\"8.0\"}",
        "b4eb0d735fe2fbfca9af61496bb31af2\t[]",
        "b4a35d67b1d7ec382803543603db34c8\t[]",
        "b4ee8df46236533a6bbbbd9890486004\t[]",
        "b46154529223f5a8dce8b61fa8013791\t{\"Platform_Version\":\"4.2\"}",
        "b4701c0256945ea564a4ea2fbda07fe1\t{\"Platform_Version\":\"8.2\"}",
        "b47a01ff068b5718e84019763fd219f4\t{\"Browser_Bits\":\"32\",\"Platform\":\"OS\\\/2\"}",
        "b4cbe87c798012d30e3f7dcdfc3fdc97\t{\"Platform\":\"WinXP\",\"Platform_Version\":\"5.1\",\"Win32\":true}",
        "b430aa985fc691a85ac662156cbc6bf1\t[]",
        "b4d362f05507430ba794660bba4ef203\t[]",
        "b49ee8f3b168a5b5fdc879797eac8cd4\t[]",
        "b45c48e35eebcf9c3910fadf7ca40f78\t[]",
        "b4dc09c4dfb4b8fa3d4f667c84ce5a1b\t{\"Platform_Version\":\"10.9\"}",
        "b414049e8078bd1cb251f391ac9f508c\t{\"Browser_Bits\":\"32\",\"Platform\":\"WinVista\",\"Platform_Version\":\"6.0\",\"Win32\":true}",
        "b4bc9a8acf9623296e2f3556d0e4952f\t{\"Browser_Bits\":\"32\",\"Platform\":\"WinXP\",\"Platform_Version\":\"5.1\",\"Win32\":true}",
        "b4a103ce62e2dc81a176147de3d894a4\t{\"Browser_Bits\":\"32\",\"Platform\":\"WinXP\",\"Platform_Version\":\"5.1\",\"Win32\":true}",
        "b4090e556de7a6655ec646e663199d5f\t{\"Browser_Bits\":\"32\",\"Platform\":\"Linux\"}",
        "b4e7d3a4ac77377e66ccc3bbf9f7bab7\t{\"Browser_Bits\":\"32\",\"Platform\":\"Win10\",\"Platform_Version\":\"6.4\",\"Win32\":true}",
        "b468db23aa6451cd6872b69b2cbbde00\t{\"Browser_Bits\":\"32\",\"Platform\":\"WinVista\",\"Platform_Version\":\"6.0\",\"Win32\":true}",
        "b4d796589a4fab30d80af9d250b6b648\t{\"Browser_Bits\":\"32\",\"Platform\":\"MacOSX\",\"Platform_Version\":\"10\"}",
        "b47dff5282f8c042013b6afcdc704770\t{\"Browser_Bits\":\"32\",\"Platform\":\"Android\",\"isMobileDevice\":true}",
        "b4b97733fff2173743aa67da58a77077\t{\"Platform\":\"WinVista\",\"Platform_Version\":\"6.0\"}",
        "b46449ebc5b9da933561bdf294073759\t{\"Platform\":\"WinXP\",\"Platform_Version\":\"5.1\"}",
        "b49ea24628d81600b6d0d2956ed594f9\t{\"Browser_Bits\":\"32\",\"Platform\":\"WinVista\",\"Platform_Version\":\"6.0\",\"Win32\":true}",
        "b480ad526873ca4a5131e7f2c3741ee9\t{\"Browser_Bits\":\"32\",\"Platform\":\"OpenBSD\"}",
        "b44f1607e11682e6d17feeb3743f7fc0\t{\"Browser_Bits\":\"32\",\"Platform\":\"MacOSX\",\"Platform_Version\":\"10.10\"}",
        "b41f26d0aa2d968636ddee763b2ca76e\t{\"Browser_Bits\":\"32\",\"Platform\":\"DragonFly BSD\"}",
        "b41cc15c6a2ed5a8c2b5fe58f87090a1\t{\"Browser_Bits\":\"32\",\"Platform\":\"Win8\",\"Platform_Version\":\"6.2\",\"Win32\":true}",
        "b44729ba3544f9dc22ce6131dc1e7cf7\t{\"Browser_Bits\":\"32\",\"Platform\":\"Win8.1\",\"Platform_Version\":\"6.3\",\"Win32\":true}",
        "b49c95de52614acd7c16574f71ca5056\t{\"Browser_Bits\":\"32\",\"Platform\":\"WinVista\",\"Platform_Version\":\"6.0\",\"Win32\":true}",
        "b4ce8c6d2b73dd2fcc6729a588ca389a\t{\"Browser_Bits\":\"32\",\"Platform\":\"Linux\"}",
        "b44fb566357c5521bb6891918abf6863\t{\"Browser_Bits\":\"32\",\"Platform\":\"WinXP\",\"Platform_Version\":\"5.1\",\"Win32\":true}",
        "b4aba614bc0b1df584176b9ede3530b9\t{\"Browser_Bits\":\"32\",\"Platform\":\"Linux\"}",
        "b439ed8b7e1a400ca23bc43248e31155\t{\"Platform_Version\":\"10.3\"}",
        "b4de24f9037738ce9a5d91abcb448594\t{\"Browser_Bits\":\"32\",\"Platform\":\"Win7\",\"Platform_Version\":\"6.1\",\"Win32\":true}",
        "b4b815d0b30c57fcc69640519c84b444\t{\"Browser_Bits\":\"32\",\"Platform\":\"Win7\",\"Platform_Version\":\"6.1\",\"Win32\":true}",
        "b4f715282a388b9650c23695da61668c\t{\"Platform_Version\":\"7.1\"}",
        "b42d51f3514a4d6131ce701af4b88cbd\t{\"Browser_Bits\":\"32\",\"Platform\":\"iOS\",\"isMobileDevice\":true}",
        "b45e0f217dc6394c9f95b8d2f7fc4a0b\t{\"Platform_Version\":\"8.4\",\"isTablet\":true}",
        "b4fc916f7814d8e134916f4d85f065fc\t{\"Platform_Version\":\"9.0\"}",
        "b4d3d7f5bbbccf2e9c1fd4d373a2790c\t{\"Browser_Bits\":\"32\",\"Platform\":\"Linux\"}",
        "b4167fdeb17f35eac5988c5970cbd95f\t{\"Browser_Bits\":\"32\",\"Platform\":\"Win10\",\"Platform_Version\":\"6.4\",\"Win32\":true}",
        "b40e09e2a3e5e50c545cba88a19c7164\t{\"Platform\":\"WinVista\",\"Platform_Version\":\"6.0\"}",
        "b48958340912671fc09e3b962b1d28eb\t[]",
        "b4812908c113539be76070d2e3bb5a28\t{\"Browser_Bits\":\"32\",\"Platform\":\"Linux\"}",
        "b49c6ba973b8b24e7612354aea3568ce\t{\"isTablet\":true}",
        "b4e22d2803742eb0e07574fe64b6532b\t{\"Platform_Version\":\"6.1\",\"isTablet\":true}",
        "b4d9fddef55dacb21f3c836b47791b42\t{\"Platform_Version\":\"5.0\"}",
        "b4340a57ac6f5d7409c769ed00a67338\t{\"Platform_Version\":\"4.3\",\"isTablet\":true}",
        "b4f6a354922d4c7c6a16251adc9c46ce\t{\"Browser_Bits\":\"32\",\"Platform\":\"MacOSX\",\"Platform_Version\":\"10.10\"}",
        "b4fab9ccaadf7033ca55e4c9c15630e5\t{\"Browser_Bits\":\"32\",\"Platform\":\"MacOSX\",\"Platform_Version\":\"10\"}",
        "b4081042730da8cb2c2fae173ce1470a\t{\"Browser_Bits\":\"32\",\"Platform\":\"Win32\",\"Win32\":true}",
        "b49ac3d23a5127823acb433ce41a4d6a\t{\"Browser_Bits\":\"32\",\"Platform\":\"Win10\",\"Platform_Version\":\"10.0\",\"Win32\":true}",
        "b43c3f41849e790f86e0eedf5679e5f0\t{\"Browser_Bits\":\"32\",\"Platform\":\"macOS\",\"Platform_Version\":\"10.12\"}",
        "b45d9be61d671d81b3f53c7466677787\t{\"Browser_Bits\":\"32\",\"Platform\":\"OS\\\/2\"}",
        "b439020e3fbdc9cff3dd973e387ddaba\t{\"Browser_Bits\":\"32\",\"Platform\":\"Win8\",\"Platform_Version\":\"6.2\",\"Win32\":true}",
        "b48b12caba1cd6ac4ac9418614c6631d\t[]",
        "b4f105f653aa0b987d78d37ecab6aa3a\t{\"Browser_Bits\":\"32\",\"Platform\":\"MacOSX\",\"Platform_Version\":\"10.10\"}",
        "b455a7098ed320b46bcae325698cd06b\t{\"Browser_Bits\":\"32\",\"Platform\":\"WinXP\",\"Platform_Version\":\"5.2\",\"Win32\":true}",
        "b4bb390a97569578efbfe8b5b93d0018\t{\"Browser_Bits\":\"32\",\"Platform\":\"Win32\",\"Win32\":true}",
        "b48fcbb1234c247b62d812715c04fcf3\t{\"Browser_Bits\":\"32\",\"Platform\":\"Win8\",\"Platform_Version\":\"6.2\",\"Win32\":true}",
        "b48b3f496b4d6bebb582e1fd084437b0\t{\"Browser_Bits\":\"32\",\"Platform\":\"MacOSX\",\"Platform_Version\":\"10.10\"}",
        "b44fd963619f4584d36a17fa15bb3141\t[]",
        "b45ecf7602ac1d0accd1c38148ac6cf3\t{\"Browser_Bits\":\"32\",\"Platform\":\"AIX\"}",
        "b4ebb81dd5069541935a4123ba31bd50\t{\"isMobileDevice\":true,\"isTablet\":true}",
        "b40b3f3abf50f56a22308636b06825f1\t[]",
        "b40871e57bf9b81aa9630451e8177b1b\t[]",
        "b409b458595ab5a4b920aab0f88a207f\t{\"Browser_Bits\":\"32\",\"Platform\":\"MacOSX\",\"Platform_Version\":\"10.10\"}",
        "b4b29c09433ac74ca99e5368bfcf6235\t{\"Browser_Bits\":\"32\",\"Platform\":\"Win32\",\"Win32\":true}",
        "b47c2cead83985d77eb90669306e5567\t[]",
        "b4a433765f337b1019b92c98005a3285\t{\"Browser_Bits\":\"32\",\"Platform\":\"iOS\",\"Platform_Version\":\"8.0\"}",
        "b45eaa8ad8d21c77b1e0d59f91ba5031\t{\"Platform_Version\":\"7.0\"}",
        "b4142a0c9d7ca57c327789ef3664fff9\t{\"Platform_Version\":\"7.1\"}",
        "b482406b0f53051e13ba90023d4487be\t[]",
        "b448ababab69dac197d28bc2767a1b54\t[]",
        "b4d128dddcc88ebb83c6d8fd6e0fa2f0\t[]",
        "b48f109dd04434060510fc3800227b94\t[]",
        "b4ba3cbe46bd3048545ea730841bfdc1\t[]",
        "b4ae23e1ccefdd8286a2a1d86c6eb450\t{\"Browser_Bits\":\"32\",\"Platform\":\"MacOSX\",\"Platform_Version\":\"10\"}"
    ]
}