{
    "content": [
        "0514d6dedefdbb0514e2fd59e2e7fdcd\t16\tlinkextractorpro.*",
        "052e9aa2d0730666b6739e1dedc8bd66\t62\tmozilla\\\/[\\d]\\.[\\d][\\d] \\(.*compatible.*;.*msie [\\d]\\.[\\d][\\d]; palm os [\\d]\\.[\\d]\\) eudoraweb [\\d]\\.[\\d]",
        "052e9aa2d0730666b6739e1dedc8bd66\t61\tmozilla\\\/[\\d]\\.[\\d][\\d] \\(.*compatible.*;.*msie [\\d]\\.[\\d][\\d]; palmos [\\d]\\.[\\d]\\) eudoraweb [\\d]\\.[\\d]",
        "052e9aa2d0730666b6739e1dedc8bd66\t59\tmozilla\\\/[\\d]\\.[\\d][\\d] \\(.*compatible.*;.*msie [\\d]\\.[\\d][\\d]; palmos [\\d]\\.[\\d]\\) eudoraweb [\\d]",
        "052e9aa2d0730666b6739e1dedc8bd66\t50\tmozilla\\\/[\\d]\\.[\\d][\\d] \\(compatible; mmef[\\d][\\d]; cellphone; sony.*\\)",
        "052e9aa2d0730666b6739e1dedc8bd66\t27\tmozilla\\\/[\\d]\\.[\\d].*\\(.*windows nt [\\d]\\.[\\d].*\\).*",
        "052e9aa2d0730666b6739e1dedc8bd66\t23\tmozilla\\\/[\\d]\\.[\\d].*\\(.*compatible;.*",
        "052e9aa2d0730666b6739e1dedc8bd66\t20\tmozilla\\\/[\\d]\\.[\\d].*\\(.*openvms.*\\).*\tmozilla\\\/[\\d]\\.[\\d].*\\(.*windows.*\\).*",
        "052e9aa2d0730666b6739e1dedc8bd66\t18\tmozilla\\\/[\\d]\\.[\\d].*\\(.*linux.*\\).*\tmozilla\\\/[\\d]\\.[\\d].*\\(.*sunos.*\\).*",
        "052e9aa2d0730666b6739e1dedc8bd66\t17\tmozilla\\\/[\\d]\\.[\\d].*\\(.*os\\\/[\\d].*\\).*\tmozilla\\\/[\\d]\\.[\\d].*\\(.*irix.*\\).*",
        "052e9aa2d0730666b6739e1dedc8bd66\t16\tmozilla\\\/[\\d]\\.[\\d].*\\(.*aix.*\\).*",
        "05434973de4711bb5d014246ec2d562c\t28\tpalemoon generic for android",
        "05434973de4711bb5d014246ec2d562c\t25\tpalemoon [\\d][\\d]\\.[\\d] for android",
        "05434973de4711bb5d014246ec2d562c\t16\tpalemoon generic",
        "05434973de4711bb5d014246ec2d562c\t13\tpalemoon [\\d][\\d]\\.[\\d]",
        "05434973de4711bb5d014246ec2d562c\t12\tpalemoon [\\d]\\.[\\d]",
        "054ef8581d863b80f617f511e890f55d\t8\tgooblog\\\/.*",
        "05541b3f6b0b6258020d76de7e8794e3\t24\tkddi\\-sa[\\d][\\d] up\\.browser\\\/[\\d]\\.[\\d].*",
        "0575c8d592fb7b088226750aceec2b4e\t16\ttutorial crawler.*",
        "0576a8b8e270d927910f9fbe18404e03\t15\tarchitextspider.*\tarchitextspider",
        "05a868cd051fbd9c552dde5356bb18c3\t14\tdomaincrawler\\\/.*",
        "05b15e2e0a6e4022268c9cc48a50f378\t14\tupdatebrowscap.*",
        "05b79c69988027158566cc3846b130ed\t35\trixbot \\(http\\:\\\/\\\/babelserver\\.org\\\/rix\\)",
        "05c1d3ff1b56c15e778b445a5281436d\t33\tpanasonic\\-x[\\d][\\d]\\\/r[\\d][\\d] .* up\\.browser\\\/[\\d]\\.[\\d].*",
        "05c571097c44e0d4ca110c67167f114b\t18\talienforce browser",
        "05d748908a7fbafad8f1c664979eab5f\t10\tyandexblog",
        "05e765d472ea2fc73e992743825b4b44\t23\tcustom\\\/.* cfnetwork\\\/[\\d][\\d][\\d]\\.[\\d].*",
        "05e765d472ea2fc73e992743825b4b44\t21\tcustom\\\/.* cfnetwork\\\/[\\d][\\d][\\d].*",
        "05e765d472ea2fc73e992743825b4b44\t18\tcustom\\\/.* cfnetwork\\\/.*",
        "05eef56a3e99af41b4c4854d55fc2786\t13\twkhtmltoimage",
        "05f0c6594d751e1628e63b0a39832ef5\t7\ty\\!j\\-bre.*",
        "05f43fed0e82268cba041a6b303c81f7\t20\tsleipnir [\\d]\\.[\\d] for ios",
        "05f43fed0e82268cba041a6b303c81f7\t16\tsleipnir generic",
        "05f43fed0e82268cba041a6b303c81f7\t13\tsleipnir.[\\d]\\.[\\d][\\d].*\tsleipnir [\\d]\\.[\\d][\\d]",
        "05f43fed0e82268cba041a6b303c81f7\t12\tsleipnir.[\\d]\\.[\\d].*\tsleipnir [\\d]\\.[\\d]",
        "05f43fed0e82268cba041a6b303c81f7\t8\tsleipnir.*"
    ]
}