{
    "content": [
        "0e08001d08e3896c6f88c76062745d71\t14\tantennapod\\\/[\\d]\\.[\\d].*",
        "0e10d2a4dfce0c27f7361de2544c289e\t23\tsnk screenshot bot\\\/[\\d]\\.[\\d][\\d].*",
        "0e10d2a4dfce0c27f7361de2544c289e\t19\tsnk screenshot bot\\\/.*",
        "0e2620c2c7d60e0edff0900cbd980d3c\t17\tnetzip downloader.*",
        "0e38ef08e6582a0a8d377c36e7290843\t57\tucweb\\\/.*\\(.*; u; adr [\\d]\\.[\\d].*micromax_a[\\d][\\d][\\d]\\) u[\\d]\\\/.* ucbrowser\\\/[\\d][\\d]\\.[\\d][\\d].* u[\\d]\\\/.*",
        "0e38ef08e6582a0a8d377c36e7290843\t56\tucweb\\\/.*\\(.*; u; adr [\\d]\\.[\\d].*lenovo a[\\d][\\d][\\d][\\d]\\-h\\) u[\\d]\\\/.* ucbrowser\\\/[\\d]\\.[\\d].* u[\\d]\\\/.*\tucweb\\\/.*\\(.*; u; adr [\\d]\\.[\\d].*lenovo_a[\\d][\\d][\\d][\\d]\\-h\\) u[\\d]\\\/.* ucbrowser\\\/[\\d]\\.[\\d].* u[\\d]\\\/.*\tucweb\\\/.*\\(.*; u; adr [\\d]\\.[\\d].*micromax_a[\\d][\\d][\\d]\\) u[\\d]\\\/.* ucbrowser\\\/[\\d][\\d]\\.[\\d].* u[\\d]\\\/.*",
        "0e38ef08e6582a0a8d377c36e7290843\t55\tucweb\\\/.*\\(.*; u; adr [\\d]\\.[\\d].*micromax_a[\\d][\\d][\\d]\\) u[\\d]\\\/.* ucbrowser\\\/[\\d]\\.[\\d].* u[\\d]\\\/.*\tucweb\\\/.*\\(.*; u; adr [\\d]\\.[\\d].*supra_m[\\d][\\d][\\d]g\\) u[\\d]\\\/.* ucbrowser\\\/[\\d][\\d]\\.[\\d][\\d].* u[\\d]\\\/.*",
        "0e38ef08e6582a0a8d377c36e7290843\t54\tucweb\\\/.*\\(.*; u; adr [\\d]\\.[\\d].*picopad_s[\\d].*\\) u[\\d]\\\/.* ucbrowser\\\/[\\d][\\d]\\.[\\d][\\d].* u[\\d]\\\/.*\tucweb\\\/.*\\(.*; u; adr [\\d]\\.[\\d].*supra_m[\\d][\\d][\\d]g\\) u[\\d]\\\/.* ucbrowser\\\/[\\d][\\d]\\.[\\d].* u[\\d]\\\/.*",
        "0e38ef08e6582a0a8d377c36e7290843\t53\tucweb\\\/.*\\(.*; u; adr [\\d]\\.[\\d].*picopad_s[\\d].*\\) u[\\d]\\\/.* ucbrowser\\\/[\\d][\\d]\\.[\\d].* u[\\d]\\\/.*\tucweb\\\/.*\\(.*; u; adr [\\d]\\.[\\d].*cinematv_[\\d]g\\) u[\\d]\\\/.* ucbrowser\\\/[\\d]\\.[\\d].* u[\\d]\\\/.*",
        "0e38ef08e6582a0a8d377c36e7290843\t52\tucweb\\\/.*\\(.*; u; adr [\\d]\\.[\\d].*pmp[\\d][\\d][\\d][\\d]c[\\d]g\\) u[\\d]\\\/.* ucbrowser\\\/[\\d]\\.[\\d].* u[\\d]\\\/.*",
        "0e38ef08e6582a0a8d377c36e7290843\t50\tucweb\\\/.*\\(.*symbianos.*\\) applewebkit.* ucbrowser\\\/[\\d]\\.[\\d].* mobile.*\tucweb\\\/.*\\(.*ios; u; iph os [\\d]_[\\d].*\\) u[\\d]\\\/.* ucbrowser\\\/[\\d][\\d]\\.[\\d][\\d].* u[\\d]\\\/.*\tucweb\\\/.*\\(.*; u; adr [\\d]\\.[\\d].*gt\\-n[\\d][\\d][\\d][\\d]\\) u[\\d]\\\/.* ucbrowser\\\/[\\d]\\.[\\d].* u[\\d]\\\/.*\tucweb\\\/.*\\(.*windows; u; wds [\\d][\\d]\\.[\\d].*\\) u[\\d]\\\/.* ucbrowser\\\/[\\d]\\.[\\d].* u[\\d]\\\/.*",
        "0e38ef08e6582a0a8d377c36e7290843\t49\tucweb\\\/.*\\(.*ios; u; iph os [\\d]_[\\d].*\\) u[\\d]\\\/.* ucbrowser\\\/[\\d][\\d]\\.[\\d].* u[\\d]\\\/.*\tucweb\\\/.*\\(.*windows; u; wds [\\d].*\\) u[\\d]\\\/.* ucbrowser\\\/[\\d][\\d]\\.[\\d][\\d].* u[\\d]\\\/.*\tucweb\\\/.*\\(.*; u; adr [\\d]\\.[\\d].*sm\\-t[\\d][\\d][\\d]\\) u[\\d]\\\/.* ucbrowser\\\/[\\d]\\.[\\d].* u[\\d]\\\/.*\tucweb\\\/.*\\(.*windows; u; wds [\\d]\\.[\\d].*\\) u[\\d]\\\/.* ucbrowser\\\/[\\d]\\.[\\d].* u[\\d]\\\/.*\tucweb\\\/.*\\(android; u; opera mini\\\/.*\\) u[\\d]\\\/.* ucbrowser\\\/[\\d]\\.[\\d].*",
        "0e38ef08e6582a0a8d377c36e7290843\t48\tucweb\\\/.*\\(.*ios; u; iph os [\\d]_[\\d].*\\) u[\\d]\\\/.* ucbrowser\\\/[\\d]\\.[\\d].* u[\\d]\\\/.*\tucweb\\\/.*\\(.*windows; u; wds [\\d].*\\) u[\\d]\\\/.* ucbrowser\\\/[\\d][\\d]\\.[\\d].* u[\\d]\\\/.*\tucweb\\\/.*\\(.*; u; adr [\\d]\\.[\\d].*m[\\d][\\d][\\d]\\) u[\\d]\\\/.* ucbrowser\\\/[\\d][\\d]\\.[\\d][\\d].* u[\\d]\\\/.*\tucweb\\\/.*\\(midp\\-[\\d]\\.[\\d].*lenovo a[\\d][\\d][\\d][\\d]\\-h\\) u[\\d]\\\/.* ucbrowser\\\/[\\d]\\.[\\d].*",
        "0e38ef08e6582a0a8d377c36e7290843\t47\tucweb\\\/.*\\(.*windows; u; wds [\\d].*\\) u[\\d]\\\/.* ucbrowser\\\/[\\d]\\.[\\d].* u[\\d]\\\/.*\tucweb\\\/.*\\(.*; u; adr [\\d]\\.[\\d].*m[\\d][\\d][\\d]\\) u[\\d]\\\/.* ucbrowser\\\/[\\d][\\d]\\.[\\d].* u[\\d]\\\/.*\tucweb\\\/.*\\(.*; u; adr [\\d]\\.[\\d].*t[\\d][\\d][\\d][\\d]\\) u[\\d]\\\/.* ucbrowser\\\/[\\d]\\.[\\d].* u[\\d]\\\/.*\tucweb\\\/.*\\(linux; u; opera mini\\\/.*\\) u[\\d]\\\/.* ucbrowser\\\/[\\d]\\.[\\d].*",
        "0e38ef08e6582a0a8d377c36e7290843\t46\tucweb\\\/.*\\(.*ios; u; iph os.*\\) u[\\d]\\\/.* ucbrowser\\\/[\\d][\\d]\\.[\\d][\\d].* u[\\d]\\\/.*\tucweb\\\/.*\\(android; u; opera mini\\\/.*\\) u[\\d]\\\/.* ucbrowser\\\/.*",
        "0e38ef08e6582a0a8d377c36e7290843\t45\tucweb\\\/.*\\(.*ios; u; iph os.*\\) u[\\d]\\\/.* ucbrowser\\\/[\\d][\\d]\\.[\\d].* u[\\d]\\\/.*\tucweb\\\/.*\\(midp\\-[\\d]\\.[\\d].*beeline tab\\) u[\\d]\\\/.* ucbrowser\\\/[\\d]\\.[\\d].*",
        "0e38ef08e6582a0a8d377c36e7290843\t44\tucweb\\\/.*\\(.*; u; adr [\\d]\\.[\\d].*\\) u[\\d]\\\/.* ucbrowser\\\/[\\d][\\d]\\.[\\d][\\d].* u[\\d]\\\/.*\tucweb\\\/.*\\(.*ios; u; iph os.*\\) u[\\d]\\\/.* ucbrowser\\\/[\\d]\\.[\\d].* u[\\d]\\\/.*\tucweb\\\/.*\\(.*symbian; u; .*\\) u[\\d]\\\/.* ucbrowser\\\/[\\d][\\d]\\.[\\d][\\d].* u[\\d]\\\/.*\tucweb\\\/.*\\(linux; u; opera mini\\\/.*\\) u[\\d]\\\/.* ucbrowser\\\/.*",
        "0e38ef08e6582a0a8d377c36e7290843\t43\tucweb\\\/.*\\(.*; u; adr [\\d]\\.[\\d].*\\) u[\\d]\\\/.* ucbrowser\\\/[\\d][\\d]\\.[\\d].* u[\\d]\\\/.*\tucweb\\\/.*\\(.*symbian; u; .*\\) u[\\d]\\\/.* ucbrowser\\\/[\\d][\\d]\\.[\\d].* u[\\d]\\\/.*",
        "0e38ef08e6582a0a8d377c36e7290843\t42\tucweb\\\/.*\\(.*symbian; u; .*\\) u[\\d]\\\/.* ucbrowser\\\/[\\d]\\.[\\d].* u[\\d]\\\/.*\tucweb\\\/.*\\(.*; u; adr [\\d]\\.[\\d].*\\) u[\\d]\\\/.* ucbrowser\\\/[\\d]\\.[\\d].* u[\\d]\\\/.*\tucweb\\\/.*\\(midp\\-[\\d]\\.[\\d].*pmp[\\d][\\d][\\d][\\d]c\\) u[\\d]\\\/.* ucbrowser\\\/[\\d]\\.[\\d].*",
        "0e38ef08e6582a0a8d377c36e7290843\t41\tucweb\\\/.*\\(.*; u; adr .*\\) u[\\d]\\\/.* ucbrowser\\\/[\\d][\\d]\\.[\\d][\\d].* u[\\d]\\\/.*",
        "0e38ef08e6582a0a8d377c36e7290843\t40\tucweb\\\/.*\\(.*; u; adr .*\\) u[\\d]\\\/.* ucbrowser\\\/[\\d][\\d]\\.[\\d].* u[\\d]\\\/.*\tucweb\\\/.*\\(.*ios; u; iph os [\\d]_[\\d].*\\) u[\\d]\\\/.* ucbrowser.*",
        "0e38ef08e6582a0a8d377c36e7290843\t39\tucweb\\\/.*\\(.*; u; adr .*\\) u[\\d]\\\/.* ucbrowser\\\/[\\d]\\.[\\d].* u[\\d]\\\/.*\tucweb\\\/.*\\(.*windows; u; wds [\\d].*\\) u[\\d]\\\/.* ucbrowser.*",
        "0e38ef08e6582a0a8d377c36e7290843\t38\tucweb\\\/.*\\(midp\\-[\\d]\\.[\\d].*a[\\d][\\d][\\d]\\) u[\\d]\\\/.* ucbrowser\\\/[\\d]\\.[\\d].*",
        "0e38ef08e6582a0a8d377c36e7290843\t36\tucweb\\\/.*\\(.*ios; u; iph os.*\\) u[\\d]\\\/.* ucbrowser.*",
        "0e38ef08e6582a0a8d377c36e7290843\t34\tucweb\\\/.*\\(.*; u; adr [\\d]\\.[\\d].*\\) u[\\d]\\\/.* ucbrowser.*\tucweb\\\/.*\\(.*symbian; u; .*\\) u[\\d]\\\/.* ucbrowser.*\tucweb\\\/.*\\(midp\\-[\\d]\\.[\\d].*\\) u[\\d]\\\/.* ucbrowser\\\/[\\d]\\.[\\d].*",
        "0e38ef08e6582a0a8d377c36e7290843\t31\tucweb\\\/.*\\(.*; u; adr .*\\) u[\\d]\\\/.* ucbrowser.*",
        "0e38ef08e6582a0a8d377c36e7290843\t30\tucweb\\\/.*\\(java.*\\) u[\\d]\\\/.* ucbrowser\\\/[\\d]\\.[\\d].*",
        "0e38ef08e6582a0a8d377c36e7290843\t27\tucweb\\\/.*\\(java.*\\) u[\\d]\\\/.* ucbrowser\\\/.*",
        "0e3eca62bbc5514a05379089c5f8a1d3\t10\tpicaloader.*",
        "0e450d1e32291326bded0e1a8b9b4c20\t16\tsundance generic",
        "0e6bb354005e253419eb807eb3bf50b5\t30\tcdm\\-[\\d][\\d][\\d][\\d]tm\\\/[\\d]\\.[\\d] up\\.browser\\\/[\\d]\\.[\\d]\\..*",
        "0e6f2aa57946950687930fd3e48c11ff\t21\tcrosswalk app generic",
        "0e6f2aa57946950687930fd3e48c11ff\t18\tcrosswalk app [\\d][\\d]\\.[\\d]",
        "0e8821096577558520cac2740623561f\t17\tkioclient generic",
        "0e8821096577558520cac2740623561f\t14\tkioclient [\\d]\\.[\\d][\\d]",
        "0e93026ff1c359c9a2604b11bbfde2f1\t12\tseostats [\\d]\\.[\\d].*",
        "0e93026ff1c359c9a2604b11bbfde2f1\t8\tseostats.*",
        "0eb0a38cfbcf77985e4d281b78cc3336\t6\tnagios",
        "0ec173042116d03f46bf61091b48b002\t39\tmahalobot\\\/[\\d]\\.[\\d] \\(.http\\:\\\/\\\/www\\.mahalo\\.com\\\/\\)",
        "0ed0b48a8b0f3e0733c101967130f422\t32\tsagem\\-myx[\\d]\\-[\\d]\\\/[\\d]\\.[\\d] .* up\\.browser\\\/[\\d]\\.[\\d].*",
        "0ed65fb37492d7ac3911763c9c04b992\t5\tred\\\/[\\d].*",
        "0ed6c5121974f852c1c4e73b89b16810\t12\tpodcasts\\\/[\\d]\\.[\\d].*",
        "0eea7cd3108c4830f50d23262e6bbde0\t15\tyrl_odp_crawler"
    ]
}