{
    "content": [
        "e1c8c6799fedea20969090545ad0ff42\t[]",
        "e1809b9cc1e35ef03374921286d85319\t[]",
        "e1a22b74915c9f1b6e040bb267afd9e6\t[]",
        "e18c07177ace54a5c8eeb42ce1b2ab14\t[]",
        "e1880a6bc9b4f1d0902ccb13b52f6e53\t[]",
        "e1075744680b06b7a65f45d52267e556\t{\"Browser_Bits\":\"32\",\"Platform\":\"Win7\",\"Platform_Version\":\"6.1\",\"Win32\":true}",
        "e11abf00b07a2921a4e606780c3d0d25\t[]",
        "e1fbdf9333f38b73b8c36ee53fd4cf0a\t[]",
        "e1d0555ffb626facdf2ac500142a3305\t[]",
        "e199dbdd8b707e7b177874252b764bbf\t[]",
        "e137b18e86de40118594769a6cd3b42e\t[]",
        "e137b3b17c07e22200a5785b2472c470\t[]",
        "e1f0fb04ea1c71a02184b955b3601a33\t[]",
        "e19065829e296c0c374da22ccda79499\t[]",
        "e157cec1d6409e8c133c9162e3c1128b\t{\"Browser_Bits\":\"32\",\"Platform\":\"Win32\",\"Win32\":true}",
        "e1509ea173b54ac2615f482d47d34d15\t{\"Browser_Bits\":\"32\",\"Platform\":\"Linux\"}",
        "e137c83d0eb333fb796c8d5947cb5932\t{\"Browser_Bits\":\"32\",\"Platform\":\"WinXP\",\"Platform_Version\":\"5.2\",\"Win32\":true}",
        "e1f12a4ee6bc23446988d81da77df636\t{\"Browser_Bits\":\"32\",\"Platform\":\"Win10\",\"Platform_Version\":\"10.0\",\"Win32\":true}",
        "e1eac7e1ce826a4e459dac2c073556c9\t{\"Platform\":\"iOS\",\"Platform_Version\":\"9.1\",\"Win32\":false,\"isMobileDevice\":true,\"isTablet\":true}",
        "e1a2f47dd5b639a7de08cd1f0a2acf3b\t{\"Platform\":\"macOS\",\"Platform_Version\":\"10.12\",\"Win32\":false}",
        "e1ea2c7249c00347cd75e1d111692951\t{\"Platform\":\"iOS\",\"Platform_Version\":\"9.0\",\"Win32\":false,\"isMobileDevice\":true,\"isTablet\":true}",
        "e1b5cae684e539e3448c84eb1d8ed340\t{\"Platform\":\"iOS\",\"Platform_Version\":\"10.1\",\"Win32\":false,\"isMobileDevice\":true,\"isTablet\":true}",
        "e18fe7dbd96b96e540b0b5dfff20830f\t{\"Platform\":\"MacOSX\",\"Platform_Version\":\"10.11\",\"Win32\":false}",
        "e116feb8f5daa6e2b489715cde31ddeb\t{\"Browser_Bits\":\"32\",\"Platform\":\"Win32\",\"Win32\":true}",
        "e11108afcaebc8e1fa9c35171693d249\t{\"Platform\":\"Linux\",\"Win32\":false}",
        "e1bebb234ed25c9aff2129cff368f20f\t{\"Platform\":\"iOS\",\"Platform_Version\":\"10.0\",\"Win32\":false,\"isMobileDevice\":true,\"isTablet\":true}",
        "e1906dea0c8761d159a5623f747f7be1\t{\"Platform_Version\":\"4.3\"}",
        "e19e8cf02ed2f2e4358e3d38f077a414\t{\"Platform_Version\":\"9.2\",\"isTablet\":true}",
        "e1245ddf1f9fca6e5a2d5dbdd4ac9510\t{\"Platform_Version\":\"8.4\",\"isTablet\":true}",
        "e13532e7b8a84036778757f9f4f0175b\t{\"Browser_Bits\":\"32\",\"Platform\":\"Win8.1\",\"Platform_Version\":\"6.3\",\"Win32\":true}",
        "e168a49dd01a4742eba7c14546817da8\t{\"Platform\":\"iOS\",\"Platform_Version\":\"8.2\",\"Win32\":false,\"isMobileDevice\":true,\"isTablet\":true}",
        "e1bfd762321e409cee4ac0b6e841963c\t[]",
        "e1692280e6acbe734427b3521da10971\t{\"Platform_Version\":\"4.3\"}",
        "e16c954abe59caf1a7d88616511b4ee3\t{\"Platform_Version\":\"4.2\",\"isTablet\":true}",
        "e1ba6512e7892a18c3fbdc86e01a1aa6\t{\"Platform\":\"iOS\",\"Platform_Version\":\"8.2\"}",
        "e1ceb9a00535e20472b3c931999380ce\t{\"Platform_Version\":\"4.4\",\"isTablet\":true}",
        "e12efe5e229d37894034bca3518529c4\t{\"Platform_Version\":\"7.1\"}",
        "e1b201791804d3738aa1192b67bb8dec\t{\"Platform_Version\":\"4.4\",\"isTablet\":true}",
        "e1a345956465bc23ebd2150f391bd99f\t{\"Platform_Version\":\"4.2\",\"isTablet\":true}",
        "e1c34994391f49a408f5fec4fe3dbb57\t{\"Platform_Version\":\"5.1\"}",
        "e10aa7ff9e05a2a85349a5b4db632bc7\t{\"Platform\":\"iOS\",\"Platform_Version\":\"7.1\",\"isTablet\":true}",
        "e16f50450c7097ff70588e09527bd0fa\t{\"Platform\":\"iOS\",\"Platform_Version\":\"9.0\"}",
        "e1bdbd1483043896ec92b89da35d7728\t{\"Platform_Version\":\"4.2\",\"isTablet\":true}",
        "e132c682a8955cc67aeda969aea88f94\t{\"Browser_Bits\":\"32\",\"Platform\":\"iOS\",\"Platform_Version\":\"8.0\"}",
        "e1cc42f38224e755fb0a51608c67c38d\t{\"Browser_Bits\":\"32\",\"Platform\":\"Android\"}",
        "e19449f752862b5e3bd1173f0a18c136\t{\"Browser_Bits\":\"32\",\"Platform\":\"WinPhone8\",\"Platform_Version\":\"8.0\"}",
        "e11799f77726f17f2be453b9ffcf0cdc\t{\"Browser_Bits\":\"32\",\"Platform\":\"iOS\",\"isMobileDevice\":true}",
        "e1a0ca1ac706af766eb2ccb23b227a32\t{\"Browser_Bits\":\"32\",\"Platform\":\"WinXP\",\"Platform_Version\":\"5.1\",\"Win32\":true}",
        "e1c88d9d845ccf94afa2b913ac05c76e\t{\"Platform_Version\":\"4.4\"}",
        "e14fdfa140909e656ca95a4f30937458\t{\"Platform\":\"iOS\",\"isTablet\":true}",
        "e1ffc0b9a60b94d6a0ccc531781f9366\t{\"Platform\":\"iOS\",\"Platform_Version\":\"8.1\",\"isTablet\":true}",
        "e11d33ce8c60659c9c39e44bef118f87\t{\"Platform_Version\":\"4.3\"}",
        "e13c369fa8da262989d4eef2505453ce\t{\"Platform_Version\":\"4.3\"}",
        "e1a0f5f098437619fd6f9e00a43ef59d\t{\"Platform\":\"iOS\",\"Platform_Version\":\"9.3\"}",
        "e12490096833a8a82fcc43f1bde3bc95\t{\"Browser_Bits\":\"32\",\"Platform\":\"Linux\"}",
        "e10b19e71cd8d04b7bbb26fd2d07ffd9\t{\"Platform\":\"Win8\",\"Platform_Version\":\"6.2\",\"Win32\":true}",
        "e19867ebe2e0236730db83585f8a2a97\t{\"Platform\":\"WinVista\",\"Platform_Version\":\"6.0\",\"Win32\":true}",
        "e138df85d4c214220dfa861d0d8ba1e2\t{\"Platform\":\"WinXP\",\"Platform_Version\":\"5.2\",\"Win32\":true}",
        "e19bf585c164dd6f0070d62cc108aa20\t{\"Platform\":\"Win10\",\"Platform_Version\":\"10.0\",\"Win32\":true}",
        "e11b356fadb9937b017fd2ba630aefd5\t{\"Browser_Bits\":\"32\",\"Platform\":\"Linux\"}",
        "e1c0ace012fd97b9ee5dff3bc8449930\t{\"Platform\":\"Win8\",\"Platform_Version\":\"6.2\",\"Win32\":true}",
        "e11e8fdd60678a392708b31b72d33149\t{\"Platform\":\"WinVista\",\"Platform_Version\":\"6.0\",\"Win32\":true}",
        "e138d9336a05340c68f919b76c23a4f5\t{\"Platform\":\"Win8.1\",\"Platform_Version\":\"6.3\",\"Win32\":true}",
        "e1ec6caed4c2bae00e74fcc4393ea671\t{\"Platform_Version\":\"4.3\",\"isTablet\":true}",
        "e126f970d816c75eab7be81766a1a3dc\t{\"Platform_Version\":\"4.2\",\"isTablet\":true}",
        "e1e868e688be414f7d193b8ee1cfb9b9\t{\"Platform_Version\":\"4.2\",\"isTablet\":true}",
        "e1e6305faa50992028bcad80106b5188\t{\"Browser_Bits\":\"32\",\"Platform\":\"Linux\"}",
        "e1623e675295bd4228005efdb846b060\t{\"Platform_Version\":\"6.0\"}",
        "e15b184ff8fdab3fc3b4b790b3a7870e\t{\"Platform_Version\":\"4.3\",\"isTablet\":true}",
        "e1938bdb28119d984514a504fb8624ba\t{\"Platform_Version\":\"5.0\"}",
        "e1cc9fa6e23d50fb5e51b48a69b0de5f\t{\"Browser_Bits\":\"32\",\"Platform\":\"Android\",\"isMobileDevice\":true}",
        "e15ce7a35e5be9b0f255ddecb7b4c96d\t{\"Platform_Version\":\"4.2\",\"isTablet\":true}",
        "e1291a9686492042f43d5b82a1b4ea94\t{\"Platform_Version\":\"4.3\",\"isTablet\":true}",
        "e1b9dfe1c0a7bf7d2a809c572b0fb2ad\t{\"Browser_Bits\":\"32\",\"Platform\":\"Android\",\"Platform_Version\":\"4.4\"}",
        "e119fb07385d5a19984538c168c64084\t{\"Browser_Bits\":\"32\",\"Platform\":\"Android\",\"Platform_Version\":\"7.0\"}",
        "e1a7ab5989ba0c9e1ab253de664af4fd\t{\"Browser_Bits\":\"32\",\"Platform\":\"Android\",\"Platform_Version\":\"7.0\"}",
        "e10e381a65408e147a1070f0e50d1afb\t{\"Platform_Version\":\"8.0\"}",
        "e13f967988ee6200d0acd172bdb295e6\t{\"Platform_Version\":\"4.4\",\"isTablet\":true}",
        "e141e8190fbb09faba407d2ff10872b3\t[]",
        "e1c218030bf629a26c2336ca1d27ba97\t[]",
        "e16c8de348a609e66bf78965ddb9c41e\t{\"Platform_Version\":\"10.1\"}",
        "e1b81a55774b38c6273e0288b2480174\t{\"Browser_Bits\":\"32\",\"Platform\":\"MacOSX\",\"Platform_Version\":\"10.10\"}",
        "e1945de2dbfa3c590bd3af12847fb048\t{\"Platform_Version\":\"8.2\"}",
        "e1da0419146d273756dd6455edc56aeb\t{\"Platform_Version\":\"4.3\",\"isTablet\":true}",
        "e1ee6bd6ce7cb00f99e6854b6029abeb\t{\"Browser_Bits\":\"32\",\"Platform\":\"Win32\",\"Win32\":true}",
        "e1c5f7615bdf660f5e87597e37d07401\t{\"Platform_Version\":\"10.1\"}",
        "e15d3200585fe519f9d313e0e249ab92\t{\"Platform_Version\":\"7.0\"}",
        "e1e137566f262756d6605f81ee1055cf\t[]",
        "e104090a99b63fbf111dd4204669efd9\t{\"Browser_Bits\":\"32\",\"Platform\":\"MacOSX\",\"Platform_Version\":\"10.10\"}",
        "e135daf8985157bf57cbe0e9c0bc69b2\t{\"Platform_Version\":\"8.3\"}",
        "e18666a47b12a3fe3c711979bc8c84f5\t{\"Platform_Version\":\"4.4\",\"isTablet\":true}",
        "e1783628bb96256902157a13f16bf511\t{\"Platform_Version\":\"4.4\",\"isTablet\":true}",
        "e16f4e975060b5c4cd491260310f7fc2\t{\"Platform_Version\":\"4.4\",\"isTablet\":true}",
        "e1998aee14dafc6def9df9db1be64c28\t{\"Browser_Bits\":\"32\",\"Platform\":\"WinXP\",\"Platform_Version\":\"5.2\",\"Win32\":true}",
        "e15aa847f594cb14ef1fa68adc1952d9\t{\"Platform_Version\":\"9.1\"}",
        "e163e07decd603dff8f0bf98de082d56\t{\"isTablet\":true}",
        "e1f6f5859b0ce304a0dbe6fdec27cc74\t{\"Platform_Version\":\"8.2\"}",
        "e13d7a70f622dc23abdf204a4675a8aa\t{\"Platform_Version\":\"4.2\",\"isTablet\":true}",
        "e181d6d7ac2e686af82c53dd5f8567c2\t[]",
        "e183e3b623c557a83611a96d5f0a736e\t{\"Platform_Version\":\"4.4\",\"isTablet\":true}",
        "e17b990d84d77c87942bbf84361da23e\t{\"Platform_Version\":\"4.4\"}",
        "e17afe891db7911c32d4ddf7d2c4ac19\t{\"Browser_Bits\":\"32\",\"Platform\":\"Android\"}",
        "e1200712beb1c7ea22f3156d94039ef9\t{\"Browser_Bits\":\"32\",\"Platform\":\"MacOSX\",\"Platform_Version\":\"10.10\"}",
        "e1b547ce55d148e2e2280e1b7b8d1c97\t{\"Browser_Bits\":\"32\",\"Platform\":\"MacOSX\",\"Platform_Version\":\"10.10\"}",
        "e1f733ca50cb92f3df862a03b55dd68f\t{\"Browser_Bits\":\"32\",\"Platform\":\"Win10\",\"Platform_Version\":\"10.0\",\"Win32\":true}",
        "e133b490253c8b713c596b4af094f2c7\t{\"Browser_Bits\":\"32\",\"Platform\":\"WinXP\",\"Platform_Version\":\"5.2\",\"Win32\":true}",
        "e13b789c63f944a8dddb8f5556f22ea8\t{\"Browser_Bits\":\"32\",\"Platform\":\"WinXP\",\"Platform_Version\":\"5.2\",\"Win32\":true}",
        "e14f70a616e7477747cf57dbdd22d146\t{\"Browser_Bits\":\"32\",\"Platform\":\"Win7\",\"Platform_Version\":\"6.1\",\"Win32\":true}",
        "e199130d5f6c014dc36864cc1834f547\t{\"Browser_Bits\":\"32\",\"Platform\":\"Win7\",\"Platform_Version\":\"6.1\",\"Win32\":true}",
        "e1e78baacdd8f14b643676e5e279f35d\t{\"Browser_Bits\":\"32\",\"Platform\":\"Win8.1\",\"Platform_Version\":\"6.3\",\"Win32\":true}",
        "e12ebea87079bfbfd7c16399403de69e\t{\"Browser_Bits\":\"32\",\"Platform\":\"Win8.1\",\"Platform_Version\":\"6.3\",\"Win32\":true}",
        "e17e54e2d0a99c50d46d3e7622259e93\t{\"Browser_Bits\":\"32\",\"Platform\":\"WinVista\",\"Platform_Version\":\"6.0\",\"Win32\":true}",
        "e16ae95ecb6134c8f4594ed211674ef8\t{\"Browser_Bits\":\"32\",\"Platform\":\"Linux\"}",
        "e1ff2871b78d65d1a5a3d56b6447b194\t{\"Browser_Bits\":\"32\",\"Platform\":\"WinXP\",\"Platform_Version\":\"5.2\",\"Win32\":true}",
        "e1bd5157abe5bb4e5413df1378beea50\t{\"Browser_Bits\":\"32\",\"Platform\":\"WinXP\",\"Platform_Version\":\"5.2\",\"Win32\":true}",
        "e107c4d4b5649199fc5404d1280131a9\t{\"Browser_Bits\":\"32\",\"Platform\":\"Win8.1\",\"Platform_Version\":\"6.3\",\"Win32\":true}",
        "e1218ce92324115266c9297e804be821\t{\"Browser_Bits\":\"32\",\"Platform\":\"Win7\",\"Platform_Version\":\"6.1\",\"Win32\":true}",
        "e1fc1ca0fe86e0ef3eeb0c5aadf8912e\t{\"Browser_Bits\":\"32\",\"Platform\":\"Linux\"}",
        "e1651e7d5f94bc3385bc06bf56e76b18\t{\"Browser_Bits\":\"32\",\"Platform\":\"WinXP\",\"Platform_Version\":\"5.1\",\"Win32\":true}",
        "e13756bc1a8cdf1d19e594d25902934b\t{\"Browser_Bits\":\"32\",\"Platform\":\"MacOSX\",\"Platform_Version\":\"10\"}",
        "e1dfae67116f985a60f677e8a7b7cb82\t{\"Browser_Bits\":\"32\",\"Platform\":\"Win8.1\",\"Platform_Version\":\"6.3\",\"Win32\":true}",
        "e1b3012eedf2d781d0f05e1116ee7180\t{\"Browser_Bits\":\"32\",\"Platform\":\"WinXP\",\"Platform_Version\":\"5.2\",\"Win32\":true}",
        "e16131219277921caedcac11d0ce37ae\t{\"Browser_Bits\":\"32\",\"Platform\":\"Win7\",\"Platform_Version\":\"6.1\",\"Win32\":true}",
        "e1628707c7ff5eb6afc41ba2a8665479\t{\"Browser_Bits\":\"32\",\"Platform\":\"Win8.1\",\"Platform_Version\":\"6.3\",\"Win32\":true}",
        "e11f3e578d1b2910c53681f68bc74c02\t{\"Browser_Bits\":\"32\",\"Platform\":\"Win8\",\"Platform_Version\":\"6.2\",\"Win32\":true}",
        "e114ab5af3e4b6061eb8270d20ba59e4\t{\"Browser_Bits\":\"32\",\"Platform\":\"WinXP\",\"Platform_Version\":\"5.1\",\"Win32\":true}",
        "e1f3bcd8f7505feb3b3400bc87ef6d7d\t{\"Browser_Bits\":\"32\",\"Platform\":\"Win32\",\"Win32\":true}",
        "e1c489741d6343bc32267067f0b2372e\t{\"Browser_Bits\":\"32\",\"Platform\":\"MacOSX\",\"Platform_Version\":\"10\"}",
        "e171997c7d6e1f7af53f867075737319\t{\"Browser_Bits\":\"32\",\"Platform\":\"MacOSX\",\"Platform_Version\":\"10.9\"}",
        "e1d1fca9668b81d047cefd4bb0f03441\t{\"Browser_Bits\":\"32\",\"Platform\":\"WinVista\",\"Platform_Version\":\"6.0\",\"Win32\":true}",
        "e13a8a512ced7fb223cb9bf7ddf02088\t{\"Browser_Bits\":\"32\",\"Platform\":\"Win8\",\"Platform_Version\":\"6.2\",\"Win32\":true}",
        "e1d1272d39cda89e7553f6bf62dbbf98\t{\"Browser_Bits\":\"32\",\"Platform\":\"SunOS\"}",
        "e1df1a4760cbe282db637677bdcc346e\t{\"Browser_Bits\":\"32\",\"Platform\":\"MacOSX\",\"Platform_Version\":\"10.10\"}",
        "e16110c7ac209c450ff6547ddaef1d8b\t{\"Browser_Bits\":\"32\",\"Platform\":\"MacOSX\",\"Platform_Version\":\"10.9\"}",
        "e1bf05a4a3f2ea5c3d37d4741b2f199f\t{\"Browser_Bits\":\"32\",\"Platform\":\"Win8\",\"Platform_Version\":\"6.2\",\"Win32\":true}",
        "e18101278bb8ef93ee4d40cbc53a4668\t{\"Browser_Bits\":\"32\",\"Platform\":\"WinVista\",\"Platform_Version\":\"6.0\",\"Win32\":true}",
        "e1678461cafed592b25a67762d028e78\t{\"Browser_Bits\":\"32\",\"Platform\":\"MacOSX\",\"Platform_Version\":\"10\"}",
        "e1e2fa598e51ad13d6e7bef6e6f64c25\t{\"Browser_Bits\":\"32\",\"Platform\":\"Linux\"}",
        "e1d8136341b502ab05204400285d7bc7\t{\"Browser_Bits\":\"32\",\"Platform\":\"Win8\",\"Platform_Version\":\"6.2\",\"Win32\":true}",
        "e1110fba0eb8d9751cd3ac6ff37e4b00\t{\"Browser_Bits\":\"32\",\"Platform\":\"WinVista\",\"Platform_Version\":\"6.0\",\"Win32\":true}",
        "e159e470f3087d1339a836c854a8aa93\t{\"Browser_Bits\":\"32\",\"Platform\":\"WinVista\",\"Platform_Version\":\"6.0\",\"Win32\":true}",
        "e19147e0c9fd773bf6fc7cb7483f0701\t{\"Browser_Bits\":\"32\",\"Platform\":\"Win8.1\",\"Platform_Version\":\"6.3\",\"Win32\":true}",
        "e18c02919580793a1b1e280efe9100e0\t{\"Browser_Bits\":\"32\",\"Platform\":\"Android\",\"Platform_Version\":\"4.2\",\"isTablet\":true}",
        "e16efc854ef3c33779ebef4fb9ec9ef9\t{\"Browser_Bits\":\"32\",\"Platform\":\"Win8.1\",\"Platform_Version\":\"6.3\",\"Win32\":true}",
        "e1a06031ec75a9f159f3c456d2a07ac2\t{\"Browser_Bits\":\"32\",\"Platform\":\"MacOSX\",\"Platform_Version\":\"10\"}",
        "e1d3d54ea46b342fc8db57e8f38ee0fb\t{\"Browser_Bits\":\"32\",\"Platform\":\"Win7\",\"Platform_Version\":\"6.1\",\"Win32\":true}",
        "e1522bf4080e9ac99acd58400d6a0e48\t{\"Browser_Bits\":\"32\",\"Platform\":\"Win7\",\"Platform_Version\":\"6.1\",\"Win32\":true}",
        "e18b0817444c0be08fde1932606178f5\t{\"Browser_Bits\":\"32\",\"Platform\":\"Win8.1\",\"Platform_Version\":\"6.3\",\"Win32\":true}",
        "e19e06e736b594658a5f1df58ac27857\t{\"Browser_Bits\":\"32\",\"Platform\":\"MacOSX\",\"Platform_Version\":\"10\"}",
        "e1386b0380347c4486a310ad4fbf07df\t{\"Browser_Bits\":\"32\",\"Platform\":\"Win8.1\",\"Platform_Version\":\"6.3\",\"Win32\":true}",
        "e1c1f7d45a6a4018a578e0179e240f22\t{\"Browser_Bits\":\"32\",\"Platform\":\"Win8\",\"Platform_Version\":\"6.2\",\"Win32\":true}",
        "e1f15b4cbd19d70100cc24006a5ddb3a\t{\"Browser_Bits\":\"32\",\"Platform\":\"Win7\",\"Platform_Version\":\"6.1\",\"Win32\":true}",
        "e16eedf56906eeac68bed2abd2862536\t{\"Browser_Bits\":\"32\",\"Platform\":\"Win7\",\"Platform_Version\":\"6.1\",\"Win32\":true}",
        "e16fe646d4cf6adb45d804aede567d91\t{\"isTablet\":true}",
        "e1ef7ed9ac2d865d2e92b074f4ba57e2\t{\"Platform_Version\":\"4.4\"}",
        "e131290bd06381ec676dddc840edc1a5\t{\"Platform_Version\":\"4.4\",\"isTablet\":true}",
        "e158d08e1c24db256247ddde9f5fd1b1\t{\"isTablet\":true}",
        "e1f18a2c3364cbef8a84b0bf7c88f6e9\t{\"Browser_Bits\":\"32\",\"Platform\":\"Android\",\"isMobileDevice\":true}",
        "e12f374287b20e9f4aac569b89f01543\t{\"isTablet\":true}",
        "e128f5cdd716ae4b27912fa1d385c439\t{\"isTablet\":true}",
        "e142983370c355a5b926b1d428f22ba0\t{\"Browser_Bits\":\"32\",\"Platform\":\"MacOSX\",\"Platform_Version\":\"10.11\"}",
        "e1b53e8d42000e75fdb06f372f908fbb\t{\"Browser_Bits\":\"32\",\"Platform\":\"Win8\",\"Platform_Version\":\"6.2\",\"Win32\":true}",
        "e19d8c3f50125590773272b276a0c76d\t{\"Browser_Bits\":\"32\",\"Platform\":\"Win10\",\"Platform_Version\":\"6.4\",\"Win32\":true}",
        "e12ff176e1618de393138f3730250952\t{\"Browser_Bits\":\"32\",\"Platform\":\"WinXP\",\"Platform_Version\":\"5.1\",\"Win32\":true}",
        "e1379916b60c5ee4d560357dee204542\t{\"Browser_Bits\":\"32\",\"Platform\":\"Android\",\"isMobileDevice\":true}",
        "e134bf18ce232c39e88bc3990c27b38f\t[]",
        "e1c95612092d9b15e48292bfb7cb84bd\t{\"Browser_Bits\":\"32\",\"Platform\":\"macOS\",\"Platform_Version\":\"10.12\"}",
        "e1ffb6e7ec044f00df2a8d96a986cc60\t{\"Platform_Version\":\"4.2\",\"isTablet\":true}",
        "e114a967c85c2c8ecc27eceeacea92d4\t{\"Platform_Version\":\"4.3\",\"isTablet\":true}",
        "e14b6677228baadaed053acf1fba0b7a\t{\"Platform_Version\":\"4.3\",\"isTablet\":true}",
        "e1abe3677ce27b3ffa5ee74c9f1ad9b8\t{\"Platform_Version\":\"4.2\",\"isTablet\":true}",
        "e1169cf836899f2a19269dd9c24a4aab\t{\"Platform_Version\":\"4.3\",\"isTablet\":true}",
        "e1d10c36f6d27fe0786d609a2e727a90\t{\"Platform_Version\":\"4.2\",\"isTablet\":true}",
        "e129e1d7a3a857e16a9d83af0874e68b\t{\"Platform_Version\":\"4.2\",\"isTablet\":true}",
        "e1671ba4dd11241fb9543bce11c355d8\t{\"Platform_Version\":\"4.3\",\"isTablet\":true}",
        "e15a90a9be050e96759b1c4810ee1cea\t{\"Platform_Version\":\"4.3\",\"isTablet\":true}",
        "e1af196928cec3ff6378efc4d5cf8b8e\t{\"Platform_Version\":\"4.2\",\"isTablet\":true}",
        "e11fda3f3ef034de371f6e7ec37a3b55\t{\"isTablet\":true}",
        "e1d963c0e507eb0cbd17b2f0505bcbd0\t{\"Platform_Version\":\"4.3\",\"isTablet\":true}",
        "e16f20a0cf427ac1152c44b9774bc7be\t{\"Platform_Version\":\"9.0\"}",
        "e139cb80bb399fc1fa0f6c0ec665818c\t{\"Platform_Version\":\"4.4\",\"isTablet\":true}",
        "e1ac5b4612031c397218f19d8ee17f62\t{\"Platform_Version\":\"4.2\",\"isTablet\":true}",
        "e102805144f331e52e5ad84e35156b87\t{\"Platform_Version\":\"4.3\",\"isTablet\":true}",
        "e19fab989fa9ecfd7bd1da2663d80979\t{\"Platform_Version\":\"4.4\",\"isTablet\":true}",
        "e18e51e8774a2a0938d9d9b74ca85f8b\t{\"Platform_Version\":\"9.1\",\"isTablet\":true}",
        "e1cbc9536a09e5c0eeb6eb7feaf49e9e\t{\"Platform_Version\":\"10.2\"}",
        "e13a7c5abfa15c71f79ce7354da9d452\t{\"Platform_Version\":\"4.3\",\"isTablet\":true}",
        "e19d292fa632aa4ac60a902723d958fe\t{\"Platform_Version\":\"4.2\",\"isMobileDevice\":false}",
        "e177c172fd499d62c01bc61ebca4ab47\t{\"Platform_Version\":\"4.3\",\"isTablet\":true}",
        "e134191c02b11cc20e8e3e24fb975991\t{\"Platform_Version\":\"4.2\",\"isTablet\":true}",
        "e102ed4283a28f626b257c77cecafad2\t{\"Platform_Version\":\"4.3\",\"isTablet\":true}",
        "e1bb20291ccd4ae568f0d9aa7c95aeb6\t{\"Platform_Version\":\"9.2\"}",
        "e1cce5bcf608256fe13f1b3fb86104f5\t{\"Platform_Version\":\"4.2\",\"isTablet\":true}",
        "e164d7e467b910269083a8a1c51abafc\t{\"Platform_Version\":\"4.2\",\"isTablet\":true}",
        "e1b41233f9e3dec9019caee66e437424\t{\"Platform_Version\":\"4.2\",\"isTablet\":true}",
        "e18f2d9bc4e4bebef04e1bff78b48f9c\t{\"Platform_Version\":\"4.2\",\"isTablet\":true}",
        "e10d80405a371e56bd801228c0310aad\t{\"Platform_Version\":\"8.1\",\"isTablet\":true}",
        "e1232fa8a58fbfc36f6a41ed0165fd35\t{\"Platform_Version\":\"4.2\",\"isTablet\":true}",
        "e12e33c9824b3094d12981097ecf7711\t{\"Browser_Bits\":\"32\",\"Platform\":\"MacOSX\",\"Platform_Version\":\"10.9\"}",
        "e1c3159006fe686402ec0af764cf94e7\t{\"Platform_Version\":\"4.3\",\"isTablet\":true}",
        "e1c2625f0e7d3a480c958e03dc6215af\t{\"isTablet\":true}",
        "e1b373ae0a2e95ec9106b6fec54d3206\t{\"Platform_Version\":\"4.2\",\"isTablet\":true}",
        "e1c6c33f27c0ba9c825b8445763b6810\t{\"Platform_Version\":\"4.2\",\"isTablet\":true}",
        "e118ef8cb0f3650bd14a4afb143b9ab5\t{\"Browser_Bits\":\"32\",\"Platform\":\"MacOSX\",\"Platform_Version\":\"10.10\"}",
        "e1d046c63a17a441db0fd9894a43cfbe\t{\"Platform_Version\":\"4.2\",\"isTablet\":true}",
        "e1290fcc55b72e47eb084096332fa2db\t{\"Browser_Bits\":\"32\",\"Platform\":\"OpenBSD\"}",
        "e139c95296f3b1eee4a9de5f88b7c5fb\t{\"Platform_Version\":\"4.2\",\"isTablet\":true}",
        "e134dcbb12374373e509a9deabe57d00\t{\"Platform_Version\":\"4.2\",\"isTablet\":true}",
        "e1d08b4bd3ec31ae2fe104788fbb39e5\t{\"Platform_Version\":\"4.2\",\"isTablet\":true}",
        "e147cd56a8f91737c8005c3467500bde\t{\"Platform_Version\":\"5.0\"}",
        "e1231e4ee4537c0b44c8dc3094573ead\t{\"Platform_Version\":\"4.4\",\"isTablet\":true}",
        "e13a3fadc524a99d4e006ec8c5068bc4\t{\"Browser_Bits\":\"32\",\"Platform\":\"Win7\",\"Platform_Version\":\"6.1\",\"Win32\":true}",
        "e164b8b2be4cf9cbfc27dbeca8b33f35\t{\"Platform_Version\":\"4.2\",\"isTablet\":true}",
        "e179ea6f71c2569902db96d60192f751\t{\"Platform_Version\":\"7.0\"}",
        "e1dd81bf798d83ce93ef226809e12c55\t{\"Platform_Version\":\"4.2\",\"isTablet\":true}",
        "e1a9311caf0d2a9385380c6c30844a49\t{\"Browser_Bits\":\"32\",\"Platform\":\"Linux\"}",
        "e131ef6512251b2000e7ecd43895c8ff\t{\"Platform_Version\":\"4.3\",\"isTablet\":true}",
        "e187802f2ef079d361856db106c38228\t{\"Browser_Bits\":\"32\",\"Platform\":\"WinXP\",\"Platform_Version\":\"5.2\",\"Win32\":true}",
        "e1b7bf57c10e5c187d40edcdae3816c7\t{\"Platform_Version\":\"8.3\"}",
        "e178005a0a28b693a6ee5225e4eeca48\t{\"Platform_Version\":\"8.4\"}",
        "e1b75a33ee5d363fcc870d51e8ee4973\t{\"Platform_Version\":\"8.4\"}",
        "e16bdc518dc7fdb915f3811317f398ae\t[]",
        "e1152e9ac06f28fb085d88bafeb53889\t[]",
        "e1b52308ee68b6d1ade80b4c33953ca3\t{\"Platform_Version\":\"9.3\"}",
        "e100a68b0219484445380949cc436436\t{\"Platform_Version\":\"8.2\",\"isTablet\":true}",
        "e1d132ca45eb8ab14572c3f15dc0cd14\t{\"Platform_Version\":\"10.2\",\"isTablet\":true}",
        "e192b897b35ace60eba11b1616e16417\t{\"Platform_Version\":\"8.3\"}",
        "e10c68c02aaa34dc44fc49d9bf31d53a\t{\"Platform_Version\":\"10.2\",\"isTablet\":true}",
        "e1e264c93979bad4d34b653d193c5f3c\t{\"Browser_Bits\":\"32\",\"Platform\":\"WinXP\",\"Platform_Version\":\"5.2\",\"Win32\":true}",
        "e123bc80283f529ac83985f9e877f680\t[]",
        "e1452f8523bedc53b3a2f6d50b735cbd\t{\"Platform_Version\":\"7.1\"}",
        "e143beea9904e1152a06a2755856fb5a\t[]",
        "e13d4ec43cd7a25ce4f38b7eedffc1fc\t{\"Platform_Version\":\"8.1\"}",
        "e1e9ea329598acdfe9cb95569b0a2380\t{\"Platform_Version\":\"10.10\"}",
        "e1c46fc787c1c12a436c027ef50f0d08\t[]",
        "e19daacce661cb650d88dba9cb5705d8\t[]",
        "e167d33d8b8e6b8b7f984c466ba49473\t[]",
        "e11f6edb635fded0e99d048585d6f039\t{\"isMobileDevice\":true}",
        "e19de32a71af35e2d52c8338369f353c\t{\"Browser_Bits\":\"32\",\"Platform\":\"WinXP\",\"Platform_Version\":\"5.2\",\"Win32\":true}",
        "e13376cffc9f83f605fc6332b5c0a255\t{\"Browser_Bits\":\"32\",\"Platform\":\"Win7\",\"Platform_Version\":\"6.1\",\"Win32\":true}",
        "e1f87671f8613b78dff5effbe686cca2\t{\"Browser_Bits\":\"32\",\"Platform\":\"WinXP\",\"Platform_Version\":\"5.2\",\"Win32\":true}",
        "e1a101b17cb841e33d1bf3bb6e7de698\t{\"Browser_Bits\":\"32\",\"Platform\":\"Win8.1\",\"Platform_Version\":\"6.3\",\"Win32\":true}",
        "e19413faa17b1243817362becb6f51df\t{\"Platform\":\"Win8\",\"Platform_Version\":\"6.2\"}",
        "e1cd7fcbbac73e55e59875139a90d42f\t{\"Browser_Bits\":\"32\",\"Platform\":\"Android\",\"Platform_Version\":\"4.3\"}",
        "e19cf695a546822a286fc5edfecf2851\t{\"Browser_Bits\":\"32\",\"Platform\":\"Android\",\"Platform_Version\":\"4.3\"}",
        "e14581b9b743da3f9d99956eb10ae2cc\t[]",
        "e17e9d23f6c9888d046cd0f9fd5eda41\t{\"Platform_Version\":\"4.2\",\"isTablet\":true}",
        "e12462560f6aac8d4242c8e02b973ad0\t{\"Browser_Bits\":\"32\",\"Platform\":\"iOS\",\"Platform_Version\":\"8.2\",\"isTablet\":true}",
        "e1d01c0d95ed52a0cb8d8c2f69ac5485\t{\"Browser_Bits\":\"32\",\"Platform\":\"iOS\",\"Platform_Version\":\"10.3\",\"isTablet\":true}",
        "e1a0479e40a1a9634fdaddf2706fb290\t{\"Browser_Bits\":\"32\",\"Platform\":\"WinPhone\"}",
        "e129c4d020f8d75891a11c9087d673f6\t{\"Browser_Bits\":\"32\",\"Platform\":\"FreeBSD\"}",
        "e14777c5c0cd82df17d946a3ed177b97\t{\"Platform_Version\":\"7.1\"}",
        "e1b20d93b87c3d83b6ff615ecda2e4dd\t{\"Platform_Version\":\"8.2\",\"isTablet\":true}",
        "e13f0890dc9c9429e0d8570c2a3af8e7\t{\"Platform_Version\":\"10.3\"}",
        "e151b9216d1df640c509105b3ba63ea2\t{\"Platform_Version\":\"9.1\"}",
        "e1f00f3fd4dada752d03de3dd8c630cd\t{\"Platform_Version\":\"8.4\"}",
        "e14b85c73220c88ee73ef2827599e408\t{\"Platform_Version\":\"10.3\"}",
        "e1e321b6322519eb8f90bc6be87f4d1f\t{\"Platform_Version\":\"10.1\"}",
        "e16d884f8209689e655a057faf0ad1b5\t{\"Platform_Version\":\"8.4\"}",
        "e19ad16ad4d1fd60599fed31020d52df\t{\"Platform_Version\":\"8.0\",\"isTablet\":true}",
        "e1aac3050061a6a628c3891046ee6d33\t{\"Platform_Version\":\"10.1\",\"isTablet\":true}",
        "e1309ee8aa108c592596fb97d551d29c\t{\"Platform_Version\":\"10.2\",\"isTablet\":true}",
        "e149bbb901e47c796d2d8f96135c4273\t{\"Platform_Version\":\"8.0\"}",
        "e1a1fb6ac74850390d08c0759a00210d\t{\"Platform_Version\":\"10.0\"}",
        "e149bd5404a97f8d5f3b2a8d5d3af0bc\t{\"Platform_Version\":\"10.2\"}",
        "e123d381f36c77bf0aabd657f53df003\t{\"Platform_Version\":\"10.0\"}",
        "e169ac660df461c599d00a1ec4372666\t{\"Platform_Version\":\"9.0\"}",
        "e188446c6ff71c6cd466578b127be02f\t[]",
        "e12579ddbfa7436faf3c96d75896b140\t{\"Platform_Version\":\"9.0\",\"isTablet\":true}",
        "e1798b7a3ed862fd5f2a1e9b56172da7\t{\"Platform_Version\":\"8.1\"}",
        "e11186a33c4ce964a61be07147b47493\t{\"Platform_Version\":\"9.1\"}",
        "e143e3962e6c84bf2090eec6994cd48d\t{\"Browser_Bits\":\"32\",\"Platform\":\"iOS\",\"Platform_Version\":\"8.0\"}",
        "e1123fffd885c52075e19b50c98531b0\t{\"Browser_Bits\":\"32\",\"Platform\":\"Android\",\"isMobileDevice\":true}",
        "e1b29e78a77db4d1bc45bbb86ff94e29\t{\"Platform_Version\":\"8.2\"}",
        "e1284388c0daed844ee77618ada9751e\t{\"isTablet\":true}",
        "e1052bedfd5bbb4fb25cdfc55e1dae81\t{\"Platform_Version\":\"10.3\",\"isTablet\":true}",
        "e15c96050f363a313f2b9ec6217f3714\t{\"Platform_Version\":\"8.4\"}",
        "e122dcaacd024caeb259d265c8fe7f3d\t{\"Browser_Bits\":\"32\",\"Platform\":\"Win32\",\"Win32\":true}",
        "e1dd563107cd7261dc0db4c6182ababe\t{\"Platform_Version\":\"8.0\"}",
        "e108b6f9ef22970f3850493c1f42a25f\t{\"Platform_Version\":\"9.0\"}",
        "e17aa63f5dbd5cbb575c2ce719781b1f\t{\"Platform_Version\":\"7.0\"}",
        "e1d3cb9ccc6390c45e5065744e6d821d\t{\"Browser_Bits\":\"32\",\"Platform\":\"SunOS\"}",
        "e1f41a51baa0abcb0631303f67ceff43\t{\"Browser_Bits\":\"64\",\"Platform\":\"Tru64 UNIX\"}",
        "e1fa481e21e708412617d56ebea67b51\t{\"Platform_Version\":\"10.9\"}",
        "e1d0612a2cb06fa12a334f536450d873\t{\"Browser_Bits\":\"32\",\"Platform\":\"Unix\"}",
        "e17946084c834adee85f3f9ce18a3807\t{\"Platform\":\"WinXP\",\"Platform_Version\":\"5.2\",\"Win32\":true}",
        "e134bcb0ee371f10049731528ed50a82\t{\"Browser_Bits\":\"32\",\"Platform\":\"MacOSX\",\"Platform_Version\":\"10\"}",
        "e1db4989745b25b547b029b2e3a97d96\t{\"Platform\":\"Win7\",\"Platform_Version\":\"6.1\"}",
        "e1e8a543531fe50940bbd0f88831df5b\t[]",
        "e1ddde32daee84e7aacb7d53c59976bf\t{\"Browser_Bits\":\"32\",\"Platform\":\"Win32\",\"Win32\":true}",
        "e1e6be4681c02995391b2007859f5f96\t{\"Browser_Bits\":\"32\",\"Platform\":\"Win7\",\"Platform_Version\":\"6.1\",\"Win32\":true}",
        "e156406625a9db1d2b0acfd819a968b3\t{\"Browser_Bits\":\"32\",\"Platform\":\"WinXP\",\"Platform_Version\":\"5.1\",\"Win32\":true}",
        "e1f9be6c3b16ae6316f726cf5b9e16c1\t{\"Browser_Bits\":\"32\",\"Platform\":\"Win8\",\"Platform_Version\":\"6.2\",\"Win32\":true}",
        "e131783d6fc9767c2ba272caf6c97121\t{\"Browser_Bits\":\"32\",\"Platform\":\"WinXP\",\"Platform_Version\":\"5.2\",\"Win32\":true}",
        "e1640be37d6be7a8e6026e05aa3a461a\t{\"Browser_Bits\":\"32\",\"Platform\":\"Win8\",\"Platform_Version\":\"6.2\",\"Win32\":true}",
        "e169fc007e80207cf35c5aa3c7392df6\t{\"Browser_Bits\":\"32\",\"Platform\":\"Win8\",\"Platform_Version\":\"6.2\",\"Win32\":true}",
        "e1ee7efa776324bc8fffa02d6aa959a8\t{\"Browser_Bits\":\"32\",\"Platform\":\"Linux\"}",
        "e15fe64464b8975c35e19a1f304c3c47\t{\"Browser_Bits\":\"32\",\"Platform\":\"Win8\",\"Platform_Version\":\"6.2\",\"Win32\":true}",
        "e16e8d656c3308ad6a308c6a68d8b91e\t{\"Browser_Bits\":\"32\",\"Platform\":\"Linux\"}",
        "e1f9b7ca1cf7077a954ffdf5ff834dc4\t{\"Platform\":\"WinXP\",\"Platform_Version\":\"5.1\"}",
        "e11ad8901010625f2c9d0e0984b4d010\t{\"Platform\":\"WinXP\",\"Platform_Version\":\"5.1\"}",
        "e100b0f99a7d0de3aba8e6141e19a8bf\t{\"Browser_Bits\":\"32\",\"Platform\":\"WinXP\",\"Platform_Version\":\"5.1\",\"Win32\":true}",
        "e1d6cf8330c38b2c96b585b0e6e261ad\t{\"Browser_Bits\":\"32\",\"Platform\":\"WinXP\",\"Platform_Version\":\"5.2\",\"Win32\":true}",
        "e164ab99e67e87fbcd6ffbc736e7352e\t{\"Browser_Bits\":\"32\",\"Platform\":\"MacOSX\",\"Platform_Version\":\"10\"}",
        "e1a8c28464c3484b6e31b427d68ecf78\t{\"Browser_Bits\":\"32\",\"Platform\":\"WinXP\",\"Platform_Version\":\"5.2\",\"Win32\":true}",
        "e1618963f82d53b1173e49032ae92f43\t[]",
        "e12b6f88c1213f6143a4b465179b95e2\t{\"Browser_Bits\":\"32\",\"Platform\":\"WinXP\",\"Platform_Version\":\"5.1\",\"Win32\":true}",
        "e1d44d02fd7228519be5371ec9cf8752\t{\"Browser_Bits\":\"32\",\"Platform\":\"Win7\",\"Platform_Version\":\"6.1\",\"Win32\":true}",
        "e1e1952aa319ea16a13297f24514bf13\t{\"Browser_Bits\":\"32\",\"Platform\":\"Win7\",\"Platform_Version\":\"6.1\",\"Win32\":true}",
        "e16e9737a1e4f3b44099fdb645ec205b\t{\"Browser_Bits\":\"32\",\"Platform\":\"MacOSX\",\"Platform_Version\":\"10\"}",
        "e19d5c42410742d55d34714ee225cc0a\t{\"Browser_Bits\":\"32\",\"Platform\":\"MacOSX\",\"Platform_Version\":\"10\"}",
        "e1a0e16f358af3cea01135becb8bac3a\t{\"Platform_Version\":\"7.0\"}",
        "e127a150deed3fd8ace9cd385b08fa0a\t{\"Platform_Version\":\"10.2\"}",
        "e144b5ad2fb95f80ab06a7d9aa2624e6\t{\"Browser_Bits\":\"32\",\"Platform\":\"Win7\",\"Platform_Version\":\"6.1\",\"Win32\":true}",
        "e1c027b9c88c398e0c6cb3b8808c39fd\t[]",
        "e1f632fb00c1339fe3c743192abf2c83\t{\"Browser_Bits\":\"32\",\"Platform\":\"WinXP\",\"Platform_Version\":\"5.1\",\"Win32\":true}",
        "e156e28a5ac0bd22cd7c26509844da16\t[]",
        "e17b3a30eb889c464a21e6ddf0fa3a85\t{\"Platform\":\"Win7\",\"Platform_Version\":\"6.1\"}",
        "e1c5a6cce1f51ea35379edb9bd5869c5\t{\"Platform\":\"Win8\",\"Platform_Version\":\"6.2\"}",
        "e1e5046f7ea92f5513a981ffc3c08e4e\t{\"Browser_Bits\":\"32\",\"Platform\":\"MacOSX\",\"Platform_Version\":\"10.9\"}",
        "e15351abbbccb5676c30345283a62c15\t{\"Platform_Version\":\"5.0\",\"isTablet\":true}",
        "e189242906e6aa6313464fd641270d01\t{\"Platform_Version\":\"6.0\",\"isTablet\":true}",
        "e140320843b806a3d379ff3715f05f46\t{\"Browser_Bits\":\"32\",\"Platform\":\"MacOSX\",\"Platform_Version\":\"10.10\"}",
        "e1b72ace5c1ecdcaabe59570dee85364\t{\"Browser_Bits\":\"64\",\"Platform\":\"IRIX64\"}",
        "e105cf21e4be22ea1fd65cc7009c9c93\t{\"Browser_Bits\":\"32\",\"Platform\":\"WinXP\",\"Platform_Version\":\"5.2\",\"Win32\":true}",
        "e1e9fa86b00b94d9e41f99042b8354e0\t{\"Browser_Bits\":\"32\",\"Platform\":\"MacOSX\",\"Platform_Version\":\"10\"}",
        "e15da7fac9367ddb51498a26a6a89a88\t{\"Browser_Bits\":\"32\",\"Platform\":\"Win8\",\"Platform_Version\":\"6.2\",\"Win32\":true}",
        "e1bd729b7bb174a6b994302b61d831f9\t{\"Browser_Bits\":\"32\",\"Platform\":\"WinXP\",\"Platform_Version\":\"5.2\",\"Win32\":true}",
        "e1a3272c1a44c0889ed69e5e8b324040\t{\"Browser_Bits\":\"32\",\"Platform\":\"Win7\",\"Platform_Version\":\"6.1\",\"Win32\":true}",
        "e1cf13fb9a6653656b8bfe1e94629546\t{\"Browser_Bits\":\"32\",\"Platform\":\"WinXP\",\"Platform_Version\":\"5.1\",\"Win32\":true}",
        "e1f9329b1016c41a8f88feaba37997cb\t{\"isTablet\":true}",
        "e19aab7f977549836142ea61a406846a\t{\"Browser_Bits\":\"32\",\"Platform\":\"WinXP\",\"Platform_Version\":\"5.2\",\"Win32\":true}",
        "e18f4f4543dd91044bb1405ca70eae16\t{\"Browser_Bits\":\"32\",\"Platform\":\"MacOSX\",\"Platform_Version\":\"10.10\"}",
        "e1552c46f418fbc781bbca8f2f962605\t{\"Browser_Bits\":\"32\",\"Platform\":\"MacOSX\",\"Platform_Version\":\"10.10\"}",
        "e1ba7fe0558cf53c47bf52c6f056a884\t{\"Browser_Bits\":\"32\",\"Platform\":\"MacOSX\",\"Platform_Version\":\"10.10\"}",
        "e172d69d3b1ff0a09d9ea8a98af48656\t{\"Browser_Bits\":\"32\",\"Platform\":\"MacOSX\",\"Platform_Version\":\"10.9\"}",
        "e1dd96921c06269cc24f8af03b9f3242\t{\"Browser_Bits\":\"32\",\"Platform\":\"Maemo\",\"isMobileDevice\":true}",
        "e13ff225b8bb0a94dafb804265756bda\t{\"Browser_Bits\":\"32\",\"Platform\":\"WinVista\",\"Platform_Version\":\"6.0\",\"Win32\":true}",
        "e1d6b05c5a8bedb325d4f36c4e68bcac\t{\"Platform\":\"Win7\",\"Platform_Version\":\"6.1\",\"Win32\":true}",
        "e1b425384e2c89f76bee77c7af19ee8f\t[]",
        "e1ba3d6d0dcfa59ac8d69b79d995b6d3\t{\"Browser_Bits\":\"32\",\"Platform\":\"MacOSX\",\"Platform_Version\":\"10.9\"}",
        "e1a9e5345243056d9dfa2bf29ac1359b\t{\"Browser_Bits\":\"32\",\"Platform\":\"Win32\",\"Win32\":true}",
        "e14a99f11b5b74ef63861e20b923fb36\t[]",
        "e1f2b4d776b43909ee717d482e30ef35\t[]",
        "e1131a678a487fd0bf78ccec1675228c\t[]",
        "e12100bc058d249b37fc4b4bd81e4277\t[]",
        "e1ca077444c052943265cbb500ac615d\t[]",
        "e1f8a6cd3be07a798fe1c1f04ceae007\t[]",
        "e11d5a71353649c6aeb70a3e40e03459\t[]",
        "e1a7b4f932d8b2a4756f56d59018adad\t{\"Platform_Version\":\"8.3\"}",
        "e1fd07f81517cabab85594921bb6c19d\t{\"Platform_Version\":\"7.0\"}",
        "e1e04becf7c0adda6cccc5ebed64ea21\t{\"Browser_Bits\":\"32\",\"Platform\":\"OpenBSD\",\"isMobileDevice\":false}",
        "e1cec476de3ad438825bc8ed9b22724d\t{\"Platform_Version\":\"10.10\"}"
    ]
}