{
    "content": [
        "eb1b1a0671ced61e4eabec45163fb07e\t{\"Browser_Bits\":\"32\",\"Platform\":\"Win32\",\"Win32\":true}",
        "eb7d2ab2b2242539b17b4629c33591a5\t[]",
        "eb85e825bf68464a55670d57622b88e2\t[]",
        "eba4826cb36f5d2d0fa2af2fa244b49b\t[]",
        "ebade8958f1db4c7a4cf713871347a90\t[]",
        "ebaf22ac219b10b3ee809d80156076e7\t[]",
        "ebf929d305911f5a0cbf37eab665264a\t[]",
        "eb1ea2789e5b1d722ee97b04d877a7bd\t[]",
        "eb34d31f65888129cb98c534480141d7\t[]",
        "eb1689fb277b700d2d39dd089c6aad51\t[]",
        "eb26a5e55636d367d3bf62be530a839d\t[]",
        "eb65880e6d7b7e0031b55191b2aa2a3d\t[]",
        "eb4e0fedee71dc62f0ec6f4564583f08\t[]",
        "ebfe66a8595dd7891505cc8fceabb093\t{\"Platform_Version\":\"6.0\"}",
        "eb5556e9e2c60c6829a49335fa48534b\t{\"Platform_Version\":\"6.1\"}",
        "eb24de70e93f02a7f00494ec1ca859a6\t[]",
        "ebfc51e8df15538898dc545b53be9462\t{\"Browser_Bits\":\"32\",\"Platform\":\"macOS\",\"Platform_Version\":\"10.12\"}",
        "eb3489d5f041fae206aab2aa393ac104\t{\"Browser_Bits\":\"32\",\"Platform\":\"Win7\",\"Platform_Version\":\"6.1\",\"Win32\":true}",
        "eb9dde620e8fd964efd8267acc9ddf98\t{\"Platform\":\"Linux\",\"Win32\":false}",
        "eb447ae60f5c6b7aca5de69e23d946c3\t{\"Platform\":\"iOS\",\"Platform_Version\":\"9.0\",\"Win32\":false,\"isMobileDevice\":true,\"isTablet\":true}",
        "eb41f6528b6af7d7848009824a6b861d\t{\"Platform\":\"iOS\",\"Platform_Version\":\"9.3\",\"Win32\":false,\"isMobileDevice\":true,\"isTablet\":true}",
        "ebb14476ff2d5964996c1244811f785e\t{\"Platform\":\"MacOSX\",\"Platform_Version\":\"10.9\",\"Win32\":false}",
        "eb88f219e6b0d93dbec410047405380c\t{\"Platform\":\"iOS\",\"Platform_Version\":\"8.1\",\"Win32\":false,\"isMobileDevice\":true,\"isTablet\":true}",
        "eb061de0e10f2c67343a827578cd7012\t{\"Platform\":\"iOS\",\"Platform_Version\":\"10.1\",\"Win32\":false,\"isMobileDevice\":true,\"isTablet\":true}",
        "eb1e524eb9b1f0cb7930e9bf8e6a9e96\t{\"Platform_Version\":\"4.3\"}",
        "eb0ce6ea393818cb2a5abdfff47d1c8e\t{\"Platform_Version\":\"9.2\"}",
        "ebef44a587a4c59ae4791dd83ffac5fa\t{\"isTablet\":true}",
        "ebe68978ecb94cab1ff636fc3505a991\t{\"Platform_Version\":\"4.4\",\"isTablet\":true}",
        "eba65cbe49588bd34d770dd18dd4f343\t{\"Platform_Version\":\"4.4\"}",
        "ebf1fd3c551824265e38f115ff92f6fa\t{\"Platform_Version\":\"10.0\",\"isTablet\":true}",
        "ebfe69a7720db161a7d20ab876f880c8\t{\"Platform_Version\":\"10.3\",\"isTablet\":true}",
        "ebf33bfa31d040c496337b1eb50cdb13\t{\"Platform_Version\":\"4.2\"}",
        "eb0f19d30edc6542193a09910c39e256\t[]",
        "eb0417a6c33bd150d27bdb4e40833d94\t{\"Browser_Bits\":\"32\",\"Platform\":\"Win7\",\"Platform_Version\":\"6.1\",\"Win32\":true}",
        "ebfa88ec0accefb11a24101a0adb01e1\t{\"Platform_Version\":\"4.2\",\"isTablet\":true}",
        "eb6ff63f459f8dc804c23d54421305cc\t{\"Platform_Version\":\"4.2\",\"isTablet\":true}",
        "ebeb86af4b6fbeb2f8a390d548fbaecd\t{\"Platform_Version\":\"7.0\"}",
        "eb6d5ed32251dcd60ad6ce8cf62ac88d\t{\"Platform_Version\":\"4.4\",\"isTablet\":true}",
        "eb27ec2160f0d8e91288ffbf2bd08279\t{\"Platform\":\"iOS\",\"Platform_Version\":\"10.2\"}",
        "ebd81844f0abe302dab0aa517d214d4b\t{\"Platform\":\"iOS\",\"Platform_Version\":\"7.0\"}",
        "ebc96fc2e2ba6f179f0c58c0fd142c4a\t{\"Platform_Version\":\"4.2\",\"isTablet\":true}",
        "eb2b9703924c536952fe8bc361af35b4\t{\"Platform\":\"iOS\",\"Platform_Version\":\"9.1\"}",
        "ebd74a08e7c48448c7a585b6a1baabdd\t{\"Platform\":\"iOS\",\"Platform_Version\":\"7.1\"}",
        "ebc54d4906caa20c4afe66959afbb865\t{\"Platform_Version\":\"4.4\",\"isTablet\":true}",
        "ebe6b78b233e4127b4409d19ac57cb18\t{\"Platform_Version\":\"4.2\",\"isTablet\":true}",
        "eb9c65b3eae6f3257d4841115c7cae55\t{\"Platform_Version\":\"4.2\",\"isTablet\":true}",
        "ebc8fb27ba05a80a622f15cd05de4881\t{\"Platform_Version\":\"4.3\"}",
        "eb42da8f0f9740a85f2f6a6ece89a4b2\t{\"Platform_Version\":\"4.4\"}",
        "ebe1fd8434a79b7aa7afae6ee3c9de39\t{\"Browser_Bits\":\"32\",\"Platform\":\"Win8\",\"Platform_Version\":\"6.2\",\"Win32\":true}",
        "eb08e868660ed50f3deb0e8e6e17cf8e\t{\"Browser_Bits\":\"32\",\"Platform\":\"WinPhone8\",\"Platform_Version\":\"8.0\"}",
        "eb7032111cf0673db671fbfca5272d9c\t{\"Browser_Bits\":\"32\",\"Platform\":\"SymbianOS\"}",
        "eba0bb19635eb5d596458d638c6bdd8e\t{\"Browser_Bits\":\"32\",\"Platform\":\"WinPhone8\",\"Platform_Version\":\"8.0\"}",
        "ebe5db0942dda757ca1bd470a5a4a6e4\t[]",
        "eb36b526db423a79d8f530d51238a7cb\t{\"Platform\":\"JAVA\"}",
        "eb11ba3ec93ad8567d9d8ddb91b80890\t{\"Platform_Version\":\"4.3\"}",
        "eb2567c18dec095b934a3ba3d8a2b153\t{\"Platform_Version\":\"10.3\",\"isTablet\":true}",
        "ebfa40ed7c098b55bca49f724b1b9b14\t{\"Platform\":\"MacOSX\",\"Platform_Version\":\"10\",\"Win32\":false}",
        "eba2ac89327c99ed6641f164a7c826d9\t{\"Platform\":\"Win7\",\"Platform_Version\":\"6.1\",\"Win32\":true}",
        "eb5f00326904575be36a3db1881ba41c\t{\"Platform\":\"Win10\",\"Platform_Version\":\"10.0\",\"Win32\":true}",
        "eb1261424356026420d5cf5cebebd5f0\t{\"Platform_Version\":\"4.3\",\"isTablet\":true}",
        "eb73949e4da31f7ab070982879d08f19\t{\"Platform_Version\":\"4.2\",\"isTablet\":true}",
        "eb0d8c7a0187127642011e6b6d6cd2b4\t{\"Platform_Version\":\"4.3\",\"isTablet\":true}",
        "ebe3e22fc92ced18428c564f19ad8482\t{\"Platform_Version\":\"4.2\",\"isTablet\":true}",
        "ebd2f570e39a40cc45067dd1389c372f\t{\"Platform_Version\":\"4.2\",\"isTablet\":true}",
        "ebef2f5c89069b930a8ded59885eafc7\t{\"Platform_Version\":\"4.2\",\"isTablet\":true}",
        "ebefe661b6e17b88f20a2b66d3dd41b0\t{\"Platform_Version\":\"4.3\"}",
        "eb8f9e880a9c22bc0f8b70e0e650577d\t{\"Platform_Version\":\"4.3\",\"isTablet\":true}",
        "eb0ea83029aa950e23662695a4b07f1d\t{\"Platform_Version\":\"4.4\"}",
        "ebd00670116ce189786bd626b4d1165d\t{\"Browser_Bits\":\"32\",\"Platform\":\"Tizen\"}",
        "ebf2548ee9d40536bc23cfd28a5c40e7\t{\"Platform_Version\":\"4.2\",\"isTablet\":true}",
        "eb1cffe79a5c6c2e794c9b681637401e\t{\"Platform_Version\":\"4.4\"}",
        "ebb6e6a6afe8dd2c6015f028da76be59\t{\"Platform_Version\":\"4.2\",\"isTablet\":true}",
        "eb67c28741c8d77e2b254baf4214eb0f\t{\"Platform_Version\":\"4.4\",\"isTablet\":true}",
        "eb52f845f77e718bbef4a6d4b093b51f\t{\"Browser_Bits\":\"32\",\"Platform\":\"Android\",\"Platform_Version\":\"5.1\"}",
        "eb208817c1155f7036fc53aa0a446b0e\t{\"Browser_Bits\":\"32\",\"Platform\":\"Android\",\"Platform_Version\":\"5.1\"}",
        "eb4da79ce5c157918570941714278b9b\t{\"Browser_Bits\":\"32\",\"Platform\":\"WinXP\",\"Platform_Version\":\"5.2\",\"Win32\":true}",
        "eb09aaa83753b5588ee31fbbc4056183\t{\"Platform_Version\":\"9.0\"}",
        "eb7be73cf5385dbadd58487f6f0c1b0c\t{\"Platform_Version\":\"4.3\",\"isTablet\":true}",
        "ebf7a18e489fb0ce27952a88b4d7c652\t{\"Platform_Version\":\"4.2\",\"isTablet\":true}",
        "ebe505120ffe2d4fcd05885c7847e037\t{\"Platform_Version\":\"8.1\"}",
        "eb58b94ff0f1c4c7333b8a8b8c536862\t{\"Platform_Version\":\"10.3\"}",
        "eb80f92f1a73c7bf7813e994577d5ba5\t{\"Platform_Version\":\"4.4\",\"isTablet\":true}",
        "eb876cc77ceeef0ce18b6a306c6d05ec\t{\"Platform_Version\":\"8.3\"}",
        "eb823b9d45b449ce0674dc6409efc2c9\t{\"Platform_Version\":\"10.3\"}",
        "eb32acdf726500af551dc0ba868d3317\t{\"Platform_Version\":\"5.1\"}",
        "ebfb7117cd518f72449d8f4cee256a3d\t{\"Platform_Version\":\"8.0\"}",
        "eb162a9fd32302cc9a0d34fd18d107f7\t{\"Platform_Version\":\"9.3\"}",
        "eba9ee6bcf8445a6108ef36ccd3d8c1d\t[]",
        "eb5a99201f19f7f7d9922e2b5052b3d8\t{\"Platform_Version\":\"4.2\",\"isTablet\":true}",
        "ebc5678a3ae30579e8c30af7b236a938\t{\"Platform_Version\":\"7.1\",\"isTablet\":true}",
        "ebe5765670a85e9ac34ca1380cba9148\t{\"Platform_Version\":\"8.2\"}",
        "eb5125482ef1b7badc60bf2e977ea5b9\t{\"Platform_Version\":\"4.4\",\"isTablet\":true}",
        "ebf202bae88f85b303979e8c6b5ab42f\t{\"Platform_Version\":\"9.3\"}",
        "ebb2db55ee00da23430653a0173fd8e2\t{\"Platform_Version\":\"4.4\",\"isTablet\":true}",
        "eb6021ecd4a8b6b760204fc1462366e8\t{\"Platform_Version\":\"4.4\",\"isTablet\":true}",
        "ebdd4c216e7a42948b9a49526c20f28f\t{\"Platform_Version\":\"4.2\",\"isTablet\":true}",
        "ebca32d3196cfd2812b590e39c746e80\t{\"Browser_Bits\":\"32\",\"Platform\":\"WinXP\",\"Platform_Version\":\"5.1\",\"Win32\":true}",
        "eb5157c21aa623c55e4a6cee9dc5c910\t{\"Browser_Bits\":\"32\",\"Platform\":\"Win8\",\"Platform_Version\":\"6.2\",\"Win32\":true}",
        "eb244633f6829da42df31476eaffaed3\t{\"Platform_Version\":\"4.2\"}",
        "eb03bfbaa7150ca9b00f1e1344e7481a\t{\"Platform_Version\":\"7.0\"}",
        "ebbabb4beffa0900a58356860cb0198e\t{\"Platform_Version\":\"4.4\",\"isTablet\":true}",
        "eb81047d2da62f434f927d07e26d5405\t{\"Platform_Version\":\"4.2\",\"isTablet\":true}",
        "eb5132c4e8d87d7d02cfb951cdf598b5\t{\"Platform_Version\":\"4.3\"}",
        "ebdec08416e96b45fd7ed2a390304d0c\t{\"Browser_Bits\":\"32\",\"Platform\":\"Android\",\"isTablet\":true}",
        "ebf85e16b7721a01d35508bfed8f1e8d\t{\"Browser_Bits\":\"32\",\"Platform\":\"Android\",\"Platform_Version\":\"4.2\"}",
        "eb0df23553cd9788b2ba7c32d657c224\t{\"Browser_Bits\":\"32\",\"Platform\":\"Android\",\"Platform_Version\":\"4.4\",\"isTablet\":true}",
        "ebf434b0416e252d0e45796381d43c7c\t[]",
        "eb7544db91f2225427b356c4f48e0a14\t{\"Browser_Bits\":\"32\",\"Platform\":\"Win7\",\"Platform_Version\":\"6.1\",\"Win32\":true}",
        "ebd52eae88427ba9310f1c640435c679\t{\"Browser_Bits\":\"32\",\"Platform\":\"Win8.1\",\"Platform_Version\":\"6.3\",\"Win32\":true}",
        "eb68c56e35d4b7c7924ce53a6a5d438b\t{\"Browser_Bits\":\"32\",\"Platform\":\"Win8\",\"Platform_Version\":\"6.2\",\"Win32\":true}",
        "eb378cd4f9955197934d47868ddf4e42\t{\"Browser_Bits\":\"32\",\"Platform\":\"WinXP\",\"Platform_Version\":\"5.1\",\"Win32\":true}",
        "ebbf4a69e31a1a9ff36a139d6079541e\t{\"Browser_Bits\":\"32\",\"Platform\":\"WinVista\",\"Platform_Version\":\"6.0\",\"Win32\":true}",
        "eb0f41a3972ca1f6a5b104eb21a9eb74\t{\"Browser_Bits\":\"32\",\"Platform\":\"MacOSX\",\"Platform_Version\":\"10\"}",
        "eb176f83c9f4e294ba3ffbd913ebc3bd\t{\"Browser_Bits\":\"32\",\"Platform\":\"FreeBSD\"}",
        "eb14e3600ea0a18a64fd8f10f4d7936c\t{\"Browser_Bits\":\"32\",\"Platform\":\"Win7\",\"Platform_Version\":\"6.1\",\"Win32\":true}",
        "eb034e4b068e8f74b6788393fbf7a389\t{\"Browser_Bits\":\"32\",\"Platform\":\"Linux\"}",
        "eb111d662f0a05a077abcdecf6a944d9\t{\"Browser_Bits\":\"32\",\"Platform\":\"MacOSX\",\"Platform_Version\":\"10.9\"}",
        "eb2c2f319e1ea73392f6c504ab58d734\t{\"Browser_Bits\":\"32\",\"Platform\":\"Win7\",\"Platform_Version\":\"6.1\",\"Win32\":true}",
        "eb8e3c80b718b9088b01e901c7504353\t{\"Browser_Bits\":\"32\",\"Platform\":\"FreeBSD\"}",
        "ebf0ac7c712561868b29465fe17a559c\t{\"Browser_Bits\":\"32\",\"Platform\":\"WinVista\",\"Platform_Version\":\"6.0\",\"Win32\":true}",
        "eb30650ff6037f39a333349ad4230a29\t{\"Browser_Bits\":\"32\",\"Platform\":\"Win7\",\"Platform_Version\":\"6.1\",\"Win32\":true}",
        "eb251ed10ce9e1cedfae190625622b9b\t{\"Browser_Bits\":\"32\",\"Platform\":\"Win7\",\"Platform_Version\":\"6.1\",\"Win32\":true}",
        "eb8a9388414a4728e9437b41d80e2e1a\t[]",
        "ebe78073fef2458b5f14a10ff8453ffb\t{\"Browser_Bits\":\"32\",\"Platform\":\"Linux\"}",
        "eb8c682146386eb0ce73334e11776244\t{\"Browser_Bits\":\"32\",\"Platform\":\"MacOSX\",\"Platform_Version\":\"10.9\"}",
        "eb69a7d1019b24266575f0b3f1428d6b\t{\"Browser_Bits\":\"32\",\"Platform\":\"Win8\",\"Platform_Version\":\"6.2\",\"Win32\":true}",
        "eb0e8d250ca92292bfad9e2b2510fb5a\t{\"Browser_Bits\":\"32\",\"Platform\":\"MacOSX\",\"Platform_Version\":\"10.9\"}",
        "eb13377fd56b7015833f92f86b5d18a3\t{\"Browser_Bits\":\"32\",\"Platform\":\"Win8.1\",\"Platform_Version\":\"6.3\",\"Win32\":true}",
        "eb114975ee7e9960a115aa619225488f\t{\"Browser_Bits\":\"32\",\"Platform\":\"Win7\",\"Platform_Version\":\"6.1\",\"Win32\":true}",
        "eb26ecde14cfdabce63888f4899aa52f\t{\"Browser_Bits\":\"32\",\"Platform\":\"FreeBSD\"}",
        "eb0767eaf48c9759c4a87a8cf60cd06f\t{\"Browser_Bits\":\"32\",\"Platform\":\"WinVista\",\"Platform_Version\":\"6.0\",\"Win32\":true}",
        "eb13df95099848fe78c1068ac1448ebb\t{\"Browser_Bits\":\"32\",\"Platform\":\"MacOSX\",\"Platform_Version\":\"10.9\"}",
        "eb35ddccdc0806ab7990ee18d4ed9a4d\t{\"Browser_Bits\":\"32\",\"Platform\":\"WinXP\",\"Platform_Version\":\"5.2\",\"Win32\":true}",
        "eb2796e7e8a16b432d7458f2103af695\t{\"Browser_Bits\":\"32\",\"Platform\":\"Win8\",\"Platform_Version\":\"6.2\",\"Win32\":true}",
        "ebcacb44ff0fcf0944719eb51638662c\t{\"Browser_Bits\":\"32\",\"Platform\":\"Win32\",\"Win32\":true}",
        "ebaae94c94d76e5b678b77cbad9ad9d7\t{\"Browser_Bits\":\"32\",\"Platform\":\"SunOS\"}",
        "ebee1ff8c29125aca4202b1df77d7bec\t{\"Browser_Bits\":\"32\",\"Platform\":\"Win8.1\",\"Platform_Version\":\"6.3\",\"Win32\":true}",
        "ebfaf66dbc48cc5c432f84e559149f3b\t{\"Browser_Bits\":\"32\",\"Platform\":\"Win8.1\",\"Platform_Version\":\"6.3\",\"Win32\":true}",
        "ebc846decf970c91e4e0abdf6edba286\t{\"Browser_Bits\":\"32\",\"Platform\":\"WinXP\",\"Platform_Version\":\"5.1\",\"Win32\":true}",
        "eb133baba7a35ad93bcd38f8ae7dfcc0\t{\"Browser_Bits\":\"32\",\"Platform\":\"WinVista\",\"Platform_Version\":\"6.0\",\"Win32\":true}",
        "eb7a721185d3c527cfcb09db61b2dfdc\t{\"Browser_Bits\":\"32\",\"Platform\":\"Linux\"}",
        "ebf395b5ccd90b9c059389caf93d7816\t{\"Browser_Bits\":\"32\",\"Platform\":\"Win32\",\"Win32\":true}",
        "eb4d19f55013cc36c96ce577c32f2c5e\t{\"Browser_Bits\":\"32\",\"Platform\":\"WinXP\",\"Platform_Version\":\"5.2\",\"Win32\":true}",
        "eb3e60addd3f684159bd651e1e555ed1\t{\"Browser_Bits\":\"32\",\"Platform\":\"FreeBSD\"}",
        "eb1c2d73c3ca3380849c73a9c5a1c749\t{\"Browser_Bits\":\"32\",\"Platform\":\"Win8\",\"Platform_Version\":\"6.2\",\"Win32\":true}",
        "eb186ced034270839a05cbd9ba6a3b21\t{\"Browser_Bits\":\"32\",\"Platform\":\"MacOSX\",\"Platform_Version\":\"10.9\"}",
        "eb1465a12db7bd7894561ab68a954d2c\t{\"Browser_Bits\":\"32\",\"Platform\":\"MacOSX\",\"Platform_Version\":\"10.10\"}",
        "eb7e02a9936e5b9624173b7ac64f0b17\t{\"Browser_Bits\":\"32\",\"Platform\":\"SunOS\"}",
        "eb2db1ce385c7dc094fc694dcf2843c2\t{\"Browser_Bits\":\"32\",\"Platform\":\"Win7\",\"Platform_Version\":\"6.1\",\"Win32\":true}",
        "eb75586212fef98dac65f8b35071a003\t{\"Browser_Bits\":\"32\",\"Platform\":\"WinXP\",\"Platform_Version\":\"5.1\",\"Win32\":true}",
        "eb868a943e6a3bc35d2f6660cea78eb8\t{\"Browser_Bits\":\"32\",\"Platform\":\"iOS\",\"Platform_Version\":\"9.3\",\"isTablet\":true}",
        "eb655f37a74e71117e7fef7b465ca69d\t{\"Browser_Bits\":\"32\",\"Platform\":\"iOS\",\"Platform_Version\":\"8.0\"}",
        "eb208dcfb63672a1a60db872fd60fb67\t{\"Browser_Bits\":\"32\",\"Platform\":\"iOS\",\"Platform_Version\":\"8.1\"}",
        "ebf731b04f29e38f7046d1145a3880e5\t{\"Browser_Bits\":\"32\",\"Platform\":\"Win8\",\"Platform_Version\":\"6.2\",\"Win32\":true}",
        "eb27395feb34e28aa9117fb1d18ef8d1\t{\"Browser_Bits\":\"32\",\"Platform\":\"MacOSX\",\"Platform_Version\":\"10.10\"}",
        "eb50c6900b73cf9357b9c004426c636d\t{\"Browser_Bits\":\"32\",\"Platform\":\"Win8\",\"Platform_Version\":\"6.2\",\"Win32\":true}",
        "ebe5babb5d8f3b10b565998c9807c709\t{\"Browser_Bits\":\"32\",\"Platform\":\"Win8\",\"Platform_Version\":\"6.2\",\"Win32\":true}",
        "eb503ff22f0652b3bc65514cf0741bd6\t{\"Browser_Bits\":\"32\",\"Platform\":\"Win7\",\"Platform_Version\":\"6.1\",\"Win32\":true}",
        "eb5003dba34f068843ef152246f65b69\t{\"Browser_Bits\":\"32\",\"Platform\":\"Linux\"}",
        "ebcdd692af4a92cd6d1266f54715850f\t{\"Browser_Bits\":\"32\",\"Platform\":\"MacOSX\",\"Platform_Version\":\"10\"}",
        "eb5f9d47962a40fde19c955c4373b05b\t{\"Browser_Bits\":\"32\",\"Platform\":\"Win8.1\",\"Platform_Version\":\"6.3\",\"Win32\":true}",
        "eb031b9a862deb2a99fb5f6453bf38cc\t{\"isTablet\":true}",
        "eb3e2dc5068b6f5979f559a49b818237\t{\"Platform_Version\":\"4.2\"}",
        "ebfebc75e4d28ded52a4d44a69e063fc\t{\"Platform_Version\":\"4.4\"}",
        "ebb6c37a5515a67333278a53e5ad6388\t{\"Platform_Version\":\"4.3\"}",
        "eb14f6472343747f8c89828bf7813121\t{\"Platform_Version\":\"4.3\",\"isTablet\":true}",
        "eb8703e150ed58acc302999b1a716424\t{\"Browser_Bits\":\"32\",\"Platform\":\"WinXP\",\"Platform_Version\":\"5.1\",\"Win32\":true}",
        "eb068ca0594bb4f043eb3681b1206063\t{\"Platform_Version\":\"4.2\",\"isTablet\":true}",
        "eb0f1c3d7ad43d896042625d77428289\t{\"Platform_Version\":\"4.2\",\"isTablet\":true}",
        "eb6ca222eb983ece1204bfc9b40f1298\t{\"Platform_Version\":\"4.4\",\"isTablet\":true}",
        "eb007cbefebdbf2fd54ff69d4392aa5b\t{\"Platform_Version\":\"4.4\",\"isTablet\":true}",
        "ebf900b623b29722c46b3e5ed23b3c55\t{\"Platform_Version\":\"4.2\",\"isTablet\":true}",
        "eb284dd4697782beea261f39602ef761\t{\"Platform_Version\":\"4.2\",\"isTablet\":true}",
        "eb2dd0d7941c1c067a35c6dc5a383540\t{\"Platform_Version\":\"4.2\",\"isTablet\":true}",
        "ebf55af0ff8b1fec252a1329c34deab6\t{\"Platform_Version\":\"4.2\",\"isTablet\":true}",
        "eb3939b41ec0498e7c5c41e7ec8f6a51\t{\"Platform_Version\":\"9.0\"}",
        "eb208d00cddaa522ab91f3f8f6b9d532\t{\"Browser_Bits\":\"32\",\"Platform\":\"Win10\",\"Platform_Version\":\"10.0\",\"Win32\":true}",
        "eb5ea7dc30309eb9ffa8f28965aa6403\t{\"Platform_Version\":\"4.4\",\"isTablet\":true}",
        "eb1b05c3ffccd83e6dbb88ba8eccf938\t{\"Browser_Bits\":\"32\",\"Platform\":\"MacOSX\",\"Platform_Version\":\"10.9\"}",
        "ebc00fc6d311f178e6297e6988501835\t{\"Platform_Version\":\"4.2\",\"isTablet\":true}",
        "eb31395f3db6fa691f584c397de20ff9\t{\"Platform_Version\":\"4.2\",\"isTablet\":true}",
        "eb9eb1c66399a7c20b880c25945928ed\t[]",
        "eb02640e3418a01c05080e7e35c62c2c\t{\"Platform_Version\":\"10.0\"}",
        "eb1873e90659e45e0b230d2fb03a9fc5\t{\"Platform_Version\":\"4.4\",\"isTablet\":true}",
        "eb9a4cab72d014e58a4b450c8161e2be\t{\"Platform_Version\":\"4.3\",\"isTablet\":true}",
        "eb103c9cb5bd5f5788a8f3376256b7d3\t{\"Platform_Version\":\"4.4\",\"isTablet\":true}",
        "eb5f9d86cc036a82fd9b95abcd16c3db\t{\"Platform_Version\":\"10.1\"}",
        "eb5d2cfd1a289a33379a777a50d9d61c\t{\"Platform_Version\":\"8.2\",\"isTablet\":true}",
        "eb82a45fd0387f88ff16a0301bec9a89\t{\"Platform_Version\":\"4.4\",\"isTablet\":true}",
        "eb189a84684495724a36ebf980ad2a95\t{\"Platform_Version\":\"4.4\",\"isTablet\":true}",
        "ebc831bb8f83822454ec396b205ef679\t{\"Platform_Version\":\"4.2\",\"isTablet\":true}",
        "eb047fa7f193b5bcb13107d4b0b0494f\t{\"Platform_Version\":\"4.2\",\"isTablet\":true}",
        "eb10efa34afb2e751e5f293b9bda2d09\t{\"Platform_Version\":\"6.0\"}",
        "eb3256642c896929ec44402834e17e69\t{\"Platform_Version\":\"5.0\",\"isTablet\":true}",
        "ebc7e4095bfb176459700321b6db360f\t{\"Platform_Version\":\"4.2\",\"isTablet\":true}",
        "eb6ec3f7a356864dd451b053ef804c6a\t{\"Platform_Version\":\"4.2\",\"isTablet\":true}",
        "eb1b5b7f69beb4daccd1551048b58c27\t{\"Browser_Bits\":\"32\",\"Platform\":\"WinXP\",\"Platform_Version\":\"5.2\",\"Win32\":true}",
        "eb70f15038e3742de78f0410ee101cf9\t{\"Platform_Version\":\"4.4\",\"isTablet\":true}",
        "ebe2c8b939589612ee305f135f95edd6\t{\"Platform_Version\":\"4.2\",\"isTablet\":true}",
        "eb63b578ce6c4fadc88150237c45fbd8\t{\"Platform_Version\":\"4.3\",\"isTablet\":true}",
        "eb7fcd0d0f7a487a2e52643bc6e3d775\t{\"Platform_Version\":\"9.3\"}",
        "eb48f0c97d5589929455c5067eb7f26e\t[]",
        "eb38cee4313c3ea1742339c77142750f\t{\"Browser_Bits\":\"32\",\"Platform\":\"Win10\",\"Platform_Version\":\"10.0\",\"Win32\":true}",
        "eb1a0404c79d38101c373fbdddb7df7b\t{\"Platform_Version\":\"8.4\"}",
        "eb7f77ac3eabff0280ffed2a10263430\t{\"Platform_Version\":\"4.4\",\"isTablet\":true}",
        "ebb41d0fd084e07fb60d365af84b9691\t{\"Platform_Version\":\"4.2\",\"isTablet\":true}",
        "ebd9792aa93cb792033e78634ca6e6ae\t{\"Platform_Version\":\"4.2\",\"isTablet\":true}",
        "ebea07c6a0c2a289ac06db2fdd457bc9\t{\"Platform_Version\":\"8.4\",\"isTablet\":true}",
        "eb15889069361b2f5f7d9af60c192909\t{\"Browser_Bits\":\"32\",\"Platform\":\"MacOSX\",\"Platform_Version\":\"10.10\"}",
        "eb1f6ee95c6d7db9945d62042a0484f7\t{\"Platform_Version\":\"4.4\",\"isTablet\":true}",
        "ebb936aa19a33aad3453a77b8b82b0e1\t{\"Platform_Version\":\"4.3\",\"isTablet\":true}",
        "ebbb5732bcf6f5ab4de78b0b235135c5\t{\"Platform_Version\":\"4.3\",\"isTablet\":true}",
        "eb56b3d08d93cbe15c00e3b931491ff5\t{\"Platform_Version\":\"10.1\",\"isTablet\":true}",
        "ebc568f7aaeb0fca3dab142d10412e17\t{\"Platform_Version\":\"10.1\"}",
        "eb64cbc9405128d38038a52dabade585\t{\"Platform_Version\":\"4.2\",\"isTablet\":true}",
        "eb7f578045fd691a1c62e4d2604b879e\t{\"Platform_Version\":\"4.3\",\"isTablet\":true}",
        "eb079230f59f0411d25b97a9a58e6182\t{\"Platform_Version\":\"4.4\"}",
        "eb234664e8e439af2ce8d02c1f737590\t{\"Browser_Bits\":\"32\",\"Platform\":\"WinXP\",\"Platform_Version\":\"5.2\",\"Win32\":true}",
        "ebf8f324b0e92ffd44fdfe819c200f8f\t{\"Platform_Version\":\"9.1\"}",
        "eb8b5a215230eec9a13ace40167c0939\t{\"Platform_Version\":\"4.3\",\"isTablet\":true}",
        "ebcbc2558fb02bd59620ddb71e804c22\t{\"Platform_Version\":\"4.3\",\"isTablet\":true}",
        "eb13133eaf7bdbb10fcdf50e70df6b34\t{\"Browser_Bits\":\"32\",\"Platform\":\"MacOSX\",\"Platform_Version\":\"10.9\"}",
        "eb71efa894f7dfcd3b519a69a02cf3f8\t{\"Platform_Version\":\"4.2\",\"isTablet\":true}",
        "ebd1abbef145f3e11875750ca0058679\t{\"Platform_Version\":\"4.2\",\"isTablet\":true}",
        "eb10cabc924e5e295c9d467da1225c27\t{\"Platform_Version\":\"4.2\",\"isTablet\":true}",
        "eb5099658ef24d4577e32c16303caeb9\t{\"Platform_Version\":\"4.2\",\"isTablet\":true}",
        "eb4b826765c162b916dddd65f560cbcd\t{\"Platform_Version\":\"4.4\",\"isTablet\":true}",
        "eb8f6819a54b116e875fd35a56de3c6a\t{\"Platform_Version\":\"4.4\",\"isTablet\":true}",
        "ebfb63c35d4b966d9fbd2ef0556e8844\t{\"Platform_Version\":\"4.4\",\"isTablet\":true}",
        "ebad2a164f17140a42580d2654458c40\t{\"Platform_Version\":\"4.2\",\"isTablet\":true}",
        "ebfb55daa3433e3b59232c83791ec9db\t{\"Platform_Version\":\"4.2\",\"isTablet\":true}",
        "eb28ca61f9514b575c0804460e00e07c\t{\"isTablet\":true}",
        "eba7fa8d81a906c53fc502ebc05400e3\t{\"Platform_Version\":\"8.0\",\"isTablet\":true}",
        "ebeeae9350f7350df291c54102dbe9bb\t[]",
        "ebfe880ed94b04d8594c106b4682bfe2\t{\"Browser_Bits\":\"32\",\"Platform\":\"FreeBSD\"}",
        "eb474fd9d219ed6fbac0e789462b772a\t{\"Browser_Bits\":\"32\",\"Platform\":\"WinXP\",\"Platform_Version\":\"5.2\",\"Win32\":true}",
        "ebeeaf69689201898e9a244148fb2947\t{\"Platform_Version\":\"10.3\"}",
        "eb64cbdfa64230da79f48f3eb3607b5d\t{\"Platform_Version\":\"9.1\"}",
        "ebe4b814df6f377b7b98a33defc151b4\t{\"Platform_Version\":\"9.3\",\"isTablet\":true}",
        "eb4bd9c8757fced0b718e3cc4581fa19\t{\"Platform_Version\":\"9.1\"}",
        "ebb60a8c1892dbf90747a08150eaba90\t{\"Browser_Bits\":\"32\",\"Platform\":\"iOS\",\"isMobileDevice\":true}",
        "eb6db96dff0d6734b4becf28b20ce62e\t{\"Platform_Version\":\"8.0\"}",
        "ebe8ace739ef0cd0784c22e653ec026f\t{\"Browser_Bits\":\"32\",\"Platform\":\"Maemo\"}",
        "eb567e85b02ba580c03b04cdca00ab3e\t{\"Platform_Version\":\"4.2\"}",
        "ebaf04e455a8160e09a1a918827ff37a\t{\"Browser_Bits\":\"32\",\"Platform\":\"WinPhone\"}",
        "ebe8feea4afda5b52c4257a0414c3254\t[]",
        "eb3dac07f9747cc94222b9bd5aa91a0e\t{\"Platform_Version\":\"8.4\"}",
        "eb3dcca293e7699251bc4344fb1b36de\t{\"Browser_Bits\":\"32\",\"Platform\":\"Win32\",\"Win32\":true}",
        "ebfa4412c8a532b1ff8f27d01cab21b4\t{\"Browser_Bits\":\"32\",\"Platform\":\"WinVista\",\"Platform_Version\":\"6.0\",\"Win32\":true}",
        "ebd95875387b372ecf422e6bfe40b413\t{\"Browser_Bits\":\"32\",\"Platform\":\"Win10\",\"Platform_Version\":\"10.0\",\"Win32\":true}",
        "ebe9c1806eb68518d679b066e78a9768\t{\"Browser_Bits\":\"32\",\"Platform\":\"Win7\",\"Platform_Version\":\"6.1\",\"Win32\":true}",
        "eb15cd9c9cf19a6ca97bf7c08bcc7c99\t{\"Browser_Bits\":\"32\",\"Platform\":\"Android\",\"Platform_Version\":\"4.3\"}",
        "ebc65eef98a14488f5adb7b3c483b24d\t{\"isMobileDevice\":true}",
        "eb39b32eb7639a52d35a4dda93fddf06\t{\"Browser_Bits\":\"32\",\"Platform\":\"Android\",\"Platform_Version\":\"4.4\"}",
        "ebfdc79039fb3055a6952f3ddfdcabbb\t[]",
        "eb07543bb61e739a6756c6c315085516\t[]",
        "ebeb9f78c623a8e540c50a124368fb22\t{\"Platform\":\"WinVista\",\"Platform_Version\":\"6.0\",\"Win32\":true}",
        "eb6f823fc01770cd0cb445c30745fa2e\t{\"Platform_Version\":\"5.1\"}",
        "eb9c2a70885dffb83cc4486406e3f82b\t{\"Platform_Version\":\"4.4\"}",
        "ebea4cc32d7e3293b6b1fbe6806d9c77\t{\"Platform_Version\":\"4.2\"}",
        "eb62bb85f6015bc57099b98ee5309f58\t{\"Platform_Version\":\"4.2\"}",
        "ebb91e3eabc8d5811494a01b4f372085\t{\"Browser_Bits\":\"32\",\"Platform\":\"iOS\",\"Platform_Version\":\"7.1\"}",
        "eb539879eb761afd225e11327e725d02\t{\"Browser_Bits\":\"32\",\"Platform\":\"iOS\",\"Platform_Version\":\"9.3\",\"isTablet\":true}",
        "ebcf9374fe22865105d970df6b7b7f22\t{\"Browser_Bits\":\"32\",\"Platform\":\"iOS\",\"Platform_Version\":\"8.3\"}",
        "eb50aeaa111873b1fe42212e74e39900\t{\"Browser_Bits\":\"32\",\"Platform\":\"JAVA\"}",
        "ebdffe6438833dc0d1f0374d79feb546\t{\"Browser_Bits\":\"32\",\"Platform\":\"Android\"}",
        "ebd1e082dcb219217d0380912cefa803\t{\"Browser_Bits\":\"32\",\"Platform\":\"Android\"}",
        "eb4c32976dc504ae37b88ae0f60bc8d3\t{\"Browser_Bits\":\"32\",\"Platform\":\"JAVA\"}",
        "eb74d2aeffa7c90efd7c2175b059dce3\t{\"Browser_Bits\":\"32\",\"Platform\":\"Android\"}",
        "eb91386e01520e09c732f8b8e489e926\t{\"Browser_Bits\":\"32\",\"Platform\":\"FreeBSD\"}",
        "eb0cd415339b007f8b0e85cf05e1992a\t{\"Platform_Version\":\"7.0\",\"isTablet\":true}",
        "eb227a43b4f5609ebc0a60fc6de0461f\t{\"Platform_Version\":\"7.0\"}",
        "eb9ac4b630313cdae8df8831931cdb25\t{\"Platform_Version\":\"8.2\"}",
        "eb365477478d3ae15b53dc45b7cac31e\t{\"Platform_Version\":\"10.1\"}",
        "ebe2d21e642ab3014c9e06d53ce7dcfa\t{\"Platform_Version\":\"8.0\"}",
        "ebe37b61c873b221f86d6e83d86b6f88\t{\"Platform_Version\":\"10.1\"}",
        "eb0551fe35c4ff9ef4275ddaeaa34be0\t[]",
        "eb6ed99a672cef5bafc9b1664d823f0c\t{\"isTablet\":true}",
        "ebba623eb0291f5a62d98f8ea812a79e\t{\"Platform_Version\":\"8.0\"}",
        "eb5c051513845bc5b85a9a09048eef7b\t{\"Platform_Version\":\"8.1\"}",
        "eb4862ac4e86643d4bf72efee481bfac\t{\"Platform_Version\":\"7.1\",\"isTablet\":true}",
        "ebe4c3636c7862b0757b807e5c25d58a\t{\"Platform_Version\":\"8.4\"}",
        "eb4ae813fa9e2b0d32fd0b1636ac18ac\t{\"Platform_Version\":\"10.2\"}",
        "eb40d00b8be090aed480fec9d2ede13c\t{\"Platform_Version\":\"8.1\",\"isTablet\":true}",
        "eb95b24f81d15bfe1af84615cd1da7d8\t{\"Platform_Version\":\"8.0\",\"isTablet\":true}",
        "eba0e3f6d823429b0be0e1a696c9f8f2\t{\"Platform_Version\":\"8.3\"}",
        "eb84a688d5fc2558ce5d0592ad08ea5a\t{\"Platform_Version\":\"9.2\",\"isTablet\":true}",
        "eb0c8d6e2afbeba152421da679d08afc\t{\"Platform_Version\":\"8.3\"}",
        "ebf455cb98e228cce52212d2a6db1a73\t{\"Platform_Version\":\"10.1\"}",
        "eb562e06ccbf64351debce5843c53eee\t{\"Platform_Version\":\"9.3\"}",
        "eb2f42b113f854d35bd84d197eddf585\t{\"Platform_Version\":\"9.2\",\"isTablet\":true}",
        "ebbe058da2fb47e2ebfa0410da1e10e4\t{\"Browser_Bits\":\"32\",\"Platform\":\"MacOSX\",\"Platform_Version\":\"10.9\"}",
        "ebb4fcf9a85bcf0bb03508e15258b9ca\t{\"Browser_Bits\":\"32\",\"Platform\":\"MacOSX\",\"Platform_Version\":\"10\"}",
        "eb32940ea5b45cac4d53eba0be766756\t{\"Platform_Version\":\"7.0\",\"isTablet\":true}",
        "eb4b4619788a8c563317398509245acf\t{\"Platform_Version\":\"8.0\"}",
        "eb5eb7ca813df9c850e471fc83794830\t{\"Platform_Version\":\"9.2\"}",
        "eb931aec236de1d64f469d75eb959b4b\t{\"Platform_Version\":\"8.1\",\"isTablet\":true}",
        "eb64b3d538fb15aa6931503e31e77fb6\t{\"Platform_Version\":\"6.0\"}",
        "eb96fe4aee830b3a3cedf4a9b0a0ff9c\t{\"Platform_Version\":\"9.1\"}",
        "eb217d1a5915716e3d3cef72ee66ff18\t{\"Platform_Version\":\"9.3\"}",
        "eba5fe5a90f6d6c231d253bdb5258af1\t{\"Browser_Bits\":\"32\",\"Platform\":\"iOS\",\"isMobileDevice\":true}",
        "eb768a0df8c8ecc2ad46540ede3563a9\t{\"isTablet\":true}",
        "ebb9ad7a1796f22c54d96b9ce523c462\t{\"Platform_Version\":\"9.0\",\"isTablet\":true}",
        "eb52925b12b16b957e2f49b89ad1afd0\t{\"Platform_Version\":\"9.1\"}",
        "eb30725487c460b81612e6763e256cad\t{\"Platform_Version\":\"10.0\"}",
        "ebb2fb3c8db35dfef96281f64a44cd18\t{\"Platform_Version\":\"10.3\"}",
        "eba20996de96ff4f2f14481970cbdc5a\t{\"Platform_Version\":\"8.4\"}",
        "ebb351579dabe4a5d1ea9708ef643167\t{\"Platform_Version\":\"8.2\"}",
        "eb173a0ae5596bccc0f3300fbd8a612e\t{\"Platform_Version\":\"9.0\",\"isTablet\":true}",
        "eb4e1c1352b78781a0393c4b659f0696\t{\"Platform_Version\":\"9.3\"}",
        "eb351d25e38f0d297dbbfa78ceca4a01\t{\"Browser_Bits\":\"32\",\"Platform\":\"Android\",\"isMobileDevice\":true}",
        "eb8a4e77b084ae49b0a0e124834d19dd\t[]",
        "eb345179311ebd9415e2b484697ac021\t{\"Platform_Version\":\"8.1\"}",
        "eb6393bd0e49ac743cfb755484d896b7\t{\"Platform_Version\":\"8.0\"}",
        "eb8c1a26c6f1a15f03bc3808fcca9df7\t[]",
        "eb7f0657d74cf2fa0b89e914a73c7d7d\t[]",
        "eb8c0b20d62896bc9cd4f40cf75e5b75\t[]",
        "ebe5485aa946564cf00294d82bb45b73\t[]",
        "eb0acf0f63a57574efd0b4b3a4fc3c50\t{\"Platform\":\"macOS\",\"Platform_Version\":\"10.12\"}",
        "eb2eab6e7255cc498e7f9d76fed965b8\t{\"Platform_Version\":\"10.9\"}",
        "eb514dc2d3aef806eb7937de368f3729\t{\"Browser_Bits\":\"32\",\"Platform\":\"Linux\"}",
        "ebc75b1b89950cbe00af996477986093\t{\"Browser_Bits\":\"32\",\"Platform\":\"OpenBSD\"}",
        "eb4281e02981663058934afb73b0a72b\t{\"Platform_Version\":\"10.9\"}",
        "ebc657ae9327e97463200043e6b337a8\t{\"Browser_Bits\":\"32\",\"Platform\":\"WinXP\",\"Platform_Version\":\"5.1\",\"Win32\":true}",
        "eb9386a9038850411a3cfa8b5aac0b52\t{\"Browser_Bits\":\"32\",\"Platform\":\"Win8\",\"Platform_Version\":\"6.2\",\"Win32\":true}",
        "ebc7dc089fd397f1a27f4d3cd402413f\t{\"Browser_Bits\":\"32\",\"Platform\":\"WinXP\",\"Platform_Version\":\"5.2\",\"Win32\":true}",
        "eb9dd7b5799400d6311d6002095527f5\t{\"Browser_Bits\":\"32\",\"Platform\":\"Win7\",\"Platform_Version\":\"6.1\",\"Win32\":true}",
        "ebcb416026519680a6987351f203b761\t{\"Browser_Bits\":\"32\",\"Platform\":\"Win8\",\"Platform_Version\":\"6.2\",\"Win32\":true}",
        "eb9cc6963d2668cad00a4996a5b7346d\t{\"Browser_Bits\":\"32\",\"Platform\":\"Win7\",\"Platform_Version\":\"6.1\",\"Win32\":true}",
        "eb524843964a03250b902b597bfdf41d\t{\"Browser_Bits\":\"32\",\"Platform\":\"WinXP\",\"Platform_Version\":\"5.2\",\"Win32\":true}",
        "ebd34830cbbfe5eb8b6cb321e2a56c63\t{\"Browser_Bits\":\"32\",\"Platform\":\"WinVista\",\"Platform_Version\":\"6.0\",\"Win32\":true}",
        "eb2ccbb4b6102ab6eb0601ac72b5bc15\t{\"Browser_Bits\":\"32\",\"Platform\":\"WinVista\",\"Platform_Version\":\"6.0\",\"Win32\":true}",
        "ebba52d8e9fdd28233dbb9188967acf1\t{\"Browser_Bits\":\"32\",\"Platform\":\"Win10\",\"Platform_Version\":\"10.0\",\"Win32\":true}",
        "ebcdac4b207c761e5e1ffe8aa2085136\t{\"Platform\":\"WinXP\",\"Platform_Version\":\"5.1\"}",
        "eb70277ef9a5e5f1c1940f539ab94242\t{\"Platform\":\"Win7\",\"Platform_Version\":\"6.1\"}",
        "eba4a71f41a07d1a23ca178b9b0fe8e8\t{\"Browser_Bits\":\"32\",\"Platform\":\"Win10\",\"Platform_Version\":\"10.0\",\"Win32\":true}",
        "eb7f49bb1d0e883648cf1358a4e16e2a\t[]",
        "ebb3f0d2840510c72de7a9edad8a479c\t{\"Browser_Bits\":\"32\",\"Platform\":\"WinXP\",\"Platform_Version\":\"5.1\",\"Win32\":true}",
        "ebf652138074d44ff94e5d1fd5304116\t{\"Browser_Bits\":\"32\",\"Platform\":\"MacOSX\",\"Platform_Version\":\"10\"}",
        "eb949c0da7f78023da4818e4c66460d0\t{\"Browser_Bits\":\"32\",\"Platform\":\"MacOSX\",\"Platform_Version\":\"10.10\"}",
        "ebbec57269bc5be5189b737f86e209a9\t{\"Browser_Bits\":\"32\",\"Platform\":\"MacOSX\",\"Platform_Version\":\"10\"}",
        "eb8253768f639480c2b73b1f5cc2f64a\t{\"Browser_Bits\":\"32\",\"Platform\":\"Win7\",\"Platform_Version\":\"6.1\",\"Win32\":true}",
        "eb6dd022af7e42237f48fa583f004741\t{\"Browser_Bits\":\"32\",\"Platform\":\"Win7\",\"Platform_Version\":\"6.1\",\"Win32\":true}",
        "ebc191c3032a96dce73c8e5275c3879e\t{\"Browser_Bits\":\"32\",\"Platform\":\"Win7\",\"Platform_Version\":\"6.1\",\"Win32\":true}",
        "ebc5521b5b211d73c582acda2726dbfa\t{\"Browser_Bits\":\"32\",\"Platform\":\"WinXP\",\"Platform_Version\":\"5.2\",\"Win32\":true}",
        "eb33d36a4a6ed15409b2f0f6f4e6bee9\t{\"Platform_Version\":\"8.0\"}",
        "ebed739545d678e111bce96fa4d250d5\t{\"Platform_Version\":\"7.0\",\"isTablet\":true}",
        "eb8ccd89592d9738faf41e00691da31e\t{\"Browser_Bits\":\"32\",\"Platform\":\"WinXP\",\"Platform_Version\":\"5.1\",\"Win32\":true}",
        "eb993be4cee2683008c73f663f0e3ede\t{\"Browser_Bits\":\"32\",\"Platform\":\"WinXP\",\"Platform_Version\":\"5.1\",\"Win32\":true}",
        "ebe95bc58e5d4caebbad0c2593c1b432\t{\"Browser_Bits\":\"32\",\"Platform\":\"iOS\",\"Platform_Version\":\"8.2\",\"isMobileDevice\":true,\"isTablet\":true}",
        "ebec9986775878476f4e23df42c2a34d\t{\"Browser_Bits\":\"32\",\"Platform\":\"Android\"}",
        "eb474d29d9a913c151babf28d83a484c\t{\"Platform_Version\":\"6.1\"}",
        "eb0059da5cc761f7bdbefca588107590\t{\"Platform_Version\":\"5.0\"}",
        "ebf452a060d83efbe8a03fefd6795e3f\t[]",
        "eb68aa10ae1401f2ba4f7ad21d9968c0\t[]",
        "ebcfd3e79e4a6703041c28fcd1595eef\t{\"Platform_Version\":\"6.0\",\"isTablet\":true}",
        "ebef3183dc3a1ac0f5996b843e4c0232\t{\"Browser_Bits\":\"32\",\"Platform\":\"macOS\",\"Platform_Version\":\"10.12\"}",
        "eb994451662a1b57caccee7724a962e1\t{\"Browser_Bits\":\"32\",\"Platform\":\"WinXP\",\"Platform_Version\":\"5.1\",\"Win32\":true}",
        "eb19ec0012a81e295aaea3696cd04d55\t{\"Browser_Bits\":\"32\",\"Platform\":\"Win32\",\"Win32\":true}",
        "eb988a6662d87967580db0faa753da50\t{\"Browser_Bits\":\"32\",\"Platform\":\"OS\\\/2\"}",
        "ebd0063276c020836c67d837df883dba\t{\"Browser_Bits\":\"32\",\"Platform\":\"WinXP\",\"Platform_Version\":\"5.1\",\"Win32\":true}",
        "eb9fdab88f19b4b5dfcc1c1363ea3e82\t{\"Browser_Bits\":\"32\",\"Platform\":\"macOS\",\"Platform_Version\":\"10.12\"}",
        "eb8286ae3d5e41e40a2c82d7425b3cfd\t{\"Browser_Bits\":\"32\",\"Platform\":\"OpenBSD\"}",
        "eb0b308cc20f850598330c7239cab346\t{\"Browser_Bits\":\"32\",\"Platform\":\"Win7\",\"Platform_Version\":\"6.1\",\"Win32\":true}",
        "eb0a5d9757b0bcd99c43f0e31052612f\t{\"Browser_Bits\":\"32\",\"Platform\":\"WinXP\",\"Platform_Version\":\"5.1\",\"Win32\":true}",
        "eb59f12fa999c67f78db3a9820fe845f\t{\"Browser_Bits\":\"32\",\"Platform\":\"MacOSX\",\"Platform_Version\":\"10.10\"}",
        "eb14943358807a4b91b54a9f9d510204\t{\"Browser_Bits\":\"32\",\"Platform\":\"OpenBSD\"}",
        "eb70f28ec1a951a67b2a57e7a1c5c39e\t{\"Browser_Bits\":\"32\",\"Platform\":\"AIX\"}",
        "eb13eaea665b5bcabe6a020e540ea7be\t{\"Browser_Bits\":\"32\",\"Platform\":\"MacOSX\",\"Platform_Version\":\"10.10\"}",
        "eb8dd83c2a4877edfac8682f462c1412\t{\"Browser_Bits\":\"32\",\"Platform\":\"DragonFly BSD\"}",
        "eb22fcac301895d32f3070630bd83674\t{\"Browser_Bits\":\"32\",\"Platform\":\"FreeBSD\"}",
        "ebe9311647d21f84718e3ff70d92e772\t[]",
        "ebddb5fce8fb46f9c40a08bee0beefa5\t[]",
        "ebb80ab247415c19cbdb9f4603f2b5ce\t{\"Platform\":\"WinXP\",\"Platform_Version\":\"5.2\",\"Win32\":true}",
        "ebfdf19cd9c469ac10f9776a80c21e2f\t{\"Browser_Bits\":\"32\",\"Platform\":\"MacOSX\",\"Platform_Version\":\"10\"}",
        "ebbb6ee25898469438fcbcc582f2564a\t{\"Browser_Bits\":\"32\",\"Platform\":\"MacOSX\",\"Platform_Version\":\"10\"}",
        "eb6324c239ddfbf197a48b3ba731882b\t{\"Browser_Bits\":\"32\",\"Platform\":\"Win32\",\"Win32\":true}",
        "eb64b3b56576ba9ecb00eb560812808f\t{\"Browser_Bits\":\"32\",\"Platform\":\"MacOSX\",\"Platform_Version\":\"10.12\"}",
        "eb7d75672ef6f677e3cfcd0023ac86d9\t{\"Browser_Bits\":\"32\",\"Platform\":\"iOS\"}",
        "eb691aee976c82d3ec9287a24a03273d\t[]",
        "eb24bceb11760477ea57326411bc2634\t[]",
        "eb1b8602cd25e03373e34a6436bd8baf\t[]",
        "eb88d0d45cf11844266a0c2a0d0c6708\t{\"Platform_Version\":\"8.1\"}",
        "ebe3f181af741f4d5661109e3daee908\t{\"Platform_Version\":\"8.4\"}",
        "ebe9f33b4689f1fce8d38641f80ea888\t{\"Platform_Version\":\"8.0\"}",
        "ebc9ca03c1d3602fa81a610719223066\t[]",
        "eb4d27e9e6a67c2113d1e5d17f04e87e\t{\"Browser_Bits\":\"32\",\"Platform\":\"MacOSX\",\"Platform_Version\":\"10\"}",
        "eb74af5e70c2a036d0853038b86052fe\t{\"Browser_Bits\":\"32\",\"Platform\":\"WinXP\",\"Platform_Version\":\"5.2\",\"Win32\":true}"
    ]
}