{
    "content": [
        "0498b867e051c869dcae86c339fe6bff\t[]",
        "0490952cf3c229d19df5e2d8b74b8b54\t[]",
        "045c2fdf7c7dbc45a6ec23175bec51ce\t[]",
        "04b633e953125a8d44183dfde3b8485f\t[]",
        "049b23092e7cc21014705179161b9409\t[]",
        "0465d43ea396c3906f3f9582ce1b2721\t[]",
        "04d7f5db361e6125f23e484bb835563b\t[]",
        "04f7ee2262c13c102b92916ddcaa10c2\t[]",
        "04cb2539089d3ddb5d796ce934f19720\t{\"Browser_Bits\":\"32\",\"Platform\":\"Win8.1\",\"Platform_Version\":\"6.3\",\"Win32\":true}",
        "04cc70cbdb8f030dea0a0bc9b2fa1d15\t{\"Platform\":\"iOS\",\"Win32\":false,\"isMobileDevice\":true,\"isTablet\":true}",
        "04c8e9d2c34ef3c0dcb1c86a6166c4c2\t{\"Platform\":\"iOS\",\"Platform_Version\":\"8.2\",\"Win32\":false,\"isMobileDevice\":true,\"isTablet\":true}",
        "04dd3c9bc49ab6fb954e5b4ea17889b2\t{\"Platform\":\"iOS\",\"Win32\":false,\"isMobileDevice\":true,\"isTablet\":true}",
        "04eb7497d5e4ea4ab609482089c7a104\t{\"Platform\":\"iOS\",\"Platform_Version\":\"10.2\",\"Win32\":false,\"isMobileDevice\":true,\"isTablet\":true}",
        "04b4330716df7b40d8c875830986afab\t{\"Platform\":\"WinVista\",\"Platform_Version\":\"6.0\"}",
        "046e7043ef62968fdca3743cfd940e22\t{\"Platform\":\"iOS\",\"Platform_Version\":\"8.1\",\"Win32\":false,\"isMobileDevice\":true,\"isTablet\":true}",
        "04b1f3b7408cdff1df2da1a31e504701\t{\"Platform\":\"iOS\",\"Platform_Version\":\"9.1\",\"Win32\":false,\"isMobileDevice\":true,\"isTablet\":true}",
        "0403c725ac3df69d9cdff1b3efb0d216\t{\"Platform\":\"iOS\",\"Win32\":false,\"isMobileDevice\":true,\"isTablet\":true}",
        "044caaf256f3222fe931a75812d517b0\t{\"Platform\":\"WinXP\",\"Platform_Version\":\"5.1\"}",
        "0431c29a1e96e15d07d7d30d4d012df2\t{\"Platform\":\"iOS\",\"Platform_Version\":\"8.0\",\"Win32\":false,\"isMobileDevice\":true,\"isTablet\":true}",
        "0471d8f63d5fafaa74ccfb66c0c1cb95\t{\"Platform\":\"Win7\",\"Platform_Version\":\"6.1\"}",
        "04a280dff8fb341631296098b72ed2fd\t{\"Platform_Version\":\"9.1\",\"isTablet\":true}",
        "04c52d6a8ce35312b68c388a44dce958\t{\"Platform_Version\":\"10.3\",\"isTablet\":true}",
        "0437fa1f0c829cafaa05134820ef6613\t{\"Platform_Version\":\"4.2\"}",
        "04d869102df827d123c72093b157c388\t{\"Browser_Bits\":\"32\",\"Platform\":\"Win8\",\"Platform_Version\":\"6.2\",\"Win32\":true}",
        "04932c7db59423eb9ec7ee91ad2d8e37\t{\"Platform\":\"iOS\",\"Platform_Version\":\"10.0\",\"isTablet\":true}",
        "044071c7449ceebbc08462046ab0caf9\t{\"Platform\":\"iOS\"}",
        "04fc2f8cab79e4b09464a3fa15865b19\t{\"Platform\":\"iOS\",\"Platform_Version\":\"10.1\"}",
        "045ea19d08d3a548f5599669d3d6c8a1\t{\"Platform\":\"iOS\",\"Platform_Version\":\"10.3\"}",
        "041b61d41a350c2b9020ddd2811feeb9\t{\"Platform\":\"iOS\",\"Platform_Version\":\"10.1\"}",
        "04f21f5d1ef91ff056c50c5d67450fbc\t{\"Platform_Version\":\"4.4\",\"isTablet\":true}",
        "04cdf8656dadf1c2127d66b6120b4e01\t{\"Platform\":\"iOS\",\"Platform_Version\":\"9.0\",\"isTablet\":true}",
        "04e15b08bdfa02ed4001a4f48d5daab7\t{\"Platform\":\"iOS\",\"Platform_Version\":\"10.1\"}",
        "0411dba724aa4bc6d4657f47d6259d5d\t{\"Browser_Bits\":\"32\",\"Platform\":\"Android\",\"isMobileDevice\":true}",
        "04ac73dad1fac1593c8b8fba71ee00d3\t[]",
        "04bf5fd31340bb4bfc747c2bc653ccde\t{\"Platform_Version\":\"4.4\"}",
        "049c44fa44ab85b3a0e59e95f0c07315\t{\"Browser_Bits\":\"32\",\"Platform\":\"Win8.1\",\"Platform_Version\":\"6.3\",\"Win32\":true}",
        "040a7451f158671e81d18e657feb1ba7\t{\"Browser_Bits\":\"32\",\"Platform\":\"Android\",\"Platform_Version\":\"4.2\"}",
        "049d5b2a7dfff7202c7da8fb5107e6bd\t{\"Browser_Bits\":\"32\",\"Platform\":\"WinXP\",\"Platform_Version\":\"5.2\",\"Win32\":true}",
        "04acec1ebe1888fc810966e021d2679d\t[]",
        "04c7df2d64f4a0753e1e616df06c0b85\t{\"Platform_Version\":\"4.3\"}",
        "0447dc68b4277467393476cc3e29a93f\t[]",
        "04d74066c8fbc2dafa2488e218510d88\t{\"Platform_Version\":\"4.3\"}",
        "04e3ea7a214965aeb007b89ae51736cf\t{\"Platform_Version\":\"4.4\",\"isTablet\":true}",
        "04fc51195282749e29a1a7dccb745843\t{\"Platform_Version\":\"4.2\",\"isTablet\":true}",
        "044198797b74603b2f549ab100213909\t{\"Browser_Bits\":\"32\",\"Platform\":\"Win7\",\"Platform_Version\":\"6.1\",\"Win32\":true}",
        "04e48251ec3382f7927b6336fd128b23\t[]",
        "04a581d836ae678979049f55bb95a8ed\t{\"Browser_Bits\":\"32\",\"Platform\":\"Android\",\"isMobileDevice\":true}",
        "04793a3006efa9cfcef87b22108fe03e\t{\"Platform\":\"Win10\",\"Platform_Version\":\"10.0\"}",
        "047323359893b6a195dce84827a97d29\t{\"Platform\":\"WinXP\",\"Platform_Version\":\"5.1\"}",
        "04a783eebff2d6b9fb79598bd422fb62\t{\"Platform\":\"WinXP\",\"Platform_Version\":\"5.1\",\"Win32\":true}",
        "043d4b97e4415b5e39f3b31a7e053f98\t{\"Browser_Bits\":\"32\",\"Platform\":\"Linux\"}",
        "041a09cc298aa3000c953dcf7810f8c5\t{\"Platform\":\"Win10\",\"Platform_Version\":\"6.4\",\"Win32\":true}",
        "0454a46f409d8152210feb8fe8cd5912\t{\"Platform\":\"Win10\",\"Platform_Version\":\"6.4\",\"Win32\":true}",
        "048206875ea5161eb9413050e85a7a4d\t{\"Platform\":\"Win8.1\",\"Platform_Version\":\"6.3\",\"Win32\":true}",
        "0463d385af3085c4a54c4d556f576339\t{\"Platform\":\"Win10\",\"Platform_Version\":\"6.4\",\"Win32\":true}",
        "0409a91b18746648e6ed621580e346cd\t{\"Platform_Version\":\"8.0\",\"isTablet\":true}",
        "0464566af56d64fd2646f7320e2ba57d\t{\"Platform_Version\":\"9.2\"}",
        "0449e1b3586ab3103d36b27bf55a2f28\t{\"Platform_Version\":\"4.2\",\"isTablet\":true}",
        "04bdfd96eefff72b892da4ba2e3d34c9\t{\"Platform_Version\":\"7.0\"}",
        "04185366d6f3fe31bbb91272f81781e2\t{\"Platform_Version\":\"4.2\",\"isTablet\":true}",
        "045207a00aa111a273ab4c444a7cfe1f\t{\"Platform_Version\":\"4.2\",\"isTablet\":true}",
        "04ffc137c65032f23bdb57165286828a\t{\"Platform_Version\":\"4.2\",\"isTablet\":true}",
        "048c6ca10e91426f001c75adb476e52f\t{\"Platform_Version\":\"7.0\"}",
        "04d5ee70f0248487dd7b98e558653995\t{\"Browser_Bits\":\"32\",\"Platform\":\"Android\",\"Platform_Version\":\"4.4\"}",
        "046eddfe35c218b58d8d3742d5e82793\t{\"Browser_Bits\":\"32\",\"Platform\":\"iOS\",\"Platform_Version\":\"7.0\"}",
        "0469155bfd3d7a52ca8e1faebdef8d8e\t{\"Platform_Version\":\"5.1\",\"isTablet\":true}",
        "04d12185f58aeccab36102451b4be3c8\t{\"Platform_Version\":\"4.2\",\"isTablet\":true}",
        "046288d16dd8fbc7fdd3aa57c7ba99f2\t{\"Platform_Version\":\"4.3\"}",
        "045f1d1007f5e312fa2a56f92f058ed8\t{\"Platform_Version\":\"4.2\",\"isTablet\":true}",
        "049ce3094f65fdd63c7f6db4c47c7edb\t{\"Platform_Version\":\"5.0\"}",
        "04161b69e40803c3f1761dfbc2f85854\t{\"Platform_Version\":\"4.3\",\"isTablet\":true}",
        "042b781d4a418dd3f52c3a19a564899a\t{\"Browser_Bits\":\"32\",\"Platform\":\"Android\",\"Platform_Version\":\"6.0\"}",
        "0482512932bd51668de46b4db93a8a44\t{\"Browser_Bits\":\"32\",\"Platform\":\"Android\",\"Platform_Version\":\"4.2\"}",
        "0471a4fbd22c363b3b7f0654734ccc2a\t{\"Browser_Bits\":\"32\",\"Platform\":\"Android\",\"Platform_Version\":\"5.1\"}",
        "04df0d15cf033813e98f1de782323bb3\t{\"Platform_Version\":\"4.2\",\"isTablet\":true}",
        "041c1bc093954c25fb133830968849f4\t{\"Browser_Bits\":\"32\",\"Platform\":\"Win7\",\"Platform_Version\":\"6.1\",\"Win32\":true}",
        "04c8722070c847260aa02e738e3f11c9\t{\"Platform_Version\":\"8.4\",\"isTablet\":true}",
        "04d917c5de00a0ae64aa28887b3af82c\t{\"Platform_Version\":\"9.3\"}",
        "0406d76648673f791e154d1cc52913fb\t{\"Platform_Version\":\"8.1\"}",
        "044cbbaf4ea3749b136a4bc8a121d48f\t{\"Platform_Version\":\"4.4\",\"isTablet\":true}",
        "042d7b5c919752a882202910cced77fe\t{\"Platform_Version\":\"10.3\"}",
        "04370a4f0ee20861efca9593e639f7b5\t{\"Platform_Version\":\"8.0\"}",
        "04dac77cb3ecf23299e4f2ad21c82343\t{\"Platform_Version\":\"4.4\",\"isTablet\":true}",
        "045f1d65e427dca3562be928efb45c7d\t{\"Platform_Version\":\"4.2\",\"isTablet\":true}",
        "049ad6cc8a4d35ee381b327b70288023\t{\"Platform_Version\":\"9.1\"}",
        "044ca6e86992e5c14d3c767e608215c0\t{\"Platform_Version\":\"10.1\"}",
        "041b8ba48d2fd2d21fb5f553ab83a50a\t{\"Browser_Bits\":\"32\",\"Platform\":\"Win7\",\"Platform_Version\":\"6.1\",\"Win32\":true}",
        "0411542190bef3cae097aa49df5d39cb\t{\"Platform_Version\":\"4.4\",\"isTablet\":true}",
        "0448e064016d0bcdaaa7bced5fd2df6a\t{\"Platform_Version\":\"4.2\",\"isTablet\":true}",
        "04f5ad36d0837cfe1c3e43dfc7070184\t{\"Browser_Bits\":\"32\",\"Platform\":\"iOS\",\"isMobileDevice\":true}",
        "04f0cf99b86d193d8ab3176586767258\t{\"Platform_Version\":\"8.2\"}",
        "042306e79f35023ee837b45e5659ac7c\t{\"Browser_Bits\":\"32\",\"Platform\":\"WinVista\",\"Platform_Version\":\"6.0\",\"Win32\":true}",
        "049f28d923c48e8a1778f462dbbd9ca5\t{\"Browser_Bits\":\"32\",\"Platform\":\"Win10\",\"Platform_Version\":\"6.4\",\"Win32\":true}",
        "049b1ee0a64853243c230ef1f8087d54\t{\"Browser_Bits\":\"32\",\"Platform\":\"WinXP\",\"Platform_Version\":\"5.2\",\"Win32\":true}",
        "042228193d969c40d1627dfaeded3b02\t{\"Platform_Version\":\"8.3\"}",
        "043f004b5eebb8f44b33023057a4c009\t{\"Platform_Version\":\"8.4\"}",
        "04fd8e7d3153206ae297dc580426b64c\t{\"Platform_Version\":\"9.2\"}",
        "04d37dcfcbdcd2a852191f52171bcbe8\t{\"Platform_Version\":\"4.3\",\"isTablet\":true}",
        "04ef3593583baed78b3ca7d3be994877\t{\"Browser_Bits\":\"32\",\"Platform\":\"Android\",\"isMobileDevice\":true}",
        "04a56708820314c62548c529c040b893\t{\"Platform_Version\":\"4.4\",\"isTablet\":true}",
        "0444526ee3b9c03abd2d4718a4966df0\t{\"Platform_Version\":\"4.4\",\"isTablet\":true}",
        "04657855985965f6ff6e5ff761db1dc9\t{\"Platform_Version\":\"4.2\"}",
        "0450f42a63214b7ea0f488dba85f165f\t{\"Browser_Bits\":\"32\",\"Platform\":\"SymbianOS\"}",
        "0413e6200e9eda13802dc2b359e1234e\t{\"Browser_Bits\":\"32\",\"Platform\":\"SymbianOS\"}",
        "04ca645ab305945a828ec72326a06f98\t{\"Browser_Bits\":\"32\",\"Platform\":\"WinVista\",\"Platform_Version\":\"6.0\",\"Win32\":true}",
        "0424997a3351144d865deb30437c0077\t{\"Browser_Bits\":\"32\",\"Platform\":\"Linux\"}",
        "04fa5e6e181efb7d05272ff9cc6da882\t{\"Browser_Bits\":\"32\",\"Platform\":\"Win8.1\",\"Platform_Version\":\"6.3\",\"Win32\":true}",
        "04a6a26f37ce454cbcd0dc7fc9bfef40\t{\"Browser_Bits\":\"32\",\"Platform\":\"MacOSX\",\"Platform_Version\":\"10.9\"}",
        "04a8c27d25efda5e705753db79ef5948\t{\"Browser_Bits\":\"32\",\"Platform\":\"WinXP\",\"Platform_Version\":\"5.1\",\"Win32\":true}",
        "049d8950db227fad955d973bfc6530f6\t{\"Browser_Bits\":\"32\",\"Platform\":\"WinXP\",\"Platform_Version\":\"5.2\",\"Win32\":true}",
        "044e90ebc015b86450a1867d1e0d9f2e\t{\"Browser_Bits\":\"32\",\"Platform\":\"Win8.1\",\"Platform_Version\":\"6.3\",\"Win32\":true}",
        "046b994c4c794b2a19f8694cb8f435a8\t{\"Browser_Bits\":\"32\",\"Platform\":\"SunOS\"}",
        "04466a584a1ca48a0a9cbce26c22ba89\t{\"Browser_Bits\":\"32\",\"Platform\":\"Win8.1\",\"Platform_Version\":\"6.3\",\"Win32\":true}",
        "04f3bae97782b7b43d0e589c3f8bc6ba\t{\"Browser_Bits\":\"32\",\"Platform\":\"SunOS\"}",
        "043a271c63d52ca0e85d6b472883d919\t[]",
        "0401218d13b70abd5c46c00e3c168cb7\t{\"Browser_Bits\":\"32\",\"Platform\":\"Win8.1\",\"Platform_Version\":\"6.3\",\"Win32\":true}",
        "04f0191e2fa2ddd9858e04a87847b6e3\t{\"Browser_Bits\":\"32\",\"Platform\":\"Win8.1\",\"Platform_Version\":\"6.3\",\"Win32\":true}",
        "049659748d8ba721c53177da9787dffa\t{\"Browser_Bits\":\"32\",\"Platform\":\"WinVista\",\"Platform_Version\":\"6.0\",\"Win32\":true}",
        "043f95571e1a774424f04489017dc8b0\t{\"Browser_Bits\":\"32\",\"Platform\":\"Linux\"}",
        "042360502ddb126c677d0c496a970e0c\t{\"Browser_Bits\":\"32\",\"Platform\":\"Win8\",\"Platform_Version\":\"6.2\",\"Win32\":true}",
        "0433b55dd1fb2e0df0648dbfcd79c948\t{\"Browser_Bits\":\"32\",\"Platform\":\"Win7\",\"Platform_Version\":\"6.1\",\"Win32\":true}",
        "04173cc1bf0e5c6d22325e0024f3c148\t{\"Browser_Bits\":\"32\",\"Platform\":\"MacOSX\",\"Platform_Version\":\"10.10\"}",
        "04e443d4cd0041472fff2bf8dfc3a4e8\t{\"Browser_Bits\":\"32\",\"Platform\":\"WinXP\",\"Platform_Version\":\"5.2\",\"Win32\":true}",
        "044b4e09d7dcc29b9a0d86e425470eb0\t{\"Browser_Bits\":\"32\",\"Platform\":\"Linux\"}",
        "04fe371682d980dab467fe8d9e4c43e8\t{\"Browser_Bits\":\"32\",\"Platform\":\"WinVista\",\"Platform_Version\":\"6.0\",\"Win32\":true}",
        "040129c127906eba41ba4c4980bf7635\t{\"Browser_Bits\":\"32\",\"Platform\":\"MacOSX\",\"Platform_Version\":\"10.9\"}",
        "04bd18398f1cb6163fe07fb50fc36257\t{\"Browser_Bits\":\"32\",\"Platform\":\"Win8\",\"Platform_Version\":\"6.2\",\"Win32\":true}",
        "04df1697aa12f1814ac469ebf83cd721\t{\"Browser_Bits\":\"32\",\"Platform\":\"WinVista\",\"Platform_Version\":\"6.0\",\"Win32\":true}",
        "0490c4128b38542694bf0fc7e31d2acf\t{\"Browser_Bits\":\"32\",\"Platform\":\"WinXP\",\"Platform_Version\":\"5.2\",\"Win32\":true}",
        "04940f3f321106ba905ad556d21fe56a\t{\"Browser_Bits\":\"32\",\"Platform\":\"Win8\",\"Platform_Version\":\"6.2\",\"Win32\":true}",
        "04ee9af497c8c372532477602436d0a1\t{\"Browser_Bits\":\"32\",\"Platform\":\"Win8.1\",\"Platform_Version\":\"6.3\",\"Win32\":true}",
        "045a42fc47dcc3b60b8db931812734c7\t{\"Browser_Bits\":\"32\",\"Platform\":\"Win7\",\"Platform_Version\":\"6.1\",\"Win32\":true}",
        "046d72ecf749c66deed98b3d1b56b8ca\t{\"Browser_Bits\":\"32\",\"Platform\":\"MacOSX\",\"Platform_Version\":\"10\"}",
        "0481acacb5495b7e96c869ec16ecdde2\t{\"Browser_Bits\":\"32\",\"Platform\":\"Win7\",\"Platform_Version\":\"6.1\",\"Win32\":true}",
        "0484a0a46db3e66c41df294fa79cbc59\t{\"Browser_Bits\":\"32\",\"Platform\":\"Win8\",\"Platform_Version\":\"6.2\",\"Win32\":true}",
        "04498ace1c03e5097e75d8320937fff4\t{\"Browser_Bits\":\"32\",\"Platform\":\"MacOSX\",\"Platform_Version\":\"10.9\"}",
        "04b53ce700176ee80526ad575aaa9ba5\t{\"Browser_Bits\":\"32\",\"Platform\":\"Win7\",\"Platform_Version\":\"6.1\",\"Win32\":true}",
        "041be7e1251d6a548b3f84644fb54e53\t{\"Browser_Bits\":\"32\",\"Platform\":\"Win7\",\"Platform_Version\":\"6.1\",\"Win32\":true}",
        "0499aafbe5c366e1d1a706b7c8fe5c01\t{\"Browser_Bits\":\"32\",\"Platform\":\"iOS\"}",
        "042d3a3ab722a3a3aee55c7f8652fa56\t[]",
        "044b6c44d5ffff1e127cff3672c072f3\t{\"Browser_Bits\":\"32\",\"Platform\":\"ChromeOS\"}",
        "047dbb74f6edccb2490575363cf58ca3\t{\"Browser_Bits\":\"32\",\"Platform\":\"MacOSX\",\"Platform_Version\":\"10.9\"}",
        "0411cba410f26030315ad953d3097081\t{\"Browser_Bits\":\"32\",\"Platform\":\"WinVista\",\"Platform_Version\":\"6.0\",\"Win32\":true}",
        "0421651a38fc51df46694d21f5ac17c4\t{\"Browser_Bits\":\"32\",\"Platform\":\"MacOSX\",\"Platform_Version\":\"10.10\"}",
        "04a80e5145b7ba54c03971bc33775ded\t{\"isTablet\":true}",
        "0471a6e67b75189bd47e52aed0261d91\t{\"Platform_Version\":\"4.2\",\"isTablet\":true}",
        "043ecb938ec3ee98398694239b187b1c\t{\"Platform_Version\":\"5.1\"}",
        "04c09f4ffc8bb7ea6ec0f3c555943dea\t{\"Platform_Version\":\"4.4\",\"isTablet\":true}",
        "0418664ed9bb7c3cf9b7883619eadcc8\t{\"Platform_Version\":\"4.3\",\"isTablet\":true}",
        "0419fc0625cadd6f3d25c2ccdd6f2251\t{\"Platform_Version\":\"4.4\",\"isTablet\":true}",
        "0486dcd37930ed54a5c65d03eb1d4843\t{\"Platform_Version\":\"5.0\"}",
        "04588d268c24cebd9ac11ab7dad6bcd9\t{\"isTablet\":true}",
        "046619ae8b1d3aac15205c309c87e18a\t[]",
        "04850200d57e4fb3b0e166689f5ff5e3\t{\"Browser_Bits\":\"32\",\"Platform\":\"MacOSX\",\"Platform_Version\":\"10.11\"}",
        "04e32dc542c02f1272eb8723da8a48c7\t{\"Platform_Version\":\"7.1\"}",
        "040c8bbc03a9783b9b7573fe3cfc3a6f\t{\"Platform_Version\":\"6.1\"}",
        "04ad5c9d2e82787994b0cf72559ce486\t{\"Platform_Version\":\"10.3\"}",
        "0437df93bbedaf00da516e23a755cfc3\t{\"Platform_Version\":\"4.4\",\"isTablet\":true}",
        "04361d2788413e8623a0e9720829a125\t{\"Platform_Version\":\"4.2\",\"isTablet\":true}",
        "047bbbf7b8cc60260b56c34d615bd157\t{\"Platform_Version\":\"4.2\",\"isTablet\":true}",
        "04f8dd9926e16151b9a2c3add64a86b1\t{\"Platform_Version\":\"4.3\",\"isTablet\":true}",
        "043c8c24cf54dfe878cb00cfeb2325d8\t{\"Platform_Version\":\"5.1\"}",
        "045b60df750746299d19644161f12ece\t{\"Platform_Version\":\"4.4\",\"isTablet\":true}",
        "042270bde09d3c9cd7066dae0665109a\t{\"Platform_Version\":\"4.2\",\"isTablet\":true}",
        "04789df014445510b17a5ceeeabd29f9\t{\"Platform_Version\":\"4.4\",\"isTablet\":true}",
        "04d606d9e59342706f9f95bd5ee30358\t{\"Platform_Version\":\"4.4\",\"isTablet\":true}",
        "0405e67c7fa67628e43a67d12caddfeb\t{\"Platform_Version\":\"8.4\"}",
        "0470ce10252ec7ccb0033f9944421ce8\t{\"Browser_Bits\":\"32\",\"Platform\":\"Linux\"}",
        "0458fea1139cbf05767dfd32dfa5627a\t{\"Platform_Version\":\"4.4\",\"isTablet\":true}",
        "04b4fb2ee4d8d01d0d54b7c761b1e481\t{\"Platform_Version\":\"4.2\",\"isTablet\":true}",
        "04f56b71657cd0d3346e8bcede624223\t{\"Platform_Version\":\"7.0\"}",
        "04616d439a87fcaa6815de0c7f0b3270\t{\"Platform_Version\":\"7.0\"}",
        "0414a506f15c90e4f58024e9aef6bacd\t{\"Platform_Version\":\"5.0\",\"isTablet\":true}",
        "04dd1e799f2c4a55ca8ab5c5f33b7104\t{\"Platform_Version\":\"4.4\",\"isTablet\":true}",
        "040284a7b9754636584afa1d52a263d8\t{\"Platform_Version\":\"4.2\",\"isTablet\":true}",
        "0427da4f81d392b4634fca8779bee9f8\t{\"Browser_Bits\":\"32\",\"Platform\":\"Win8.1\",\"Platform_Version\":\"6.3\",\"Win32\":true}",
        "048507c9de8de478cf7452cef3f9d854\t{\"Browser_Bits\":\"32\",\"Platform\":\"Win7\",\"Platform_Version\":\"6.1\",\"Win32\":true}",
        "04cee69cb59411cbeed08c4accaaa195\t{\"Platform_Version\":\"10.1\"}",
        "04587a04d59acec09345961f46f08ed0\t{\"Browser_Bits\":\"32\",\"Platform\":\"MacOSX\",\"Platform_Version\":\"10.10\"}",
        "040ae06126e4446c80a1ec7ff46bde12\t{\"Platform_Version\":\"4.2\",\"isTablet\":true}",
        "0421b45b6f4abdc9ddc07bb851daae8c\t{\"Platform_Version\":\"7.0\"}",
        "04c1c84a0b8f83ffe8127c4d00d4086a\t{\"Platform_Version\":\"4.4\",\"isTablet\":true}",
        "046cd1e1213657524a371ab925f49362\t{\"Platform_Version\":\"5.1\"}",
        "04e94b376645b325876d31a549988543\t{\"Platform_Version\":\"4.4\",\"isTablet\":true}",
        "0466f2ce1f2101a52a287ce1f0e13420\t{\"Platform_Version\":\"4.2\",\"isMobileDevice\":false}",
        "041435e7f72334923bf39af0f2e9021b\t{\"Platform_Version\":\"4.3\",\"isTablet\":true}",
        "04cd33b31eb16daac9ab684d594ed22e\t{\"Platform_Version\":\"7.1\"}",
        "04d018c84243bae74b519e326eb9c079\t{\"Platform_Version\":\"4.2\",\"isTablet\":true}",
        "047f5cdf5f401bdf888acf2eaf78de6c\t{\"Platform_Version\":\"4.3\",\"isTablet\":true}",
        "043194da4dc3735bb457e3d39bc469f8\t{\"Platform_Version\":\"4.2\",\"isTablet\":true}",
        "0484082b3373930b43f791de0f5783b6\t{\"Platform_Version\":\"4.2\",\"isTablet\":true}",
        "04824eb4910748674c93462280e1ae92\t{\"Platform_Version\":\"4.4\",\"isTablet\":true}",
        "04b6f82076e95238c03fa013cd1c1ef2\t{\"Platform_Version\":\"10.3\"}",
        "049d47a5e6e696d89ac20d370e6d3840\t{\"Platform_Version\":\"4.4\",\"isTablet\":true}",
        "04ff9a427dcd99f8eccfb4ec66a662f5\t{\"Platform_Version\":\"4.4\",\"isTablet\":true}",
        "04a62f2f88c86f1b4e0d2842f34415e4\t{\"Platform_Version\":\"4.2\"}",
        "04acd5724df79d8c25e97ba30ae5c057\t{\"Platform_Version\":\"4.3\",\"isTablet\":true}",
        "043df2bc710b52eb55dc28791aa6790f\t{\"Platform_Version\":\"4.2\",\"isTablet\":true}",
        "0442bef9b1f5eeca3b95c62363515743\t{\"Platform_Version\":\"4.3\",\"isTablet\":true}",
        "0439d5242922662da5de31c6924946a5\t{\"Platform_Version\":\"4.4\",\"isTablet\":true}",
        "04fb7c9417e65a3a0bd41075dc6622b4\t{\"Platform_Version\":\"4.3\"}",
        "04d048396311e2797147dc5acefb7ebf\t{\"Platform_Version\":\"4.3\"}",
        "04b8cbb1f45fa028699c5aa84f8739ed\t{\"Platform_Version\":\"7.1\"}",
        "04a06eaf14b06623f340de0a66bdefb2\t{\"Platform_Version\":\"5.0\",\"isTablet\":true}",
        "04b1ecc420443a60cbf6ee1dd20cf30d\t{\"Platform_Version\":\"4.4\",\"isTablet\":true}",
        "0429218c8663c22c6a6c4fc3ada15777\t[]",
        "048913998596229888bba1dd55563fcc\t{\"Browser_Bits\":\"32\",\"Platform\":\"ChromeOS\"}",
        "04fac405f0aa11188c7ef6af06ebf218\t{\"Platform_Version\":\"4.2\",\"isTablet\":true}",
        "049c9a16cbea66c9ab9f4ca401e66ba2\t{\"Browser_Bits\":\"32\",\"Platform\":\"Win32\",\"Win32\":true}",
        "0430ad595273290a5991db1e15c9f4b1\t{\"Browser_Bits\":\"32\",\"Platform\":\"WinXP\",\"Platform_Version\":\"5.2\",\"Win32\":true}",
        "04d4cb8897787c4dae15bd7630b18c88\t{\"Browser_Bits\":\"32\",\"Platform\":\"Win7\",\"Platform_Version\":\"6.1\",\"Win32\":true}",
        "0443355fed3a808313754f7b8d001d85\t{\"Browser_Bits\":\"32\",\"Platform\":\"Win8.1\",\"Platform_Version\":\"6.3\",\"Win32\":true}",
        "0457c3010acddf174d5742766e25812a\t{\"Browser_Bits\":\"32\",\"Platform\":\"Linux\"}",
        "040754fa2e6f10a68a3a3299011abb8d\t{\"Browser_Bits\":\"32\",\"Platform\":\"Win7\",\"Platform_Version\":\"6.1\",\"Win32\":true}",
        "04bb080eb33ac28240bf8a7ca3f9af4b\t{\"Platform_Version\":\"8.0\"}",
        "04441494cc232bee91b9f402a3206253\t{\"Platform_Version\":\"10.1\",\"isTablet\":true}",
        "0435ef4d0d6b1d5aa10ae8ccf3bf4fbf\t{\"Platform_Version\":\"8.2\"}",
        "04dbd7c0f01e898eadf304e0e53413e0\t[]",
        "0431593a4882a8b7a24865abf8181e14\t{\"Platform_Version\":\"8.2\",\"isTablet\":true}",
        "04ac5fe808d17a91806c99ac58d1f38e\t[]",
        "04a6c4409888e3deb6e8d8a4a5c96315\t{\"Platform_Version\":\"7.0\"}",
        "04742a785dea14f81b2ea8185618d63c\t{\"isMobileDevice\":true}",
        "04f86c4606d3fae3c87fbcb05e9edeea\t{\"Browser_Bits\":\"32\",\"Platform\":\"WinXP\",\"Platform_Version\":\"5.1\",\"Win32\":true}",
        "04b1a9ada83d41ac16602f53339b3420\t{\"isMobileDevice\":true}",
        "04520cd18eddd487714762e3e5f96150\t{\"Browser_Bits\":\"32\",\"Platform\":\"iOS\",\"Platform_Version\":\"7.1\"}",
        "0410caa03331044eac233a6b2d38be4b\t[]",
        "04c3fbe941b71e1ba6ac69c454ff43ec\t{\"Browser_Bits\":\"32\",\"Platform\":\"Win7\",\"Platform_Version\":\"6.1\",\"Win32\":true}",
        "04af45cddb3db0bf21e81886ae4b404d\t{\"Platform_Version\":\"6.1\"}",
        "043c2a2f317c5d9b01590d8e4f1bda42\t{\"Browser_Bits\":\"32\",\"Platform\":\"Android\",\"isMobileDevice\":true}",
        "0498060f57b689151cc187a1dc674864\t{\"Platform_Version\":\"4.2\"}",
        "04998ed5c4642f54e28147f6a708bde8\t{\"Browser_Bits\":\"32\",\"Platform\":\"iOS\",\"Platform_Version\":\"10.0\"}",
        "0458de2437c7a5f78deddaa9c37c558e\t{\"Browser_Bits\":\"32\",\"Platform\":\"iOS\",\"Platform_Version\":\"9.2\",\"isTablet\":true}",
        "049e4856670897b9724aab9c9304f941\t{\"Browser_Bits\":\"32\",\"Platform\":\"iOS\",\"Platform_Version\":\"8.4\"}",
        "044877fa343b4718c38dd40949a39456\t{\"Browser_Bits\":\"32\",\"Platform\":\"Android\"}",
        "046dd8029efbe07ba943054277905766\t{\"Browser_Bits\":\"32\",\"Platform\":\"JAVA\"}",
        "0400bba49b6723aefc9c281020bb0f73\t{\"Browser_Bits\":\"32\",\"Platform\":\"JAVA\"}",
        "048f7c00810e56169a446a63ce2484f4\t{\"Browser_Bits\":\"32\",\"Platform\":\"webOS\",\"Platform_Version\":\"2.0\"}",
        "04605a5e2af85c9d1a2691ca1fc87c0f\t{\"Platform_Version\":\"10.2\"}",
        "040b464f81c07d9b2369993e9fe25877\t{\"Platform_Version\":\"9.1\"}",
        "04712d940ec3dbe4f21b30059bc2bf9b\t{\"Platform_Version\":\"10.0\"}",
        "04b15ddab8f3da24c5ac7efb738593dc\t[]",
        "041f327ad25912a21ea88d4069ea1122\t[]",
        "042d5ff648d58d02d803f5f184fbe809\t{\"Platform_Version\":\"10.2\"}",
        "04e3a5506833fe96614a86ddd4385c03\t{\"Platform_Version\":\"8.0\"}",
        "04dc6cd138490cc1dd0cf6b2766ae32d\t{\"Platform_Version\":\"10.3\"}",
        "04f489c4e67bf2103168c9780b0861a9\t{\"Platform_Version\":\"9.0\"}",
        "0424bcad289727f385de69f9bb475a52\t{\"Platform_Version\":\"8.4\",\"isTablet\":true}",
        "041df8fd24fd87fea0338b07a467ed29\t{\"Platform_Version\":\"8.0\"}",
        "0419a2a252dfb7f301068987b09897ff\t{\"isTablet\":true}",
        "04610d60c2ddab0b4d56cef99e36678a\t{\"Platform_Version\":\"8.2\"}",
        "047d69768037389f2b9b9124e512f175\t{\"Platform_Version\":\"10.1\"}",
        "0446b19dd108554c26b590f8261a8d17\t{\"Platform_Version\":\"10.1\"}",
        "04110f745783c459e01630ec1f676cc6\t{\"Platform_Version\":\"8.0\"}",
        "04ee66a5e34ba4bf308ce55d8ff379bf\t{\"Platform_Version\":\"10.0\"}",
        "04ccb461d35fba328fe01ff007a7be90\t{\"Platform_Version\":\"9.3\",\"isTablet\":true}",
        "04fd099598b71ece1ca4eee0a091b8f5\t{\"Platform_Version\":\"9.2\"}",
        "04c7a5c5062ea36ff062479971bc6c68\t{\"Browser_Bits\":\"32\",\"Platform\":\"MacOSX\",\"Platform_Version\":\"10.10\"}",
        "041a7ec77d49736b1122070dcacf86e7\t[]",
        "046f15d3f563f0a792dcbbd6a6b1870b\t{\"Platform_Version\":\"9.2\"}",
        "042d03ec1e727caf59fc890f59aabba0\t{\"Browser_Bits\":\"32\",\"Platform\":\"Android\",\"isMobileDevice\":true}",
        "04d677e8a876b84b44ae093e5b49cbc8\t{\"Platform_Version\":\"8.1\",\"isTablet\":true}",
        "046ad4a082bb211c1b07c65abb3d75d8\t{\"Platform_Version\":\"8.0\"}",
        "0415585981521b505640543d5134bdf8\t{\"Platform_Version\":\"8.3\"}",
        "048a41b085bd6195380f03479690a434\t[]",
        "042657367f9706fecfc76199d1b8e542\t{\"Browser_Bits\":\"32\",\"Platform\":\"iOS\",\"Platform_Version\":\"7.1\"}",
        "04f718ff3d4700bf4e91c3d28621fef0\t{\"Platform_Version\":\"8.1\"}",
        "0473650656220fbf5c92b9343d454f4a\t{\"Platform_Version\":\"10.1\"}",
        "0451f565c8f7db691f418ea04dfcf960\t{\"Platform_Version\":\"9.2\",\"isTablet\":true}",
        "049214280f3f45c58e54a9088d73ee14\t{\"Platform_Version\":\"8.2\",\"isTablet\":true}",
        "041fe27346145ae90d6dc4f8e5eba543\t[]",
        "04aab830305b46a5ebb5c250a635d359\t{\"Platform_Version\":\"8.3\"}",
        "04edd2781816b247156a197004b22bbc\t{\"Browser_Bits\":\"32\",\"Platform\":\"OpenBSD\"}",
        "04d1ad9caaac394f20067820970c8a46\t{\"Browser_Bits\":\"32\",\"Platform\":\"Darwin\"}",
        "049993eb4c60430f0af0e3a5a365cf55\t{\"Browser_Bits\":\"64\",\"Platform\":\"IRIX64\"}",
        "047f5319be318f95b68a282980161b78\t{\"Browser_Bits\":\"32\",\"Platform\":\"OpenBSD\"}",
        "042bdab428f8c3df29eee2fc8ccd97c5\t{\"Browser_Bits\":\"32\",\"Platform\":\"Solaris\"}",
        "04405b8e26a20ab939738c63bcbe40c3\t{\"Browser_Bits\":\"32\",\"Platform\":\"MacOSX\",\"Platform_Version\":\"10\"}",
        "048dbc95dfdeea11dfd43cd430b66eca\t{\"Platform\":\"macOS\",\"Platform_Version\":\"10.12\"}",
        "04e8a8ea0dc020b21c09d146fa4ca831\t[]",
        "04325146625bf05312907009bf8c6c4b\t[]",
        "0409e1b15c0bf6be71fdd8d0bdc18bcb\t[]",
        "0481a639db541ef76a9eeef055799568\t{\"Browser_Bits\":\"32\",\"Platform\":\"Win8\",\"Platform_Version\":\"6.2\",\"Win32\":true}",
        "049e4f9d118f98a7bfd54db46e62c11d\t{\"Browser_Bits\":\"32\",\"Platform\":\"Win8\",\"Platform_Version\":\"6.2\",\"Win32\":true}",
        "04921353763f0f82932061b8148abffe\t{\"Browser_Bits\":\"32\",\"Platform\":\"WinXP\",\"Platform_Version\":\"5.1\",\"Win32\":true}",
        "040c762b8fb435279127cde981ff88a0\t{\"Browser_Bits\":\"32\",\"Platform\":\"WinVista\",\"Platform_Version\":\"6.0\",\"Win32\":true}",
        "04a0fb4b92acf6098b364e20e13f26be\t{\"Browser_Bits\":\"32\",\"Platform\":\"WinVista\",\"Platform_Version\":\"6.0\",\"Win32\":true}",
        "04e18db71b59a37c3d46a1e1a217156b\t{\"Browser_Bits\":\"32\",\"Platform\":\"Win32\",\"Win32\":true}",
        "0443d5b40d290c25839b1118100f7b25\t{\"Browser_Bits\":\"32\",\"Platform\":\"WinXP\",\"Platform_Version\":\"5.2\",\"Win32\":true}",
        "046bff7c688a8877a018b0564476b0b4\t{\"Browser_Bits\":\"32\",\"Platform\":\"WinXP\",\"Platform_Version\":\"5.2\",\"Win32\":true}",
        "0487fd26ef5378cba6599b3c7e3c83c0\t{\"Browser_Bits\":\"32\",\"Platform\":\"Linux\"}",
        "042c8aff8f54172c2ec3eec861ceb96e\t{\"Browser_Bits\":\"32\",\"Platform\":\"WinXP\",\"Platform_Version\":\"5.2\",\"Win32\":true}",
        "0420e253c990de6732aa89b24800c6d1\t{\"Platform\":\"WinXP\",\"Platform_Version\":\"5.2\"}",
        "044c9d4761b43a2c2ffd15dfb309f42a\t{\"Platform\":\"Win7\",\"Platform_Version\":\"6.1\"}",
        "04fcece916dc24fefca0b6a0b367b991\t{\"Browser_Bits\":\"32\",\"Platform\":\"WinXP\",\"Platform_Version\":\"5.2\",\"Win32\":true}",
        "048584d2a2ff511b0a9ff58232a49002\t{\"Browser_Bits\":\"32\",\"Platform\":\"Win32\",\"Win32\":true}",
        "0404232f385ac2ad790ade7d2ca83fad\t{\"Browser_Bits\":\"32\",\"Platform\":\"Win7\",\"Platform_Version\":\"6.1\",\"Win32\":true}",
        "0470721e39dece44b0336d99b4f68a67\t{\"Browser_Bits\":\"32\",\"Platform\":\"Win10\",\"Platform_Version\":\"6.4\",\"Win32\":true}",
        "045b409b594da9bc2376bd9c84e61b2e\t{\"Browser_Bits\":\"32\",\"Platform\":\"SunOS\"}",
        "04f5e415a246ad80b32f8e74a8f61ed4\t{\"Browser_Bits\":\"32\",\"Platform\":\"FreeBSD\"}",
        "0448266dd1ae77ca4618b7db09bab352\t{\"Browser_Bits\":\"32\",\"Platform\":\"SunOS\"}",
        "0424cd6d4c2ea870c136aa016a07a29b\t{\"Browser_Bits\":\"32\",\"Platform\":\"Win32\",\"Win32\":true}",
        "04850c9cabb6c43a674a95ace6e086a4\t{\"Browser_Bits\":\"32\",\"Platform\":\"Win7\",\"Platform_Version\":\"6.1\",\"Win32\":true}",
        "045547c597df3755ad4ee548266ee25e\t[]",
        "042d6f590245eb0e3791bd253723484b\t{\"Browser_Bits\":\"32\",\"Platform\":\"MacOSX\",\"Platform_Version\":\"10\"}",
        "0461021701ff04bc925904711e4c6d51\t{\"Platform_Version\":\"9.0\",\"isTablet\":true}",
        "046eefb8f69c6df42b4962a902bed564\t{\"Platform_Version\":\"8.2\",\"isTablet\":true}",
        "046776ca8beebb5f4bf619096cc4c072\t{\"Platform_Version\":\"8.1\",\"isTablet\":true}",
        "049a79fb475045a47207bc9986a3b3cb\t{\"Platform_Version\":\"9.2\",\"isTablet\":true}",
        "0487e286d7c50510a5750d914d211b93\t{\"Platform_Version\":\"9.3\",\"isTablet\":true}",
        "042833c0192bf0048c68679cd95dcfb7\t{\"Browser_Bits\":\"32\",\"Platform\":\"WinXP\",\"Platform_Version\":\"5.2\",\"Win32\":true}",
        "0459b328434e6f24a8d5cd8c98da1baa\t{\"Browser_Bits\":\"32\",\"Platform\":\"WinXP\",\"Platform_Version\":\"5.2\",\"Win32\":true}",
        "047996a7fa9129e23d19f7680d6ade59\t{\"Browser_Bits\":\"32\",\"Platform\":\"Win7\",\"Platform_Version\":\"6.1\",\"Win32\":true}",
        "04199e8cb62c2bca8bcaf7fadb2cb288\t{\"Platform_Version\":\"9.1\",\"isTablet\":true}",
        "04265d1682eee40202145752852d64bc\t{\"Platform\":\"Maemo\"}",
        "04bda7cfe5d36bfd87fe52a2cac8dde7\t{\"Platform\":\"FirefoxOS\"}",
        "049a70e3bee2416d989481c429142bad\t[]",
        "044e502ed359e2405d0776fcdfcc1c10\t[]",
        "0430951cd95cd1593e077fb50fa7b745\t{\"Platform_Version\":\"4.4\"}",
        "04b4933cb1b1d351c82a7c335e45ca43\t{\"Platform_Version\":\"5.1\"}",
        "047355f16f8d4c9be3c52eb860dc5808\t{\"Browser_Bits\":\"32\",\"Platform\":\"Android\",\"isMobileDevice\":true}",
        "04a113fbb30b70a87725b19e1bb0a904\t{\"isTablet\":true}",
        "0438db9325e6be9b048717f335591fdb\t[]",
        "04c35de80c1d237fef4546b474009488\t{\"Browser_Bits\":\"32\",\"Platform\":\"WinXP\",\"Platform_Version\":\"5.1\",\"Win32\":true}",
        "04609ca551f7ab2407c91aaa8569526b\t{\"Browser_Bits\":\"64\",\"Platform\":\"IRIX64\"}",
        "044bd6f694212b61ad21c263d7fe7e47\t{\"Browser_Bits\":\"32\",\"Platform\":\"Win7\",\"Platform_Version\":\"6.1\",\"Win32\":true}",
        "0458e20631c795306cca4666c0387e24\t{\"Browser_Bits\":\"32\",\"Platform\":\"WinVista\",\"Platform_Version\":\"6.0\",\"Win32\":true}",
        "04b6878a3db90eb332f769102776ef75\t{\"Browser_Bits\":\"32\",\"Platform\":\"WinXP\",\"Platform_Version\":\"5.2\",\"Win32\":true}",
        "04eaaa2f9124c418a6966b1b71659012\t{\"Browser_Bits\":\"32\",\"Platform\":\"Win7\",\"Platform_Version\":\"6.1\",\"Win32\":true}",
        "04f5566bda7e23cddbb271ad86a55053\t{\"Browser_Bits\":\"32\",\"Platform\":\"WinVista\",\"Platform_Version\":\"6.0\",\"Win32\":true}",
        "04ce3f4feb1f90a8a98b3185233c9163\t{\"Browser_Bits\":\"32\",\"Platform\":\"Win32\",\"Win32\":true}",
        "04e3f6c33788e32b69a5d62944240ff8\t{\"Browser_Bits\":\"32\",\"Platform\":\"NetBSD\"}",
        "04d7f59655be50dae25b91d5dbb221ac\t{\"Browser_Bits\":\"32\",\"Platform\":\"SunOS\"}",
        "0417a93e2eeacb216970f4dee682530f\t{\"Browser_Bits\":\"64\",\"Platform\":\"IRIX64\"}",
        "04065d4a29d930909dd30d7d7f0f3200\t{\"Browser_Bits\":\"32\",\"Platform\":\"WinXP\",\"Platform_Version\":\"5.1\",\"Win32\":true}",
        "04e57c0bb32ee25fb4b0922e4f06d053\t{\"Browser_Bits\":\"32\",\"Platform\":\"MacOSX\",\"Platform_Version\":\"10.9\"}",
        "0420f26bc5df4d72afbf3b38fcf57a01\t{\"Browser_Bits\":\"32\",\"Platform\":\"BeOS\"}",
        "04c84f855c2e48a269bd90a341fb6749\t{\"Browser_Bits\":\"32\",\"Platform\":\"WinXP\",\"Platform_Version\":\"5.2\",\"Win32\":true}",
        "0478fd7adef380880f5319e58a2b0bac\t{\"Browser_Bits\":\"32\",\"Platform\":\"MacOSX\",\"Platform_Version\":\"10.10\"}",
        "04b9badfa321486a06bfa06225e7a302\t{\"Browser_Bits\":\"32\",\"Platform\":\"SunOS\"}",
        "040028a2c2b4f685c5bd63d57a871d25\t[]",
        "045b1ff5c8dbb21fae4fd9c0adddb8b5\t[]",
        "04ec2f8d3ca507df07cffac1fa8b0fed\t{\"Platform\":\"Win8\",\"Platform_Version\":\"6.2\",\"Win32\":true}",
        "04a925359cf0ff609bf81d3d62ceac0b\t{\"Browser_Bits\":\"32\",\"Platform\":\"MacOSX\",\"Platform_Version\":\"10\"}",
        "04669019426ea8ce287d6e9ad1c96eae\t{\"Platform_Version\":\"10.10\"}",
        "0468327eed53bf62b306fd8581c8b48d\t[]",
        "041e3aa669718f9406f4ef505bd87a8b\t[]",
        "04675fdc3822954c4ca91cbf6d773b88\t{\"Platform_Version\":\"7.1\"}",
        "04571327a5bb85bf48b926c2d7b34845\t{\"Platform_Version\":\"8.2\"}",
        "04b8aef51c5fd457916634d100b908f8\t[]",
        "043814676dfda4e581c9813cc7bd80d0\t{\"Browser_Bits\":\"32\",\"Platform\":\"iOS\",\"Platform_Version\":\"9.1\"}",
        "0440dd9df16bb8eebb8a4e1cdb603160\t{\"isMobileDevice\":true}",
        "0424eb7fe0e073f2dfb7f3e7027c3f8d\t{\"isMobileDevice\":true}",
        "0490b305539f9a2d4fb47a454c3a0dda\t{\"Browser_Bits\":\"32\",\"Platform\":\"JAVA\",\"isMobileDevice\":true}",
        "047aab8a620db996814c336a1ca603a8\t{\"Browser_Bits\":\"32\",\"Platform\":\"SunOS\"}",
        "04e75e15f918ef910d25734985920a5f\t{\"Browser_Bits\":\"32\",\"Platform\":\"SunOS\"}",
        "04747e83e10308a4e3a0554f8a4ea9bd\t[]",
        "04e46502187ccad30ba8f5c27feaad2d\t[]",
        "045de68e4a7fa980163550cc4400b02f\t[]",
        "048a0a921308fa68be9d61838757983f\t[]",
        "04558f4fa31e7319b339283d91b862ad\t[]",
        "040667294fc91e59c6e0b4c4482d5bdd\t{\"Platform_Version\":\"8.1\"}",
        "048299cb0c26d8362fe2eac0949cce9b\t[]",
        "04be0071712fe4460c67ce1fcc2430ba\t[]"
    ]
}