{
    "content": [
        "ab04429bf5ac7a771c8688049c9d74b5\t7\tbingbot",
        "ab25030e9d490a584d547b668c07e2de\t23\tsie\\-s[\\d][\\d]\\\/.* up\\.browser\\\/[\\d]\\.[\\d].*",
        "ab2f833a4b659751192820dcdba7a0a1\t25\tsie\\-c[\\d][\\d]\\\/[\\d]. up\\.browser\\\/[\\d]\\.[\\d].*",
        "ab343098a56cccaf1c5a35dee018c7bb\t60\tixi\\-ct\\-[\\d][\\d]\\\/v[\\d]\\.[\\d]\\\/mozilla\\\/[\\d]\\.[\\d] \\(compatible; [\\d][\\d][\\d]x[\\d][\\d][\\d]\\) ixi\\\/q[\\d][\\d]a[\\d]\\.[\\d]",
        "ab50dd4f9731b7c950efef5196b03769\t30\tmicrosoft\\-webdav\\-miniredir\\\/[\\d]\\.[\\d].*",
        "ab53a4b8c8a964db2c2444af400737e9\t29\tnokia[\\d][\\d][\\d][\\d]\\\/[\\d]\\.[\\d] \\(.*up\\.browser\\\/[\\d]\\.[\\d].*",
        "ab737f7beafac4cfdbdcacb26f2dcf38\t29\tnokia\\-rh\\-[\\d][\\d]\\\/v .* up\\.browser\\\/[\\d]\\.[\\d].*",
        "abaecf8ca3f98dc13eeecbac263cd3ed\t47\tbird\\.d[\\d][\\d][\\d]\\\/lp,a[\\d][\\d]\\\/wap[\\d]\\.[\\d]\\\/.* browser\\\/up\\.browser\\\/[\\d]\\.[\\d].*",
        "abaecf8ca3f98dc13eeecbac263cd3ed\t43\tbird\\.g[\\d][\\d][\\d] mo[\\d][\\d][\\d]m\\-[\\d][\\d][\\d]x[\\d][\\d][\\d]\\\/[\\d]\\.[\\d] up\\.browser\\\/[\\d]\\.[\\d].*",
        "abaecf8ca3f98dc13eeecbac263cd3ed\t41\tbird\\.s[\\d][\\d][\\d]\\+\\\/kq[\\d],u[\\d][\\d]\\\/wap[\\d]\\.[\\d]\\\/.* up\\.browser\\\/[\\d]\\.[\\d].*",
        "abaecf8ca3f98dc13eeecbac263cd3ed\t39\tbird\\.s[\\d][\\d][\\d]\\\/k[\\d][\\d],mi\\\/wap[\\d]\\.[\\d] .* up\\.browser\\\/[\\d]\\.[\\d].*\tbird\\.sf[\\d][\\d]\\\/ku[\\d],ub\\\/wap[\\d]\\.[\\d]\\\/.* up\\.browser\\\/[\\d]\\.[\\d].*\tbird\\.s[\\d][\\d][\\d]\\\/k[\\d][\\d],mk\\\/wap[\\d]\\.[\\d] .* up\\.browser\\\/[\\d]\\.[\\d].*\tbird\\.v[\\d][\\d]\\\/kk[\\d],la\\\/wap[\\d]\\.[\\d]\\.[\\d] up\\.browser\\\/[\\d]\\.[\\d].*",
        "abaecf8ca3f98dc13eeecbac263cd3ed\t34\tbird\\.sc[\\d][\\d]c\\\/.*\\\/wap[\\d]\\.[\\d]\\\/.* up\\.browser\\\/[\\d]\\.[\\d].*",
        "abaecf8ca3f98dc13eeecbac263cd3ed\t24\tbird sc[\\d][\\d] up\\.browser\\\/[\\d]\\.[\\d].*\tbird\\.d[\\d][\\d][\\d] up\\.browser\\\/[\\d]\\.[\\d].*\tbird\\.q[\\d][\\d][\\d] up\\.browser\\\/[\\d]\\.[\\d].*",
        "abaecf8ca3f98dc13eeecbac263cd3ed\t4\tbird",
        "abcffc1359c4754f75c46848e5c80e3c\t7\ty\\!j\\-app.*",
        "abd1d5969d6ff39d1d6e2ea773ec3d2d\t10\twebceo bot",
        "abe10f7e5afbbb3a79ce619739541149\t12\tmercury [\\d][\\d]\\.[\\d]",
        "abe10f7e5afbbb3a79ce619739541149\t11\tmercury [\\d]\\.[\\d]",
        "abe10f7e5afbbb3a79ce619739541149\t7\tmercury",
        "abe886d21488ba8d7ce27fa8a6d61119\t14\twget\\\/.* \\(.*darwin.*\\).*",
        "abe886d21488ba8d7ce27fa8a6d61119\t13\twget\\\/.* \\(.*linux.*\\).*",
        "abe919181f2e646452637467de2bfe44\t19\tcoursera\\-mobile.[\\d]\\.[\\d].*",
        "abe919181f2e646452637467de2bfe44\t15\tcoursera\\-mobile.*",
        "abf90b3ea01b742778b0aadb2f620349\t8\tleechget.*"
    ]
}