{
    "content": [
        "510519fe2158c9a8bfcbba824cd41d26\t24\txing\\-contenttabreceiver\\\/.*",
        "5107ddbcc23644ce08aab98f1865de41\t19\tj\\-phone\\\/[\\d]\\.[\\d]\\\/j\\-sh[\\d][\\d]\\\/.*",
        "5107ddbcc23644ce08aab98f1865de41\t18\tj\\-phone\\\/[\\d]\\.[\\d]\\\/v[\\d][\\d][\\d]t\\\/.*",
        "510abfb8a391a5c6c9a81a285cc077e7\t3\tlwp.*\tlwp",
        "511bbd5ef2559a3beaeb71c5ae6500af\t6\trekonq",
        "51393dad1cc81bb36d0ccf17e186b15f\t29\tespn%[\\d][\\d]radio\\\/.* cfnetwork\\\/[\\d][\\d][\\d]\\.[\\d].*",
        "51393dad1cc81bb36d0ccf17e186b15f\t27\tespn%[\\d][\\d]radio\\\/.* cfnetwork\\\/[\\d][\\d][\\d].*",
        "51393dad1cc81bb36d0ccf17e186b15f\t24\tespn%[\\d][\\d]radio\\\/.* cfnetwork\\\/.*",
        "51416cff8aa711ad23475d4aa4c85f39\t58\tflamingo_searchengine \\(\\+http\\:\\\/\\\/www\\.flamingosearch\\.com\\\/bot\\)",
        "514bf133d0499f968a5f45fd55e0aa43\t32\tkwc\\-kx[\\d][\\d][\\d]c\\\/[\\d]\\.[\\d]\\.[\\d][\\d] up\\.browser\\\/[\\d]\\.[\\d].*",
        "51a0ce732829b0f7006fb49a2628df54\t9\ttmcrawler",
        "51a8b2a3ad16ee5cae00f16020f1688d\t23\tsie\\-m[\\d][\\d]\\\/.* up\\.browser\\\/[\\d]\\.[\\d].*",
        "51b12fb04d85885570dab3c44f037414\t12\tdatagnionbot.*",
        "51dc57bdd6a8695fe2a3b438f8442945\t44\tdalvik\\\/.* \\(.*linux.*android.*miui\\\/v[\\d]\\.[\\d].*\\) .*newsarticle\\\/.*",
        "51dc57bdd6a8695fe2a3b438f8442945\t39\tdalvik\\\/.* \\(.*linux.*android.*miui.*\\) .*newsarticle\\\/.*",
        "51dc57bdd6a8695fe2a3b438f8442945\t28\tdalvik\\\/.* \\(.*linux.*android.*\\) .*fbav\\\/.*",
        "51dc57bdd6a8695fe2a3b438f8442945\t21\tdalvik\\\/.* \\(.*linux.*android.*",
        "51e9e953ec0582104fe427e2bdec0e64\t9\tnutscrape",
        "51ee3a7e9fc44ac67071dcc8ed3f6d44\t32\tsagem\\-my[\\d][\\d][\\d]x\\\/[\\d]\\.[\\d]\\\/.* up\\.browser\\\/[\\d]\\.[\\d].*",
        "51f88197d39cb68721fb4a8ab55597a1\t40\tnec\\-n[\\d][\\d][\\d]\\\/[\\d][\\d][\\d][\\d]ajcc\\\/wap[\\d]\\.[\\d] .* up\\.browser\\\/[\\d]\\.[\\d].*"
    ]
}