{
    "content": [
        "3085aaf73ac5b034c355eef1a688a702\t[]",
        "3094e9e02838733a365e081d53062db0\t[]",
        "30f57d5e474ae7eb4e001ce39b343b77\t[]",
        "30fb93161fdc5d2d857e52b01db8fd78\t[]",
        "302a652115e2160e5f379efe21ce12cb\t[]",
        "308503094c56364cc65559aba08aa119\t[]",
        "300998ae19025912e9c70cb5336ca855\t[]",
        "30aba2a362ae71a90a1f1c15d3f3c478\t[]",
        "30fcb15877f60086b912a97ca0b0203d\t[]",
        "3072fd069b1d8b6fb142ffef7c8b18a7\t{\"Browser_Bits\":\"32\",\"Platform\":\"Win7\",\"Platform_Version\":\"6.1\",\"Win32\":true}",
        "3084f2e7d556331804a756098e68a89f\t[]",
        "307d87ef1a1de2d433cd30be18b74c41\t{\"Browser_Bits\":\"32\",\"Platform\":\"WinVista\",\"Platform_Version\":\"6.0\",\"Win32\":true}",
        "30029caf5478407684b348769a3da8f0\t{\"Platform\":\"iOS\",\"Win32\":false,\"isMobileDevice\":true,\"isTablet\":true}",
        "305306d402bb33c45d5d951528e0d062\t{\"Platform\":\"iOS\",\"Platform_Version\":\"8.3\",\"Win32\":false,\"isMobileDevice\":true,\"isTablet\":true}",
        "3080223a209a4a7bc7d3f24611880b4b\t{\"Platform\":\"MacOSX\",\"Platform_Version\":\"10.10\",\"Win32\":false}",
        "30a0914ec3aa93c6c684eb2c573dd16b\t{\"Platform\":\"iOS\",\"Platform_Version\":\"10.2\",\"Win32\":false,\"isMobileDevice\":true,\"isTablet\":true}",
        "3000489f9ba2c42c280a288dc927362d\t{\"Platform_Version\":\"4.2\",\"isTablet\":true}",
        "309cac082c23961c2ff4d75b148bf5a6\t{\"Platform_Version\":\"4.4\",\"isTablet\":true}",
        "304cd7772b0853c8bef3dde5f190c9c1\t[]",
        "3085e6d8dace16b0d3231cd2240dc4ed\t[]",
        "30c100a3c0756e539916d4d83fd253bd\t{\"isTablet\":true}",
        "304cb0b74e60b9422b099312005049fe\t{\"Platform_Version\":\"10.0\",\"isTablet\":true}",
        "304a13c4305b38b3802962cfa630d999\t{\"Platform_Version\":\"8.2\",\"isTablet\":true}",
        "3008616712e1e2868c758e85cf475100\t{\"Platform_Version\":\"10.0\",\"isTablet\":true}",
        "307980c454adec701f466715f915fbe5\t[]",
        "3079ccf20b863bd6c5138c2ddae820c4\t{\"Browser_Bits\":\"32\",\"Platform\":\"Win7\",\"Platform_Version\":\"6.1\",\"Win32\":true}",
        "303acd699950dbdc47764605d0dc9702\t{\"Browser_Bits\":\"32\",\"Platform\":\"WinVista\",\"Platform_Version\":\"6.0\",\"Win32\":true}",
        "303fa855e25a0a2f716239d92a1300e1\t{\"Platform_Version\":\"4.2\",\"isTablet\":true}",
        "305b71a59af7a5e143d884e3528a5532\t{\"Platform\":\"iOS\",\"isTablet\":true}",
        "3026a94a3e869276ec9b4623bb4861ed\t{\"Platform\":\"iOS\",\"Platform_Version\":\"10.3\",\"isTablet\":true}",
        "30547bae581b2d25a405ab3d634e0280\t{\"Platform\":\"iOS\",\"Platform_Version\":\"10.0\"}",
        "307d340e3449e53f7120ee018c9c6187\t{\"Platform\":\"iOS\"}",
        "308c53f7bbd2cc75fe5a937bf79ee4e1\t{\"Platform_Version\":\"4.2\"}",
        "30d01d48753277bd31cd91dcccd4e14d\t[]",
        "303c6ea0ad989f61cb8df24704bbd055\t{\"Platform_Version\":\"4.4\"}",
        "30931c890afadea8282003798ec996ff\t{\"Platform_Version\":\"4.2\",\"isTablet\":true}",
        "30fddf42cef47a37d21be7330e7a6389\t[]",
        "308056ceaed54b7b61a41b751d9727a6\t{\"Browser_Bits\":\"32\",\"Platform\":\"Win8.1\",\"Platform_Version\":\"6.3\",\"Win32\":true}",
        "309dc4912843b522deb3cb74d470c71f\t{\"Browser_Bits\":\"32\",\"Platform\":\"WinXP\",\"Platform_Version\":\"5.2\",\"Win32\":true}",
        "30d3c8bcc43e3c752bb2125700fa6ca8\t{\"Platform_Version\":\"4.4\",\"isTablet\":true}",
        "303a074264088e89e28383dde98527c8\t{\"Platform\":\"SymbianOS\"}",
        "30e9be6f6dde23f55bcc45056f652fb3\t{\"Platform_Version\":\"9.0\",\"isTablet\":true}",
        "3002bc3c67d5db3c9c673a8be631ce6a\t{\"Platform_Version\":\"10.1\",\"isTablet\":true}",
        "3068fd7cb10ec96578cda4108bae53e3\t{\"Platform\":\"iOS\",\"Platform_Version\":\"10.0\",\"isTablet\":true}",
        "302b3fee61b67e9313b32da700fe367e\t[]",
        "30886e865f8d0e34865a7a3e6e9a13e4\t{\"Browser_Bits\":\"32\",\"Platform\":\"Linux\"}",
        "3084afef1237f78ff05a9b7411225cc6\t{\"Platform_Version\":\"4.3\"}",
        "302331fa822c6d7ddbbdd00d8218d7fa\t{\"Platform\":\"Win8.1\",\"Platform_Version\":\"6.3\",\"Win32\":true}",
        "30265b4f401eb726543ed282afd2e9fc\t{\"Platform_Version\":\"4.3\",\"isTablet\":true}",
        "30d2c19c904ab078c6cd514e58c1e35d\t{\"Platform_Version\":\"4.3\"}",
        "309451e372e6b3bf03845d63aa38e8ec\t{\"Platform_Version\":\"4.4\",\"isTablet\":true}",
        "30729681b4a0eb3569d9044da2afc508\t{\"Platform_Version\":\"4.3\",\"isTablet\":true}",
        "308cb0133598ced3cab2e78f11731642\t{\"Platform_Version\":\"4.2\",\"isTablet\":true}",
        "30046b7d2be1da58448d3e7650d3e454\t{\"Platform\":\"Win8.1\",\"Platform_Version\":\"6.3\",\"Win32\":true}",
        "30cd927bbabe6a4560dca9e115377f1a\t{\"Platform_Version\":\"5.1\",\"isTablet\":true}",
        "302454ec22434cb1d6d8f1862ea1162d\t[]",
        "308a12329de278d1e5e30c773e14fe9a\t{\"Platform_Version\":\"4.4\",\"isTablet\":true}",
        "30b9c0e92f81cbb3775d18317ff38471\t{\"Platform_Version\":\"4.2\",\"isTablet\":true}",
        "3075a646906e2207f2be8e11ac78e8bc\t[]",
        "30f4f002dbb4aad0838e54a6f8f01c4e\t{\"Platform_Version\":\"4.3\",\"isTablet\":true}",
        "3020ae7939050a729d30e0cb915b8fde\t{\"Browser_Bits\":\"32\",\"Platform\":\"Android\",\"Platform_Version\":\"6.0\"}",
        "302bc83c7a4d8fa47c27885842b488d8\t{\"Browser_Bits\":\"32\",\"Platform\":\"Android\",\"Platform_Version\":\"5.1\"}",
        "30941d27cd815b212959c0e2cadbb8b4\t{\"Browser_Bits\":\"32\",\"Platform\":\"Android\",\"Platform_Version\":\"6.0\"}",
        "30bb15dca942dad45dc833952c76724a\t{\"Browser_Bits\":\"32\",\"Platform\":\"Android\",\"Platform_Version\":\"4.4\"}",
        "308c0de7003eed3171732b26cfbf759b\t{\"Platform_Version\":\"8.1\",\"isTablet\":true}",
        "302c2973e4815a8189c703ec15452d02\t[]",
        "30d4ad14ab130cf4c438a5fdd7d5c4e6\t{\"Platform_Version\":\"9.3\"}",
        "30373c5ab0bbee6052e98673a84e393a\t{\"Platform_Version\":\"9.1\"}",
        "306deae76e7df45319b8197b6e5eb2b2\t{\"Platform_Version\":\"8.4\"}",
        "308d002746ceafcde7d9f28a4660a256\t{\"Platform_Version\":\"9.2\"}",
        "30c1515f852d3df708e6e47856cebca0\t{\"Browser_Bits\":\"32\",\"Platform\":\"MacOSX\",\"Platform_Version\":\"10.10\"}",
        "30d7b9e24f41bd90322b80f67de3013b\t{\"Platform_Version\":\"4.4\",\"isTablet\":true}",
        "30adc7c31c8d7ca02bb487a993e7ca10\t{\"Platform_Version\":\"8.1\"}",
        "309c370650ef53f3028b64e69af80d28\t{\"Platform_Version\":\"10.0\"}",
        "3005c89d2e68c7d3aacfc2f5d4d13d09\t{\"Platform_Version\":\"4.2\",\"isTablet\":true}",
        "3031a32b8295e64b041888d78af9a32d\t{\"Platform_Version\":\"10.1\"}",
        "3007f4444b60a769c6a7d1113fd95d08\t{\"Platform_Version\":\"5.0\",\"isTablet\":true}",
        "30d096561b2db5beaead8bde63829a79\t{\"Platform_Version\":\"5.0\"}",
        "30ea818855897929025130e7c18eabee\t{\"Platform_Version\":\"4.2\",\"isTablet\":true}",
        "3051d947e5ab155e2a87b8a330db4044\t{\"Browser_Bits\":\"32\",\"Platform\":\"WinVista\",\"Platform_Version\":\"6.0\",\"Win32\":true}",
        "304a63cf148cdeaeac03a5a15c2b1929\t{\"Browser_Bits\":\"32\",\"Platform\":\"Win7\",\"Platform_Version\":\"6.1\",\"Win32\":true}",
        "30ceccd536da930e36d6003779c531b6\t{\"Platform_Version\":\"4.2\"}",
        "30ae132ea03df50342f6b9354ee0f632\t{\"Platform_Version\":\"10.0\"}",
        "30bb4b60b89ca50b81605adaef6521b7\t{\"Platform_Version\":\"4.4\",\"isTablet\":true}",
        "301f2260b9b2a95343868a3562c3d4b9\t{\"Platform_Version\":\"4.2\",\"isTablet\":true}",
        "30eef7cea9a98ec94e76c1b8ca49827b\t{\"Platform_Version\":\"4.4\",\"isTablet\":true}",
        "30e60d1822f5ef1a79a23dce4408b04f\t{\"Browser_Bits\":\"32\",\"Platform\":\"Android\"}",
        "304bdf74e815e38e960fe3cf0e9fe8df\t{\"Browser_Bits\":\"32\",\"Platform\":\"WinXP\",\"Platform_Version\":\"5.1\",\"Win32\":true}",
        "30b17851ce271d0c5ae97aebd32cd08d\t{\"Browser_Bits\":\"32\",\"Platform\":\"WinXP\",\"Platform_Version\":\"5.1\",\"Win32\":true}",
        "30d803099359c198f2ab4013be69429b\t{\"Browser_Bits\":\"32\",\"Platform\":\"WinXP\",\"Platform_Version\":\"5.2\",\"Win32\":true}",
        "30ac3e5de393e307229b87be5ab28c9e\t{\"Browser_Bits\":\"32\",\"Platform\":\"Linux\"}",
        "307f6f7f6d711153900d9c85f3d66ced\t{\"Browser_Bits\":\"32\",\"Platform\":\"WinXP\",\"Platform_Version\":\"5.1\",\"Win32\":true}",
        "306561d55f8b1f9f5df4a61ebad7b01c\t{\"Browser_Bits\":\"32\",\"Platform\":\"WinVista\",\"Platform_Version\":\"6.0\",\"Win32\":true}",
        "305bf2f9b5068aeda422a4737db07739\t{\"Browser_Bits\":\"32\",\"Platform\":\"WinVista\",\"Platform_Version\":\"6.0\",\"Win32\":true}",
        "30b47cbab56932386e46b1a09a421638\t{\"Browser_Bits\":\"32\",\"Platform\":\"Win8.1\",\"Platform_Version\":\"6.3\",\"Win32\":true}",
        "30dcfd7c59283c2fa4f17693735fd561\t{\"Browser_Bits\":\"32\",\"Platform\":\"WinVista\",\"Platform_Version\":\"6.0\",\"Win32\":true}",
        "30b3b0376d0a6d453f547e1e02e77d75\t{\"Browser_Bits\":\"32\",\"Platform\":\"WinXP\",\"Platform_Version\":\"5.2\",\"Win32\":true}",
        "30cf36d5e940340ebdaf3f7e77804aec\t{\"Browser_Bits\":\"32\",\"Platform\":\"FreeBSD\"}",
        "30e804e69b20f20b294af680455c5e2d\t{\"Browser_Bits\":\"32\",\"Platform\":\"Win7\",\"Platform_Version\":\"6.1\",\"Win32\":true}",
        "309956aeda198ada836994c595c6d953\t{\"Browser_Bits\":\"32\",\"Platform\":\"WinXP\",\"Platform_Version\":\"5.1\",\"Win32\":true}",
        "30eeddffc28e15961742d4344f3eff8d\t{\"Browser_Bits\":\"32\",\"Platform\":\"WinXP\",\"Platform_Version\":\"5.1\",\"Win32\":true}",
        "303921d91b936b34d6807307718dabff\t{\"Browser_Bits\":\"32\",\"Platform\":\"Win7\",\"Platform_Version\":\"6.1\",\"Win32\":true}",
        "307c89e6cb58a50e98095b95dce3a2b5\t{\"Browser_Bits\":\"32\",\"Platform\":\"WinVista\",\"Platform_Version\":\"6.0\",\"Win32\":true}",
        "3017b7caf2e54e0bb00efe478d156f19\t{\"Browser_Bits\":\"32\",\"Platform\":\"Win8\",\"Platform_Version\":\"6.2\",\"Win32\":true}",
        "302f72fca516b6dba4c8d5a25fe4de6d\t{\"Browser_Bits\":\"32\",\"Platform\":\"WinVista\",\"Platform_Version\":\"6.0\",\"Win32\":true}",
        "3091f007d71ee1e1687106550e1cb81f\t{\"Browser_Bits\":\"32\",\"Platform\":\"Win8.1\",\"Platform_Version\":\"6.3\",\"Win32\":true}",
        "3079f35d943f9d2ae064905d1de94aaf\t{\"Browser_Bits\":\"32\",\"Platform\":\"Linux\"}",
        "305ee0eab015ee39949c6dff617102f9\t{\"Browser_Bits\":\"32\",\"Platform\":\"WinXP\",\"Platform_Version\":\"5.1\",\"Win32\":true}",
        "30b43d917d24b6f8a420c62b86705202\t{\"Browser_Bits\":\"32\",\"Platform\":\"WinXP\",\"Platform_Version\":\"5.2\",\"Win32\":true}",
        "306da558e194c1e9f2c052c25c64913c\t[]",
        "304c846a05fcb2bc834cefa4507fa1b1\t{\"Browser_Bits\":\"32\",\"Platform\":\"WinXP\",\"Platform_Version\":\"5.1\",\"Win32\":true}",
        "30237ee0565644eeb20b072d5c219aac\t{\"Browser_Bits\":\"32\",\"Platform\":\"WinVista\",\"Platform_Version\":\"6.0\",\"Win32\":true}",
        "303adc613a013e8e9208765d629cd50a\t{\"Browser_Bits\":\"32\",\"Platform\":\"Win7\",\"Platform_Version\":\"6.1\",\"Win32\":true}",
        "30b290a802ec68da66f74dc521011ded\t{\"Browser_Bits\":\"32\",\"Platform\":\"MacOSX\",\"Platform_Version\":\"10.9\"}",
        "30485c35b9af82e489cca040d1a8732f\t{\"Browser_Bits\":\"32\",\"Platform\":\"WinXP\",\"Platform_Version\":\"5.2\",\"Win32\":true}",
        "3068d9cf5e8b534329d492ddb44d88b0\t{\"Browser_Bits\":\"32\",\"Platform\":\"FreeBSD\"}",
        "3040a9772cab1f81d3618e6985af269e\t[]",
        "301ae5bbed004d29399351e34aeecc05\t{\"Browser_Bits\":\"32\",\"Platform\":\"Linux\"}",
        "30430004cf29759274e3430a3882df0d\t{\"Browser_Bits\":\"32\",\"Platform\":\"SunOS\"}",
        "304bfa28868365645dff89bfb1e95cc0\t{\"Browser_Bits\":\"32\",\"Platform\":\"MacOSX\",\"Platform_Version\":\"10.10\"}",
        "309f2df92ee41ed0718004caf0b06944\t{\"Browser_Bits\":\"32\",\"Platform\":\"Linux\"}",
        "300f090b96327d1eabf30a06b8aa60bb\t{\"Browser_Bits\":\"32\",\"Platform\":\"MacOSX\",\"Platform_Version\":\"10.10\"}",
        "30a517dea2ee7890d39fcac71a2b6485\t{\"Browser_Bits\":\"32\",\"Platform\":\"WinXP\",\"Platform_Version\":\"5.1\",\"Win32\":true}",
        "30469170f31631070854787393ae8633\t{\"Browser_Bits\":\"32\",\"Platform\":\"WinXP\",\"Platform_Version\":\"5.1\",\"Win32\":true}",
        "30ae0f0f79a77a0fff16d65cfdb283f7\t{\"Browser_Bits\":\"32\",\"Platform\":\"Android\",\"Platform_Version\":\"6.0\"}",
        "30629cf0e6b23b9e8b4e693ccd79d79b\t{\"Browser_Bits\":\"32\",\"Platform\":\"iOS\",\"Platform_Version\":\"10.2\",\"isTablet\":true}",
        "306d12f955e8de982a20f70ac2c3570b\t{\"Browser_Bits\":\"32\",\"Platform\":\"Android\",\"isTablet\":true}",
        "30a184e5eac759eddc9a20bbc620fa90\t{\"Browser_Bits\":\"32\",\"Platform\":\"MacOSX\",\"Platform_Version\":\"10.9\"}",
        "30411e2b5d6d499e2113e4d53c3d6ef6\t{\"Browser_Bits\":\"32\",\"Platform\":\"MacOSX\",\"Platform_Version\":\"10.9\"}",
        "306d59c17f0c518b23f999b5a661c865\t{\"Browser_Bits\":\"32\",\"Platform\":\"ChromeOS\"}",
        "306aef9dfb942cef07ff3bd881d5a1da\t{\"Browser_Bits\":\"32\",\"Platform\":\"Linux\"}",
        "309c9eb3154c1125e31ae6fa41b5d742\t{\"Browser_Bits\":\"32\",\"Platform\":\"WinXP\",\"Platform_Version\":\"5.2\",\"Win32\":true}",
        "30c729769727cbf44224b2ee3f086898\t{\"isTablet\":true}",
        "303bb17d3b715829273804cb672317c9\t{\"Platform_Version\":\"4.2\",\"isTablet\":true}",
        "30cbbb95a2076a297ca4a6c15a5a93b9\t{\"isTablet\":true}",
        "30194bdcdcd01fb3acfc6c8929c7d3e6\t{\"isTablet\":true}",
        "30827b62a9ae83a6101efb61b04ecd4e\t{\"isTablet\":true}",
        "304bf4f11b24773a6fd67f331a930a48\t{\"Platform_Version\":\"4.2\",\"isTablet\":true}",
        "3029db7a2526f0908baec44718a588c2\t{\"isTablet\":true}",
        "30154868d46a0c631efd3b108fa95033\t{\"Platform_Version\":\"4.3\"}",
        "305089e78a5b5cbf28e5a94d74507408\t{\"isTablet\":true}",
        "3069919f85474ba7df19d962459eab28\t[]",
        "301f21a2621533b2e9d09908354cc17b\t{\"Platform_Version\":\"4.4\",\"isTablet\":true}",
        "306537b9a9c41b44b6571ff8eea55bae\t{\"Platform_Version\":\"4.2\",\"isTablet\":true}",
        "30c329d16e4ae4ca543c243ed618836a\t{\"Platform_Version\":\"4.4\",\"isTablet\":true}",
        "309a3cc372a4f5b47b61296dc75d77e4\t{\"Platform_Version\":\"4.2\",\"isTablet\":true}",
        "30ef01e50174116ad376da44c11e50cb\t{\"Platform_Version\":\"5.0\"}",
        "3038264f2a5f88b3dd93546774b352d3\t{\"Platform_Version\":\"4.4\"}",
        "30977d43a5b72189fb2dbb4f27f70e17\t{\"Platform_Version\":\"4.4\",\"isTablet\":true}",
        "30da5b4debd31e6966336c3ecdfde896\t{\"Platform_Version\":\"4.2\",\"isTablet\":true}",
        "307363e716af4ad09f8129a3e060ac15\t{\"Platform_Version\":\"4.4\",\"isTablet\":true}",
        "3027d1392cf62bd1cd7476571ccb2ad7\t{\"Platform_Version\":\"5.1\"}",
        "30725f146eb7c3a1a1a0fa3acc957c5b\t{\"Platform_Version\":\"4.4\",\"isTablet\":true}",
        "30e20586eb0ea35deacafa311ada0484\t{\"Platform_Version\":\"4.2\",\"isTablet\":true}",
        "301958d505045e964028159137947e3d\t{\"Platform_Version\":\"4.2\",\"isTablet\":true}",
        "30096c9d841bd148280a51a61228d15f\t{\"Platform_Version\":\"9.3\",\"isTablet\":true}",
        "30a16b17e878f2ee5d79b49a32615c90\t{\"Platform_Version\":\"4.2\",\"isTablet\":true}",
        "30b99e852cf59889b71c240742cd8536\t{\"Platform_Version\":\"4.4\",\"isTablet\":true}",
        "304d6d7737f3eda658a8cd4fffa3eedc\t{\"Platform_Version\":\"4.2\",\"isTablet\":true}",
        "305bacf4a45600ea1ea9bce916e9394e\t{\"Platform_Version\":\"4.3\",\"isTablet\":true}",
        "301958ccb2634a037c4606e5fc0f550e\t{\"Platform_Version\":\"4.4\"}",
        "30843bf27f9d361769248dc0b30d034c\t{\"Platform_Version\":\"4.3\",\"isTablet\":true}",
        "303adcf0a8657e03c11836a7cdb924b3\t{\"Platform_Version\":\"4.2\",\"isTablet\":true}",
        "308cd6f712ddaeb38d18a2464cccfc81\t{\"Platform_Version\":\"4.2\",\"isTablet\":true}",
        "30586317021eeac115b934440a5e2962\t{\"Platform_Version\":\"4.4\",\"isTablet\":true}",
        "307dfa6c9daeda7aacbee61beae050ac\t{\"Platform_Version\":\"4.3\"}",
        "30ce31474b9e2f78f08acb0be3dbb399\t{\"Platform_Version\":\"10.3\"}",
        "301e4ab9d3269dd8afdbf9b5b2e0ff8b\t{\"Platform_Version\":\"4.4\",\"isTablet\":true}",
        "3043fb6b49fee7b789f72437df53dabb\t{\"Browser_Bits\":\"32\",\"Platform\":\"Win8.1\",\"Platform_Version\":\"6.3\",\"Win32\":true}",
        "30fbd7434367d26d47083ac5ed6d0b47\t{\"Platform_Version\":\"4.4\",\"isTablet\":true}",
        "3058f8ee687d32d121eb0c75dfeb407a\t{\"isTablet\":true}",
        "300a61990a3b22af20d01b6515bb47dc\t{\"Platform_Version\":\"4.2\",\"isTablet\":true}",
        "30988a838f82a3072d195b40c26173d5\t{\"Platform_Version\":\"4.3\",\"isTablet\":true}",
        "3087180de7468b24b0db39829b8862e7\t{\"Platform_Version\":\"4.4\",\"isTablet\":true}",
        "30a68e7cedb22e5b02a17063f981d187\t{\"Platform_Version\":\"4.2\",\"isTablet\":true}",
        "3051759819e696cfaac90c6c150f4237\t{\"Platform_Version\":\"4.3\",\"isTablet\":true}",
        "30ef51933c0a194c59c609816168fb3d\t{\"Platform_Version\":\"4.2\",\"isTablet\":true}",
        "30b3016f8667941e0a0b2cd3a69ca1ff\t{\"Platform_Version\":\"10.3\"}",
        "3056f140febe9abf6c3eae7603993054\t{\"Browser_Bits\":\"32\",\"Platform\":\"WinXP\",\"Platform_Version\":\"5.2\",\"Win32\":true}",
        "309d0786294e84d6fd15ec1003cbbd87\t{\"Platform_Version\":\"4.4\",\"isTablet\":true}",
        "3023cfe40c09159536887b348c1801a5\t{\"Platform_Version\":\"4.3\",\"isTablet\":true}",
        "30d8c5b432d5c314f31be99343c01329\t{\"Platform_Version\":\"4.3\",\"isTablet\":true}",
        "3016a3f26c8900923967979d1f26b05f\t{\"Platform_Version\":\"4.3\",\"isTablet\":true}",
        "309cab92b50d56ea3e77ff72475b6d5d\t{\"Platform_Version\":\"4.2\",\"isTablet\":true}",
        "30b8f60b66bb5b09a55bbaf37f7c5fc9\t{\"Platform_Version\":\"4.2\",\"isTablet\":true}",
        "30351c7e2f8a7e90a48a408e71b1260f\t{\"Platform_Version\":\"9.3\"}",
        "3006bcb61daf94fa23278bb2f2c1a683\t[]",
        "300e3ac244f6a186df63d36ce0f9dd39\t{\"Platform_Version\":\"4.4\",\"isTablet\":true}",
        "3031e3e5cb09e933ac0a47ab72c9b412\t{\"Platform_Version\":\"4.3\",\"isTablet\":true}",
        "301a026db9bf3b2fd5d74e236fa82ce1\t{\"Platform_Version\":\"4.2\",\"isTablet\":true}",
        "30645749bf755281759f1c08f6917e8b\t{\"Platform_Version\":\"9.1\"}",
        "3002c15d57726623748910a42727a5b9\t{\"Browser_Bits\":\"32\",\"Platform\":\"Win7\",\"Platform_Version\":\"6.1\",\"Win32\":true}",
        "30eeecc381d5a8266bd73b14ed4c2c1c\t{\"Platform_Version\":\"5.0\",\"isTablet\":true}",
        "30fe5721466b3d548b0594fa5300a4fa\t{\"Platform_Version\":\"4.3\"}",
        "300d7f9fecd33464101f2b26e416bdb6\t{\"Platform_Version\":\"4.2\",\"isTablet\":true}",
        "3094f6e38f048528923ca2a62ef1b5b8\t{\"Browser_Bits\":\"32\",\"Platform\":\"MacOSX\",\"Platform_Version\":\"10.10\"}",
        "308f5f85ec3acf5b6a646e44d325b409\t{\"Platform_Version\":\"4.2\",\"isTablet\":true}",
        "304e4f9015e042bb4d890223ffe17ae3\t{\"Browser_Bits\":\"32\",\"Platform\":\"WinXP\",\"Platform_Version\":\"5.2\",\"Win32\":true}",
        "30907c2df8f9aacc11414eb048debd0b\t{\"Platform_Version\":\"4.2\",\"isTablet\":true}",
        "30ce6b4fb92cb73ae396d6784cc57633\t{\"Platform_Version\":\"4.2\",\"isTablet\":true}",
        "30b46fc1f66e76cd18979afe2560d9db\t{\"Platform_Version\":\"4.4\",\"isTablet\":true}",
        "30932077279269f277f543a4e6e1330d\t{\"Platform_Version\":\"4.4\",\"isTablet\":true}",
        "308cd9f4aef52011931031324ef3e639\t{\"Platform_Version\":\"4.2\",\"isTablet\":true}",
        "3049b7e665e7aae2cc78747cb1aaf163\t{\"Platform_Version\":\"10.1\"}",
        "30cd4be8c1709e0a7bbf37c2df074640\t{\"Platform_Version\":\"10.0\"}",
        "30767b7f4dbcc4e6e859eb85d5ffa526\t{\"Platform_Version\":\"4.2\",\"isTablet\":true}",
        "301d3281070a82ab0422ae557e1d482a\t{\"Platform_Version\":\"4.3\",\"isTablet\":true}",
        "309459b48939987eba32b59e0b5bd0ae\t{\"Platform_Version\":\"4.2\",\"isTablet\":true}",
        "302008881aaeadf602b4bcf1f59c1c1c\t{\"Platform_Version\":\"4.2\",\"isTablet\":true}",
        "30a4587a8d9b9791984b53f65819b6b9\t{\"Platform_Version\":\"4.3\",\"isTablet\":true}",
        "30938c56ea00056abb64b8650e3e0d97\t{\"Browser_Bits\":\"32\",\"Platform\":\"MacOSX\",\"Platform_Version\":\"10.10\"}",
        "30b86bccd314a410974afad3df611b56\t{\"Platform_Version\":\"4.4\",\"isTablet\":true}",
        "300dbf84b1399b915fab55b8ceb546c5\t{\"Browser_Bits\":\"32\",\"Platform\":\"OpenBSD\"}",
        "30475e63df889e2b419d1814c2c784a8\t{\"Browser_Bits\":\"32\",\"Platform\":\"WinVista\",\"Platform_Version\":\"6.0\",\"Win32\":true}",
        "3042c6226d77569a22d17fd606bd996d\t{\"Browser_Bits\":\"32\",\"Platform\":\"WinVista\",\"Platform_Version\":\"6.0\",\"Win32\":true}",
        "305d9efa1131be6e37663993d4ba9dce\t{\"Platform_Version\":\"4.2\",\"isTablet\":true}",
        "30089395d7b9d89b689896a9fed79400\t{\"Platform_Version\":\"7.1\",\"isTablet\":true}",
        "3060bf4397736060528c07d762d47b51\t{\"Browser_Bits\":\"32\",\"Platform\":\"WinVista\",\"Platform_Version\":\"6.0\",\"Win32\":true}",
        "307c574654fe18e2f24e90730f48048f\t{\"Browser_Bits\":\"32\",\"Platform\":\"Win7\",\"Platform_Version\":\"6.1\",\"Win32\":true}",
        "3012718cb7ae79edb5cdf476d2b12e8b\t[]",
        "30a98f4ddc1737a54c3b01f2f171ee69\t{\"Browser_Bits\":\"32\",\"Platform\":\"Android\",\"isMobileDevice\":true}",
        "30765e4bd2a8790e820b56243fdeda4d\t{\"Browser_Bits\":\"32\",\"Platform\":\"ChromeOS\"}",
        "30ba743bc44f53e2b1f2db09f640f131\t{\"Platform_Version\":\"7.1\",\"isTablet\":true}",
        "30f962db90d36b7ab697b4dbd660325a\t{\"Platform_Version\":\"7.1\"}",
        "300bf1d60e03c89c72d7fb8414c669c6\t{\"Platform_Version\":\"8.0\"}",
        "3066988913f1f2a5cc7109287929b512\t{\"Platform_Version\":\"8.3\"}",
        "30108485b23741c3aec31d15a41aaad2\t{\"Platform_Version\":\"10.1\"}",
        "300ca3811d90a4b8c558f638a86142f6\t{\"Platform_Version\":\"8.3\"}",
        "30580f0591cfe3c7d9e048c75d88458b\t{\"Platform_Version\":\"8.1\"}",
        "30926b5b3643c5e58073cab117eb48af\t[]",
        "3021baca36f8aef72b68fc29c403062c\t{\"Platform_Version\":\"10.1\",\"isTablet\":true}",
        "30a48e2a88211224545479a39ef0de06\t{\"Browser_Bits\":\"32\",\"Platform\":\"WinXP\",\"Platform_Version\":\"5.2\",\"Win32\":true}",
        "30e54891f7c67ccbe797dd00cb99094f\t{\"Browser_Bits\":\"32\",\"Platform\":\"WinVista\",\"Platform_Version\":\"6.0\",\"Win32\":true}",
        "3038ad2a9b0ad065eb369670d66d3dbf\t{\"Browser_Bits\":\"32\",\"Platform\":\"WinXP\",\"Platform_Version\":\"5.2\",\"Win32\":true}",
        "30350fa6be16a8187f02cb33505543e6\t{\"Browser_Bits\":\"32\",\"Platform\":\"Linux\"}",
        "308efa256df72770e7e39a047c7130b6\t{\"Browser_Bits\":\"32\",\"Platform\":\"MacOSX\",\"Platform_Version\":\"10.9\"}",
        "308dbfdaee363441dcf173f66c0a2125\t{\"Platform_Version\":\"7.0\"}",
        "303626a703c1f916ef31bf7a84bf18cb\t{\"Platform_Version\":\"8.1\"}",
        "308e7096bb574632ae32085f3df3105a\t{\"Browser_Bits\":\"32\",\"Platform\":\"iOS\",\"Platform_Version\":\"8.0\"}",
        "301f84d7ffa3cc392a095bcfc8c826ca\t{\"isMobileDevice\":true}",
        "309baa87e99c80e1b894cfaeae59e608\t[]",
        "30542e0b07ceaf2cff58df6783946f94\t{\"Browser_Bits\":\"32\",\"Platform\":\"iOS\",\"Platform_Version\":\"7.0\"}",
        "30a7cb97e475a14055facdd61707dbf5\t[]",
        "30e7dc10d5e60ac96d40230756a88e7b\t{\"Browser_Bits\":\"32\",\"Platform\":\"CentOS\"}",
        "30dd15148c1c3ff42d38ed0aba84a4ef\t{\"Platform_Version\":\"5.1\"}",
        "30a5cef653267120e66dbe70739614d9\t{\"Platform_Version\":\"4.2\",\"isTablet\":true}",
        "30035355759a1f6813e82a2ded60dbe3\t{\"Platform_Version\":\"4.2\",\"isTablet\":true}",
        "30fc887ed7a86e085d538e75d342b2d8\t{\"Browser_Bits\":\"32\",\"Platform\":\"iOS\",\"Platform_Version\":\"10.1\"}",
        "30df65bd373b0e87fd8b2fdbe01bcb95\t{\"Browser_Bits\":\"32\",\"Platform\":\"iOS\",\"Platform_Version\":\"9.3\"}",
        "30897a4a70cdd1683d1b18f1cec791b3\t{\"Browser_Bits\":\"32\",\"Platform\":\"iOS\",\"Platform_Version\":\"10.1\"}",
        "302d7ef3416208a1af00c896b65fd767\t{\"isMobileDevice\":true}",
        "3090cdd2bed7766fd930b0948586af9a\t{\"Browser_Bits\":\"32\",\"Platform\":\"JAVA\"}",
        "307ae3e1174e6f23b4e868aa78b06556\t{\"Browser_Bits\":\"32\",\"Platform\":\"iOS\",\"Platform_Version\":\"8.4\"}",
        "307047f64ac1b07544c916905cd8d283\t{\"Browser_Bits\":\"32\",\"Platform\":\"FreeBSD\"}",
        "30324b1380a9fa8ec0a83b6738a28654\t{\"Platform_Version\":\"10.1\"}",
        "30e21f0b035c360112858f69195b596e\t{\"Platform_Version\":\"10.2\"}",
        "30021888bfc2825bb219ecbd51e4f640\t{\"Platform_Version\":\"10.1\"}",
        "30aabf81681a5ef5e296d9975ab194f7\t{\"Platform_Version\":\"8.3\"}",
        "3048a2b775683b101e280d501053c929\t{\"Platform_Version\":\"8.2\"}",
        "30832e28ae84692fb19576210067aace\t{\"Platform_Version\":\"10.3\"}",
        "30715f2a8cf87537ad0e7578a0752923\t{\"Platform_Version\":\"8.1\",\"isTablet\":true}",
        "3043f6fc1924995deff1f4f8b209e949\t{\"Platform_Version\":\"9.3\"}",
        "30be14e03917a6699bc05d6f49f36a50\t{\"Platform_Version\":\"8.3\",\"isTablet\":true}",
        "30c166132a5cc32074077bc56932f24b\t{\"Platform_Version\":\"10.3\"}",
        "301e83635097a2ad0ea8d9831ec23836\t{\"Platform_Version\":\"9.1\"}",
        "30565963fbc190f715d3aefd52b5ff8c\t{\"Platform_Version\":\"9.3\"}",
        "303b86464b20de29c7702d94af9f01b6\t{\"isTablet\":true}",
        "30906f62d3a6b9606754949a924252cb\t{\"Platform_Version\":\"9.0\"}",
        "3018b19ace10ff252d76541c5ee60dbc\t{\"Platform_Version\":\"10.2\"}",
        "302c06c29095085d42c6f141b4c480b3\t{\"Platform_Version\":\"7.1\",\"isTablet\":true}",
        "307223486979b3f33db3218673074cd4\t{\"Platform_Version\":\"9.3\",\"isTablet\":true}",
        "3056d7fda906d1afb77fb6d7f1633c51\t{\"Platform_Version\":\"8.2\"}",
        "30e8e1aff5e30f084005a355dc0f95db\t{\"Platform_Version\":\"8.4\"}",
        "30aad000e3e556d718e827c57c4dd8f2\t{\"Platform_Version\":\"8.1\",\"isTablet\":true}",
        "30ed6040ac5c66f75a0961ee959e30bd\t{\"Platform_Version\":\"8.1\"}",
        "3005ff96c20523914dca4c60324803fa\t[]",
        "30c6ca9b14b80b39b22d9e7e8989bfeb\t{\"isTablet\":true}",
        "30dd88a2e9bb11ad4e896b780ab92acb\t{\"Platform_Version\":\"7.1\"}",
        "30555b3bfccca5ac13ddbf6f2fbb5bd0\t{\"Browser_Bits\":\"32\",\"Platform\":\"MacOSX\",\"Platform_Version\":\"10.10\"}",
        "302d646554140a324c13a85574c8a384\t[]",
        "3012848ee352db253303b6fe761216cc\t{\"Platform_Version\":\"9.2\"}",
        "3042aa7729b7299ebe04c24599b83d92\t{\"Platform_Version\":\"9.0\"}",
        "30cfd9b299d7112406af98e2beec8735\t{\"Platform_Version\":\"7.0\"}",
        "3067950db5b1b424914ac9bc9c0642cb\t[]",
        "306d3d53f1520f8a758b99373f4ad57b\t{\"Platform_Version\":\"10.0\"}",
        "3078ab9ecb2699f44de44b8415d74881\t{\"Platform_Version\":\"5.0\"}",
        "302d0dc960ba31830ee6c99eecad4200\t{\"Platform_Version\":\"8.3\"}",
        "30326d6ddf7e779e50fd18a9bb3acb15\t{\"Platform_Version\":\"8.3\"}",
        "308d1befec28eae93ad99e8a43935d61\t{\"Platform_Version\":\"9.0\"}",
        "309f2a99496329d088640de34c69587a\t[]",
        "305f609124dc1482c5ddfb4987e892cf\t{\"Platform_Version\":\"6.1\"}",
        "303d12c587e3dbbb69326230d94e85e8\t{\"Platform_Version\":\"8.4\",\"isTablet\":true}",
        "30e200bad63be5a9abece1efe3594fd9\t[]",
        "3007d8a97335c66a5d13ce04e684ab80\t{\"Platform_Version\":\"8.1\"}",
        "30bb2787edcd1d39da90c41ff8edd50e\t{\"Platform_Version\":\"7.1\"}",
        "30d3a041452eef1a1fef05162b10cf1c\t{\"Browser_Bits\":\"32\",\"Platform\":\"Linux\"}",
        "302ceff728d9c6427f030ce9d5a33f82\t[]",
        "306a97de382d386fac20659a9feabdf6\t{\"Platform_Version\":\"10.10\"}",
        "303cdda17bfefaead10314cff9d63848\t{\"Browser_Bits\":\"32\",\"Platform\":\"FreeBSD\"}",
        "302f075546b1e4112e3929a551cad83b\t[]",
        "3085bf3021200039598d10a6ff465bac\t{\"Browser_Bits\":\"32\",\"Platform\":\"WinXP\",\"Platform_Version\":\"5.1\",\"Win32\":true}",
        "304c31f05df641752207bee738564f49\t{\"Browser_Bits\":\"32\",\"Platform\":\"WinXP\",\"Platform_Version\":\"5.1\",\"Win32\":true}",
        "30bcea4ee3f12d803b6df8793faf7a02\t{\"Browser_Bits\":\"32\",\"Platform\":\"MacOSX\",\"Platform_Version\":\"10.10\"}",
        "306371cb3fd71ad4e87ddb4e39c75295\t{\"Browser_Bits\":\"32\",\"Platform\":\"MacOSX\",\"Platform_Version\":\"10.9\"}",
        "30dc4ac95e97bc31f624d58fd806e477\t{\"Browser_Bits\":\"32\",\"Platform\":\"Win8\",\"Platform_Version\":\"6.2\",\"Win32\":true}",
        "30ff5766623df0c861ebfdd7f716096b\t{\"Browser_Bits\":\"32\",\"Platform\":\"Win7\",\"Platform_Version\":\"6.1\",\"Win32\":true}",
        "30baa6fee359ab700a26c019a6e1e56c\t{\"Browser_Bits\":\"32\",\"Platform\":\"WinVista\",\"Platform_Version\":\"6.0\",\"Win32\":true}",
        "3049f7c3745be91b73c56e6f240a2fd6\t{\"Browser_Bits\":\"32\",\"Platform\":\"Win10\",\"Platform_Version\":\"10.0\",\"Win32\":true}",
        "3059482d8d8cb1cb8654949ba161bd91\t{\"Browser_Bits\":\"32\",\"Platform\":\"Win10\",\"Platform_Version\":\"6.4\",\"Win32\":true}",
        "30fb95961898a383d5cdb5b7276f9684\t{\"Browser_Bits\":\"32\",\"Platform\":\"WinXP\",\"Platform_Version\":\"5.1\",\"Win32\":true}",
        "30de0244edcc15eece939dbf62209cd0\t{\"Browser_Bits\":\"32\",\"Platform\":\"macOS\",\"Platform_Version\":\"10.12\"}",
        "30c1b96173ec7e1b90d24b06227ea95f\t{\"Browser_Bits\":\"32\",\"Platform\":\"Win32\",\"Win32\":true}",
        "30c0d1f543cf31c5a6c4fac443ed3b7c\t{\"Browser_Bits\":\"32\",\"Platform\":\"Win32\",\"Win32\":true}",
        "303946d9c63bf70e3756a1e3c80ecf25\t{\"Browser_Bits\":\"32\",\"Platform\":\"Win8\",\"Platform_Version\":\"6.2\",\"Win32\":true}",
        "301b8d0003f40cfa9dfe5b9eac645fd8\t{\"Browser_Bits\":\"32\",\"Platform\":\"MacOSX\",\"Platform_Version\":\"10.10\"}",
        "30552352bae093e958f9a76c043fe166\t{\"Browser_Bits\":\"32\",\"Platform\":\"FreeBSD\"}",
        "30627d95295ca2bfe5e0a2657c5b0bf0\t{\"Browser_Bits\":\"32\",\"Platform\":\"Win7\",\"Platform_Version\":\"6.1\",\"Win32\":true}",
        "303a5e59221a38b9a2459ec0f8ae0bee\t{\"Browser_Bits\":\"32\",\"Platform\":\"WinVista\",\"Platform_Version\":\"6.0\",\"Win32\":true}",
        "30de46b6901b89629cbe031fa34f85e1\t{\"Platform_Version\":\"8.0\",\"isTablet\":true}",
        "30bbde70eae27f0ae9cfaa6b80082916\t{\"Browser_Bits\":\"32\",\"Platform\":\"WinXP\",\"Platform_Version\":\"5.1\",\"Win32\":true}",
        "300f49a2f394c4cffefd58043662a45b\t{\"Browser_Bits\":\"32\",\"Platform\":\"WinXP\",\"Platform_Version\":\"5.1\",\"Win32\":true}",
        "3036eb442905e6ff86f33169b6d903a9\t{\"Browser_Bits\":\"32\",\"Platform\":\"WinXP\",\"Platform_Version\":\"5.2\",\"Win32\":true}",
        "306e4b6d404ab9336a1412e659e91cda\t{\"Browser_Bits\":\"32\",\"Platform\":\"Win7\",\"Platform_Version\":\"6.1\",\"Win32\":true}",
        "30e65329990b487f354e4f328af94d1c\t{\"Platform_Version\":\"8.0\",\"isTablet\":true}",
        "30d65471ac062ae3424a492d1d208bcb\t{\"Browser_Bits\":\"32\",\"Platform\":\"WinVista\",\"Platform_Version\":\"6.0\",\"Win32\":true}",
        "309d3ef24c756ab25607add11c595239\t{\"Browser_Bits\":\"32\",\"Platform\":\"WinXP\",\"Platform_Version\":\"5.1\",\"Win32\":true}",
        "30ebcd437e670152b767f5c3f40d9af3\t{\"Browser_Bits\":\"32\",\"Platform\":\"Win8\",\"Platform_Version\":\"6.2\",\"Win32\":true,\"isMobileDevice\":false}",
        "30b756afd3e95f39a2ae54646fa8df8b\t{\"isMobileDevice\":true}",
        "30f338b1210051fefc12876b703e859e\t{\"Browser_Bits\":\"32\",\"Platform\":\"Win32\",\"Win32\":true}",
        "30ad3618ff24cea6f215488cf4434f7d\t{\"Browser_Bits\":\"32\",\"Platform\":\"OpenBSD\"}",
        "306ba0d92797bf132615afad956e72cb\t{\"Platform_Version\":\"6.1\",\"isTablet\":true}",
        "30bc097ad9ffe79da98673de776ff093\t{\"Browser_Bits\":\"32\",\"Platform\":\"Win8.1\",\"Platform_Version\":\"6.3\",\"Win32\":true}",
        "30a02fd199c6632ffdd3fbddfc380ead\t{\"Browser_Bits\":\"32\",\"Platform\":\"WinXP\",\"Platform_Version\":\"5.1\",\"Win32\":true}",
        "30e1e7904d435ffdad6d693e6ea471e7\t{\"Browser_Bits\":\"32\",\"Platform\":\"Win32\",\"Win32\":true}",
        "305d76c181d94567dad83ca805caed4c\t{\"Browser_Bits\":\"32\",\"Platform\":\"MacOSX\",\"Platform_Version\":\"10.10\"}",
        "30820693c1212c04753e268403ab1c03\t[]",
        "30be504a8cabe8c7744383b78e7274e1\t{\"Browser_Bits\":\"32\",\"Platform\":\"MacOSX\",\"Platform_Version\":\"10.10\"}",
        "3090ae538035508486b1e34ce5ddb67f\t{\"Browser_Bits\":\"32\",\"Platform\":\"MacOSX\",\"Platform_Version\":\"10\"}",
        "3032d856aa5b5616e2f1140d09a5486c\t{\"Browser_Bits\":\"32\",\"Platform\":\"NetBSD\"}",
        "306dcae2dc25189fdc39ab0d705a9a24\t{\"isTablet\":true}",
        "301a68633b59c1d53bb60919327c7b3e\t{\"Browser_Bits\":\"32\",\"Platform\":\"HP-UX\"}",
        "3032eb682c232bc30b4c8c3567da570d\t[]",
        "302f08259a02acabb2912ff2033531e7\t{\"Platform_Version\":\"8.0\",\"isTablet\":true}",
        "301a989cf6da18d1505dcbe0f680caf1\t[]",
        "30713ad84670c09681d9e8e4af0c7e6a\t[]",
        "301fb94a08f84d9a2c3b2b9e79cdb6ff\t{\"Platform_Version\":\"7.1\"}",
        "30abbda219e3d046d5d8bc3e4214a673\t{\"Browser_Bits\":\"32\",\"Platform\":\"AIX\"}",
        "3053e8b8f7d3285f38e9fc15f492545a\t{\"Browser_Bits\":\"64\",\"Platform\":\"IRIX64\"}",
        "30cbd71178bdd5595e0926a9efea910a\t[]",
        "303d88092a870f607b4975e3d21fd359\t[]",
        "30b6b3d3085e5fa977222e3f3f251398\t[]",
        "30fedc9cf841b1085330fd4d325ffa40\t{\"Platform_Version\":\"7.0\"}",
        "303f9a3e2979fd6a356a2ddb7b0fcf72\t{\"Platform_Version\":\"10.9\"}",
        "3046e6245da36703914acdbfc9f68b35\t[]"
    ]
}