{
    "content": [
        "7222fd5075e0ceb0cfc09fe0516aef2d\t[]",
        "729441df5ea7d4f67fc1cc496574c2f2\t[]",
        "721e9e856903b0c816e0f6712439ab82\t[]",
        "7251575788553c60636779db8c428ecd\t[]",
        "728e0a80dd8bf2babd4fc6fe04403e3a\t[]",
        "7289bd2be0173dc1101e909b0b612259\t[]",
        "7244931b316167e38229ac35c970240c\t[]",
        "72195ab15473318a174b7a1b39900f35\t{\"Browser_Bits\":\"32\",\"Platform\":\"Win7\",\"Platform_Version\":\"6.1\",\"Win32\":true}",
        "7212ea9283ff6d42aebc40a8e01d2628\t[]",
        "72a56c54c11c57f26f41736d8acf7ae9\t[]",
        "721c57a81e963cdad4841b58f6dd7dcd\t{\"Platform\":\"WinXP\",\"Platform_Version\":\"5.2\"}",
        "7276756d60ba80d0c760b12e83f6a505\t[]",
        "724fe5c84ea01e3805f01f4d70293e25\t[]",
        "729062cf770c31d04894658ee51011a9\t[]",
        "72b9ab52584cf971966562523c16da7e\t[]",
        "7258e47bbf8ac84f59c02058c6d68318\t[]",
        "72e757073da1ac5d75a39d62e5b25a34\t[]",
        "72a1257c406406d2f9c941f05c935984\t[]",
        "723b2d5c2147a8e5242295f7668408fd\t[]",
        "72b069fde0b5981bf7235c7dd32122ee\t{\"Browser_Bits\":\"32\",\"Platform\":\"Linux\"}",
        "7260a60c5466d3e56cae8e3ecc3bd2d2\t{\"Browser_Bits\":\"32\",\"Platform\":\"Win10\",\"Platform_Version\":\"10.0\",\"Win32\":true}",
        "72bb2c5831796fd17c6ddacbd4920043\t{\"Browser_Bits\":\"32\",\"Platform\":\"WinVista\",\"Platform_Version\":\"6.0\",\"Win32\":true}",
        "727c30b48d0588bd0de18677b7e859d4\t{\"Browser_Bits\":\"32\",\"Platform\":\"Win7\",\"Platform_Version\":\"6.1\",\"Win32\":true}",
        "72ab5b972b1a3d34d5c066a29ab3a576\t{\"Browser_Bits\":\"32\",\"Platform\":\"MacOSX\",\"Platform_Version\":\"10\"}",
        "726fd26ebdaff95f93e4abb385ed1367\t{\"Browser_Bits\":\"32\",\"Platform\":\"MacOSX\",\"Platform_Version\":\"10.10\"}",
        "72f848e20731254344c1fec0cc9abca5\t{\"Browser_Bits\":\"32\",\"Platform\":\"Win8.1\",\"Platform_Version\":\"6.3\",\"Win32\":true}",
        "72d40e5936b85171785c2b8286e187be\t{\"Platform\":\"WinXP\",\"Platform_Version\":\"5.1\"}",
        "72e4c8932ca9be79ce4bfbf133e20dc4\t{\"Platform\":\"Win8.1\",\"Platform_Version\":\"6.3\"}",
        "72e62d1c6514b240317021afae7e5cc8\t{\"Platform\":\"iOS\",\"Platform_Version\":\"9.0\",\"Win32\":false,\"isMobileDevice\":true,\"isTablet\":true}",
        "72982369431e19b86e9e66852adb8488\t{\"Platform\":\"WinVista\",\"Platform_Version\":\"6.0\"}",
        "72a21562d578f6ca4733aba4bc7cfeae\t{\"Platform\":\"iOS\",\"Win32\":false,\"isMobileDevice\":true,\"isTablet\":true}",
        "723f2af979bfc78fa4aec1d729b418d7\t{\"Browser_Bits\":\"32\",\"Platform\":\"Win10\",\"Platform_Version\":\"10.0\",\"Win32\":true}",
        "72614e6d83c7e8cbb6d8c4942cf061b7\t{\"Browser_Bits\":\"32\",\"Platform\":\"OpenBSD\"}",
        "72d62a9520dd2b82a7e56066b1675679\t{\"Platform_Version\":\"4.2\"}",
        "72ddcaf691e41fbf51163d4c4d05024d\t{\"Platform_Version\":\"9.0\",\"isTablet\":true}",
        "724ce2d049f187762ef4977e51b0e2bd\t{\"Platform_Version\":\"4.4\",\"isTablet\":true}",
        "72f10029ad3730c76170f8abd279f572\t{\"Platform_Version\":\"4.3\"}",
        "72470be64a2b4e20f614401693316eca\t{\"Platform\":\"iOS\",\"Platform_Version\":\"7.0\",\"isTablet\":true}",
        "72bbe27b7c8bfa003b2202330c7a7b06\t{\"Platform_Version\":\"4.4\",\"isTablet\":true}",
        "72a4675ce2874c9788afe4ecc1dca88d\t{\"Platform_Version\":\"4.2\",\"isTablet\":true}",
        "721dbd5fcdd452ac1eb98ed6970e841c\t{\"Platform_Version\":\"6.1\"}",
        "72b38df3c36f57851cc7397196662bc2\t{\"Platform\":\"iOS\",\"Platform_Version\":\"10.0\"}",
        "72e1afe713a9e314fdae90ac87a63af6\t{\"Platform\":\"iOS\",\"Platform_Version\":\"7.0\"}",
        "72583b9f7d6d010682d03e8f1e1a7eb5\t{\"Browser_Bits\":\"32\",\"Platform\":\"WinVista\",\"Platform_Version\":\"6.0\",\"Win32\":true}",
        "7285b6f81ec50a80be6945c465fded0b\t{\"Platform\":\"SymbianOS\"}",
        "72b2b739450e0de297c06473bef5315a\t[]",
        "72cba111bee5186f2d38dd8dc10a1ea1\t[]",
        "7200c44792759851dbbf35cf7dcffeff\t{\"Platform_Version\":\"4.4\"}",
        "72671fdce21a6a33df11f522e4f7559b\t{\"Platform_Version\":\"8.4\",\"isTablet\":true}",
        "72a3c04fcd37779cd3a2520b0f83bbd6\t{\"Platform_Version\":\"10.1\",\"isTablet\":true}",
        "728aeec4f680797101ba67404a04e289\t[]",
        "728da7274537f345a5f6c58d4fec8f07\t{\"Platform\":\"WinXP\",\"Platform_Version\":\"5.1\"}",
        "7261b2598dc936310aa5a0613c2c0dc3\t{\"Platform\":\"Win7\",\"Platform_Version\":\"6.1\",\"Win32\":true}",
        "727ddb1678e624a779225f22f7423803\t{\"Browser_Bits\":\"32\",\"Platform\":\"Linux\"}",
        "72ffa22d74fff5bc218875f5b8426e4c\t{\"Platform\":\"Win10\",\"Platform_Version\":\"10.0\",\"Win32\":true}",
        "7225c5ae5222b3757796e5a021899d54\t{\"Platform\":\"WinVista\",\"Platform_Version\":\"6.0\",\"Win32\":true}",
        "72d36a4fd554ec54c4e1794af1ff98f4\t{\"Platform\":\"Win8\",\"Platform_Version\":\"6.2\",\"Win32\":true}",
        "72cd306823b1dac8d263f6eb1cbe4576\t{\"Platform\":\"Win10\",\"Platform_Version\":\"6.4\",\"Win32\":true}",
        "726723b61db0a0fcb80e73f8c0fb5bf0\t{\"Platform_Version\":\"10.0\",\"isTablet\":true}",
        "729de67ad4250122b04151dbc5afbea5\t[]",
        "725eb3f533bf3da9251de10df3998887\t{\"Platform_Version\":\"4.2\",\"isTablet\":true}",
        "7294c45bbd778c1de77ede97ad9df3df\t{\"Platform_Version\":\"5.1\",\"isTablet\":true}",
        "725126a1376da072ad544a220aaed8b7\t{\"Platform_Version\":\"4.4\",\"isTablet\":true}",
        "727daef94234980d2c64cff635c13062\t{\"Platform_Version\":\"4.3\",\"isTablet\":true}",
        "72c2ab785393bb82b3b9652cc607956d\t{\"Platform_Version\":\"4.3\",\"isTablet\":true}",
        "72c0db0d9d543f52e7b373c1bcae7048\t{\"Platform_Version\":\"4.2\",\"isTablet\":true}",
        "729944f4a6b12c7c561a44152c5962c1\t{\"Platform_Version\":\"4.3\",\"isTablet\":true}",
        "7289141173c02cfc3d8925599a018d02\t{\"Platform_Version\":\"4.2\",\"isTablet\":true}",
        "7249af2e95c4e38533aa9f151bf412c2\t{\"Platform_Version\":\"4.4\",\"isTablet\":true}",
        "7217ec9cbb109357ccfe5c8bfe56b42c\t{\"Platform_Version\":\"7.0\"}",
        "728a5ff34599f8124b1d52f83f0fcf9b\t{\"Platform_Version\":\"5.0\",\"isTablet\":true}",
        "7273cca26919469b496451eb0cb3d86c\t{\"Platform_Version\":\"5.0\",\"isTablet\":true}",
        "72ce644165a04a9f421c6ac71bbbc52e\t{\"Platform_Version\":\"4.3\",\"isTablet\":true}",
        "725462a2fc42cbb54dcf956475705c24\t{\"Platform_Version\":\"4.3\",\"isTablet\":true}",
        "724228e0b34dd89044200dbe50a97283\t{\"Platform_Version\":\"4.2\",\"isTablet\":true}",
        "722c3a40934047efb87c734c21a96a88\t{\"Platform_Version\":\"4.4\",\"isTablet\":true}",
        "72851fe4e797c28b8f0737b6bab4267a\t{\"Platform_Version\":\"4.3\",\"isTablet\":true}",
        "72337d16ba246e4cc18c00b812b3ad94\t{\"Platform_Version\":\"6.1\"}",
        "72e7ec5a60562e378fbd27c4890137c4\t{\"Browser_Bits\":\"32\",\"Platform\":\"JAVA\"}",
        "72ad558b282e62bec88484fa8d9c81fc\t{\"Browser_Bits\":\"32\",\"Platform\":\"Android\"}",
        "723677c40afcd673ef4d79cd47b3e312\t{\"Platform_Version\":\"9.0\",\"isTablet\":true}",
        "72bfd0274337bb71602d1a5a9fdfcbc1\t{\"Platform_Version\":\"8.2\"}",
        "72bc6612918b6a9b2b6122c2555d15bd\t{\"Platform_Version\":\"4.2\",\"isTablet\":true}",
        "72bfa562df525d9792d832a23304c826\t{\"Platform_Version\":\"8.0\"}",
        "724ddc68f4beb3fc609bb4f022d1b29e\t{\"Platform_Version\":\"4.4\"}",
        "72e22af49d40794565e597ba0facc2da\t{\"Platform_Version\":\"8.1\"}",
        "726a297038177b8d5b18dd6418d6ecbc\t{\"Browser_Bits\":\"32\",\"Platform\":\"MacOSX\",\"Platform_Version\":\"10\"}",
        "72c4ce1618e7e666ec47a75443776733\t{\"Browser_Bits\":\"32\",\"Platform\":\"Win8.1\",\"Platform_Version\":\"6.3\",\"Win32\":true}",
        "72d483ee88df7d1b6c3b57201b50f383\t{\"Platform_Version\":\"10.3\"}",
        "7246bdd9a38d4d11eaf0832e882dceb0\t{\"Browser_Bits\":\"32\",\"Platform\":\"WinVista\",\"Platform_Version\":\"6.0\",\"Win32\":true}",
        "72a669fa48882ed2094070aff55e76a8\t{\"Platform_Version\":\"4.4\",\"isTablet\":true}",
        "7233eff0718441961647fa0b810d8996\t{\"Platform_Version\":\"8.2\"}",
        "7279adfa9bc9cb7ac3fbe92a49c1f4ce\t{\"Platform_Version\":\"10.0\"}",
        "7214fa88d184eda06ce52fb73678bcba\t{\"Browser_Bits\":\"32\",\"Platform\":\"WinXP\",\"Platform_Version\":\"5.1\",\"Win32\":true}",
        "72b622794fd193f58cfd55b373334960\t{\"Platform_Version\":\"10.0\"}",
        "729c5fe419ca41d51989a5bbcbbde50c\t{\"Platform_Version\":\"4.2\",\"isTablet\":true}",
        "72b66cd953c920248be8fa9ace207293\t[]",
        "7216cf9ea6fe1daeb1faeb91959d1b28\t{\"Browser_Bits\":\"32\",\"Platform\":\"Win10\",\"Platform_Version\":\"6.4\",\"Win32\":true}",
        "723545d5bab1d1794ffe2a131529753b\t{\"Platform_Version\":\"10.1\"}",
        "72dd9d17c3d2c313ce10e296f15ca37b\t{\"Platform_Version\":\"10.3\"}",
        "729b2ee9dbc513790f8a83e0ec737be9\t{\"Browser_Bits\":\"32\",\"Platform\":\"iOS\",\"isMobileDevice\":true}",
        "72688d11213c05725e5c1c0705255770\t{\"Platform_Version\":\"4.2\",\"isTablet\":true}",
        "722652b2439d0048fb26cc8a2e2e2134\t{\"Platform_Version\":\"4.4\",\"isTablet\":true}",
        "7280a770ff293a7f7bf96eb39ff742c3\t{\"Platform_Version\":\"4.2\",\"isTablet\":true}",
        "72c91d24f8d8e74b9178da48a549928b\t{\"Platform_Version\":\"4.4\",\"isTablet\":true}",
        "72ffcd87c017acdc2e754b81aade5812\t{\"Browser_Bits\":\"32\",\"Platform\":\"Android\",\"Platform_Version\":\"4.3\"}",
        "72d12844c878717957108c14d652185d\t{\"Browser_Bits\":\"32\",\"Platform\":\"Android\",\"Platform_Version\":\"4.3\"}",
        "72dc2fa680a7d4345d524d66d9217add\t{\"Browser_Bits\":\"32\",\"Platform\":\"MacOSX\",\"Platform_Version\":\"10\"}",
        "72c532f8fa7451be5774609fc34d48de\t{\"Browser_Bits\":\"32\",\"Platform\":\"Win8\",\"Platform_Version\":\"6.2\",\"Win32\":true}",
        "727bab7b547884ab52906a39e6f6a61b\t{\"Browser_Bits\":\"32\",\"Platform\":\"Linux\"}",
        "72d7e4335b4dae8021a67ca1daa0f9fd\t{\"Browser_Bits\":\"32\",\"Platform\":\"Win7\",\"Platform_Version\":\"6.1\",\"Win32\":true}",
        "7247ec63d5a74d985db49b5d6fded426\t{\"Browser_Bits\":\"32\",\"Platform\":\"WinXP\",\"Platform_Version\":\"5.1\",\"Win32\":true}",
        "7220c4c1a5a14363a94e070e34c120c8\t{\"Browser_Bits\":\"32\",\"Platform\":\"WinXP\",\"Platform_Version\":\"5.1\",\"Win32\":true}",
        "72a390184e12a1d614507a49619a1bc0\t{\"Browser_Bits\":\"32\",\"Platform\":\"WinXP\",\"Platform_Version\":\"5.2\",\"Win32\":true}",
        "72ab9a25336a501a8cd7246e9baceeeb\t{\"Browser_Bits\":\"32\",\"Platform\":\"Linux\"}",
        "72452b5bc18a7b4dc5694a9ce059c703\t{\"Browser_Bits\":\"32\",\"Platform\":\"Win8\",\"Platform_Version\":\"6.2\",\"Win32\":true}",
        "728dc50d9671945c33ca877f70e3a394\t{\"Browser_Bits\":\"32\",\"Platform\":\"Win7\",\"Platform_Version\":\"6.1\",\"Win32\":true}",
        "72d07e61cd0d2c651ff01cf978ff8efa\t{\"Browser_Bits\":\"32\",\"Platform\":\"WinVista\",\"Platform_Version\":\"6.0\",\"Win32\":true}",
        "72a74d62915562c8ec4568cb3f1f2f40\t{\"Browser_Bits\":\"32\",\"Platform\":\"MacOSX\",\"Platform_Version\":\"10\"}",
        "7209bedfd7e7efee7327576c84a6bb57\t{\"Browser_Bits\":\"32\",\"Platform\":\"Linux\"}",
        "72018616ebe7d513407d5375c3a942ab\t{\"Browser_Bits\":\"32\",\"Platform\":\"Win7\",\"Platform_Version\":\"6.1\",\"Win32\":true}",
        "721b28af24e349fff88fee53acbc4abf\t{\"Browser_Bits\":\"32\",\"Platform\":\"MacOSX\",\"Platform_Version\":\"10.9\"}",
        "724598adf6eb7217ccf341e8ae052914\t{\"Browser_Bits\":\"32\",\"Platform\":\"MacOSX\",\"Platform_Version\":\"10.10\"}",
        "7247a3ee7d6644c574838ca92459d825\t{\"Browser_Bits\":\"32\",\"Platform\":\"Win7\",\"Platform_Version\":\"6.1\",\"Win32\":true}",
        "72939ffbb7804ef379f2af56c0f7b1a9\t{\"Browser_Bits\":\"32\",\"Platform\":\"Win8\",\"Platform_Version\":\"6.2\",\"Win32\":true}",
        "723eae9fc533cf80fd3f3fa3842a08c3\t{\"Browser_Bits\":\"32\",\"Platform\":\"Win8.1\",\"Platform_Version\":\"6.3\",\"Win32\":true}",
        "727e5672cfc69d907fdf384c1ebfcb13\t{\"Browser_Bits\":\"32\",\"Platform\":\"WinXP\",\"Platform_Version\":\"5.1\",\"Win32\":true}",
        "72791078148c46a4a698d7f91543ed2e\t{\"Browser_Bits\":\"32\",\"Platform\":\"FreeBSD\"}",
        "720ee488ce630141489a222a1b7e850e\t{\"Browser_Bits\":\"32\",\"Platform\":\"Win8.1\",\"Platform_Version\":\"6.3\",\"Win32\":true}",
        "7297b1d46118ce864edcc0b157a6a375\t[]",
        "7257bba6e0a5f2037e2516891918558b\t{\"Browser_Bits\":\"32\",\"Platform\":\"WinXP\",\"Platform_Version\":\"5.1\",\"Win32\":true}",
        "729790b050bc4ce39a0017ce04b90bca\t{\"Browser_Bits\":\"32\",\"Platform\":\"WinXP\",\"Platform_Version\":\"5.1\",\"Win32\":true}",
        "72f5e2db7546bc1dd6d267754e3f58b8\t{\"Browser_Bits\":\"32\",\"Platform\":\"MacOSX\",\"Platform_Version\":\"10.9\"}",
        "72cca4dc79cb1c186e5ac6699081c409\t[]",
        "721eaf61ea3d560e2f065205390b5df8\t[]",
        "72bb4a7411f5c696139e860d1edcca12\t{\"Browser_Bits\":\"32\",\"Platform\":\"Linux\"}",
        "7228fc2460430d21ebf7db1e0781263b\t{\"Browser_Bits\":\"32\",\"Platform\":\"Win8.1\",\"Platform_Version\":\"6.3\",\"Win32\":true}",
        "7278c7c5fa80a9a8cc233073dc6b72d2\t{\"Browser_Bits\":\"32\",\"Platform\":\"Linux\"}",
        "7200f9fc6e0c6fd4935019e12a249716\t{\"Browser_Bits\":\"32\",\"Platform\":\"WinXP\",\"Platform_Version\":\"5.1\",\"Win32\":true}",
        "729b4916301ecc6b38ba1eb8b54fd071\t{\"Browser_Bits\":\"32\",\"Platform\":\"WinXP\",\"Platform_Version\":\"5.2\",\"Win32\":true}",
        "7282fbeda454d038aa6e24d107eec5f4\t{\"Browser_Bits\":\"32\",\"Platform\":\"Win7\",\"Platform_Version\":\"6.1\",\"Win32\":true}",
        "726fb1c6e992189f9170232039d9ce5f\t{\"Browser_Bits\":\"32\",\"Platform\":\"Win8.1\",\"Platform_Version\":\"6.3\",\"Win32\":true}",
        "72c38a4ccba1e95ae52d2f4ee290f16a\t{\"Browser_Bits\":\"32\",\"Platform\":\"MacOSX\",\"Platform_Version\":\"10.9\"}",
        "72aa48b80ac815fbd49a9b89eb58fc7d\t{\"Browser_Bits\":\"32\",\"Platform\":\"WinVista\",\"Platform_Version\":\"6.0\",\"Win32\":true}",
        "729d5e0ddc09837177ac844a5e133e3e\t{\"Browser_Bits\":\"32\",\"Platform\":\"Win8\",\"Platform_Version\":\"6.2\",\"Win32\":true}",
        "720ee5720b3c1df926745d55a32d787a\t{\"Browser_Bits\":\"32\",\"Platform\":\"SunOS\"}",
        "72ec4da5811873f2ddb2dca299259a9e\t{\"Browser_Bits\":\"32\",\"Platform\":\"Win8\",\"Platform_Version\":\"6.2\",\"Win32\":true}",
        "729314337211ac1fea9fe73b4cf2223a\t{\"Browser_Bits\":\"32\",\"Platform\":\"Win8\",\"Platform_Version\":\"6.2\",\"Win32\":true}",
        "726a1f3731c852649e9123c9be5fa507\t{\"Browser_Bits\":\"32\",\"Platform\":\"WinXP\",\"Platform_Version\":\"5.2\",\"Win32\":true}",
        "728d586c65328893c648b61cf1a3e633\t{\"Browser_Bits\":\"32\",\"Platform\":\"WinXP\",\"Platform_Version\":\"5.1\",\"Win32\":true}",
        "72c2f8faa7d536e025ecd4b0f67e694d\t{\"Browser_Bits\":\"32\",\"Platform\":\"WinXP\",\"Platform_Version\":\"5.1\",\"Win32\":true}",
        "725649b0a79886d1af8d2b2a59c7e620\t[]",
        "72f04c0657b73fb403078a2bfa8b56f4\t{\"Browser_Bits\":\"32\",\"Platform\":\"MacOSX\",\"Platform_Version\":\"10\"}",
        "72529ed9043e65330ade7d9ba4d51f0d\t{\"Browser_Bits\":\"32\",\"Platform\":\"MacOSX\",\"Platform_Version\":\"10\"}",
        "72dd29b36dced7b9fc293f6ef42c04a6\t{\"Browser_Bits\":\"32\",\"Platform\":\"WinXP\",\"Platform_Version\":\"5.1\",\"Win32\":true}",
        "7278f15fbcd47f6534fc3fea7f6634d0\t{\"Browser_Bits\":\"32\",\"Platform\":\"Win7\",\"Platform_Version\":\"6.1\",\"Win32\":true}",
        "7241935fe558051554d97d7cda1ce712\t{\"Browser_Bits\":\"32\",\"Platform\":\"iOS\",\"isMobileDevice\":true}",
        "72a6166ccaad7620bb450b78cfaf524c\t{\"Browser_Bits\":\"32\",\"Platform\":\"Win7\",\"Platform_Version\":\"6.1\",\"Win32\":true}",
        "72e7d4842209531c43e450cd4a2de19a\t{\"Browser_Bits\":\"32\",\"Platform\":\"Win7\",\"Platform_Version\":\"6.1\",\"Win32\":true}",
        "722c72e0c11b5102a086c09dee2ab3cd\t{\"Browser_Bits\":\"32\",\"Platform\":\"Win7\",\"Platform_Version\":\"6.1\",\"Win32\":true}",
        "72b624629d0cee92cdb9d356d1be4ac9\t{\"Browser_Bits\":\"32\",\"Platform\":\"MacOSX\",\"Platform_Version\":\"10.10\"}",
        "726a557dd9b14b96a623eb502d0c0b6c\t{\"Browser_Bits\":\"32\",\"Platform\":\"Win8\",\"Platform_Version\":\"6.2\",\"Win32\":true}",
        "72cbeb9a3647d2dd808df099b6b5dacc\t{\"Browser_Bits\":\"32\",\"Platform\":\"WinXP\",\"Platform_Version\":\"5.1\",\"Win32\":true}",
        "72a34f5c3368973ca76290d25940bbac\t{\"Browser_Bits\":\"32\",\"Platform\":\"WinXP\",\"Platform_Version\":\"5.1\",\"Win32\":true}",
        "72b5d55ceaaa5fe31f86634c6546c467\t{\"Browser_Bits\":\"32\",\"Platform\":\"Win8\",\"Platform_Version\":\"6.2\",\"Win32\":true}",
        "720ac822797f723f6fc0ee47228b8300\t{\"Browser_Bits\":\"32\",\"Platform\":\"MacOSX\",\"Platform_Version\":\"10\"}",
        "7234e5bf3bfd13bfdc1bdbbcf165a474\t{\"Browser_Bits\":\"32\",\"Platform\":\"MacOSX\",\"Platform_Version\":\"10.9\"}",
        "7270c4aa0bb58b3e1ff60895b7e2b379\t{\"Platform_Version\":\"4.2\",\"isTablet\":true}",
        "721f14d44551404f9004c625776bb0bc\t{\"Platform_Version\":\"4.4\",\"isTablet\":true}",
        "72e7bb6fb3e1e34b740c3b9ea347491e\t{\"Browser_Bits\":\"32\",\"Platform\":\"Win7\",\"Platform_Version\":\"6.1\",\"Win32\":true}",
        "72b9fc67ee5df6f8ee8a3e40a72bce7c\t{\"Platform_Version\":\"4.3\",\"isTablet\":true}",
        "729a7b3dc957f4aba44665ef0850ed29\t{\"Platform_Version\":\"4.4\",\"isTablet\":true}",
        "72ccac4159de9af8a06e67832a0e01ed\t{\"Platform_Version\":\"4.2\",\"isTablet\":true}",
        "72b2eecf183a74255236a3ac01411098\t{\"Browser_Bits\":\"32\",\"Platform\":\"Win10\",\"Platform_Version\":\"10.0\",\"Win32\":true}",
        "7235e1741acb633e02658411d495a869\t{\"Browser_Bits\":\"32\",\"Platform\":\"MacOSX\",\"Platform_Version\":\"10.10\"}",
        "72cfd6b9185686d1043337208e65cfd3\t{\"Platform_Version\":\"4.4\"}",
        "72b9346eef0422c17d43e994f14ee0b0\t{\"Platform_Version\":\"4.4\",\"isTablet\":true}",
        "721d8fba65dec318a754db7885a885e8\t{\"Platform_Version\":\"4.3\",\"isTablet\":true}",
        "7212f98e620b0f95b8be6a6308dd4e2a\t{\"Platform_Version\":\"4.3\",\"isTablet\":true}",
        "729767d78a957c799927c2a7c3481ca4\t{\"Platform_Version\":\"4.2\",\"isTablet\":true}",
        "72fb6c243c0f8d4e2c5701e2b0d7e458\t{\"Platform_Version\":\"4.4\",\"isTablet\":true}",
        "72fbb48ab3c2649bfd90a0565fec9657\t{\"Platform_Version\":\"7.0\"}",
        "7299560a887c080da91c0bd468caded4\t{\"Browser_Bits\":\"32\",\"Platform\":\"Win8\",\"Platform_Version\":\"6.2\",\"Win32\":true}",
        "722fd310e5f2b1884ce9e8e3b0684e6d\t{\"Platform_Version\":\"4.4\",\"isTablet\":true}",
        "72530082f0923a84e6131897df6dba0e\t{\"Platform_Version\":\"4.4\",\"isTablet\":true}",
        "72318e3b0cc8493645ea77bc45f62a2d\t{\"Platform_Version\":\"4.3\",\"isTablet\":true}",
        "721392a064dfd2cea1f50142f55e87b8\t{\"Platform_Version\":\"10.0\",\"isTablet\":true}",
        "72e154d6e1e35fb1f13cbef6239db25e\t{\"Platform_Version\":\"9.0\"}",
        "72edf01c39f3c6ee1be37112593305d2\t{\"Platform_Version\":\"4.2\",\"isTablet\":true}",
        "72342ee69fd6dbbfea0cb08498ed4d5b\t{\"Platform_Version\":\"4.2\",\"isTablet\":true}",
        "727e0c537074cd8b869e7c9ca7dc68fc\t{\"Platform_Version\":\"9.3\"}",
        "72fbad4341cc62b1be2a553319e77399\t{\"Browser_Bits\":\"32\",\"Platform\":\"WinVista\",\"Platform_Version\":\"6.0\",\"Win32\":true}",
        "726e591ad585b40ec39ba7037d1ebed0\t{\"Platform_Version\":\"4.3\",\"isTablet\":true}",
        "721e725af817ac265d2bd5fe029f9995\t{\"Platform_Version\":\"4.3\",\"isTablet\":true}",
        "726d07518ee7eef85a1452e48f9e4a92\t{\"Platform_Version\":\"10.3\"}",
        "72b22e703363ad38c8608a2136d19ba9\t{\"Platform_Version\":\"4.4\",\"isTablet\":true}",
        "725a8916336c83be5be0cf457cddb776\t{\"Platform_Version\":\"8.0\"}",
        "725a1a0d25a7f14b74dd983a3ccb23a0\t{\"Browser_Bits\":\"32\",\"Platform\":\"WinVista\",\"Platform_Version\":\"6.0\",\"Win32\":true}",
        "72fa78da71e909e9741458cc6270fe2d\t{\"Browser_Bits\":\"32\",\"Platform\":\"iOS\",\"isMobileDevice\":true}",
        "72431d2d21156324842ad514e1ce97ed\t{\"Platform_Version\":\"4.4\",\"isTablet\":true}",
        "72d19a2ba7c334f079a962537b2b53bd\t{\"Platform_Version\":\"4.3\",\"isTablet\":true}",
        "72c42ef1576b99b40a715a45f440f51c\t{\"Platform_Version\":\"4.3\",\"isTablet\":true}",
        "72375cea59b002a2ef1c089fe85aaddf\t{\"Platform_Version\":\"4.2\",\"isTablet\":true}",
        "72c58693d41a97199916870bdfb87b9c\t{\"Platform_Version\":\"7.1\"}",
        "7237ee48a0f3ed006a19a7be668aec98\t{\"Platform_Version\":\"4.4\",\"isTablet\":true}",
        "72403608732872a7e4b13096bf83eb9f\t{\"Platform_Version\":\"8.2\",\"isTablet\":true}",
        "727d3716d9da7fbce896e257bc8f74e0\t{\"Platform_Version\":\"10.2\",\"isTablet\":true}",
        "725e1b6ce16315b5d6ef6ce8165f0bb4\t{\"Browser_Bits\":\"32\",\"Platform\":\"Win10\",\"Platform_Version\":\"10.0\",\"Win32\":true}",
        "72e77c6c4b0abea3371b9ec6d78a2ff4\t{\"Platform_Version\":\"4.2\",\"isTablet\":true}",
        "72c45ff67e9c2d73fbdea4ee7ac53eac\t{\"Platform_Version\":\"4.3\",\"isTablet\":true}",
        "725ebe97c6fff0789be3c38056a2bbb3\t{\"Platform_Version\":\"4.2\",\"isTablet\":true}",
        "7273cb27657e8067c12be9173f2eec72\t{\"Platform_Version\":\"4.3\",\"isTablet\":true}",
        "72b3d4247e315089cc12f9f037069c64\t{\"Browser_Bits\":\"32\",\"Platform\":\"WinVista\",\"Platform_Version\":\"6.0\",\"Win32\":true}",
        "72fb959fd124448c608c7c019e6eeb90\t{\"Browser_Bits\":\"32\",\"Platform\":\"Android\",\"isMobileDevice\":true}",
        "72f0a4930a0fc0b129ee931db238e7a2\t{\"Platform_Version\":\"4.3\",\"isTablet\":true}",
        "72966571ea9ce4e4f9af2dd338159bbc\t{\"Platform_Version\":\"4.4\"}",
        "725d9afddede90848b87f55b6da06457\t{\"Platform_Version\":\"9.2\",\"isTablet\":true}",
        "72d35ae245442671c88ea90762534de9\t{\"Platform_Version\":\"4.3\",\"isTablet\":true}",
        "72d9fa8fd4f13d828fc50b9551d6c7c7\t{\"Platform_Version\":\"4.3\",\"isTablet\":true}",
        "726979f7ba670649957d7c5b452d8d2a\t{\"Platform_Version\":\"4.3\",\"isTablet\":true}",
        "7212f044380cb277c886f1d196a4160a\t{\"Platform_Version\":\"4.4\",\"isTablet\":true}",
        "72b6139afd3017b19f787faa6d261980\t[]",
        "72ab8d1ba8ad83c8559a21d85ab739cf\t{\"Platform_Version\":\"4.2\",\"isTablet\":true}",
        "7222ef7627373c4ff944fa3a0ba4be5a\t{\"Platform_Version\":\"4.4\",\"isTablet\":true}",
        "726576e19f71a3c796ee926459a13ff9\t{\"Platform_Version\":\"4.2\",\"isTablet\":true}",
        "72f232bb1d9db74bb70abcfef2115085\t{\"Browser_Bits\":\"32\",\"Platform\":\"WinXP\",\"Platform_Version\":\"5.1\",\"Win32\":true}",
        "7243b152f036200e2f5c12b93018da9b\t{\"Platform_Version\":\"4.4\",\"isTablet\":true}",
        "72df445d197c7085158da2b40d0af0f7\t{\"Platform_Version\":\"4.3\",\"isTablet\":true}",
        "726ed5669025c4bf1e5330f1cc46e64d\t{\"Platform_Version\":\"4.2\",\"isTablet\":true}",
        "726e9843ca75bcc30b65c0e8f43110f6\t{\"Platform_Version\":\"4.3\",\"isTablet\":true}",
        "726d5d8945a2651ad8ab613ba9540cfd\t{\"Platform_Version\":\"4.2\",\"isMobileDevice\":false}",
        "7299c4c0b175aea21e6c248c2f6c000e\t{\"Platform_Version\":\"4.2\",\"isTablet\":true}",
        "721d46db9327ef53dde5cc45ed3e1082\t{\"Platform_Version\":\"4.4\",\"isTablet\":true}",
        "7267784ed08824108ff0a44d86317b9a\t{\"Platform_Version\":\"4.3\",\"isTablet\":true}",
        "72200c0d64342d223439524547869fc7\t{\"Platform_Version\":\"4.2\",\"isTablet\":true}",
        "72af6b7ab14e514e2bc9265cd6a8cfd2\t{\"Platform_Version\":\"7.0\",\"isTablet\":true}",
        "729bbbceba17733ca1daa849c378368f\t{\"isTablet\":true}",
        "721c1fcd8ecf95514ce2c1e39ef30aae\t[]",
        "726f252dbf8dcc84478495fada7e22ec\t{\"Platform_Version\":\"4.2\",\"isTablet\":true}",
        "723511c4f117e7b9b9f60c51b2cc07cd\t{\"Platform_Version\":\"4.2\"}",
        "72157248e0799de5b7c59c08d759c3bc\t{\"Browser_Bits\":\"32\",\"Platform\":\"WinXP\",\"Platform_Version\":\"5.2\",\"Win32\":true}",
        "72dfc61f0869711d06a2b177ee782bd6\t{\"Platform_Version\":\"8.0\"}",
        "729ff8f1489fd0f630fa5ea706092fbe\t{\"Platform_Version\":\"10.3\"}",
        "729e85af68df42ffff3959a0cab9f1a7\t{\"Platform_Version\":\"8.4\",\"isTablet\":true}",
        "729bd203dd148ea408536ac24e375481\t{\"isTablet\":true}",
        "727ec0073310ecde8bc381a21f5996d3\t{\"Platform_Version\":\"10.0\"}",
        "7299178fcf06579e88cce1b2a581b4de\t[]",
        "72c7d4d2cd9b44677cdeb5d106f3bd10\t{\"Browser_Bits\":\"32\",\"Platform\":\"Linux\"}",
        "726e592e8d0abc3e3920665e9ec9e291\t[]",
        "72588e5ce32602325054020f78c5f177\t{\"Platform_Version\":\"8.1\"}",
        "72d9f530f119aa6605f5c78690f34e7a\t{\"Platform_Version\":\"10.1\"}",
        "72346d339bf70dbb12c26819b725e179\t[]",
        "72af8a61890e4fa0b0c195ef7af6df89\t{\"Platform_Version\":\"7.1\"}",
        "72c2f445432786d371165eca775e1451\t{\"Browser_Bits\":\"32\",\"Platform\":\"Win32\",\"Win32\":true}",
        "7272a5af76b0c60bd0a45049e4933c57\t{\"Browser_Bits\":\"32\",\"Platform\":\"WinVista\",\"Platform_Version\":\"6.0\",\"Win32\":true}",
        "727c401e48582b60e09881bb829088d9\t{\"Browser_Bits\":\"32\",\"Platform\":\"MacOSX\",\"Platform_Version\":\"10\"}",
        "72ba8dda736b1d06619cb52ff6b01eb3\t[]",
        "723e5f56d576fdebe42e695f33ddadc9\t[]",
        "727a29fe2a43966ee552dcb4316ff9d6\t{\"isMobileDevice\":true}",
        "72705695c64e291ba9381e9500668aff\t{\"Browser_Bits\":\"32\",\"Platform\":\"Win10\",\"Platform_Version\":\"6.4\",\"Win32\":true}",
        "7289c51fc40d80abd79a19ee529d92a7\t{\"isMobileDevice\":true}",
        "72098796defb7dfbd2377a6995567042\t{\"Browser_Bits\":\"32\",\"Platform\":\"iOS\",\"Platform_Version\":\"7.1\"}",
        "7255b9579f9e5028d1d48c9763a48cb2\t{\"Browser_Bits\":\"32\",\"Platform\":\"iOS\",\"Platform_Version\":\"7.0\"}",
        "723bac51435bf0ef520481be4bace0c6\t[]",
        "727ba5dd17453c78621d21bb25a5d35b\t{\"Browser_Bits\":\"32\",\"Platform\":\"Win8\",\"Platform_Version\":\"6.2\",\"Win32\":true}",
        "72fe528cad21d20d7c2d604b795a6308\t{\"Platform_Version\":\"4.2\"}",
        "727c5968ea97cabc553861339899e871\t{\"Platform_Version\":\"4.3\",\"isTablet\":true}",
        "72a0891074e026f91204148f52b3f867\t{\"Platform_Version\":\"4.2\",\"isTablet\":true}",
        "722e5ad897ceceb63e31a27e39ccc96b\t{\"Platform_Version\":\"4.2\",\"isTablet\":true}",
        "72ea9f45ab592b115d65bc41f8581f2d\t{\"Browser_Bits\":\"32\",\"Platform\":\"iOS\",\"Platform_Version\":\"7.1\",\"isTablet\":true}",
        "724b137cb42f9962078688b38cea65b1\t{\"Browser_Bits\":\"32\",\"Platform\":\"iOS\",\"Platform_Version\":\"8.2\"}",
        "72daea23201da45eaef4f59168655ed8\t{\"Browser_Bits\":\"32\",\"Platform\":\"iOS\",\"Platform_Version\":\"9.0\",\"isTablet\":true}",
        "723b78c6b6010d3227a4e02d106b2ed7\t{\"Browser_Bits\":\"32\",\"Platform\":\"Android\"}",
        "724bcc05705d70763e6f0db316ec262d\t{\"Browser_Bits\":\"32\",\"Platform\":\"WinPhone\"}",
        "72cc45d2da5c7e8e79f11fd1d9ea5998\t{\"Browser_Bits\":\"32\",\"Platform\":\"JAVA\"}",
        "72f6b7d13f612154c636a7fba1553557\t{\"Browser_Bits\":\"32\",\"Platform\":\"Brew\",\"Platform_Version\":\"2.0\"}",
        "723f86a507550b6c41fa593f5d412794\t{\"Browser_Bits\":\"32\",\"Platform\":\"JAVA\"}",
        "72fca0a2c3f308c04c4a612546319626\t{\"Browser_Bits\":\"32\",\"Platform\":\"Android\"}",
        "723f5e09a254ee02aefafab84f7481f4\t{\"Browser_Bits\":\"32\",\"Platform\":\"iOS\",\"Platform_Version\":\"8.4\",\"isTablet\":true}",
        "7290ed7d93292dfc79ac4d0991166e6e\t{\"Browser_Bits\":\"32\",\"Platform\":\"Linux\"}",
        "7202ff73df3063f32cb4f5f143887c90\t{\"Platform_Version\":\"10.2\",\"isTablet\":true}",
        "728f19f05930f7ecfac260547691a631\t{\"Platform_Version\":\"10.0\",\"isTablet\":true}",
        "72910f276b02dbb651977a5f450980b1\t{\"Platform_Version\":\"7.1\",\"isTablet\":true}",
        "7218c6a660d2cce17786f7c6ccacb099\t{\"Platform_Version\":\"10.3\"}",
        "72bdb23dd5102e1f47214a6d70218ebe\t{\"Platform_Version\":\"9.2\"}",
        "7288e6f507eecf1fbbb6f65ab6fcde1a\t{\"Platform_Version\":\"8.3\",\"isTablet\":true}",
        "728c0f591a757405418ddfd2655a9afc\t{\"Platform_Version\":\"8.4\"}",
        "72e6787b777bdbd8f52a141e6868edd6\t{\"Platform_Version\":\"9.2\",\"isTablet\":true}",
        "72be16a2cffe2c86b53072249924e030\t{\"Platform_Version\":\"8.1\",\"isTablet\":true}",
        "726cf64f2e76e091a28a446b26fa2fb4\t{\"Platform_Version\":\"9.3\"}",
        "728dfdf31d1e8510dff5275a5bc7dbc5\t{\"Platform_Version\":\"9.0\"}",
        "72b2ef36e0977581f6ec8ae5da4ee1ba\t{\"Platform_Version\":\"9.1\"}",
        "72f6bf2165d1fc6db6df60de3bf0719a\t{\"Platform_Version\":\"8.2\",\"isTablet\":true}",
        "729ed61d7914b92d80d29eb257d13917\t{\"Platform_Version\":\"8.1\"}",
        "72e203a45f2c20d1bd50dca876a1812b\t{\"Platform_Version\":\"8.3\"}",
        "720a03346aafc1ea883f5777dba1992b\t{\"Platform_Version\":\"10.0\"}",
        "72698519d5d6c5db93b8cca9cd4a9468\t{\"Platform_Version\":\"8.2\"}",
        "7272a2e711ddc1e1fbcf6608bfc3e34f\t{\"Platform_Version\":\"10.3\"}",
        "72c59f96f8ef83efeb3ad5640b3fc03e\t{\"Platform_Version\":\"8.2\"}",
        "7293ccef85210b11a94e814f7ba994f2\t{\"Platform_Version\":\"8.0\"}",
        "7229f86a79697f5505a998e7cdcbba12\t{\"Platform_Version\":\"10.1\",\"isTablet\":true}",
        "7228492a577ae57ff7123c6be4900e80\t{\"Platform_Version\":\"7.1\"}",
        "72c76700cda7c9e81d5c69fe9303d548\t{\"Platform_Version\":\"9.2\"}",
        "72c7a51e00d92ed1582d24def8f10400\t{\"Platform_Version\":\"9.0\",\"isTablet\":true}",
        "728cbe5412ec55944362d39dacbf049b\t{\"Platform_Version\":\"8.0\"}",
        "722b045b9451a4f2a239f8dd0e7cdedd\t{\"Platform_Version\":\"8.0\"}",
        "72e1c89e63d2c456b58b763119c58730\t{\"Platform_Version\":\"7.1\"}",
        "72c461651d2a602d6527ddfa50e06afa\t{\"Browser_Bits\":\"32\",\"Platform\":\"iOS\",\"Platform_Version\":\"9.2\"}",
        "7261d51b228cc00e57d221a3ecf9bf75\t{\"Platform_Version\":\"9.2\"}",
        "727ab54cdebe1c479fe12ea6f6ae18a0\t{\"isTablet\":true}",
        "72386d1d8e03df3fa6ce71a6e26cc58a\t{\"Browser_Bits\":\"32\",\"Platform\":\"MacOSX\",\"Platform_Version\":\"10\"}",
        "7296e8141d4987bcefc9f321e57c0c93\t[]",
        "72a95d0f555a4e94190b3598a6cb8b11\t[]",
        "724e2716adbe69267d1a125c626157cf\t{\"Platform_Version\":\"8.3\"}",
        "72eb14b6f2c0ae321a15abeb54e66ca2\t{\"Platform\":\"macOS\",\"Platform_Version\":\"10.12\"}",
        "728a1b6310eb5846160812b2d46a3ba5\t{\"Platform_Version\":\"10.11\"}",
        "72ea7986447fc8135795d94da9e9ad1d\t[]",
        "72b6828550900c509dfb221d6ff17256\t{\"Platform\":\"Win7\",\"Platform_Version\":\"6.1\"}",
        "72ec4b7dd1ecef380a0fc81f1f664872\t{\"Browser_Bits\":\"32\",\"Platform\":\"Linux\"}",
        "72cbf562b36c1157a286ecfeea5a524c\t{\"Browser_Bits\":\"32\",\"Platform\":\"NetBSD\"}",
        "7290dedc495040545d96eacea404471b\t{\"Browser_Bits\":\"32\",\"Platform\":\"Linux\"}",
        "72a2c464de5b65d7f63b80e1a7a85805\t{\"Browser_Bits\":\"32\",\"Platform\":\"WinVista\",\"Platform_Version\":\"6.0\",\"Win32\":true}",
        "72dedff6426be2fa6eebe77f67bc02f2\t{\"Browser_Bits\":\"32\",\"Platform\":\"WinVista\",\"Platform_Version\":\"6.0\",\"Win32\":true}",
        "7248e64e195eb9c249ec1e0e63032ccb\t{\"Browser_Bits\":\"32\",\"Platform\":\"Win8\",\"Platform_Version\":\"6.2\",\"Win32\":true}",
        "72b08d2f204f9fca692242a0922e9fd4\t{\"Browser_Bits\":\"32\",\"Platform\":\"Win8.1\",\"Platform_Version\":\"6.3\",\"Win32\":true}",
        "72c14b20b0698a4c0940e82ddf495f4b\t{\"Browser_Bits\":\"32\",\"Platform\":\"Win7\",\"Platform_Version\":\"6.1\",\"Win32\":true}",
        "724b992c79dddf8ac55ce94aa3953372\t{\"Browser_Bits\":\"32\",\"Platform\":\"MacOSX\",\"Platform_Version\":\"10.11\"}",
        "727c40817a65d9736b813f700c9d0486\t[]",
        "727de0ebaa450f7ce4752d37d47cb6b8\t{\"Browser_Bits\":\"32\",\"Platform\":\"WinXP\",\"Platform_Version\":\"5.1\",\"Win32\":true}",
        "72e392aaa5562ecaa2de13e871c96202\t{\"Browser_Bits\":\"32\",\"Platform\":\"Win8\",\"Platform_Version\":\"6.2\",\"Win32\":true}",
        "72c4b0f028e7c1fab907440c7ea82880\t{\"Platform\":\"WinVista\",\"Platform_Version\":\"6.0\"}",
        "72504cfd6a4c19b0467d4183a789329b\t{\"Platform\":\"WinVista\",\"Platform_Version\":\"6.0\"}",
        "7217b69bad6d5d6650b44136e458c06a\t{\"Platform\":\"Win8\",\"Platform_Version\":\"6.2\"}",
        "72ddfab7ce5d93c0b50fe99302753c99\t{\"Browser_Bits\":\"32\",\"Platform\":\"Win8.1\",\"Platform_Version\":\"6.3\",\"Win32\":true}",
        "72980e4a82952ca1f201acce3abb03c8\t{\"Browser_Bits\":\"32\",\"Platform\":\"Win8\",\"Platform_Version\":\"6.2\",\"Win32\":true}",
        "72fb87a864fde09d931fa900054a139d\t{\"Browser_Bits\":\"32\",\"Platform\":\"Win7\",\"Platform_Version\":\"6.1\",\"Win32\":true}",
        "72e05a399b2890d6314e9bc05faa8877\t{\"Browser_Bits\":\"32\",\"Platform\":\"Win10\",\"Platform_Version\":\"10.0\",\"Win32\":true}",
        "72b39b6c204bed62c19d79d1b70c664e\t{\"Browser_Bits\":\"32\",\"Platform\":\"MacOSX\",\"Platform_Version\":\"10\"}",
        "72d7a403ae737c23765a3f618185fe00\t{\"Browser_Bits\":\"32\",\"Platform\":\"SunOS\"}",
        "723215a81fb0f3107f74a15cc7045d20\t{\"Browser_Bits\":\"32\",\"Platform\":\"Win8\",\"Platform_Version\":\"6.2\",\"Win32\":true}",
        "722ca1cffed361e3ecd3e46edd1cc2e1\t{\"Browser_Bits\":\"32\",\"Platform\":\"MacOSX\",\"Platform_Version\":\"10.9\"}",
        "7265f12b0962427a16223613b3e69679\t{\"Browser_Bits\":\"32\",\"Platform\":\"WinXP\",\"Platform_Version\":\"5.2\",\"Win32\":true}",
        "721008db96217b540b33d7e1480ae4b1\t{\"Browser_Bits\":\"32\",\"Platform\":\"SunOS\"}",
        "72fdfd895cc723d5fb2c9cd0655e2bf3\t{\"Browser_Bits\":\"32\",\"Platform\":\"Win32\",\"Win32\":true}",
        "72972df9789d131e3d27e366ccf86279\t{\"Browser_Bits\":\"32\",\"Platform\":\"WinXP\",\"Platform_Version\":\"5.1\",\"Win32\":true}",
        "7253873d04eb0a9cdcc035eea0f49bb1\t{\"Browser_Bits\":\"32\",\"Platform\":\"WinXP\",\"Platform_Version\":\"5.1\",\"Win32\":true}",
        "72c739a85e40adc6047ba4d62b1b93b3\t{\"Browser_Bits\":\"32\",\"Platform\":\"WinVista\",\"Platform_Version\":\"6.0\",\"Win32\":true}",
        "722f47568e0446e76b3ce067960ff7d5\t{\"Platform_Version\":\"9.0\",\"isTablet\":true}",
        "7237af64fd022d252cfc3e7a1708104f\t{\"Browser_Bits\":\"32\",\"Platform\":\"Win32\",\"Win32\":true}",
        "72692ed5ea6901b4e5e74cf8dc30171f\t{\"Browser_Bits\":\"32\",\"Platform\":\"Win8\",\"Platform_Version\":\"6.2\",\"Win32\":true}",
        "72bb3586db61c8f2d4b4e1ffa6136328\t[]",
        "721a31cf5d1d72d935f7cfe46d9a3e9d\t{\"Browser_Bits\":\"32\",\"Platform\":\"Win7\",\"Platform_Version\":\"6.1\",\"Win32\":true}",
        "72707c2c0c29eef110ec5db12b8f3faa\t{\"Browser_Bits\":\"32\",\"Platform\":\"WinVista\",\"Platform_Version\":\"6.0\",\"Win32\":true}",
        "72a0edd6ea745f5a984939ef02c29244\t{\"Browser_Bits\":\"32\",\"Platform\":\"Win8\",\"Platform_Version\":\"6.2\",\"Win32\":true}",
        "72121d9abf2bb917f0799bb32f619ff1\t{\"Browser_Bits\":\"32\",\"Platform\":\"Win8\",\"Platform_Version\":\"6.2\",\"Win32\":true}",
        "72842902f39207d306da23f72f747d62\t{\"Platform_Version\":\"8.3\"}",
        "72a6c6028009f54e957b8105f2069419\t{\"Browser_Bits\":\"32\",\"Platform\":\"Android\",\"isMobileDevice\":true}",
        "7289aa8f466ae4cf30dbac96771e0d7d\t{\"isMobileDevice\":true}",
        "728e5e93d687dba2f2c1c12ed4145ab5\t{\"Browser_Bits\":\"32\",\"Platform\":\"MacOSX\",\"Platform_Version\":\"10\",\"isMobileDevice\":false}",
        "72af826efd94ee0923fa246a0f79cc33\t{\"isMobileDevice\":true}",
        "722454baf1aab986544f59e2e76e50e1\t{\"Browser_Bits\":\"32\",\"Platform\":\"Win32\",\"Win32\":true}",
        "728fcb0ee25439b498414e67f5cef144\t{\"Platform\":\"Win8.1\",\"Platform_Version\":\"6.3\"}",
        "72e513b5c8bd700ed6d60e922304b49c\t[]",
        "722c07c3a045c5835f59adf7cf0fc7e5\t{\"Browser_Bits\":\"32\",\"Platform\":\"Win7\",\"Platform_Version\":\"6.1\",\"Win32\":true}",
        "7205b7c4fdb7baf0c8da70869b2239d0\t{\"Browser_Bits\":\"32\",\"Platform\":\"Android\",\"isMobileDevice\":true}",
        "72369a9251afceb40bbca36df65b292b\t{\"Platform_Version\":\"7.1\"}",
        "72fa3103e2a449e7f70129d0fda8640d\t[]",
        "72233097731bc80a9883f0ba4c8caff4\t{\"Browser_Bits\":\"32\",\"Platform\":\"WinVista\",\"Platform_Version\":\"6.0\",\"Win32\":true}",
        "72be72aecb2c10891c08d03f6d1c18ef\t{\"Browser_Bits\":\"32\",\"Platform\":\"Win8.1\",\"Platform_Version\":\"6.3\",\"Win32\":true}",
        "7214fcfcb25fbd8c305af9bac0c2cfab\t{\"Browser_Bits\":\"32\",\"Platform\":\"HP-UX\"}",
        "72b0bc531ded76d124b8e18a9cd8e7e6\t{\"Browser_Bits\":\"32\",\"Platform\":\"Win8.1\",\"Platform_Version\":\"6.3\",\"Win32\":true}",
        "7208e9976b62f7001bb6579adc742525\t{\"Browser_Bits\":\"32\",\"Platform\":\"Win32\",\"Win32\":true}",
        "7291404a075acb0bda7b76e4c9116c7b\t{\"Browser_Bits\":\"32\",\"Platform\":\"MacOSX\",\"Platform_Version\":\"10.11\"}",
        "727456ba56429b43478ab9316bdd8a35\t{\"Browser_Bits\":\"32\",\"Platform\":\"Win7\",\"Platform_Version\":\"6.1\",\"Win32\":true}",
        "722270219426d71fbedac2b657a759c5\t{\"Browser_Bits\":\"32\",\"Platform\":\"macOS\",\"Platform_Version\":\"10.12\"}",
        "72c1228abbc317797cdb4b16e3afa2be\t{\"Browser_Bits\":\"32\",\"Platform\":\"Linux\"}",
        "728d345bff1663975358255d7c6de766\t{\"Browser_Bits\":\"32\",\"Platform\":\"Win32\",\"Win32\":true}",
        "720c92f6e9eafed8fede56d12630e1fc\t{\"Browser_Bits\":\"32\",\"Platform\":\"MacOSX\",\"Platform_Version\":\"10.10\"}",
        "72d1d03f64d2affabbc3d578ef2d609f\t{\"Browser_Bits\":\"32\",\"Platform\":\"Win8.1\",\"Platform_Version\":\"6.3\",\"Win32\":true}",
        "72de953704952530b98e7321e8f52797\t{\"Browser_Bits\":\"32\",\"Platform\":\"HP-UX\"}",
        "72ceb9f46a1ac3e09beaa4a06bed69d3\t{\"Browser_Bits\":\"32\",\"Platform\":\"Darwin\"}",
        "7219c468eb6a411d7090f88eecbb5e5f\t{\"Browser_Bits\":\"32\",\"Platform\":\"Win8.1\",\"Platform_Version\":\"6.3\",\"Win32\":true}",
        "7242b2d2de6880aed86c9ea01cb3866d\t{\"Browser_Bits\":\"32\",\"Platform\":\"DragonFly BSD\"}",
        "721a0776c8de060901da734522a39d66\t{\"Browser_Bits\":\"32\",\"Platform\":\"MacOSX\",\"Platform_Version\":\"10.9\"}",
        "72fdee7acdc53c3bd9100ffd8c250bf4\t[]",
        "72f86eb891ce65f6b02f0bbbee89c883\t{\"Platform\":\"Win7\",\"Platform_Version\":\"6.1\",\"Win32\":true}",
        "7244c9e7f8d0fe57f017313d9110811b\t[]",
        "724432aa074068ca40a561ebbada2b79\t{\"Platform\":\"WinVista\",\"Platform_Version\":\"6.0\",\"Win32\":true}",
        "72e9e178fedfff013956e4b51c6ba2aa\t[]",
        "72150a0a3230bcfbe577cfc2229510d6\t{\"Platform_Version\":\"8.1\"}",
        "72ee7d1ce0935d4cab58b7804df253bd\t{\"Platform_Version\":\"7.0\"}",
        "72dc12cc394da6d6a9324674940cc8cd\t{\"Browser_Bits\":\"32\",\"Platform\":\"iOS\",\"Platform_Version\":\"9.1\"}",
        "7279b1b5f21bac91e5846005762faaee\t[]",
        "729a925a9729e5ca79b843ec80994047\t[]"
    ]
}