{
    "content": [
        "8d1d9cb3412a110835f2bdecc9145a55\t33\texoplayerdemo\\\/[\\d]\\.[\\d][\\d].* \\(linux;android.*",
        "8d399ccdb4914240927eaeb9ddb9b46b\t13\thrcrawler\\\/[\\d]\\.[\\d].*",
        "8d3cc30146a91ddd2cc887988c480342\t30\tpython\\-requests\\\/.* cpython\\\/.*linux.*",
        "8d3cc30146a91ddd2cc887988c480342\t16\tpython\\-requests\\\/.*",
        "8d6b431e7c8be0500ed6b9c4788cc79f\t8\tworiobot.*",
        "8d6c391e7cb39133c91b73281a24f21f\t15\tvalidator\\.nu\\\/lv.*",
        "8d777f385d3dfec8815d20f7496026dc\t11\tdata mining",
        "8d77fc90c990c7146e8b3f2673f3c9aa\t31\tsagem\\-myc\\-[\\d]b\\\/[\\d]\\.[\\d] up\\.browser\\\/[\\d]\\.[\\d].*",
        "8d9c53edb0bb0f796c5d49d8111e7529\t14\texabot\\-images\\\/.*",
        "8daeb07ac69540bb449aa35b0db673b8\t67\tatrax solutions atraxbot\\\/[\\d]\\..*; http\\:\\\/\\\/www\\.atraxsolutions\\.com\\\/atraxbot",
        "8daf188649af1194f33ddfa00d096b6a\t25\tsie\\-c[\\d]v\\\/[\\d]. up\\.browser\\\/[\\d]\\.[\\d].*",
        "8db11a961ab55e0cd8b659c5c329feb6\t10\tredcarpet\\\/.*",
        "8dce59cea258aca35d523cb44b9fa782\t15\titunes\\-ipod\\\/[\\d]\\.[\\d].*",
        "8ddcc6bd0b6865afa4929489b0b06003\t35\tmusicdownloader\\\/[\\d]\\.[\\d].* cfnetwork\\\/[\\d][\\d][\\d]\\.[\\d].*",
        "8ddcc6bd0b6865afa4929489b0b06003\t33\tmusicdownloader\\\/[\\d]\\.[\\d].* cfnetwork\\\/[\\d][\\d][\\d].*",
        "8ddcc6bd0b6865afa4929489b0b06003\t30\tmusicdownloader\\\/[\\d]\\.[\\d].* cfnetwork\\\/.*",
        "8de40b38fbd089bfd0e8a8aeaed267b0\t23\tsie\\-s[\\d][\\d]\\\/.* up\\.browser\\\/[\\d]\\.[\\d].*",
        "8df1a0e37e4322ecd084260b7fa372c2\t10\ttlsprober\\\/.*"
    ]
}