{
    "content": [
        "340c2df22a22533f75b6820566d02b97\t80\tdigg feed fetcher [\\d]\\.[\\d] \\(mozilla\\\/[\\d]\\.[\\d] \\(.*mac os x [\\d][\\d].[\\d][\\d].*\\) applewebkit.* \\(.*khtml.*like.*gecko.*\\).*",
        "340c2df22a22533f75b6820566d02b97\t79\tdigg feed fetcher [\\d]\\.[\\d] \\(mozilla\\\/[\\d]\\.[\\d] \\(.*mac os x [\\d][\\d].[\\d].*\\) applewebkit.* \\(.*khtml.*like.*gecko.*\\).*",
        "340c2df22a22533f75b6820566d02b97\t74\tdigg feed fetcher [\\d]\\.[\\d] \\(mozilla\\\/[\\d]\\.[\\d] \\(.*mac os x.*\\) applewebkit.* \\(.*khtml.*like.*gecko.*\\).*",
        "340c2df22a22533f75b6820566d02b97\t14\tdigg deeper\\\/v[\\d].*",
        "340c2df22a22533f75b6820566d02b97\t12\tdigg deeper\\\/.*",
        "340c2df22a22533f75b6820566d02b97\t8\tdigg bot",
        "340e1fe4a64cea244c3632ebac95c2aa\t14\tbuibui\\-bot\\\/[\\d]\\.[\\d].*",
        "34143b3c280ee03e233c8b1235f38c01\t17\tdumbot \\(version .*\\).*",
        "34143b3c280ee03e233c8b1235f38c01\t6\tdumbot.*",
        "3436e40fc85e236a078660bc52b2454f\t34\tsagem\\-myx\\-[\\d]\\-[\\d]t\\\/[\\d]\\.[\\d] .* up\\.browser\\\/[\\d]\\.[\\d].*",
        "34781b3e27fddff104b2b8b44a9fec23\t17\tnextools webagent.*",
        "347ce0b000fa2ec036b2210f2396e308\t92\tibrowser\\\/[\\d]\\.[\\d].* mozilla\\\/[\\d]\\.[\\d] \\(.*linux.*android.[\\d]\\.[\\d].*\\) applewebkit.* \\(.*khtml.*like.*gecko.*\\) version\\\/[\\d]\\.[\\d] .*safari\\\/.*\tibrowser\\\/[\\d]\\.[\\d]\\\/mozilla\\\/[\\d]\\.[\\d] \\(.*linux.*android.[\\d]\\.[\\d].*\\) applewebkit.* \\(.*khtml.*like.*gecko.*\\) version\\\/[\\d]\\.[\\d] .*safari\\\/.*",
        "347ce0b000fa2ec036b2210f2396e308\t88\tibrowser\\\/[\\d]\\.[\\d].* mozilla\\\/[\\d]\\.[\\d] \\(.*linux.*android.*\\) applewebkit.* \\(.*khtml.*like.*gecko.*\\) version\\\/[\\d]\\.[\\d] .*safari\\\/.*\tibrowser\\\/[\\d]\\.[\\d]\\\/mozilla\\\/[\\d]\\.[\\d] \\(.*linux.*android.*\\) applewebkit.* \\(.*khtml.*like.*gecko.*\\) version\\\/[\\d]\\.[\\d] .*safari\\\/.*",
        "347ce0b000fa2ec036b2210f2396e308\t30\tibrowser\\\/[\\d]\\.[\\d],lava\\-discover[\\d][\\d][\\d]\\\/.*",
        "34823910efa777435623a657bf0d2fb9\t18\tenvolk.its.spider\\\/.*",
        "34823910efa777435623a657bf0d2fb9\t6\tenvolk",
        "3483e34591d3c3cd92f1a2fab2ed81be\t30\tmot\\-cool[\\d]\\\/[\\d][\\d]\\.[\\d][\\d] up\\.browser\\\/[\\d]\\.[\\d].*",
        "34b6e4262d6e4d7b4f626a5e8f459479\t48\twindows\\-rss\\-platform\\\/[\\d]\\.[\\d] \\(msie .*; .*windows nt [\\d]\\.[\\d].*\\)",
        "34b6e4262d6e4d7b4f626a5e8f459479\t45\twindows\\-rss\\-platform\\\/[\\d]\\.[\\d] \\(ie .*; .*windows nt [\\d]\\.[\\d].*",
        "34b6e4262d6e4d7b4f626a5e8f459479\t43\twindows\\-rss\\-platform\\\/[\\d]\\.[\\d] \\(msie .*; windows nt.*",
        "34b6e4262d6e4d7b4f626a5e8f459479\t24\twindows\\-rss\\-platform\\\/[\\d]\\.[\\d].*",
        "34d1f91fb2e514b8576fab1a75a89a6b\t19\tgo [\\d]\\.[\\d] package http",
        "34d1f91fb2e514b8576fab1a75a89a6b\t16\tgo .* package http",
        "34d1f91fb2e514b8576fab1a75a89a6b\t13\tgo httpclient",
        "34da450e959d17db92f6876051d0faac\t13\togg\\.class\\.php.*",
        "34e2e40dd68dd1e2b733b104be9d674f\t7\tsandvox",
        "34e427c9927718c44cabb78d8e3b7c8e\t20\twindows\\-update\\-agent.*\twindows\\-update\\-agent",
        "34ec78fcc91ffb1e54cd85e4a0924332\t11\tadd catalog",
        "34f8a148eeada8bc077c49c1276aaf7f\t11\teasouspider"
    ]
}