{
    "content": [
        "570d99e4c85914470d914170d1e95144\t43\tcms crawler \\(.http\\:\\\/\\\/buytaert\\.net\\\/crawler\\\/\\)",
        "572b6569e2297904f87f6ac1bcfd1b0e\t8\tesribot\\\/.*",
        "572d4e421e5e6b9bc11d815e8a027112\t15\turl spider pro\\\/.*",
        "572d4e421e5e6b9bc11d815e8a027112\t14\turl spider sql.*",
        "572d4e421e5e6b9bc11d815e8a027112\t11\turl control.*",
        "57428d024d0f462c88e7b9fe40b8d5d7\t51\tmacappstore\\\/[\\d]\\.[\\d] \\(.*macintosh; os x [\\d][\\d]\\.[\\d][\\d].*\\) applewebkit.*",
        "57428d024d0f462c88e7b9fe40b8d5d7\t50\tmacappstore\\\/[\\d]\\.[\\d] \\(.*macintosh; os x [\\d][\\d]\\.[\\d].*\\) applewebkit.*",
        "57428d024d0f462c88e7b9fe40b8d5d7\t46\tmacappstore\\\/[\\d]\\.[\\d] \\(.*macintosh; os x .*\\) applewebkit.*",
        "5744df5ad71606352b72049ba8b3dde6\t7\tbdfetch",
        "576af8c9c0b12e645e0c2e71ce3c8291\t30\tsagem\\-myx\\-[\\d]\\\/[\\d]\\.[\\d] up\\.browser\\\/[\\d]\\.[\\d].*",
        "579a1b5a56de1f942fdb75d5e3018a91\t6\tpockey.*",
        "57a2bee692e9ab0a4cf228be79e5dac6\t15\tnusearch spider.*",
        "57a821581e8b654bb83fcfbd9a31d976\t19\tpodcruncher generic",
        "57a821581e8b654bb83fcfbd9a31d976\t15\tpodcruncher [\\d]\\.[\\d]",
        "57b98be760a102f468c0ac47d0dab7dd\t25\tbumble bee\\\/.* \\(wikiapiary; .*",
        "57c3ca6c5e42659d7613a107a33993b5\t13\tibooks author",
        "57ed527bbd34a0164262312b2f1ffa01\t13\tnetprospector.*",
        "57f6778b597699197d0cd112ac660315\t24\tmetageneratorcrawler\\\/[\\d]\\.[\\d].*",
        "57f9ecc47987def0ec1443cb476b29e9\t24\tfgbrowser\\\/[\\d]\\.[\\d].* cfnetwork\\\/.*",
        "57fb1b58e48e3af89b27aa450c293f15\t42\tkonka\\-v[\\d]\\\/.*\\\/wap[\\d]\\.[\\d] midp\\\/midp[\\d]\\.[\\d] cldc\\\/cldc[\\d]\\.[\\d]",
        "57fb1b58e48e3af89b27aa450c293f15\t17\tkonka\\-v[\\d]\\\/.*\\\/wap[\\d]\\.[\\d] .*"
    ]
}