{
    "content": [
        "2d0fb65e837ef09feaa29bfac49a5c12\t[]",
        "2d608f679ec44942c98e20daa0388232\t[]",
        "2df566ba301bfd55a8980af974fc2816\t[]",
        "2de7be08edc209c2be7fd84174eca61c\t[]",
        "2d31fafa7a8bc930f3b1179585ae657e\t{\"Browser_Bits\":\"32\",\"Platform\":\"MacOSX\",\"Platform_Version\":\"10.9\"}",
        "2dafdb22f400959f57fcad5d22795148\t[]",
        "2dcbd3a902f189c61c7bf3b1e3aae697\t[]",
        "2d45c606dbdc8ff29f10ba47ef342b94\t[]",
        "2d56b248e9ba01b01a05bc447ae31d19\t[]",
        "2d7c791f96af5c6cb6dccf39708d5cda\t[]",
        "2d0bf77636101c385f5b834e41d6a17a\t{\"Browser_Bits\":\"32\",\"Platform\":\"WinXP\",\"Platform_Version\":\"5.2\",\"Win32\":true}",
        "2d5fa661f46520d17eb2f2be58c4db52\t{\"Browser_Bits\":\"32\",\"Platform\":\"Win7\",\"Platform_Version\":\"6.1\",\"Win32\":true}",
        "2dbdbc3f3cd305e436b7b96dad424f3d\t{\"Browser_Bits\":\"32\",\"Platform\":\"MacOSX\",\"Platform_Version\":\"10\"}",
        "2dc04384b5362090cddcfce5c2f783c8\t{\"Platform\":\"iOS\",\"Platform_Version\":\"9.1\",\"Win32\":false,\"isMobileDevice\":true,\"isTablet\":true}",
        "2d34d2aefdbd0e4888adc39750a18d88\t{\"Platform\":\"iOS\",\"Platform_Version\":\"9.2\",\"Win32\":false,\"isMobileDevice\":true,\"isTablet\":true}",
        "2defa53869edaa8544e312b6ca5c12db\t{\"Platform\":\"Win10\",\"Platform_Version\":\"10.0\"}",
        "2dbd5f580303799d53a67d5454bc77da\t{\"Platform\":\"Win7\",\"Platform_Version\":\"6.1\"}",
        "2d7869ef7c3a0f480227e3a5ce63db99\t{\"Platform\":\"iOS\",\"Platform_Version\":\"8.1\",\"Win32\":false,\"isMobileDevice\":true,\"isTablet\":true}",
        "2d30c777129bf7713665b571bcf17221\t{\"Platform\":\"iOS\",\"Platform_Version\":\"10.0\",\"Win32\":false,\"isMobileDevice\":true,\"isTablet\":true}",
        "2d713d100a9831e26071e990b1133b3a\t{\"Platform\":\"Win8.1\",\"Platform_Version\":\"6.3\"}",
        "2d620278aaf3ef4b4d1cd5db339e8bfd\t{\"Platform\":\"iOS\",\"Platform_Version\":\"8.2\",\"Win32\":false,\"isMobileDevice\":true,\"isTablet\":true}",
        "2d3b5d4bc85d70a662a03acaf864445a\t{\"Platform_Version\":\"10.2\"}",
        "2d4a3c541b873052bddd9b9f9298ab94\t{\"Platform_Version\":\"9.2\"}",
        "2dc9eaac97b53316400c4d65dcbeda32\t[]",
        "2d283869332e66ab104f394a11bc4b4e\t{\"Browser_Bits\":\"32\",\"Platform\":\"iOS\",\"Platform_Version\":\"8.2\",\"isTablet\":true}",
        "2d2c88de74814d273918f44849c90e0c\t{\"Browser_Bits\":\"32\",\"Platform\":\"iOS\",\"Platform_Version\":\"8.2\"}",
        "2d1cb1c04b13462df4f1a710517647ed\t{\"Platform\":\"iOS\",\"isTablet\":true}",
        "2d6f6f182455e63372b6210dc98af571\t{\"Platform\":\"iOS\",\"Platform_Version\":\"9.3\"}",
        "2d5b01f5e7edbee3f286de664ecca086\t{\"Platform\":\"iOS\",\"Platform_Version\":\"10.1\"}",
        "2d8ecf399d5d4c87ef141fcbe7c53217\t{\"Platform\":\"iOS\",\"Platform_Version\":\"10.0\"}",
        "2d523522a78184c41eaacd4f1fdc5ac8\t{\"Platform_Version\":\"4.2\",\"isTablet\":true}",
        "2de1e8c6cf73b06939e8d6d7872d0909\t{\"Platform_Version\":\"4.2\"}",
        "2d5fc4defef439a3d5db5e6268b423a8\t{\"Browser_Bits\":\"32\",\"Platform\":\"Win8.1\",\"Platform_Version\":\"6.3\",\"Win32\":true}",
        "2dd1ebd6ca6895196efb60fc883bd04f\t{\"Platform_Version\":\"5.0\",\"isTablet\":true}",
        "2dac63e4a0e5cb5acc46bf2e826a2e16\t{\"Platform\":\"iOS\",\"Platform_Version\":\"8.1\"}",
        "2dd08a77fef7d906e76bc15376369bd0\t{\"Platform_Version\":\"4.2\"}",
        "2d0b6089f9b701da24f3f0d38182ed77\t{\"Platform_Version\":\"4.3\"}",
        "2d709302c9595021425d75eea2c233de\t[]",
        "2d65ab05612f6eee861baead9aa4ab1c\t{\"Platform_Version\":\"4.2\"}",
        "2d0a98d2090e5279b2cc3e43d9f30b62\t[]",
        "2dda442fbfb75a12ed52810585df535f\t{\"Browser_Bits\":\"32\",\"Platform\":\"JAVA\"}",
        "2dddde4b9daa5681b1b924113b8a42cf\t{\"Browser_Bits\":\"32\",\"Platform\":\"Android\"}",
        "2db49157f93877ca10d870b3f3aae117\t{\"Browser_Bits\":\"32\",\"Platform\":\"Win10\",\"Platform_Version\":\"10.0\",\"Win32\":true}",
        "2d04cadc287ee294bd181553a95f11d7\t{\"Browser_Bits\":\"32\",\"Platform\":\"Win7\",\"Platform_Version\":\"6.1\",\"Win32\":true}",
        "2d2c58a227b2ab8bbadef2350344b30e\t{\"Platform_Version\":\"8.0\"}",
        "2dbe74f0919985c62feabc56bb42bfb0\t[]",
        "2d7fd7edeff12f809b8143d6d03cb3fa\t{\"Platform\":\"iOS\",\"Platform_Version\":\"7.0\",\"isTablet\":true}",
        "2d58c12bfef6fcacedb98b26b1e89f4b\t{\"Platform\":\"iOS\",\"Platform_Version\":\"8.4\"}",
        "2dcfff1113cf8027522805b03601b2c0\t{\"Platform\":\"Linux\",\"Win32\":false}",
        "2dace284175b7b27629e6087b34e7fe7\t{\"Platform\":\"Win7\",\"Platform_Version\":\"6.1\",\"Win32\":true}",
        "2db8ebb3856f1e6021c3bc350ec09e16\t{\"Platform_Version\":\"8.4\",\"isTablet\":true}",
        "2dbdf821a05e5e2c4ee73cc1e4527a0d\t{\"Platform\":\"WinXP\",\"Platform_Version\":\"5.2\",\"Win32\":true}",
        "2dbb504f3ee42b26e319a2c37b31c654\t{\"Platform_Version\":\"4.2\",\"isTablet\":true}",
        "2db6f3b85bbbc884386de97ef308aceb\t{\"Platform_Version\":\"4.3\",\"isTablet\":true}",
        "2d82eb3e13d339d26bc953583c318247\t{\"Platform_Version\":\"4.2\",\"isTablet\":true}",
        "2d0a4d598071c93d85b9a1c2ba541e6a\t{\"Platform_Version\":\"4.4\",\"isTablet\":true}",
        "2dc4f53ece0cf754f98c30d39a864fc8\t{\"Platform_Version\":\"6.0\"}",
        "2d0fdf2e9864267ab0c74c0daed633a8\t{\"Platform_Version\":\"4.3\",\"isTablet\":true}",
        "2d858e3e3845e375b95525c0809db198\t{\"Platform_Version\":\"6.0\"}",
        "2d959c293a963b3dcfaa9540b75a4b2d\t{\"Platform_Version\":\"4.2\",\"isTablet\":true}",
        "2d2e3e37a82bf21fbb24f956806e061b\t{\"Platform_Version\":\"4.2\"}",
        "2d07a0c959ed8853821a04d428be5f98\t{\"Platform_Version\":\"4.2\",\"isTablet\":true}",
        "2dc41b333685314d72c64f5db5fe47c1\t{\"Platform_Version\":\"4.2\",\"isTablet\":true}",
        "2d1c7c43bc6eb3491964352b8d9c9e36\t{\"Platform_Version\":\"4.2\",\"isTablet\":true}",
        "2df44ee9a59df2046ad1890a023b5221\t{\"Browser_Bits\":\"32\",\"Platform\":\"Android\",\"Platform_Version\":\"4.3\"}",
        "2dc0688203c4a3d10a631f70ac81a229\t{\"Browser_Bits\":\"32\",\"Platform\":\"macOS\",\"Platform_Version\":\"10.12\"}",
        "2d8804a5fa207430799b45052bc46268\t{\"Browser_Bits\":\"32\",\"Platform\":\"MacOSX\",\"Platform_Version\":\"10.10\"}",
        "2d51f218c84a863486c4f2b53090c74d\t{\"Browser_Bits\":\"32\",\"Platform\":\"macOS\",\"Platform_Version\":\"10.12\"}",
        "2da8dd6f2438b8cd6ee7376a2c9623e0\t{\"Platform_Version\":\"10.3\"}",
        "2d069c5c4f49fe9433e26bfdc35e8a82\t{\"Platform_Version\":\"4.4\",\"isTablet\":true}",
        "2d04422c5a22a43ca26fefc307aaadb0\t{\"Platform_Version\":\"7.0\",\"isTablet\":true}",
        "2def504f71979a1ca0c49c07aba35544\t{\"Platform_Version\":\"4.2\",\"isTablet\":true}",
        "2db88b9fa1e37c57407d3b89fc9c7e12\t{\"Platform_Version\":\"10.1\"}",
        "2d4e91085d81124a7b9586295d736731\t{\"Platform_Version\":\"8.3\"}",
        "2d5af5d345bab653dbca165beee634c5\t{\"Platform_Version\":\"7.0\"}",
        "2d62748045e7c5ea2e3bb20f62311eae\t{\"Platform_Version\":\"8.0\"}",
        "2d8719ce3b87dced898dd8bceceaa1a0\t[]",
        "2dd98408bf384c28818a213668dcffef\t{\"Browser_Bits\":\"32\",\"Platform\":\"Win8.1\",\"Platform_Version\":\"6.3\",\"Win32\":true}",
        "2d8d7c432e10ed1728154de97e6c89be\t[]",
        "2d39b2c97985567f2f7e0be8bd546bd8\t{\"Platform_Version\":\"9.3\"}",
        "2d2d98fae53463b31c1d90beea168754\t{\"Platform_Version\":\"9.1\"}",
        "2d9902deb57c63e9982c6560344805fb\t{\"Platform_Version\":\"9.2\"}",
        "2d9557c5d72c0562d0d2693c6bc10bc8\t{\"Platform_Version\":\"10.2\"}",
        "2dd4cf79c8ebe517ee38387b4b087075\t{\"Platform_Version\":\"8.4\",\"isTablet\":true}",
        "2dc930d37e61dfa9608cae0ea363a4b1\t{\"Platform_Version\":\"8.3\"}",
        "2dfd9f768bac6b605ef7af122d9d97fd\t{\"Platform_Version\":\"4.2\",\"isTablet\":true}",
        "2d0e5fe34a944a37d09c331bbb623ee0\t{\"Platform_Version\":\"4.2\",\"isTablet\":true}",
        "2d6fde04d7e7ac115777eaf54474a5f4\t{\"Platform_Version\":\"4.2\",\"isTablet\":true}",
        "2d83d0a9aa929d20e549391ba65cb1d8\t{\"Platform_Version\":\"4.2\",\"isTablet\":true}",
        "2d5b0f109f12340a6e1129b413ba6437\t{\"Browser_Bits\":\"32\",\"Platform\":\"Android\",\"Platform_Version\":\"4.2\"}",
        "2d12a139b93a4d736c3aa30662366a29\t{\"Browser_Bits\":\"32\",\"Platform\":\"Win8.1\",\"Platform_Version\":\"6.3\",\"Win32\":true}",
        "2d5d4214bd0027dc597607257b2f1ec9\t{\"Browser_Bits\":\"32\",\"Platform\":\"SunOS\"}",
        "2d3f67e4f4eb267a605e2d25c9ee256e\t{\"Browser_Bits\":\"32\",\"Platform\":\"FreeBSD\"}",
        "2dd133af577d7005a4c362b223983497\t{\"Browser_Bits\":\"32\",\"Platform\":\"Win7\",\"Platform_Version\":\"6.1\",\"Win32\":true}",
        "2db23e2bd62607fb19d90ac5a25a991e\t{\"Browser_Bits\":\"32\",\"Platform\":\"FreeBSD\"}",
        "2d93b5bf2ee412e3c7a1a2b46f029fec\t{\"Browser_Bits\":\"32\",\"Platform\":\"WinXP\",\"Platform_Version\":\"5.1\",\"Win32\":true}",
        "2d474b8a652696e7e224561dc15aa8b8\t{\"Browser_Bits\":\"32\",\"Platform\":\"Win8\",\"Platform_Version\":\"6.2\",\"Win32\":true}",
        "2d8273567ab42ff8d4e220119bf02a82\t{\"Browser_Bits\":\"32\",\"Platform\":\"WinXP\",\"Platform_Version\":\"5.2\",\"Win32\":true}",
        "2d156d40e2b2ba4a8b5800ccbde392eb\t{\"Browser_Bits\":\"32\",\"Platform\":\"Win8.1\",\"Platform_Version\":\"6.3\",\"Win32\":true}",
        "2d5cb3d25654b4508eab51218f65344c\t{\"Browser_Bits\":\"32\",\"Platform\":\"WinVista\",\"Platform_Version\":\"6.0\",\"Win32\":true}",
        "2de4032a6b26bbcf6184408a9a37c468\t{\"Browser_Bits\":\"32\",\"Platform\":\"WinVista\",\"Platform_Version\":\"6.0\",\"Win32\":true}",
        "2d27a6928129cf35b229b79457e22bc4\t{\"Browser_Bits\":\"32\",\"Platform\":\"WinVista\",\"Platform_Version\":\"6.0\",\"Win32\":true}",
        "2d08fa113bf98f8a66ffbe38d29f5c2e\t{\"Browser_Bits\":\"32\",\"Platform\":\"WinXP\",\"Platform_Version\":\"5.2\",\"Win32\":true}",
        "2dfcf95b7ba07721d17ef39677fbafb3\t{\"Browser_Bits\":\"32\",\"Platform\":\"WinVista\",\"Platform_Version\":\"6.0\",\"Win32\":true}",
        "2de8bb92a781fdea705299e21edfe3bc\t{\"Browser_Bits\":\"32\",\"Platform\":\"Win8\",\"Platform_Version\":\"6.2\",\"Win32\":true}",
        "2d59ae9ad64e6ee489ca4690b8edc2e5\t{\"Browser_Bits\":\"32\",\"Platform\":\"WinVista\",\"Platform_Version\":\"6.0\",\"Win32\":true}",
        "2dd0e201cb7fbeb67a1227c4267f62a9\t{\"Browser_Bits\":\"32\",\"Platform\":\"WinXP\",\"Platform_Version\":\"5.1\",\"Win32\":true}",
        "2d8a9af7a0951c174c5c5cc20bb2d6a2\t{\"Browser_Bits\":\"32\",\"Platform\":\"Linux\"}",
        "2d4d8b5554905970a4bd797b0e0ea30d\t{\"Browser_Bits\":\"32\",\"Platform\":\"MacOSX\",\"Platform_Version\":\"10.9\"}",
        "2dc2206bda81e44be226dd5f3dad534e\t{\"Browser_Bits\":\"32\",\"Platform\":\"WinXP\",\"Platform_Version\":\"5.1\",\"Win32\":true}",
        "2d949dfc4587e0fb3d4127d1c06fb4fd\t{\"Browser_Bits\":\"32\",\"Platform\":\"Win8.1\",\"Platform_Version\":\"6.3\",\"Win32\":true}",
        "2dda09cde02eb0703a42d730b523ac76\t{\"Browser_Bits\":\"32\",\"Platform\":\"Win8\",\"Platform_Version\":\"6.2\",\"Win32\":true}",
        "2d76cb13f9cbc9367c6f85b50f25828e\t{\"Browser_Bits\":\"32\",\"Platform\":\"Linux\"}",
        "2d1b1f51b9c1b524c18bc19aaa54ecbc\t{\"Browser_Bits\":\"32\",\"Platform\":\"MacOSX\",\"Platform_Version\":\"10\"}",
        "2d56a34cc0bc0accd3b536811fb17798\t{\"Browser_Bits\":\"32\",\"Platform\":\"Linux\"}",
        "2d0ef1f54106ff74f05b110e36880438\t{\"Browser_Bits\":\"32\",\"Platform\":\"MacOSX\",\"Platform_Version\":\"10\"}",
        "2dd02792686c2c6e739a2a51a1017102\t{\"Browser_Bits\":\"32\",\"Platform\":\"WinXP\",\"Platform_Version\":\"5.2\",\"Win32\":true}",
        "2de21e13dc8017e471bc837000863e3e\t{\"Browser_Bits\":\"32\",\"Platform\":\"WinXP\",\"Platform_Version\":\"5.2\",\"Win32\":true}",
        "2d8a2d16dc9bc165e246563e43b4e181\t{\"Browser_Bits\":\"32\",\"Platform\":\"WinVista\",\"Platform_Version\":\"6.0\",\"Win32\":true}",
        "2dbf1affd3a8b4699ccd46569ef30431\t{\"Browser_Bits\":\"32\",\"Platform\":\"MacOSX\",\"Platform_Version\":\"10\"}",
        "2dfc0766bb40abd7e92185a58398c6e3\t{\"Browser_Bits\":\"32\",\"Platform\":\"MacOSX\",\"Platform_Version\":\"10\"}",
        "2dad4fc922f8ad9274dd23638f5857a5\t{\"Browser_Bits\":\"32\",\"Platform\":\"Linux\"}",
        "2d9744759c8354619b9918f878d84f84\t{\"Browser_Bits\":\"32\",\"Platform\":\"MacOSX\",\"Platform_Version\":\"10.10\"}",
        "2d34e22fa79151329c2614b71476c6bc\t{\"Browser_Bits\":\"32\",\"Platform\":\"Linux\"}",
        "2d0f3a135dfd8df17756c90467fe7602\t{\"Browser_Bits\":\"32\",\"Platform\":\"WinXP\",\"Platform_Version\":\"5.2\",\"Win32\":true}",
        "2dd11ed11d2dc6c67ee358ada8fe11b7\t{\"Browser_Bits\":\"32\",\"Platform\":\"MacOSX\",\"Platform_Version\":\"10.10\"}",
        "2d55a16d25750b4e7838c62fd0c887b9\t{\"Browser_Bits\":\"32\",\"Platform\":\"SunOS\"}",
        "2d16cacd72b69af50804da47056ed779\t{\"Browser_Bits\":\"32\",\"Platform\":\"WinXP\",\"Platform_Version\":\"5.1\",\"Win32\":true}",
        "2d25371ca76f329f06791ddc27293c20\t{\"Browser_Bits\":\"32\",\"Platform\":\"MacOSX\",\"Platform_Version\":\"10\"}",
        "2d5f4f477d1d82d76aa0e72b477385fc\t{\"Browser_Bits\":\"32\",\"Platform\":\"WinXP\",\"Platform_Version\":\"5.1\",\"Win32\":true}",
        "2d9293e011c6d271d7076d67c0bfe77e\t{\"Browser_Bits\":\"32\",\"Platform\":\"Win7\",\"Platform_Version\":\"6.1\",\"Win32\":true}",
        "2de44ca4d3ad507f05ba714a85dc1445\t{\"Browser_Bits\":\"32\",\"Platform\":\"Win7\",\"Platform_Version\":\"6.1\",\"Win32\":true}",
        "2d54d3479f8e117e7d22446e2a2392e5\t{\"Browser_Bits\":\"32\",\"Platform\":\"WinXP\",\"Platform_Version\":\"5.1\",\"Win32\":true}",
        "2d9612386b24ba798fc9ea99fa45224a\t{\"Browser_Bits\":\"32\",\"Platform\":\"WinXP\",\"Platform_Version\":\"5.2\",\"Win32\":true}",
        "2d595ca4168feffdf88e044c30d39956\t{\"Browser_Bits\":\"32\",\"Platform\":\"WinVista\",\"Platform_Version\":\"6.0\",\"Win32\":true}",
        "2dca2ff62d08b0644ad68d8bee7f318f\t{\"Browser_Bits\":\"32\",\"Platform\":\"Win7\",\"Platform_Version\":\"6.1\",\"Win32\":true}",
        "2dad3d2e4b64d503b5d3ba1b194a2184\t{\"Browser_Bits\":\"32\",\"Platform\":\"Win8.1\",\"Platform_Version\":\"6.3\",\"Win32\":true}",
        "2d91e9a98ee3d415e1b3463b2fa3f505\t{\"Browser_Bits\":\"32\",\"Platform\":\"WinXP\",\"Platform_Version\":\"5.2\",\"Win32\":true}",
        "2d68110826d396aaa5615a1af65255d3\t{\"Browser_Bits\":\"32\",\"Platform\":\"Win7\",\"Platform_Version\":\"6.1\",\"Win32\":true}",
        "2dcb9fb09f4b2a0eee063673beceebd6\t{\"Platform_Version\":\"7.1\"}",
        "2dd128b652e196dc8e9e3740c3969d62\t{\"Browser_Bits\":\"32\",\"Platform\":\"iOS\",\"Platform_Version\":\"9.3\"}",
        "2da599b989a3b41c9e89df7219b28241\t{\"Browser_Bits\":\"32\",\"Platform\":\"Android\",\"Platform_Version\":\"4.3\",\"isTablet\":true}",
        "2dac7ac5cf4ea7177fde0c240d5e0e61\t{\"Browser_Bits\":\"32\",\"Platform\":\"Android\",\"Platform_Version\":\"4.3\",\"isTablet\":true}",
        "2d51a9de5a463184af86c06eb4b510b7\t{\"Browser_Bits\":\"32\",\"Platform\":\"Android\"}",
        "2d4f0b291823dde3634f0cf4c34b9d32\t{\"Browser_Bits\":\"32\",\"Platform\":\"Win8.1\",\"Platform_Version\":\"6.3\",\"Win32\":true}",
        "2d050ff00ebe60afcf9621ead00d4a48\t{\"Browser_Bits\":\"32\",\"Platform\":\"Win8\",\"Platform_Version\":\"6.2\",\"Win32\":true}",
        "2d626ec2cd77024d46a90dfea9ae43d2\t{\"Platform\":\"iOS\"}",
        "2d2276ee90dde8a49b0520ffdd386c3a\t{\"Browser_Bits\":\"32\",\"Platform\":\"Linux\"}",
        "2d993e15ef6244705e5be4f90dab2bed\t{\"Browser_Bits\":\"32\",\"Platform\":\"WinXP\",\"Platform_Version\":\"5.1\",\"Win32\":true}",
        "2d5d92c1e18117d3305a222476d88d4f\t{\"Browser_Bits\":\"32\",\"Platform\":\"MacOSX\",\"Platform_Version\":\"10.9\"}",
        "2d128ac37819bd4e81560876e540afdc\t{\"Browser_Bits\":\"32\",\"Platform\":\"Linux\"}",
        "2d5569c10106a2e46baa3e6481dbd957\t{\"Browser_Bits\":\"32\",\"Platform\":\"MacOSX\",\"Platform_Version\":\"10.9\"}",
        "2d5ee034c16d9044566193a61f9dbf0e\t{\"isTablet\":true}",
        "2d08207e19b1d0c7f7289e134461275f\t{\"Platform_Version\":\"4.2\",\"isTablet\":true}",
        "2dafb4e571a7e111d8efc6c6070b0b53\t{\"Platform_Version\":\"4.2\"}",
        "2d61f0231cdf067166f0f35c5b17d376\t{\"Platform_Version\":\"4.3\",\"isTablet\":true}",
        "2d5b9c565fae23f858c20405cb455ab4\t{\"Platform_Version\":\"4.3\",\"isTablet\":true}",
        "2dbf78c2feb50f8ea85e57ce01b1783f\t{\"Platform_Version\":\"5.0\"}",
        "2d9c156486c11c2b88949616ca8e0b30\t[]",
        "2dd20255a598fb4b807fd14b85f9a082\t{\"isTablet\":true}",
        "2d7c84fbcd160cce5dc47d1596f3a1fa\t{\"isTablet\":true}",
        "2d676dfa4262d9740e7beee87217b133\t[]",
        "2dd9b6d3b83fbfb13949d262c89273d3\t{\"Platform_Version\":\"4.3\",\"isTablet\":true}",
        "2d6a175b41ab9c1d00291baa31fc83f6\t{\"Platform_Version\":\"4.4\",\"isTablet\":true}",
        "2d090eecf563f9590e35f8b2f5aa0e92\t{\"Platform_Version\":\"5.1\"}",
        "2d1bca0e2830544cf1ccae797bda4e72\t{\"Browser_Bits\":\"32\",\"Platform\":\"MacOSX\",\"Platform_Version\":\"10.11\"}",
        "2db09ebb893028df8832e0a3e457b952\t{\"Platform_Version\":\"4.4\",\"isTablet\":true}",
        "2d48a773da9156d8073587202358bd02\t{\"Platform_Version\":\"4.4\",\"isTablet\":true}",
        "2d0520c9235c68154d3f2fc93257ec03\t{\"Platform_Version\":\"4.3\",\"isTablet\":true}",
        "2d56bbdd9015a6c0587e0d52b823cc0c\t{\"Platform_Version\":\"4.3\",\"isTablet\":true}",
        "2df6ed4e761ee30272f2e32c20b93fd4\t{\"Platform_Version\":\"4.2\",\"isTablet\":true}",
        "2d74d5f6b892ed3f453a9b82de1ee3bd\t{\"Platform_Version\":\"4.2\",\"isTablet\":true}",
        "2d3a25095d0a7c8918e47d5a3c4c2ae4\t{\"Platform_Version\":\"4.3\",\"isTablet\":true}",
        "2d03d9615e64d0da5efa275c4934fa47\t{\"Platform_Version\":\"4.2\",\"isTablet\":true}",
        "2d14356c9f4486dec96092ca26f4e483\t{\"Platform_Version\":\"4.3\",\"isTablet\":true}",
        "2d013501401c97719d2165ae868d9b19\t{\"Browser_Bits\":\"32\",\"Platform\":\"Win8\",\"Platform_Version\":\"6.2\",\"Win32\":true}",
        "2d93567a2ac01ee5217561b763131bc1\t{\"Platform_Version\":\"4.3\",\"isTablet\":true}",
        "2da8674e46c1a81856f782e687e02847\t{\"Platform_Version\":\"4.3\",\"isTablet\":true}",
        "2d7f025ec5240c41ec83f8bbc39015af\t{\"Platform_Version\":\"4.2\",\"isTablet\":true}",
        "2dfbb227ee39e5c76e60fe54e61742d9\t{\"Platform_Version\":\"4.4\",\"isTablet\":true}",
        "2de3b17a21b41131f59f67f8d7cc2970\t{\"Platform_Version\":\"8.2\"}",
        "2d215e16ea01731d184d7a2c01c6aa73\t{\"Platform_Version\":\"10.0\"}",
        "2debba545afc072323d569382728056c\t{\"Platform_Version\":\"4.4\",\"isTablet\":true}",
        "2d2599a9f3732637257e2425c0846d08\t{\"Platform_Version\":\"4.3\",\"isTablet\":true}",
        "2d12e008b56beb491f700d9c7aeaae94\t{\"Browser_Bits\":\"32\",\"Platform\":\"Win8.1\",\"Platform_Version\":\"6.3\",\"Win32\":true}",
        "2d8d6c285e966bc713d8cf45dbd635df\t{\"Platform_Version\":\"4.2\",\"isTablet\":true}",
        "2d82dcebedb9104f48482ce4b2800a57\t{\"Platform_Version\":\"5.1\"}",
        "2d6f2208124037b0800284781ee9236f\t{\"Platform_Version\":\"10.1\",\"isTablet\":true}",
        "2db3d55a6aa01c122ea0472c49de94e8\t{\"Platform_Version\":\"8.3\",\"isTablet\":true}",
        "2d3decccde4aa9a4653eba99c2bb14f7\t{\"Platform_Version\":\"4.4\",\"isTablet\":true}",
        "2da8a3476f33c0dd6698e7a1fc23b5e6\t{\"Platform_Version\":\"8.2\"}",
        "2d8543d7636a00a88f51b8b420177f99\t{\"Browser_Bits\":\"32\",\"Platform\":\"Win10\",\"Platform_Version\":\"10.0\",\"Win32\":true}",
        "2d200a6f6a2e439318b334b26ed200c5\t{\"Platform_Version\":\"5.0\",\"isTablet\":true}",
        "2d0786d488d02da0e597095e4b910258\t{\"Platform_Version\":\"4.4\",\"isTablet\":true}",
        "2ddf90c3855d1750c4bb8016043f4314\t{\"Platform_Version\":\"4.2\",\"isTablet\":true}",
        "2d76be57ba077d34c2231f8bb40e84e2\t{\"Platform_Version\":\"8.2\"}",
        "2d2428bfd83ec3000419e49236a1cc34\t{\"Browser_Bits\":\"32\",\"Platform\":\"Win8.1\",\"Platform_Version\":\"6.3\",\"Win32\":true}",
        "2d17bbe0bc881fb43b960dc4257d2156\t{\"Platform_Version\":\"4.4\",\"isTablet\":true}",
        "2d5d6aad7f32e7281ca2670767ac054f\t{\"Platform_Version\":\"4.4\",\"isTablet\":true}",
        "2d71a5c1633fac383c780122599a4286\t{\"Platform_Version\":\"8.1\"}",
        "2dd7d8a9e282336874a89f820dd2b163\t{\"Platform_Version\":\"10.1\"}",
        "2d06fbe652bb9ebd4152d62c7e1479cb\t{\"Platform_Version\":\"4.4\",\"isTablet\":true}",
        "2d4679e3a91f2ea34b937bf0995a73b2\t{\"Platform_Version\":\"4.2\",\"isTablet\":true}",
        "2d4e1c618198d8d6f1d0b4388d2c5877\t{\"Platform_Version\":\"4.2\",\"isTablet\":true}",
        "2d3ec28b7bd173c48f7451ccb3c76aee\t{\"Platform_Version\":\"8.0\"}",
        "2d258d506864bd430a332325bec32c8e\t{\"Platform_Version\":\"4.3\",\"isTablet\":true}",
        "2d06b37b904f5091e3fc3a7b0ab22375\t{\"Platform_Version\":\"4.2\",\"isTablet\":true}",
        "2d6ad24632ff6cafba9652384e502cd7\t{\"Platform_Version\":\"4.2\",\"isTablet\":true}",
        "2d8442f1c4e75b2519978d755869d69f\t{\"Browser_Bits\":\"32\",\"Platform\":\"Win8.1\",\"Platform_Version\":\"6.3\",\"Win32\":true}",
        "2d40edc70bbc496c8c4069843e595513\t{\"Platform_Version\":\"4.4\",\"isTablet\":true}",
        "2d472a13820456f3a37cb4395e2a2b34\t{\"Platform_Version\":\"4.4\"}",
        "2d23a97a9570be69c7d4977233ca41bf\t{\"Platform_Version\":\"4.4\",\"isTablet\":true}",
        "2d928ffb05f4bd81c934b4efa8151afd\t{\"Platform_Version\":\"4.3\",\"isTablet\":true}",
        "2d3609273291a5c65d957e92a9013aa6\t{\"Platform_Version\":\"4.2\",\"isTablet\":true}",
        "2d34d8db60ed12f1f499c4071cb82d6d\t[]",
        "2d0988d4cdcca4abc095cb13e6ad5479\t{\"Platform_Version\":\"8.2\"}",
        "2d8d6788f08c093dbcd1f9b127d96615\t{\"Browser_Bits\":\"32\",\"Platform\":\"Win8.1\",\"Platform_Version\":\"6.3\",\"Win32\":true}",
        "2d93a510d60d46a75db625116dc031e8\t{\"Browser_Bits\":\"32\",\"Platform\":\"Win32\",\"Win32\":true}",
        "2dbed55c6f5388c3930c7ffcf65ace98\t{\"Platform_Version\":\"4.4\",\"isTablet\":true}",
        "2d7a29bcc599b5ba0bf5233c6869915f\t{\"Platform_Version\":\"4.2\"}",
        "2d332ccdada6d69dc5410bad09d3d2bf\t{\"Platform_Version\":\"4.2\",\"isTablet\":true}",
        "2df3aed97f6e0e3df3d4f2b554e495f2\t{\"Browser_Bits\":\"32\",\"Platform\":\"Win10\",\"Platform_Version\":\"6.4\",\"Win32\":true}",
        "2d48324317425dce5ae420d32058c90d\t{\"Platform_Version\":\"4.4\",\"isTablet\":true}",
        "2d6d5fca47047c7efa0edbf049ea1fdd\t{\"Platform_Version\":\"4.2\",\"isTablet\":true}",
        "2d7cb4fdfd5a7d118935ce753d0895c1\t{\"Platform_Version\":\"4.4\",\"isTablet\":true}",
        "2d3f2937d18fe98c05c476ac575d7a49\t{\"Platform_Version\":\"10.0\"}",
        "2d1f5ec1e2f424d26ef804a861b33686\t{\"Platform_Version\":\"4.3\",\"isTablet\":true}",
        "2d25300ef689597d5a243d41da67c74b\t{\"Platform_Version\":\"10.0\",\"isTablet\":true}",
        "2dea10e0a1d7de94e8d7dd48615a7611\t{\"Platform_Version\":\"4.2\",\"isTablet\":true}",
        "2d99f6e0efa0f53e5d1ba55633ee35b5\t{\"Platform_Version\":\"4.4\",\"isTablet\":true}",
        "2dfc3af64b393fe19b531725183e76ce\t{\"Platform_Version\":\"4.2\",\"isTablet\":true}",
        "2dd8e3ab725cc295ffe49f3527e53326\t[]",
        "2de27cab77391bf96588c55c43802bd0\t{\"Platform_Version\":\"8.1\"}",
        "2d15bb8976166221e4157e81ea07d41e\t{\"Browser_Bits\":\"32\",\"Platform\":\"MacOSX\",\"Platform_Version\":\"10.10\"}",
        "2d61f3b649a090fb32f382b7913ae092\t{\"Platform_Version\":\"4.2\",\"isTablet\":true}",
        "2dc328f1dbf8ada117223ea2737f3001\t{\"Browser_Bits\":\"32\",\"Platform\":\"WinVista\",\"Platform_Version\":\"6.0\",\"Win32\":true}",
        "2d5301c31716431c42e9144d293da4a6\t{\"Platform_Version\":\"4.2\",\"isTablet\":true}",
        "2de8c55582f17285b0fdc5d6dc0c5240\t{\"Platform_Version\":\"5.1\"}",
        "2d665e6dfb091619f4b0e42fd3482a66\t{\"Browser_Bits\":\"32\",\"Platform\":\"Win32\",\"Win32\":true}",
        "2d94a0c3770c0fbfb927dff84ca1469b\t{\"Platform_Version\":\"4.2\"}",
        "2d853b852259740f6a6bd656c0253650\t{\"Platform_Version\":\"8.0\"}",
        "2d5c6f8f07c63cfece8086406e8ab31a\t{\"Browser_Bits\":\"32\",\"Platform\":\"WinVista\",\"Platform_Version\":\"6.0\",\"Win32\":true}",
        "2def4348fb9bd42afdac74767bb60b46\t{\"Browser_Bits\":\"32\",\"Platform\":\"Win8\",\"Platform_Version\":\"6.2\",\"Win32\":true}",
        "2d4aa5f0db18d4a3adb85d1329e58095\t{\"Platform_Version\":\"4.2\",\"isTablet\":true}",
        "2d608dd573ffb390648f584d8e620f68\t{\"Browser_Bits\":\"32\",\"Platform\":\"FreeBSD\"}",
        "2dff76a3b2cfca450c1ce85fe3593627\t{\"Platform_Version\":\"7.1\",\"isTablet\":true}",
        "2db81eca21012e6f499e76115d1594c2\t{\"Browser_Bits\":\"32\",\"Platform\":\"Win8\",\"Platform_Version\":\"6.2\",\"Win32\":true}",
        "2dfc665f0c33a11b4233feedc5f69b9c\t{\"Browser_Bits\":\"32\",\"Platform\":\"Win8.1\",\"Platform_Version\":\"6.3\",\"Win32\":true}",
        "2d3648822e042a774d63d6c0e031bc9f\t{\"Platform_Version\":\"9.1\"}",
        "2dfce20713cf4333093b66bbe5912514\t{\"Platform_Version\":\"9.0\",\"isTablet\":true}",
        "2d2cc3e850aaa8b63035d07a9cf14c18\t{\"Platform_Version\":\"10.2\",\"isTablet\":true}",
        "2d0fdf828eb735a7ffed33131e04f47f\t{\"Platform_Version\":\"8.1\"}",
        "2dd72d536f080f526935f813cf64f298\t{\"Platform_Version\":\"9.2\"}",
        "2ddfae09c11d4f3ce0a63f801bee29e5\t{\"Platform_Version\":\"9.3\"}",
        "2d7126a662921bf9b8ecef1449139c5e\t{\"Platform_Version\":\"10.1\"}",
        "2db9141868af9635165c93646bcd9735\t{\"Platform_Version\":\"10.1\"}",
        "2de745cbe772f26eb2984f9c91749205\t{\"Platform_Version\":\"8.4\",\"isTablet\":true}",
        "2d87fd457dbcf5be047b41585996e6a0\t{\"Platform_Version\":\"8.0\"}",
        "2db3309cc9278e62d5c4aaeab6f5d185\t{\"isMobileDevice\":true}",
        "2df3b085073244d212928e5f7e1bbde3\t{\"Platform_Version\":\"8.2\"}",
        "2da75099f4ff55f9813e8724b6131d2e\t{\"Platform_Version\":\"7.1\"}",
        "2d988d11084b9c7f21f786a84ca72f6d\t{\"isMobileDevice\":true}",
        "2d313007aeb697815a4aaf4037885302\t{\"Browser_Bits\":\"32\",\"Platform\":\"WinVista\",\"Platform_Version\":\"6.0\",\"Win32\":true}",
        "2d7e53a3098b25324f1d059fa2dd3edd\t{\"isMobileDevice\":true}",
        "2dec28dbad706c2cb7f1b252f28c3dbb\t{\"Browser_Bits\":\"32\",\"Platform\":\"Android\",\"Platform_Version\":\"4.4\"}",
        "2d605a08a09773294222a236e8bd83f6\t[]",
        "2dec26660465ea2d5048199039a50192\t{\"Platform_Version\":\"4.3\"}",
        "2d2f1367a1f28b194e8cd03793c48965\t{\"Platform_Version\":\"4.3\",\"isTablet\":true}",
        "2dee773a5b93d485048f4c79c7bf021f\t{\"Browser_Bits\":\"32\",\"Platform\":\"iOS\",\"Platform_Version\":\"9.3\"}",
        "2d08a9a8c8e7ef793e74b909abe68f08\t{\"Browser_Bits\":\"32\",\"Platform\":\"iOS\"}",
        "2dbcaf4c10903ad651bdb88520643864\t{\"Browser_Bits\":\"32\",\"Platform\":\"iOS\",\"Platform_Version\":\"9.3\"}",
        "2d1d0ac57f17faf0bfbb3f2470158c64\t{\"Browser_Bits\":\"32\",\"Platform\":\"WinPhone\"}",
        "2d96da986da09899f72fee29241c6f52\t{\"Browser_Bits\":\"32\",\"Platform\":\"JAVA\"}",
        "2db66644cb6dd38578533a110c3d3463\t{\"Browser_Bits\":\"32\",\"Platform\":\"Android\"}",
        "2da5b5f09dfb44d2b740c1493ac10508\t{\"Browser_Bits\":\"32\",\"Platform\":\"JAVA\"}",
        "2d1c4bae9163f5277ad1dfa5de08efb5\t{\"Platform_Version\":\"7.1\",\"isTablet\":true}",
        "2da5a05b37e33b61347f4ed862d903b0\t[]",
        "2dec3acb911033c03cd8cfca7ba5134b\t{\"Platform_Version\":\"7.1\"}",
        "2d0c113eb84cd1784968e225567456de\t{\"Platform_Version\":\"9.1\"}",
        "2d59b91f1299e4cc8e3e697ad5c95269\t{\"Platform_Version\":\"9.2\"}",
        "2d39a576a7217ecf856c8a8c829ad405\t{\"Platform_Version\":\"9.1\"}",
        "2d3fd95c468ae83798a0a3f4c9ef657c\t{\"Platform_Version\":\"9.0\",\"isTablet\":true}",
        "2d903a07f9dac9c6294cd077d90abc82\t{\"Platform_Version\":\"8.4\"}",
        "2d7663e8832f556906194f9f558e2e42\t{\"Platform_Version\":\"8.1\"}",
        "2d749df6e9b5a0a5c85eef668e0c44ff\t{\"Platform_Version\":\"9.3\"}",
        "2da8838fe361acfd0c6fb6d3c1e34c30\t{\"Platform_Version\":\"7.1\"}",
        "2d582a1bac534265a2c8d18d822892da\t[]",
        "2d74aaa67846888114233d6a1f68d45a\t{\"Platform\":\"WinXP\",\"Platform_Version\":\"5.2\",\"Win32\":true}",
        "2db8206ec99ccead1a4479f22e8188d7\t{\"Platform_Version\":\"9.1\"}",
        "2d0410dbae9f9d9e66226016b8e04517\t{\"Platform_Version\":\"8.4\"}",
        "2d2367d241b15ef09155789faac08ca6\t{\"Platform_Version\":\"7.1\",\"isTablet\":true}",
        "2d281ae16cd50ffc028e88972ba5afca\t{\"Platform_Version\":\"9.2\"}",
        "2d5c4c25a450641a7c8c521ee6b072dd\t{\"isTablet\":true}",
        "2d5b70fd6dcc488fbba713a20dffb51c\t{\"Platform_Version\":\"9.3\",\"isTablet\":true}",
        "2d8fa87727978a8698e00ec90144e30c\t{\"Platform_Version\":\"10.0\"}",
        "2d0920cce114189571171ea4fc1a1c2a\t{\"Platform_Version\":\"10.0\"}",
        "2ddc53d519dbca68a652884be5b097bc\t{\"Platform_Version\":\"8.4\"}",
        "2d34263ee27f275975b1444a596692c3\t{\"Platform_Version\":\"8.0\",\"isTablet\":true}",
        "2db0ce1435d83dda3ddb7c1ddea33181\t{\"Platform_Version\":\"9.2\"}",
        "2d12cda61aaac27a8a4c3bbd8ae25f78\t[]",
        "2d88559b73add3f9fee9be58ff32a12d\t{\"Platform_Version\":\"8.3\"}",
        "2d24430ce0cf807b30eb1997866da1e8\t{\"Platform_Version\":\"10.1\",\"isTablet\":true}",
        "2d46ae8801414016afc47e3139c2a3c2\t{\"Platform_Version\":\"10.0\"}",
        "2d324b276d4b556f09595c5f6e4ae5f2\t{\"Platform_Version\":\"8.2\"}",
        "2dc7df7c56006d8bfad8bfc4157ba53a\t{\"Platform_Version\":\"8.4\"}",
        "2d667830c422791ae23f9e99e3d502ea\t{\"isTablet\":true}",
        "2d75364ecc49e6113f66022657bb0e91\t{\"Platform_Version\":\"8.1\",\"isTablet\":true}",
        "2da71b7c79ccf08f837610461bae12ed\t{\"Platform_Version\":\"7.0\"}",
        "2d5c5f59a7168903d4b9f1f29d2f7f1a\t{\"Platform_Version\":\"8.3\"}",
        "2d449683e1dba2fbefe55187e4ded99f\t{\"Platform_Version\":\"7.0\"}",
        "2dc24c8acd3f91875a563d148240c9e9\t{\"Platform_Version\":\"8.0\",\"isTablet\":true}",
        "2d0c96330f68e8dae407418f62f88fce\t{\"Platform_Version\":\"7.0\"}",
        "2d0cdc2c56208dfe1d765e6e04cb35d9\t{\"Platform_Version\":\"10.2\",\"isTablet\":true}",
        "2d8e4a8aa5aedd375cb52adf7a6ab50b\t{\"Platform_Version\":\"10.2\"}",
        "2dad366cc431c53b74a2648fcaf8895a\t{\"Platform_Version\":\"8.0\",\"isTablet\":true}",
        "2d8b5b88fb0fe328af6ecb7f9f37f116\t{\"Platform_Version\":\"9.2\",\"isTablet\":true}",
        "2d58f147dbe9dd04152ff1246c448bcc\t{\"Platform_Version\":\"7.0\"}",
        "2df5baaa3262f9a258251d80af81cb51\t{\"Browser_Bits\":\"32\",\"Platform\":\"MacOSX\",\"Platform_Version\":\"10.9\"}",
        "2d26e33169550a96b26151f84e841d04\t[]",
        "2d2c7b946b36ed44710e740126fc2281\t[]",
        "2d01ba7eab18ccd7be9d01ac5ae7c7f8\t{\"Browser_Bits\":\"32\",\"Platform\":\"Win8\",\"Platform_Version\":\"6.2\",\"Win32\":true}",
        "2d5fc1330fffcf7294ec3fe9b84011a2\t{\"Platform_Version\":\"8.4\"}",
        "2d5d9fce3e5bd39fedc8e2416644599d\t{\"Browser_Bits\":\"32\",\"Platform\":\"iOS\",\"Platform_Version\":\"8.1\"}",
        "2d73f4c57d8580dbf2f5f3aad9251991\t{\"Platform_Version\":\"10.0\"}",
        "2df728242196e0f75304d2dcb1d98c5f\t{\"Platform_Version\":\"10.0\"}",
        "2d9d359c03b0ee42fd03c2b493bad0c0\t{\"isTablet\":true}",
        "2d2ddb462a2d59f96112631feaf50d8b\t{\"isTablet\":true}",
        "2ddc246b0e0d59031f5ad9f83acd6fa7\t{\"Platform_Version\":\"8.2\"}",
        "2d3b9fad86a2cfc0aed7069b32e363a6\t{\"Platform_Version\":\"8.1\",\"isTablet\":true}",
        "2d681724f79014476882cc31397d783b\t[]",
        "2d29cfe22f785db1e81106f2f91931c7\t{\"Browser_Bits\":\"32\",\"Platform\":\"Darwin\"}",
        "2da29b2e8d1bcc79838e094da42c1fa3\t{\"Browser_Bits\":\"32\",\"Platform\":\"Solaris\"}",
        "2df06a2ecb17458314e975a0d71642d7\t{\"Browser_Bits\":\"32\",\"Platform\":\"BeOS\"}",
        "2dc60fe44dd1992f7b2e3e2afc527ac6\t{\"Browser_Bits\":\"32\",\"Platform\":\"RIM OS\",\"Platform_Version\":\"7.1\",\"isMobileDevice\":true}",
        "2dfb23dc9516e183fb7585a35c5438b1\t[]",
        "2df15374467aac4a107356c44c838611\t{\"Browser_Bits\":\"32\",\"Platform\":\"Linux\"}",
        "2d10e76bd83f894d6bbb73ea9887d8cb\t{\"Browser_Bits\":\"32\",\"Platform\":\"OpenBSD\"}",
        "2d48f94caa41d5dcfdcc4a9045adce73\t[]",
        "2d4aa1ac2e691fd0da906b0ad29288ce\t{\"Browser_Bits\":\"32\",\"Platform\":\"WinVista\",\"Platform_Version\":\"6.0\",\"Win32\":true}",
        "2d7f33b0ae348b0022e5e2b21800fedc\t{\"Browser_Bits\":\"32\",\"Platform\":\"Win7\",\"Platform_Version\":\"6.1\",\"Win32\":true}",
        "2d09f5ba6546051f4e8221ae01c9d416\t{\"Browser_Bits\":\"32\",\"Platform\":\"Win7\",\"Platform_Version\":\"6.1\",\"Win32\":true}",
        "2d3af19b54328c882991cba025bf702c\t{\"Browser_Bits\":\"32\",\"Platform\":\"WinXP\",\"Platform_Version\":\"5.2\",\"Win32\":true}",
        "2d4b092237fb22c9704a5ef0b1b60d70\t{\"Browser_Bits\":\"32\",\"Platform\":\"Win7\",\"Platform_Version\":\"6.1\",\"Win32\":true}",
        "2d81c7847694a557462716480ec6d035\t{\"Browser_Bits\":\"32\",\"Platform\":\"Win10\",\"Platform_Version\":\"6.4\",\"Win32\":true}",
        "2d9288730da657d78ffa911170b31984\t{\"Browser_Bits\":\"32\",\"Platform\":\"MacOSX\",\"Platform_Version\":\"10.10\"}",
        "2dc0150e5c117265c9de388765d9dfee\t{\"Platform\":\"WinXP\",\"Platform_Version\":\"5.1\"}",
        "2d6a51d678d3006393a18b99189892e6\t{\"Browser_Bits\":\"32\",\"Platform\":\"Win7\",\"Platform_Version\":\"6.1\",\"Win32\":true}",
        "2dddcbfcbbd2b1c2df05260abbb96cd5\t{\"Browser_Bits\":\"32\",\"Platform\":\"MacOSX\",\"Platform_Version\":\"10\"}",
        "2d2aa610f4e6d415d8bce2dd3e24f34f\t{\"Platform\":\"Win8\",\"Platform_Version\":\"6.2\"}",
        "2dea6a7399f16cab0001edc6e280b87c\t{\"Browser_Bits\":\"32\",\"Platform\":\"Win10\",\"Platform_Version\":\"10.0\",\"Win32\":true}",
        "2db8cbe2e2bbb94e0cc6abfda1d433db\t{\"Browser_Bits\":\"32\",\"Platform\":\"Win10\",\"Platform_Version\":\"6.4\",\"Win32\":true}",
        "2dcd698f4fb4cea5a09e4ad29e7dda08\t{\"Browser_Bits\":\"32\",\"Platform\":\"SunOS\"}",
        "2dcae8d02f48f024ef89c585bda6aba6\t{\"Browser_Bits\":\"32\",\"Platform\":\"Win8\",\"Platform_Version\":\"6.2\",\"Win32\":true}",
        "2ddfced924d242e7d8a25749a98cbec2\t{\"Browser_Bits\":\"32\",\"Platform\":\"WinXP\",\"Platform_Version\":\"5.1\",\"Win32\":true}",
        "2d95e27fbf4f5b9320b0d07726431f51\t{\"Browser_Bits\":\"32\",\"Platform\":\"Win8\",\"Platform_Version\":\"6.2\",\"Win32\":true}",
        "2ddfd7f973337f84d0c250c63fcb3167\t{\"Browser_Bits\":\"32\",\"Platform\":\"Linux\"}",
        "2de9b71f41a72cce27b8a9958404740b\t{\"Browser_Bits\":\"32\",\"Platform\":\"MacOSX\",\"Platform_Version\":\"10.10\"}",
        "2d9175ec18fde833fd7129e0587a49b8\t{\"Browser_Bits\":\"32\",\"Platform\":\"WinVista\",\"Platform_Version\":\"6.0\",\"Win32\":true}",
        "2d2c426bf0361726c26e3928cda7861d\t{\"Browser_Bits\":\"32\",\"Platform\":\"Win32\",\"Win32\":true}",
        "2d972d3eef72950a9402814b31e0ad07\t{\"Platform_Version\":\"7.0\",\"isTablet\":true}",
        "2d270f6005ec63084c12aa04befabb12\t{\"Platform_Version\":\"8.2\"}",
        "2dcf9ffe7a6e0b663678f14bbe0fcf30\t{\"Browser_Bits\":\"32\",\"Platform\":\"WinXP\",\"Platform_Version\":\"5.2\",\"Win32\":true}",
        "2ddd929a614ca9703c5e4f41557dfd98\t{\"Browser_Bits\":\"32\",\"Platform\":\"Win7\",\"Platform_Version\":\"6.1\",\"Win32\":true}",
        "2d164e1a2c9e250185a7f2041870c78a\t{\"Platform_Version\":\"10.1\",\"isTablet\":true}",
        "2d9175d13fc614b7dffc654410709f0f\t{\"Platform_Version\":\"9.3\",\"isTablet\":true}",
        "2dd7af03245955555a63f7ff247f933f\t{\"Platform_Version\":\"9.1\",\"isTablet\":true}",
        "2d74513d1f6736e2f65e44e39f151728\t{\"isTablet\":true}",
        "2d2245fc3c0d6afb98a09fbe50098e74\t[]",
        "2d249042484e37b9c3b361404b3d62c9\t{\"isTablet\":true}",
        "2d4baa18dc9ae25a3eaf58d816dd4189\t{\"Browser_Bits\":\"32\",\"Platform\":\"Win32\",\"Win32\":true}",
        "2d95585e89bee0facf584a05804fecc7\t{\"Browser_Bits\":\"32\",\"Platform\":\"Win10\",\"Platform_Version\":\"10.0\",\"Win32\":true}",
        "2d0ae91f3df214098819b6000faecd58\t{\"Platform\":\"Win10\",\"Platform_Version\":\"10.0\"}",
        "2de3f13e9b94a2888edfb02ff6e7b57b\t[]",
        "2d0e24db340d64e0ae1d82bee095aaa2\t[]",
        "2dd10b8ffc7e87c52a21b0f7ae58fd9f\t{\"Browser_Bits\":\"32\",\"Platform\":\"Linux\"}",
        "2df87dc67177cc0fff203d8f0612f69d\t{\"Platform\":\"WinXP\",\"Platform_Version\":\"5.1\",\"Win32\":true}",
        "2d758ad82189a2e70b69bef557347712\t{\"Browser_Bits\":\"32\",\"Platform\":\"HP-UX\"}",
        "2d1450a1127789cb17ac24cc2555a8d7\t{\"Browser_Bits\":\"32\",\"Platform\":\"Win10\",\"Platform_Version\":\"10.0\",\"Win32\":true}",
        "2d507073f727ec6b047bb1122325bf80\t{\"isTablet\":true}",
        "2d24c240d5164bcf03b0c2d467e44fa9\t{\"isTablet\":true}",
        "2d756196fc42f1009c0d071287cd0aec\t{\"Platform_Version\":\"4.3\",\"isTablet\":true}",
        "2dc343366c191f73149b137eb6cb9552\t{\"Platform_Version\":\"5.1\",\"isTablet\":true}",
        "2db83b7f2586844d38744a0a87dfb384\t{\"Browser_Bits\":\"32\",\"Platform\":\"Win10\",\"Platform_Version\":\"10.0\",\"Win32\":true}",
        "2d694a1aa50cccf904a1e736f7ba0a98\t{\"Browser_Bits\":\"32\",\"Platform\":\"Win8.1\",\"Platform_Version\":\"6.3\",\"Win32\":true}",
        "2dff58190f5ca2f94339e65aa2bbbbe3\t{\"Browser_Bits\":\"32\",\"Platform\":\"MacOSX\",\"Platform_Version\":\"10\"}",
        "2d6b0b9f5238909bfc994d74a9c06345\t{\"Browser_Bits\":\"32\",\"Platform\":\"NetBSD\"}",
        "2d79d04fbb5745e5aaa0a6229963927c\t{\"Browser_Bits\":\"32\",\"Platform\":\"SunOS\"}",
        "2d5cefe14a71f1c5e323eed96429fb78\t{\"Browser_Bits\":\"32\",\"Platform\":\"Win7\",\"Platform_Version\":\"6.1\",\"Win32\":true}",
        "2dda33cdd255d5ea71cf3aba70c754aa\t{\"Browser_Bits\":\"32\",\"Platform\":\"MacOSX\",\"Platform_Version\":\"10\"}",
        "2dc38267b0ecfbe754c0c37a2ca6777b\t{\"Browser_Bits\":\"32\",\"Platform\":\"NetBSD\"}",
        "2ddcbd19cd3164ffc3e7bbbec6f89104\t{\"Browser_Bits\":\"32\",\"Platform\":\"Win8\",\"Platform_Version\":\"6.2\",\"Win32\":true}",
        "2dc69894ed595ecc33ea370bdd51db71\t{\"Browser_Bits\":\"32\",\"Platform\":\"Win32\",\"Win32\":true}",
        "2d770d742208fd2b3bffbc6048ffff1a\t{\"Browser_Bits\":\"32\",\"Platform\":\"WinXP\",\"Platform_Version\":\"5.1\",\"Win32\":true}",
        "2de71782a1b448052b2c4dd7e2087783\t[]",
        "2d2aa8577ad06e62b81e451e864d7fec\t{\"Browser_Bits\":\"32\",\"Platform\":\"WinXP\",\"Platform_Version\":\"5.2\",\"Win32\":true}",
        "2dfcbb9a6f6b4621fc20a2e607e907b7\t{\"Browser_Bits\":\"32\",\"Platform\":\"Win8.1\",\"Platform_Version\":\"6.3\",\"Win32\":true}",
        "2d5bf4ac8dc9e72aa11edf97d717ada3\t{\"Browser_Bits\":\"32\",\"Platform\":\"MacOSX\",\"Platform_Version\":\"10.11\"}",
        "2d35461632e347986aa9f646fcadf722\t{\"Browser_Bits\":\"32\",\"Platform\":\"OpenBSD\"}",
        "2df8cc0af4b33233e9f8c6ed988227aa\t{\"Browser_Bits\":\"32\",\"Platform\":\"HP-UX\"}",
        "2d6989de2ca1a146cec6c67445f0a095\t{\"Browser_Bits\":\"32\",\"Platform\":\"WinXP\",\"Platform_Version\":\"5.2\",\"Win32\":true}",
        "2d450806a72ce18b493f7ea5a99204b1\t{\"Browser_Bits\":\"32\",\"Platform\":\"MacOSX\",\"Platform_Version\":\"10.9\"}",
        "2d330ae667648ca16694e501d8123e5d\t{\"Browser_Bits\":\"32\",\"Platform\":\"MacOSX\",\"Platform_Version\":\"10.11\"}",
        "2df62fc9375bfaf70314749a74b5d1ae\t{\"Platform_Version\":\"8.1\"}",
        "2dd1109e23bd01dcbd7a1aa4b1a2387e\t[]",
        "2d1535da37bff6a99e02d370ef92ca11\t[]",
        "2dae4f8b04208465a74ad773e4f21667\t{\"Platform_Version\":\"8.1\"}",
        "2d324c657f7172d00d2f8eafd2465472\t{\"Platform_Version\":\"8.3\"}",
        "2d257161b6d0adaf6cc86f54725b1550\t{\"Browser_Bits\":\"64\",\"Platform\":\"IRIX64\"}",
        "2d92bbb74790c7f274663ac166b23de9\t{\"Browser_Bits\":\"32\",\"Platform\":\"SunOS\"}",
        "2dc674182a50c054a0f489abad869c84\t[]",
        "2dcff0e21e93bf11cc859c99ad2c3b8d\t{\"Browser_Bits\":\"32\",\"Platform\":\"JAVA\",\"isMobileDevice\":true}"
    ]
}