{
    "content": [
        "d014b4e821af890f44f4afc37e258141\t19\tbing\\\/[\\d]\\.[\\d].* cfnetwork\\\/.*",
        "d05f18c84664de5fd9cbf07bbe5f044c\t17\tmynews.* cfnetwork\\\/.*",
        "d05f18c84664de5fd9cbf07bbe5f044c\t6\tmynews",
        "d062100f5c5cb3b42205710943ac3ea5\t10\tblaiz\\-bee\\\/.*",
        "d062d78ed645d1789539f954e172dc6f\t7\t[\\d]d\\-ftp\\\/.*",
        "d067286fb82bc5283b1d4184aa374384\t17\tsearchmee\\! spider.*",
        "d06c4507113bf3fd063f984426951844\t14\tmacoutlook\\\/[\\d][\\d]\\..*",
        "d0957a56131f2925f54e6ae4097b52a0\t10\tsurveybot\\\/.*",
        "d0bb92b28497d39e95901f5d1f5097f9\t19\tsnowtape.* cfnetwork\\\/.*",
        "d0bb92b28497d39e95901f5d1f5097f9\t8\tsnowtape",
        "d0c08c6a0a899dbaa2e4edc7a3d1c0f2\t14\tyahoo\\-mmaudvid.*",
        "d0c7d113075ab764f4c497f5b3ebbfea\t20\tipick\\\/[\\d]\\.[\\d].* cfnetwork\\\/.*",
        "d0dbe915091d400bd8ee7f27f0791303\t27\tlive \\(http\\:\\\/\\\/www\\.live\\.com\\\/\\)"
    ]
}