{
    "content": [
        "0dd4ff3400bfafc43dbf1f1d1bff59a0\t{\"Browser_Bits\":\"32\",\"Platform\":\"WinVista\",\"Platform_Version\":\"6.0\",\"Win32\":true}",
        "0da599fb360b317c8a725fdba2dc546b\t[]",
        "0d4a61c759e5abf3bdeacbd1dcf2481a\t[]",
        "0d66177d30cb461d388123a4971dee52\t[]",
        "0da206269c519e6e81c9bb6997c2386e\t[]",
        "0d05fc4321a07f6ab6907fc37ad34c05\t[]",
        "0d2d2ed656c0aadb6eef05cac5294119\t[]",
        "0d8e1e41caf85557e18b36bf1826bee9\t[]",
        "0dd8ed4bb3b349e5093644c56a4b0394\t[]",
        "0d11248905eae99340cf4cae009fa637\t{\"Browser_Bits\":\"32\",\"Platform\":\"Linux\"}",
        "0de67436a2c190b57105d9881bcd3f62\t{\"Platform\":\"iOS\",\"Win32\":false,\"isMobileDevice\":true,\"isTablet\":true}",
        "0d3d6cb60336a13b4f7e6cf2dbe4d52e\t{\"Platform\":\"WinVista\",\"Platform_Version\":\"6.0\"}",
        "0d58d377afb1955f2dba4f522c1290de\t{\"Platform\":\"Win7\",\"Platform_Version\":\"6.1\"}",
        "0d56e15e64caa757db48ec75056301dc\t{\"Platform\":\"iOS\",\"Platform_Version\":\"8.1\",\"Win32\":false,\"isMobileDevice\":true,\"isTablet\":true}",
        "0d536c8438d7f528bd760d0ceee4278e\t{\"Platform\":\"iOS\",\"Platform_Version\":\"10.0\",\"Win32\":false,\"isMobileDevice\":true,\"isTablet\":true}",
        "0dbd1f3b8b0b943e09f2e3410de3d963\t{\"Platform_Version\":\"4.2\"}",
        "0d7ac075fc598ce189df21f8b6a04add\t{\"Platform_Version\":\"8.4\",\"isTablet\":true}",
        "0d0e914ea760e74f4ffd650f20d19f12\t{\"Platform_Version\":\"9.0\",\"isTablet\":true}",
        "0d7bc51030c851c4c89a842c5965874b\t{\"Browser_Bits\":\"32\",\"Platform\":\"Android\"}",
        "0d92277f74d5f8029cb924261f10382c\t{\"Browser_Bits\":\"32\",\"Platform\":\"Win8.1\",\"Platform_Version\":\"6.3\",\"Win32\":true}",
        "0d6c56513c9a6d64cbfb05db130b082f\t{\"Platform_Version\":\"7.1\"}",
        "0d1aa7c6cb90834fb8fbe6f7345c2a92\t{\"Browser_Bits\":\"32\",\"Platform\":\"MacOSX\",\"Platform_Version\":\"10.9\"}",
        "0d66ec9785756de666837d2f9932c11b\t{\"Browser_Bits\":\"32\",\"Platform\":\"Win8.1\",\"Platform_Version\":\"6.3\",\"Win32\":true}",
        "0d2069e68ddd25485fe86126f8230a59\t{\"Browser_Bits\":\"32\",\"Platform\":\"Win8.1\",\"Platform_Version\":\"6.3\",\"Win32\":true}",
        "0dc7614a329b2a7068a3e1e2634f16dc\t{\"Platform_Version\":\"4.4\",\"isTablet\":true}",
        "0d513797f4af5fc2e479ba6571da520f\t{\"Platform\":\"iOS\",\"Platform_Version\":\"8.1\",\"isTablet\":true}",
        "0d73b4416383043d4372794985f911ce\t{\"Platform\":\"iOS\"}",
        "0dc569f21cc91c48b71a919b10bbc6cb\t{\"Platform\":\"iOS\",\"Platform_Version\":\"10.3\"}",
        "0dac7edb92908caabb707604a0fe2721\t{\"Platform_Version\":\"6.1\"}",
        "0dbd1b6b899fcef9f81156e4ca5d9964\t{\"Platform_Version\":\"4.3\"}",
        "0d5ef4fcd284377aeb8202e5e85c87ad\t{\"Platform\":\"SymbianOS\"}",
        "0d73142b74e47781535c5dc778185678\t{\"Browser_Bits\":\"32\",\"Platform\":\"Win8\",\"Platform_Version\":\"6.2\",\"Win32\":true}",
        "0dcb121064b3b5f2ff5c715e3ef4e3c3\t{\"Platform_Version\":\"5.1\"}",
        "0dd932ceed7510d511f793ff113f12ec\t{\"Platform_Version\":\"4.4\"}",
        "0d68d90628fc0381d671db01ae484fe8\t[]",
        "0d11ac9f5507c73aee403f53d2638f2d\t{\"Platform\":\"JAVA\"}",
        "0d4362290c628441c02ae29ee2a316b3\t{\"isMobileDevice\":true}",
        "0d210447a4bc8dacaecf91f0baef628f\t{\"Platform_Version\":\"8.0\"}",
        "0d2c890dfe3c350b8cbe8517b1f2feac\t{\"Platform_Version\":\"4.4\"}",
        "0de72893c3ef4e27d51aaf369f7bc709\t{\"Platform_Version\":\"4.3\"}",
        "0db17dd5f364c3e60fcb755e2aa5338b\t{\"Platform_Version\":\"8.2\",\"isTablet\":true}",
        "0da6698c10cd92a764fec0e657264f04\t{\"Browser_Bits\":\"32\",\"Platform\":\"Win32\",\"Win32\":true}",
        "0db81e9945f755500d06c12c829c7796\t{\"Platform_Version\":\"4.4\",\"isTablet\":true}",
        "0dffb51c6ff8d07a73e58887158d7501\t{\"Platform\":\"iOS\",\"Platform_Version\":\"7.1\"}",
        "0d975435e20853382f1f45c475ff6191\t{\"Platform\":\"Win8.1\",\"Platform_Version\":\"6.3\"}",
        "0da0d649d64d92ad28fe42cab3664097\t{\"Platform_Version\":\"4.2\"}",
        "0da482ca045d8f3b5f2bca7573fc19a5\t{\"Platform\":\"WinVista\",\"Platform_Version\":\"6.0\"}",
        "0dcf719b5119507972f96954d51d9da1\t[]",
        "0db01e698558d1aa3d325e1e9c49cba2\t{\"Platform\":\"WinXP\",\"Platform_Version\":\"5.1\",\"Win32\":true}",
        "0d7ec22a54f07f39df943ad5ee13cfff\t{\"Platform\":\"Win8.1\",\"Platform_Version\":\"6.3\",\"Win32\":true}",
        "0d04844ca9f54877f0296078f78a95d9\t[]",
        "0d7d4c6f338814530ec2b1f6a3da3ddf\t[]",
        "0dcf6245051a55042d8e362384f7b1cc\t{\"Platform\":\"WinXP\",\"Platform_Version\":\"5.2\",\"Win32\":true}",
        "0d494aa0460ddf9293203f93ea84aa60\t{\"Platform_Version\":\"7.0\",\"isTablet\":true}",
        "0d7b38316f481e84df2e66c3e647ddd5\t{\"Platform_Version\":\"4.3\"}",
        "0d3af7ccefa26b92d88c9017ff7c7918\t{\"Platform_Version\":\"6.0\"}",
        "0db0bfce7b062aa0ae31bd08b5a00203\t{\"Platform\":\"WinVista\",\"Platform_Version\":\"6.0\",\"Win32\":true}",
        "0dd9f6dfa7ee206c18dea5d4328520fe\t[]",
        "0d3368ee1f1fdd5c35d05e55f39fc051\t{\"Platform_Version\":\"4.3\",\"isTablet\":true}",
        "0d1da00f6dbd8baba39a3d935ee87e62\t{\"Platform_Version\":\"4.4\",\"isTablet\":true}",
        "0deb5909a83698160393ef3469e6de36\t{\"Platform_Version\":\"5.1\"}",
        "0d20f9f66a710d73422ded06c2fb2074\t{\"Platform_Version\":\"4.2\"}",
        "0d3f1510a0ca008ee1d9b1ffa6d9f6c3\t{\"Platform_Version\":\"5.0\",\"isTablet\":true}",
        "0dd938569660ea2493aa58fbc3fa12b1\t{\"Platform_Version\":\"4.3\",\"isTablet\":true}",
        "0dc813b9b2e7ad0d41d32441b3ff7a87\t{\"Platform_Version\":\"4.4\",\"isTablet\":true}",
        "0db75cd96b6924926e1ff0d80a11106f\t{\"Platform_Version\":\"4.2\",\"isTablet\":true}",
        "0de413067d454c57d3d77464e081cccc\t{\"Platform_Version\":\"6.0\"}",
        "0dd4fac72aa2a9f61d986e9c7ccedac4\t{\"Platform_Version\":\"4.2\"}",
        "0d4cae7bbd3ad1517dfc2ba0689656d4\t{\"Browser_Bits\":\"32\",\"Platform\":\"Android\",\"Platform_Version\":\"7.1\"}",
        "0d8c09b0b3856c5bcda4100ef9e370a9\t{\"Browser_Bits\":\"32\",\"Platform\":\"Android\",\"Platform_Version\":\"7.1\"}",
        "0d90c90ac532429b65edbcdddfbef4f6\t{\"Platform_Version\":\"4.2\",\"isTablet\":true}",
        "0dcafe6f0887c62ed2c938a13b99e437\t{\"Browser_Bits\":\"32\",\"Platform\":\"MacOSX\",\"Platform_Version\":\"10.11\"}",
        "0dcbf86083fdbf87b2e402e59f849896\t{\"Platform_Version\":\"4.2\"}",
        "0da0b52ef9de4d34bd4389ec606c4d00\t{\"Browser_Bits\":\"32\",\"Platform\":\"MacOSX\",\"Platform_Version\":\"10.11\"}",
        "0d54ab7f48c8472398e820a2975dd513\t[]",
        "0da9797a22a60b3b73df885d4428093d\t{\"Browser_Bits\":\"32\",\"Platform\":\"WinVista\",\"Platform_Version\":\"6.0\",\"Win32\":true}",
        "0dd1496510817d330fc3dd98da1e3035\t{\"Platform_Version\":\"10.1\"}",
        "0d3a053394f6a0aaad690b5155999362\t{\"Browser_Bits\":\"32\",\"Platform\":\"WinXP\",\"Platform_Version\":\"5.1\",\"Win32\":true}",
        "0d945797e3a763522766427ce9136b9b\t{\"Browser_Bits\":\"32\",\"Platform\":\"WinXP\",\"Platform_Version\":\"5.1\",\"Win32\":true}",
        "0d9ad287a8a92edb4e25712625aeb541\t{\"Platform_Version\":\"8.3\"}",
        "0de9b999d8bf3a865d3e730ee64d6182\t{\"Platform_Version\":\"9.2\"}",
        "0dcb0ce90bda17856675e3a92131f469\t{\"Platform_Version\":\"4.4\",\"isTablet\":true}",
        "0d249f50e7bab4bef56124b3b9100757\t{\"Platform_Version\":\"8.2\"}",
        "0db1127e0c6fb83df2253b3e6cbe4547\t[]",
        "0d7b6fb97d52de3e5c995c6b890b9296\t{\"Platform_Version\":\"5.1\"}",
        "0dcb59f5c3b0fb39e939daa15ab5163f\t{\"Platform_Version\":\"4.4\",\"isTablet\":true}",
        "0df5e07e73e7fea9e96130d3ee2e1f56\t{\"Platform_Version\":\"4.2\",\"isTablet\":true}",
        "0d3bce8d59bb77d9e1b58478bca2d374\t{\"Browser_Bits\":\"32\",\"Platform\":\"MacOSX\",\"Platform_Version\":\"10\"}",
        "0da0e190370177933b25c1b967522643\t{\"Platform_Version\":\"4.2\",\"isTablet\":true}",
        "0df238e6a97ce22659abf191161173ea\t{\"Browser_Bits\":\"32\",\"Platform\":\"MacOSX\",\"Platform_Version\":\"10.10\"}",
        "0d1e992692a4ee14861e1f92052c8443\t{\"Platform_Version\":\"4.2\",\"isTablet\":true}",
        "0dffd0d24cec196b221e0ec6a647cbf0\t{\"Browser_Bits\":\"32\",\"Platform\":\"MacOSX\",\"Platform_Version\":\"10.10\"}",
        "0dcec1aa18377816bd92b5967d127845\t{\"Platform_Version\":\"4.2\",\"isTablet\":true}",
        "0d328bd66fcd7c26d96aff58b946e904\t{\"Platform_Version\":\"4.4\",\"isTablet\":true}",
        "0d352d552109b35329a845a21b94a1a1\t{\"Platform_Version\":\"4.2\",\"isTablet\":true}",
        "0d033cf98b143f6903d9153192651d48\t{\"Platform_Version\":\"10.2\",\"isTablet\":true}",
        "0df4dad536b2e341178f051c9d5427f0\t{\"Platform_Version\":\"7.1\"}",
        "0d75be05503530bdd8c191b4715d22f8\t{\"Platform_Version\":\"4.2\",\"isTablet\":true}",
        "0db350c6721b7fc198fd6a74196e9ef0\t{\"Platform_Version\":\"4.2\",\"isTablet\":true}",
        "0db8c206a0e1dcc094d08734f3b3e412\t{\"Platform_Version\":\"4.2\",\"isTablet\":true}",
        "0df2b19fac4899bd0344f77693d5ee1d\t{\"Platform_Version\":\"4.2\",\"isTablet\":true}",
        "0d2e6994e8a9b1f6634eab91904b01dc\t{\"Platform_Version\":\"5.1\"}",
        "0d863ab02782bbd9b928c4c9c0df4c0f\t{\"Platform_Version\":\"4.3\",\"isTablet\":true}",
        "0d2b08a24aada56c4978913fa89210bc\t{\"Platform_Version\":\"4.2\",\"isTablet\":true}",
        "0db587ff7cc462609ad85b675efdf3a7\t{\"Browser_Bits\":\"32\",\"Platform\":\"Android\",\"Platform_Version\":\"4.2\",\"isTablet\":true}",
        "0d0438755e78b77b946dbc21baa95da6\t[]",
        "0de54052bb229a5bba3a078089815c4f\t[]",
        "0dce8b5aff98c5aa0348a658245e2dee\t{\"Browser_Bits\":\"32\",\"Platform\":\"Linux\"}",
        "0d9f05dcdfc7e954c63445e9389a0152\t{\"Browser_Bits\":\"32\",\"Platform\":\"Win7\",\"Platform_Version\":\"6.1\",\"Win32\":true}",
        "0d13063a0931528016d2a94eab8c284e\t{\"Browser_Bits\":\"32\",\"Platform\":\"FreeBSD\"}",
        "0d46feeb08d94252eb271d049de05dba\t{\"Browser_Bits\":\"32\",\"Platform\":\"Win8.1\",\"Platform_Version\":\"6.3\",\"Win32\":true}",
        "0df554ae377d637c797e955504e09139\t{\"Browser_Bits\":\"32\",\"Platform\":\"MacOSX\",\"Platform_Version\":\"10.9\"}",
        "0d521548bbd62ffaf199ffb3d7ea2d12\t{\"Browser_Bits\":\"32\",\"Platform\":\"Win8\",\"Platform_Version\":\"6.2\",\"Win32\":true}",
        "0d100149e9574a10b8c6aa4aadd53b3d\t{\"Browser_Bits\":\"32\",\"Platform\":\"Win8.1\",\"Platform_Version\":\"6.3\",\"Win32\":true}",
        "0dffb4303c249d492716994a106dd2cc\t{\"Browser_Bits\":\"32\",\"Platform\":\"Win8\",\"Platform_Version\":\"6.2\",\"Win32\":true}",
        "0d0264a3724e58779bcb91332469873b\t{\"Browser_Bits\":\"32\",\"Platform\":\"MacOSX\",\"Platform_Version\":\"10.9\"}",
        "0d34531737502bdbf25c7df4ce9e3ae2\t{\"Browser_Bits\":\"32\",\"Platform\":\"MacOSX\",\"Platform_Version\":\"10\"}",
        "0d817bdeb636d45a5d3d7e32010c8b13\t{\"Browser_Bits\":\"32\",\"Platform\":\"Win8\",\"Platform_Version\":\"6.2\",\"Win32\":true}",
        "0d58e94d32f1dd3d12492695b76d40c0\t{\"Browser_Bits\":\"32\",\"Platform\":\"Win8.1\",\"Platform_Version\":\"6.3\",\"Win32\":true}",
        "0d5b640f9727721d4db877f09d8f1993\t{\"Browser_Bits\":\"32\",\"Platform\":\"WinVista\",\"Platform_Version\":\"6.0\",\"Win32\":true}",
        "0d1dd7f1c19a010565362d81a8cda256\t{\"Browser_Bits\":\"32\",\"Platform\":\"SunOS\"}",
        "0d58086370a3fd0bd898403896ac1462\t{\"Browser_Bits\":\"32\",\"Platform\":\"Win7\",\"Platform_Version\":\"6.1\",\"Win32\":true}",
        "0d594dea8b573563cac2d710a64dc7cf\t{\"Browser_Bits\":\"32\",\"Platform\":\"Win7\",\"Platform_Version\":\"6.1\",\"Win32\":true}",
        "0d22da7f84e8fd1a2cf6da15b7ea28ef\t{\"Browser_Bits\":\"32\",\"Platform\":\"WinXP\",\"Platform_Version\":\"5.2\",\"Win32\":true}",
        "0d38f73e2d4bb65e4c16b4b92762da47\t{\"Browser_Bits\":\"32\",\"Platform\":\"FreeBSD\"}",
        "0dd60b0c29d8b1ee903e20024a1d8909\t{\"Browser_Bits\":\"32\",\"Platform\":\"Win7\",\"Platform_Version\":\"6.1\",\"Win32\":true}",
        "0d3012d72d0e22adf0c637dd9d328293\t{\"Browser_Bits\":\"32\",\"Platform\":\"Win8\",\"Platform_Version\":\"6.2\",\"Win32\":true}",
        "0d2ba11a0b65919332155d9666906e1e\t{\"Browser_Bits\":\"32\",\"Platform\":\"Win7\",\"Platform_Version\":\"6.1\",\"Win32\":true}",
        "0d7dafb444dca9aa2bac2d6e41262fa3\t{\"Browser_Bits\":\"32\",\"Platform\":\"WinXP\",\"Platform_Version\":\"5.1\",\"Win32\":true}",
        "0d46bcf396d8989796dcd86d44d84bd8\t{\"Browser_Bits\":\"32\",\"Platform\":\"MacOSX\",\"Platform_Version\":\"10\"}",
        "0d19af49c2be6ef34d316d20536bc30b\t{\"Browser_Bits\":\"32\",\"Platform\":\"Win8\",\"Platform_Version\":\"6.2\",\"Win32\":true}",
        "0d27d973cee5ecc40c958a2f015bd388\t{\"Browser_Bits\":\"32\",\"Platform\":\"WinXP\",\"Platform_Version\":\"5.1\",\"Win32\":true}",
        "0db350070e1417ceeafdb7990d27620c\t{\"Browser_Bits\":\"32\",\"Platform\":\"Win8.1\",\"Platform_Version\":\"6.3\",\"Win32\":true}",
        "0d52dc0fe606fa2da3d3672f262dc9b6\t{\"Browser_Bits\":\"32\",\"Platform\":\"FreeBSD\"}",
        "0d2912f1cfb897d63b00fd3a8dbe375a\t{\"Browser_Bits\":\"32\",\"Platform\":\"Linux\"}",
        "0def05866a3ad423443fb3e8b5a9e355\t{\"Browser_Bits\":\"32\",\"Platform\":\"WinXP\",\"Platform_Version\":\"5.1\",\"Win32\":true}",
        "0dec2e4725211815648cc4a28a80e206\t{\"Browser_Bits\":\"32\",\"Platform\":\"Win8\",\"Platform_Version\":\"6.2\",\"Win32\":true}",
        "0dacaa985b7ff15412d5999c053e6c05\t{\"Browser_Bits\":\"32\",\"Platform\":\"WinXP\",\"Platform_Version\":\"5.2\",\"Win32\":true}",
        "0de684cf41ff505d7bff6019e6a1cb16\t{\"Browser_Bits\":\"32\",\"Platform\":\"WinVista\",\"Platform_Version\":\"6.0\",\"Win32\":true}",
        "0d94c15491a1e0032794234686ddd7af\t{\"Browser_Bits\":\"32\",\"Platform\":\"MacOSX\",\"Platform_Version\":\"10\"}",
        "0d09283693716d34a1ba32f84e6df8fb\t{\"Browser_Bits\":\"32\",\"Platform\":\"Win8.1\",\"Platform_Version\":\"6.3\",\"Win32\":true}",
        "0daccf3e8e37d76f47e4b4605194d90a\t{\"Browser_Bits\":\"32\",\"Platform\":\"WinXP\",\"Platform_Version\":\"5.2\",\"Win32\":true}",
        "0d7a0a005d4f37fa729d9f444d47a60f\t{\"Browser_Bits\":\"32\",\"Platform\":\"Win8\",\"Platform_Version\":\"6.2\",\"Win32\":true}",
        "0daece1e0519701da0658133426377b9\t{\"Browser_Bits\":\"32\",\"Platform\":\"WinXP\",\"Platform_Version\":\"5.1\",\"Win32\":true}",
        "0d6d7ebe1ecc2bd8353c53c5afef9348\t{\"Browser_Bits\":\"32\",\"Platform\":\"Win8\",\"Platform_Version\":\"6.2\",\"Win32\":true}",
        "0d0ea488903ca0df9003056be9d5eb56\t{\"Browser_Bits\":\"32\",\"Platform\":\"WinVista\",\"Platform_Version\":\"6.0\",\"Win32\":true}",
        "0de691d63a3260f1fd5a7a332d57474c\t{\"Browser_Bits\":\"32\",\"Platform\":\"WinXP\",\"Platform_Version\":\"5.2\",\"Win32\":true}",
        "0dd932052313ce3a56f2b6698d4df2f5\t{\"Browser_Bits\":\"32\",\"Platform\":\"iOS\",\"Platform_Version\":\"7.1\"}",
        "0d57b49ef6ca68118a74ceaad218388c\t{\"Browser_Bits\":\"32\",\"Platform\":\"MacOSX\",\"Platform_Version\":\"10\"}",
        "0d3cfd09f28da7ae0fee03384d322f47\t{\"Browser_Bits\":\"32\",\"Platform\":\"Win8\",\"Platform_Version\":\"6.2\",\"Win32\":true}",
        "0df99efd0ed2b2ec8d0a527699a289dc\t{\"Browser_Bits\":\"32\",\"Platform\":\"WinXP\",\"Platform_Version\":\"5.1\",\"Win32\":true}",
        "0d29f65e7ca041b50184fdee1e9abb7a\t{\"Browser_Bits\":\"32\",\"Platform\":\"WinXP\",\"Platform_Version\":\"5.1\",\"Win32\":true}",
        "0dcfd4274bb247e64cd5c7130b84d741\t{\"Browser_Bits\":\"32\",\"Platform\":\"Win8.1\",\"Platform_Version\":\"6.3\",\"Win32\":true}",
        "0deb414164f511a450ec2b8dcd6be28f\t{\"Platform_Version\":\"4.4\",\"isTablet\":true}",
        "0d8072a38dd3b29fb2b679611d526087\t[]",
        "0d1fae7658552356d34375c2fb8db51b\t{\"Browser_Bits\":\"32\",\"Platform\":\"Win10\",\"Platform_Version\":\"6.4\",\"Win32\":true}",
        "0de05dc08ab75cc08830fb1648b9c15c\t{\"Platform_Version\":\"9.0\"}",
        "0dc782ff006dc24a882b0345c65bf455\t{\"Platform_Version\":\"4.2\",\"isTablet\":true}",
        "0d245c2bf3fdd208c65d2cb3dfdf0db5\t{\"Platform_Version\":\"4.2\",\"isTablet\":true}",
        "0d3e10b0ffd331a6eb44b172aaaa7a7b\t{\"Platform_Version\":\"4.4\",\"isTablet\":true}",
        "0d43102a380630a28f371ea0805c73dd\t{\"Platform_Version\":\"4.3\",\"isTablet\":true}",
        "0d6157932697544640235f2ceb7d1a89\t{\"Platform_Version\":\"4.2\",\"isTablet\":true}",
        "0d90bb3d1f420b6e1a2229e832f16db9\t{\"Browser_Bits\":\"32\",\"Platform\":\"MacOSX\",\"Platform_Version\":\"10\"}",
        "0d3814b36f7f0f0c3c4f96834ef6b171\t{\"Platform_Version\":\"4.3\",\"isTablet\":true}",
        "0d7bc4bded5db813a56292db1a43534e\t{\"Platform_Version\":\"4.3\",\"isTablet\":true}",
        "0da92f5b919074a0cd0640e7b4ecea3a\t{\"Platform_Version\":\"4.2\",\"isTablet\":true}",
        "0d79360118ddb97ac824404d1ca87c80\t{\"Platform_Version\":\"4.2\",\"isTablet\":true}",
        "0d6e3a72e548767010fb4eba17ba10ae\t{\"Platform_Version\":\"4.2\",\"isTablet\":true}",
        "0d4b041d7d48d5e5fb4c7260536c9580\t{\"Platform_Version\":\"4.3\",\"isTablet\":true}",
        "0df43f94c3c6f9567981f95acc7bd226\t{\"Platform_Version\":\"5.0\"}",
        "0ddbeeaa767e5de3b23c489ced98a4e4\t{\"Platform_Version\":\"8.1\",\"isTablet\":true}",
        "0d5604f47175644841aac0273bd9e5fa\t{\"Platform_Version\":\"4.2\",\"isTablet\":true}",
        "0d6d8411b6b8414cc912e0672191cd1d\t{\"Platform_Version\":\"4.4\",\"isTablet\":true}",
        "0d8700c054bbab52b6d8cb4e66fcee70\t{\"Platform_Version\":\"4.2\",\"isTablet\":true}",
        "0d98f028e98945d13de1484a7ad8c006\t{\"Platform_Version\":\"4.2\",\"isTablet\":true}",
        "0d170660b58e24e85f90a64ccb71d142\t{\"Platform_Version\":\"4.2\",\"isTablet\":true}",
        "0df3fa7e84d8f95f1e6f8f1729514c0d\t{\"Platform_Version\":\"4.2\",\"isTablet\":true}",
        "0d988c3d29b978cbe7f6c94145384735\t{\"Platform_Version\":\"4.2\",\"isTablet\":true}",
        "0d1958747c4a8ed6feb26e47510076b8\t{\"Platform_Version\":\"4.2\",\"isTablet\":true}",
        "0dfbe67bde0fd2bb893b2ddd4a496914\t{\"Platform_Version\":\"4.4\",\"isTablet\":true}",
        "0ded71efb5222aa07b87fcd6157efa10\t{\"Platform_Version\":\"4.2\",\"isTablet\":true}",
        "0d74a71ffccd099e555c2b2f7a23088c\t{\"Platform_Version\":\"4.2\",\"isTablet\":true}",
        "0dd258a5d3442b9ec90e16286518a29d\t{\"Platform_Version\":\"6.0\"}",
        "0d9ebfb29cc43d8506011820e322c3ec\t{\"Platform_Version\":\"8.1\"}",
        "0dba10a40143fd6db447e655a7b7abec\t{\"Platform_Version\":\"5.1\",\"isTablet\":true}",
        "0dd5fafd0040fc7f3f2b4ce43e8acdbd\t{\"Browser_Bits\":\"32\",\"Platform\":\"ChromeOS\"}",
        "0d16bb66fc403d6b06642721df8a0d09\t{\"Platform_Version\":\"8.1\"}",
        "0d1533ea6502c0d06165f38b224198ba\t{\"Platform_Version\":\"4.4\",\"isTablet\":true}",
        "0defc55ee2ee1109a8d89b496f4756de\t{\"Platform_Version\":\"4.2\",\"isTablet\":true}",
        "0de7b022dd2ccbd79e9dca91b93fb800\t{\"Platform_Version\":\"4.2\",\"isTablet\":true}",
        "0d6862728ce19acf9467b5785614ffe4\t{\"Platform_Version\":\"7.1\"}",
        "0de4419b2baa10e891ab80feb9de88ed\t{\"Platform_Version\":\"4.2\",\"isTablet\":true}",
        "0d26c96860bd43690befafef43f864f3\t{\"Platform_Version\":\"4.2\",\"isTablet\":true}",
        "0deb45c24d7f32061b2bfb738729beca\t{\"Platform_Version\":\"8.3\",\"isTablet\":true}",
        "0d026573daec04e7756fae9037cee688\t{\"Platform_Version\":\"4.3\",\"isTablet\":true}",
        "0d02793d7c09759a4b061deea4ac2fb9\t{\"Platform_Version\":\"4.3\",\"isTablet\":true}",
        "0d67f694acecce7e6bcbdfecbba4fab6\t{\"Platform_Version\":\"4.3\",\"isTablet\":true}",
        "0d98b0a3bb5b7582020005e783ec4a36\t[]",
        "0dbdf3f35db6a072d7170347314eeee2\t{\"Platform_Version\":\"4.4\",\"isTablet\":true}",
        "0d701e56d44a3905e89ac37baf77cf8d\t{\"Browser_Bits\":\"32\",\"Platform\":\"Win10\",\"Platform_Version\":\"10.0\",\"Win32\":true}",
        "0d2ee88e00428ff042a62f9df73f9c68\t{\"Platform_Version\":\"4.3\",\"isTablet\":true}",
        "0db614d7d1e06fb7dffad99d79bae852\t{\"Platform_Version\":\"4.2\",\"isTablet\":true}",
        "0d00fa9d53b365224b4c5a3bf8c397e9\t{\"Platform_Version\":\"4.2\",\"isTablet\":true}",
        "0df05d7d773417b571634e933ee10eff\t{\"Platform_Version\":\"4.4\",\"isTablet\":true}",
        "0da1ce4b7bd851fba02cea42f0c94746\t{\"Platform_Version\":\"4.3\",\"isTablet\":true}",
        "0dc28636fff67dc7102ea2d6add2aec9\t{\"Platform_Version\":\"4.2\",\"isTablet\":true}",
        "0d7d3a0a9f45e70c26f55fab14f2c1d8\t{\"Platform_Version\":\"4.3\",\"isTablet\":true}",
        "0dd744a315bf3bbdd8cfa9f9f66a4969\t{\"Platform_Version\":\"7.0\",\"isTablet\":true}",
        "0d909249b2d201cfddeda85304b934c7\t{\"Platform_Version\":\"4.2\",\"isTablet\":true}",
        "0dc4a323a13ada30a57b9c8d076d1f24\t{\"Browser_Bits\":\"32\",\"Platform\":\"Win7\",\"Platform_Version\":\"6.1\",\"Win32\":true}",
        "0de87c6fd363472c9a7357afa497309c\t{\"Platform_Version\":\"8.0\"}",
        "0dc91e86ad9dc44fea4e9aec894bdcf0\t{\"Browser_Bits\":\"32\",\"Platform\":\"Win8.1\",\"Platform_Version\":\"6.3\",\"Win32\":true}",
        "0d6aa90b0336a0d3c5b6cd6f660cf873\t[]",
        "0d198a764a9a291d323de58fa4c2dc62\t{\"Platform_Version\":\"9.3\",\"isTablet\":true}",
        "0daecd6b16b7e10d3f59ec5a319be558\t{\"Platform_Version\":\"9.1\"}",
        "0d46285097161731adc133e3ad112c09\t{\"Platform_Version\":\"9.0\"}",
        "0ded97932aee08be5e50fd5d905ead7e\t{\"Platform_Version\":\"9.1\"}",
        "0dffe75f9b5c5fc074b76fb4c04f487b\t{\"Platform_Version\":\"10.1\",\"isTablet\":true}",
        "0d868358747c543ecc624d04b7295f1b\t{\"Platform_Version\":\"8.3\",\"isTablet\":true}",
        "0d105feae132698b76037a7f43fe0bb1\t{\"Platform_Version\":\"10.1\"}",
        "0d80f153ff3c3ab8bea13d8674e79db2\t{\"Platform_Version\":\"9.1\",\"isTablet\":true}",
        "0da9f3a382c35934837e70b9983e0414\t{\"Browser_Bits\":\"32\",\"Platform\":\"MacOSX\",\"Platform_Version\":\"10.9\"}",
        "0d4259a90bc38c091049cabc128abe3e\t{\"Platform_Version\":\"10.0\"}",
        "0dd08e79f0a12866e1668cb9c9a21b89\t{\"Platform_Version\":\"10.3\"}",
        "0d138f9ebddad7688fbf3455eec725b5\t{\"Platform_Version\":\"7.0\"}",
        "0d641a9f16093574e5388317e586bfdf\t{\"Platform\":\"macOS\",\"Platform_Version\":\"10.12\"}",
        "0dde8466c6f9c8aac047f2117553c898\t{\"Browser_Bits\":\"32\",\"Platform\":\"MacOSX\",\"Platform_Version\":\"10\"}",
        "0d57063771640dcc039ac11d99f4cd51\t{\"Browser_Bits\":\"32\",\"Platform\":\"Win32\",\"Win32\":true}",
        "0dfbb3616aceb5a8ca1e95b829ea933c\t[]",
        "0d6477d17ca66da22163e6eb8b2e0c38\t{\"isMobileDevice\":true}",
        "0d28135b912f9621c2c36708c0e02908\t{\"Browser_Bits\":\"32\",\"Platform\":\"Win7\",\"Platform_Version\":\"6.1\",\"Win32\":true}",
        "0d5053836801aeae0d2995600ce21e34\t{\"Browser_Bits\":\"32\",\"Platform\":\"RIM OS\"}",
        "0d9547a7c5fcbfa616ebbdedabfdd292\t[]",
        "0d519295eaa8956fa75c67c1004e7317\t{\"Platform_Version\":\"6.0\"}",
        "0d20409d3c9c2036eed46aa981f230c8\t{\"Platform_Version\":\"4.2\",\"isTablet\":true}",
        "0d3b88761381ce08692a041cb58f9f06\t{\"Browser_Bits\":\"32\",\"Platform\":\"iOS\",\"Platform_Version\":\"9.3\",\"isTablet\":true}",
        "0d092fa0be33db83f2c1577a10e6d2c5\t{\"Browser_Bits\":\"32\",\"Platform\":\"iOS\",\"Platform_Version\":\"9.3\"}",
        "0d3eb11e585376e30a71aa24f4caeff0\t{\"Browser_Bits\":\"32\",\"Platform\":\"JAVA\"}",
        "0d4c5c5f40f5fd16d15300ca74d0cc6d\t{\"Browser_Bits\":\"32\",\"Platform\":\"iOS\",\"isTablet\":true}",
        "0ded168e13271ec275f0ed22b1ec39e8\t{\"Browser_Bits\":\"32\",\"Platform\":\"WinPhone\"}",
        "0d2f888cbae41b891aab08bacfdb286e\t{\"Browser_Bits\":\"32\",\"Platform\":\"Brew\",\"Platform_Version\":\"2.0\"}",
        "0d0aa5dee5137c178ed8c9d386056715\t{\"Browser_Bits\":\"32\",\"Platform\":\"Linux\"}",
        "0de9f012b0f8201c505cc98875cf9292\t{\"Platform_Version\":\"10.2\"}",
        "0d95b4fd3495c768a09fddbbb723b01c\t{\"Platform_Version\":\"10.1\",\"isTablet\":true}",
        "0d69df1940e6acc66e91ff6ba03d8b63\t{\"Platform_Version\":\"9.0\",\"isTablet\":true}",
        "0d639efb18b8d76c30a8dd7173384d71\t{\"Platform_Version\":\"9.3\",\"isTablet\":true}",
        "0d7b7c3dc1eb9adccd4d95344d4b67fb\t{\"Platform_Version\":\"10.0\"}",
        "0d15d88f5eac25f65c912963c3709211\t{\"Platform_Version\":\"8.1\"}",
        "0d38c1e9b9add7ccd5c3439d49094ab6\t[]",
        "0df3dd1c0106ec76c557295b0e6d8925\t{\"Platform_Version\":\"9.1\"}",
        "0dc0dff2edbbece27f58e9dee3ffea62\t{\"Platform_Version\":\"10.1\"}",
        "0dcbabfd33dd6a7a9fa1745b31072e3e\t{\"Platform_Version\":\"9.0\"}",
        "0d31066c2acbdb13d9da871a025077fc\t{\"Platform_Version\":\"9.1\",\"isTablet\":true}",
        "0d06c7db0cd502292e0a5f56bcd484fe\t{\"Platform_Version\":\"7.1\"}",
        "0dd8f1ab509885029f94fb9d6b715128\t{\"Platform_Version\":\"10.1\",\"isTablet\":true}",
        "0dd943e1eed0f38f933a9db97825456a\t{\"Platform_Version\":\"10.0\",\"isTablet\":true}",
        "0debe13412df7f34f025b90f18aa54bd\t{\"Platform_Version\":\"8.2\"}",
        "0de7ed57a6d7bf6d07c3ec73f370157c\t{\"Platform_Version\":\"8.2\"}",
        "0de4fb563e8cf64cace92cf3eaa19221\t{\"Platform_Version\":\"10.2\"}",
        "0d271ee1b5aa6ee27963ff8b1d93f9ef\t{\"Platform_Version\":\"10.3\"}",
        "0ddb6ee33e463bfecdb9d85f2027f09e\t{\"Platform_Version\":\"8.0\",\"isTablet\":true}",
        "0def9ee6058ea75597ef48c399596f10\t{\"Platform_Version\":\"8.2\"}",
        "0d55640a4debb0ad1bad8645242c86ee\t{\"Platform_Version\":\"7.0\"}",
        "0db805c0085e427d4c73da6f3922d11e\t{\"Platform_Version\":\"8.0\"}",
        "0db8e5938119ac8813f6e7ab59ea36e3\t{\"Platform_Version\":\"10.1\"}",
        "0dcea585839b690a409a40602be81683\t{\"Platform_Version\":\"10.2\"}",
        "0d033bf8676b11ef28234b450295ed4d\t{\"Platform_Version\":\"7.1\",\"isTablet\":true}",
        "0d124381250173f790a4b35f7349b95c\t{\"Platform_Version\":\"9.2\",\"isTablet\":true}",
        "0dc9445e53d0b297ed50bbb38e7cb1ed\t{\"Platform_Version\":\"7.0\"}",
        "0d3b4854a8c710fac4c9ed69dc59540d\t{\"Platform_Version\":\"10.1\"}",
        "0d39dba287dd77e9788512ee37b721dc\t{\"Platform_Version\":\"7.0\"}",
        "0ddfcbadb9970780039b740cd7a5750c\t{\"Platform_Version\":\"10.3\"}",
        "0d4748dce9c380b81ecee75caee64737\t{\"Platform_Version\":\"9.3\"}",
        "0d2db63302b405dd6f468d2bda5e6fe0\t{\"Browser_Bits\":\"32\",\"Platform\":\"iOS\",\"isMobileDevice\":true}",
        "0d310a3735c3a551eff9c8e876e09cab\t{\"Platform_Version\":\"9.3\",\"isTablet\":true}",
        "0dacd569c61fbada92d31470be3ddb1a\t{\"Platform_Version\":\"9.2\"}",
        "0dc1a11206b3c2ba9c71e85392d6297b\t{\"Platform_Version\":\"9.1\",\"isTablet\":true}",
        "0d07f49c605235d66b33d23007a6d755\t[]",
        "0ddadb8cc6a2ca489e7e0a2402e11e27\t{\"Platform_Version\":\"9.2\"}",
        "0d1f365cde1e0fd2f28b79e3db864eaa\t{\"Platform_Version\":\"8.4\"}",
        "0d98880cabf8df2bfd63614e5c4083bd\t{\"Browser_Bits\":\"32\",\"Platform\":\"iOS\",\"Platform_Version\":\"8.4\"}",
        "0d77f8f6cc2c2d5b751ae47d67ee14ee\t{\"Platform_Version\":\"8.0\"}",
        "0d1927af436018668b2f804f2e797175\t{\"isTablet\":true}",
        "0dd2f732ba24cc17b607627a93256440\t{\"Platform_Version\":\"10.3\",\"isTablet\":true}",
        "0d3bd0f2b85f6ad5fda8f8b8f9196921\t{\"Platform_Version\":\"10.0\",\"isTablet\":true}",
        "0d32bc84fde453f5456b9d187711ff2b\t{\"Platform_Version\":\"9.1\"}",
        "0dd681ea8c0e1ce4a6c1a82941f14c2d\t{\"Platform_Version\":\"8.3\"}",
        "0d6019c02632243d558ee38fbe39814c\t{\"Browser_Bits\":\"32\",\"Platform\":\"FreeBSD\"}",
        "0d643c99af7382b88c263aab92d1675b\t[]",
        "0d1390675858e6522c163eb8a3b9ed97\t[]",
        "0d134b70b50869dffd5536df38a39566\t{\"Platform\":\"WinXP\",\"Platform_Version\":\"5.1\"}",
        "0d65a30094283714b157ff742a54cd22\t{\"Browser_Bits\":\"32\",\"Platform\":\"Linux\"}",
        "0d2bdec2c7b35c9fb3fe80920acd8d1f\t[]",
        "0db8a8c87db4d21b78b0990a6d2c2d83\t{\"Browser_Bits\":\"32\",\"Platform\":\"Win8\",\"Platform_Version\":\"6.2\",\"Win32\":true}",
        "0d1c2aa75cc8c3cd9dfe994b2585254a\t[]",
        "0d8b831aa1456d5e7af72df6ef92fae5\t{\"Browser_Bits\":\"64\",\"Platform\":\"IRIX64\"}",
        "0dca269e7e392d093d931d3a22aeadcc\t{\"Browser_Bits\":\"32\",\"Platform\":\"WinXP\",\"Platform_Version\":\"5.1\",\"Win32\":true}",
        "0daf3b3fcad0493afa4b373aa7f49615\t{\"Browser_Bits\":\"32\",\"Platform\":\"Win7\",\"Platform_Version\":\"6.1\",\"Win32\":true}",
        "0dea3c90454647eb98c6020d96ccc5fd\t{\"Browser_Bits\":\"32\",\"Platform\":\"Win10\",\"Platform_Version\":\"6.4\",\"Win32\":true}",
        "0dc1e757d8455c4739688e35ff946994\t{\"Browser_Bits\":\"32\",\"Platform\":\"MacOSX\",\"Platform_Version\":\"10.9\"}",
        "0d9fc2136cea01d10db837d78c5534a8\t{\"Browser_Bits\":\"32\",\"Platform\":\"WinVista\",\"Platform_Version\":\"6.0\",\"Win32\":true}",
        "0d63de1373752df3ac49122c27137c14\t{\"Platform\":\"Win7\",\"Platform_Version\":\"6.1\"}",
        "0d9d12ba1b9012d76f8fb32e56907e81\t{\"Platform\":\"Win7\",\"Platform_Version\":\"6.1\"}",
        "0d9684a66149f4c4974591bc684d94fc\t{\"Platform\":\"WinVista\",\"Platform_Version\":\"6.0\"}",
        "0d9270e647e0d7cb1c641e057428655d\t{\"Platform\":\"WinVista\",\"Platform_Version\":\"6.0\"}",
        "0db1bfb412a7383542f2d3911939f746\t{\"Browser_Bits\":\"32\",\"Platform\":\"Win8.1\",\"Platform_Version\":\"6.3\",\"Win32\":true}",
        "0dd0de06428418fa6960a04ccb172a33\t{\"Browser_Bits\":\"32\",\"Platform\":\"Win8\",\"Platform_Version\":\"6.2\",\"Win32\":true}",
        "0dc60a732619603cb75074d3ccb20924\t{\"Browser_Bits\":\"32\",\"Platform\":\"Win10\",\"Platform_Version\":\"10.0\",\"Win32\":true}",
        "0dfd1a5773421432b1bfcba5e63d3130\t{\"Browser_Bits\":\"32\",\"Platform\":\"OpenBSD\"}",
        "0d26f8d25c65c82faa9105003e5dc35b\t{\"Browser_Bits\":\"32\",\"Platform\":\"WinXP\",\"Platform_Version\":\"5.2\",\"Win32\":true}",
        "0d5ee2632474c4f0c4f298ddb5d1f4e6\t{\"Browser_Bits\":\"32\",\"Platform\":\"WinVista\",\"Platform_Version\":\"6.0\",\"Win32\":true}",
        "0d8a37595e325075934222fc66dd97a4\t{\"Browser_Bits\":\"32\",\"Platform\":\"Win8\",\"Platform_Version\":\"6.2\",\"Win32\":true}",
        "0dba0687e3c154b720099b1b837c58ea\t[]",
        "0d2aa690dfc23b6170a03911cfe2c39c\t[]",
        "0d6c12dce8dee1cd0f19451a37b0e690\t{\"Browser_Bits\":\"32\",\"Platform\":\"WinVista\",\"Platform_Version\":\"6.0\",\"Win32\":true}",
        "0ddc8a6be756880a01a6c199c787b020\t{\"Browser_Bits\":\"32\",\"Platform\":\"WinXP\",\"Platform_Version\":\"5.2\",\"Win32\":true}",
        "0d6b0a0fe5c5cf85b33954e53a8410b8\t{\"Browser_Bits\":\"32\",\"Platform\":\"Win7\",\"Platform_Version\":\"6.1\",\"Win32\":true}",
        "0de6cbc284bc1d8299960e596ae68fa4\t{\"Platform_Version\":\"8.0\"}",
        "0d6d186231674d72ba4afa53b92c1eac\t{\"Browser_Bits\":\"32\",\"Platform\":\"WinVista\",\"Platform_Version\":\"6.0\",\"Win32\":true}",
        "0d2801d40e6ebddfad5b138039cb257a\t{\"Browser_Bits\":\"32\",\"Platform\":\"WinXP\",\"Platform_Version\":\"5.1\",\"Win32\":true}",
        "0d63e568fc41ffe38df8141d0c35c4b2\t{\"Browser_Bits\":\"32\",\"Platform\":\"WinXP\",\"Platform_Version\":\"5.1\",\"Win32\":true}",
        "0d9bb92f49e6d4b984e2128752f9e972\t{\"Browser_Bits\":\"32\",\"Platform\":\"WinXP\",\"Platform_Version\":\"5.1\",\"Win32\":true}",
        "0d9c95a0093239a3e4795a79b2672ca3\t{\"Browser_Bits\":\"32\",\"Platform\":\"WinXP\",\"Platform_Version\":\"5.2\",\"Win32\":true}",
        "0d13d3e102cd7eb8a9c4e9e0d90df1f8\t{\"Browser_Bits\":\"32\",\"Platform\":\"WinXP\",\"Platform_Version\":\"5.2\",\"Win32\":true}",
        "0d032a054879c7de15b0e8ff34e0f721\t{\"Browser_Bits\":\"32\",\"Platform\":\"WinVista\",\"Platform_Version\":\"6.0\",\"Win32\":true}",
        "0da7bef3d3c997487f18bb497cec1dd0\t{\"Browser_Bits\":\"32\",\"Platform\":\"WinXP\",\"Platform_Version\":\"5.2\",\"Win32\":true}",
        "0d6612aecc9fcf2d87ebb076eeb44030\t{\"Browser_Bits\":\"32\",\"Platform\":\"Android\",\"isMobileDevice\":true}",
        "0dd26d1356b13d28e0d853fd9238ee57\t{\"Browser_Bits\":\"32\",\"Platform\":\"Android\",\"isMobileDevice\":true}",
        "0d78d4ca20abe92767ad8f5b41a6559f\t{\"Platform_Version\":\"7.1\"}",
        "0dad047b3c78cdc5b8d3f231c83fc08e\t{\"Browser_Bits\":\"32\",\"Platform\":\"Win32\",\"Win32\":true}",
        "0dd78bcef76e52c52a99e61dba4b2da7\t{\"Browser_Bits\":\"32\",\"Platform\":\"macOS\",\"Platform_Version\":\"10.12\"}",
        "0d4b2c37c2b7d2281f3257cb1a69635c\t{\"Browser_Bits\":\"32\",\"Platform\":\"MacOSX\",\"Platform_Version\":\"10.11\"}",
        "0d11d406f78bd1ef649baf943c76eb2b\t{\"Browser_Bits\":\"32\",\"Platform\":\"Win8\",\"Platform_Version\":\"6.2\",\"Win32\":true}",
        "0d2927053f1656be89756e2c446b7ac7\t{\"Browser_Bits\":\"32\",\"Platform\":\"Win10\",\"Platform_Version\":\"10.0\",\"Win32\":true}",
        "0d35afe4fc51c79ba62212c16ba252a8\t{\"Browser_Bits\":\"32\",\"Platform\":\"MacOSX\",\"Platform_Version\":\"10.10\"}",
        "0d3a14393466e6d24f8fa223e9e6e876\t{\"Browser_Bits\":\"32\",\"Platform\":\"MacOSX\",\"Platform_Version\":\"10.9\"}",
        "0d9c9900eedc364d33b9a58383db9732\t{\"Browser_Bits\":\"32\",\"Platform\":\"WinXP\",\"Platform_Version\":\"5.1\",\"Win32\":true}",
        "0ddd99d5c01a9353dedb6cb6384f4967\t{\"Browser_Bits\":\"32\",\"Platform\":\"MacOSX\",\"Platform_Version\":\"10\"}",
        "0d80ba7efc6ba4a569a24148757115fe\t{\"Browser_Bits\":\"32\",\"Platform\":\"MacOSX\",\"Platform_Version\":\"10\"}",
        "0d0c61d52c27aab1a70458060154342a\t{\"Browser_Bits\":\"32\",\"Platform\":\"Win32\",\"Win32\":true}",
        "0d916e5bc620101ba91bc04f73c4c4da\t{\"Browser_Bits\":\"32\",\"Platform\":\"HP-UX\"}",
        "0d9d381256c1a31e50849e47981e280c\t{\"Browser_Bits\":\"32\",\"Platform\":\"Win8.1\",\"Platform_Version\":\"6.3\",\"Win32\":true}",
        "0d936ac5d67514be109b953e95d66230\t{\"Browser_Bits\":\"32\",\"Platform\":\"MacOSX\",\"Platform_Version\":\"10.11\"}",
        "0d37ff70ed3e47eb7a259bfd8a84943a\t{\"Browser_Bits\":\"32\",\"Platform\":\"FreeBSD\"}",
        "0d8a97a62d7b364421409784833e91eb\t{\"Browser_Bits\":\"32\",\"Platform\":\"Linux\"}",
        "0d752a7ae8e6be9f3f920f98479fbcea\t[]",
        "0d448d1f80b9a4ff351fe48626e35370\t{\"Browser_Bits\":\"32\",\"Platform\":\"Win8.1\",\"Platform_Version\":\"6.3\",\"Win32\":true}",
        "0d87536c6cf2c090141870e3efab0ba9\t{\"Browser_Bits\":\"32\",\"Platform\":\"MacOSX\",\"Platform_Version\":\"10\"}",
        "0d9f5459e6338289f86d0bd8672b7830\t{\"Browser_Bits\":\"32\",\"Platform\":\"Linux\"}",
        "0d55340c85dd848fc8d2f0baff3d668d\t{\"Browser_Bits\":\"32\",\"Platform\":\"WinXP\",\"Platform_Version\":\"5.1\",\"Win32\":true}",
        "0dcfeb71caa4a8cee7de058567832de3\t{\"Browser_Bits\":\"32\",\"Platform\":\"Win7\",\"Platform_Version\":\"6.1\",\"Win32\":true}",
        "0d4d20c3987168ad219232fbf0fc65fd\t{\"Browser_Bits\":\"32\",\"Platform\":\"HP-UX\"}",
        "0d865fe6a362073e7d602a2da0532ecf\t{\"Browser_Bits\":\"32\",\"Platform\":\"MacOSX\",\"Platform_Version\":\"10.10\"}",
        "0d8ee470c6f146c5bc5da7c9cb296c6a\t[]",
        "0deaf13ca788e7ad679f2ac5964ba2b0\t[]",
        "0d0d39c95ab98dbde184d6e2eb0fd8ed\t[]",
        "0d8a58d00745f108f8de0d732138813d\t[]",
        "0d8e863317ac22a98b25a9e75dfff6e9\t{\"Platform_Version\":\"8.4\"}",
        "0d662239a0a88afa5ad1fb74f050e59d\t[]",
        "0d68919c76439fa98fb760ffe4a20aa2\t{\"Browser_Bits\":\"32\",\"Platform\":\"SunOS\"}",
        "0deaf1cf551cd75798dafbc482e2cf98\t{\"Browser_Bits\":\"32\",\"Platform\":\"WinXP\",\"Platform_Version\":\"5.2\",\"Win32\":true}",
        "0ddc662d216729c3a884cd586fe237a5\t{\"Browser_Bits\":\"32\",\"Platform\":\"OS\\\/2\"}",
        "0db01aadc1b19e71ca190e870aaacce7\t{\"Platform_Version\":\"8.4\"}",
        "0d429dfaa1705bfe80c0527f2c1a59b8\t{\"Browser_Bits\":\"32\",\"Platform\":\"MacOSX\",\"Platform_Version\":\"10\"}"
    ]
}