{
    "content": [
        "86b2e356269f73bd491b654a4fe969e0\t[]",
        "86280ac8a7f8881407ba060c76d72d6a\t[]",
        "866a6cafcf74ab3c2612a85626f1c706\t[]",
        "86af97e87d212d5b150e8750cc7ec4fd\t[]",
        "864d398e3349c56e057ac67c45d719ec\t[]",
        "86321e20e13195d830fec49ab6ec19fc\t[]",
        "86e4d0779b4df49afb9e2df637d43a1f\t{\"Platform_Version\":\"6.1\"}",
        "86cbaf1f3b841a6f229308dafb661a81\t{\"Platform\":\"iOS\",\"Platform_Version\":\"10.2\",\"Win32\":false,\"isMobileDevice\":true,\"isTablet\":true}",
        "86cd9f6534c815945548f692d067271d\t{\"Platform\":\"MacOSX\",\"Platform_Version\":\"10\",\"Win32\":false}",
        "869b5db6dd4215656c1c9cff8a015419\t{\"Platform\":\"iOS\",\"Platform_Version\":\"10.3\",\"Win32\":false,\"isMobileDevice\":true,\"isTablet\":true}",
        "86ad9de351a425f011e4ff88256fe018\t{\"Platform\":\"iOS\",\"Platform_Version\":\"10.2\",\"Win32\":false,\"isMobileDevice\":true,\"isTablet\":true}",
        "867a24694fefa4e4504c9cc2d9afd07f\t{\"Platform\":\"Win8\",\"Platform_Version\":\"6.2\"}",
        "86b5052467070c2131507cfb70d7c222\t{\"Platform\":\"iOS\",\"Platform_Version\":\"10.1\",\"Win32\":false,\"isMobileDevice\":true,\"isTablet\":true}",
        "8687035797f8fad47d221453f776cc93\t{\"Platform\":\"WinXP\",\"Platform_Version\":\"5.1\"}",
        "86cf3abe4b5e7dd2579729b3e490705d\t{\"Platform_Version\":\"5.0\"}",
        "86e354f91f0305717ae7ea10e110685d\t{\"Platform_Version\":\"7.1\",\"isTablet\":true}",
        "8656bbe7147a089735b78d6b5a02b17a\t{\"Platform_Version\":\"9.0\",\"isTablet\":true}",
        "86a4f4b30857204de43f2553f40b3571\t{\"Browser_Bits\":\"32\",\"Platform\":\"iOS\",\"Platform_Version\":\"10.0\"}",
        "8678f676f4b69f4c447772158731740a\t[]",
        "86c1b1f057d24f499e4c707667a7f5e6\t{\"Platform\":\"iOS\",\"Platform_Version\":\"8.2\",\"isTablet\":true}",
        "86e9cd674c61c4397c33b63db821ebcb\t{\"Platform\":\"iOS\",\"Platform_Version\":\"8.0\",\"isTablet\":true}",
        "8647215de21f8221e938d9a89ac9153a\t{\"Platform_Version\":\"7.0\"}",
        "862e5eed9b8afb08a42a31e9ee9ba3b8\t{\"Platform_Version\":\"4.2\",\"isTablet\":true}",
        "864658615dfdb8a5fbd318ec1bbc5248\t{\"Platform_Version\":\"4.4\",\"isTablet\":true}",
        "869b930dcb36dedb07e96da5d4bb2977\t{\"Platform_Version\":\"4.3\"}",
        "86958daf4ef8270c6509c044e3c4e29c\t{\"Platform\":\"iOS\",\"Platform_Version\":\"7.0\",\"isTablet\":true}",
        "867f6bcc764aee79f31ea10577979bbc\t{\"Platform\":\"WinPhone8\",\"Platform_Version\":\"8.0\"}",
        "86f7a1e32a634f1f508dc008ceb6526a\t{\"Platform\":\"iOS\",\"Platform_Version\":\"8.4\",\"isTablet\":true}",
        "86233ad042075281f10d57b0ecceb70d\t[]",
        "866d0b623102bef6016fbac60f56f77e\t{\"Browser_Bits\":\"32\",\"Platform\":\"Win10\",\"Platform_Version\":\"10.0\",\"Win32\":true}",
        "868ef59588900347c05fbdc68ec032bc\t[]",
        "86a178681158525379068a0b424649e7\t{\"Browser_Bits\":\"32\",\"Platform\":\"iOS\",\"Platform_Version\":\"7.1\"}",
        "86d3bf346708f8e017df0ebeae296461\t{\"Browser_Bits\":\"32\",\"Platform\":\"Win8.1\",\"Platform_Version\":\"6.3\",\"Win32\":true}",
        "865848e26a2b384bd91f248fa7cf2206\t{\"Browser_Bits\":\"32\",\"Platform\":\"Win8.1\",\"Platform_Version\":\"6.3\",\"Win32\":true}",
        "86c208bb8f0cdd6c62005b5e08d1946e\t{\"Browser_Bits\":\"32\",\"Platform\":\"WinVista\",\"Platform_Version\":\"6.0\",\"Win32\":true}",
        "86bda7c6c4f8e900824ccd18501ae44d\t{\"Platform_Version\":\"7.0\"}",
        "86f9841ef022839a4c460a487891157f\t{\"Platform_Version\":\"4.4\",\"isTablet\":true}",
        "86914b983344532731e63e9b43992942\t{\"Platform\":\"iOS\",\"Platform_Version\":\"9.1\"}",
        "866fb56e24802577edbb0eacb9876ac1\t{\"Platform\":\"WinXP\",\"Platform_Version\":\"5.1\"}",
        "8663006027a2e5af21d182fd34374bf2\t{\"Platform\":\"Win8\",\"Platform_Version\":\"6.2\"}",
        "8641a5dc1a5609d3072a214c90a932f3\t{\"Platform\":\"WinVista\",\"Platform_Version\":\"6.0\"}",
        "866b3afc7f3055e7d7002e6f08c098cb\t{\"Platform\":\"WinVista\",\"Platform_Version\":\"6.0\",\"Win32\":true}",
        "86e0967021fbe1b520672035a48ce898\t{\"Platform\":\"Win8.1\",\"Platform_Version\":\"6.3\",\"Win32\":true}",
        "863399e9e700a2ee536316b9d1a2625a\t{\"Platform\":\"Win8.1\",\"Platform_Version\":\"6.3\",\"Win32\":true}",
        "86ce6af2f16c7a2cd24cec71da885210\t[]",
        "86c7a8c70383c4208e930510a5e63df3\t{\"Platform\":\"Win7\",\"Platform_Version\":\"6.1\",\"Win32\":true}",
        "86728962bac807205879144ce536c231\t{\"Platform\":\"Win8\",\"Platform_Version\":\"6.2\",\"Win32\":true}",
        "86c5c98e15678e4c2147c8d305d21e6a\t[]",
        "86895613b69fb188664b2b09d057eb6f\t{\"Platform\":\"WinXP\",\"Platform_Version\":\"5.1\",\"Win32\":true}",
        "8658afc1142fe7b71f4a8b0f0e9f3fdc\t{\"Platform\":\"Win10\",\"Platform_Version\":\"10.0\",\"Win32\":true}",
        "86bebedbb03daae5f9899f9253ab1419\t{\"Platform\":\"WinXP\",\"Platform_Version\":\"5.2\",\"Win32\":true}",
        "861319c7df7f27563e32d0552b15f0c5\t{\"Platform\":\"WinVista\",\"Platform_Version\":\"6.0\",\"Win32\":true}",
        "86cdd97e387c6e7b85d9af2676f904cf\t{\"Platform_Version\":\"9.1\"}",
        "8643511bb48676f210495f4268942430\t{\"Platform\":\"WinXP\",\"Platform_Version\":\"5.2\",\"Win32\":true}",
        "8668dde475957d57a977d98c675a5c8b\t{\"Platform_Version\":\"4.2\",\"isTablet\":true}",
        "86017bcd019e7af86bb9d19e9493f071\t{\"Platform_Version\":\"4.2\",\"isTablet\":true}",
        "861d80b1fff3b081e7d3729f02428b44\t{\"Platform_Version\":\"5.1\"}",
        "860dcd334a306178379ca1856ffd8d4a\t{\"Platform_Version\":\"4.2\",\"isTablet\":true}",
        "864eeeffbcd5676013811fcdb56cb618\t{\"Platform_Version\":\"4.4\"}",
        "8699786468d9426d4f8fe2545a1697a5\t{\"Platform\":\"Win8.1\",\"Platform_Version\":\"6.3\"}",
        "867f199c25e02ee650372967b0538696\t{\"Platform_Version\":\"5.1\",\"isTablet\":true}",
        "866db5d24191bc712e82347111a61ab5\t{\"Platform_Version\":\"2.4\"}",
        "86ab29a338343b794d39875636b733db\t{\"Platform_Version\":\"4.2\",\"isTablet\":true}",
        "8680888d26b8a082d94910a7319c5ba6\t{\"Platform_Version\":\"4.2\",\"isTablet\":true}",
        "867e22bb2979778282c92537f42fb795\t{\"Platform_Version\":\"4.2\",\"isTablet\":true}",
        "86c63193648870ad3dc4f61b83dd96b7\t{\"Platform_Version\":\"4.2\",\"isTablet\":true}",
        "862081b390ed925da1fe5d41db8c5fe7\t{\"Platform_Version\":\"4.2\",\"isTablet\":true}",
        "862d329aeb70ee6f00f1fd0e753819e2\t{\"Platform_Version\":\"4.2\"}",
        "86c92b3b6553b5221b58d19d84371a30\t{\"Platform_Version\":\"4.2\",\"isTablet\":true}",
        "86047b2329a7bf4f491efd09a77b898c\t{\"Browser_Bits\":\"32\",\"Platform\":\"Android\",\"Platform_Version\":\"6.1\"}",
        "8644aa173e9c8b5f84631ed4d4eb6743\t{\"Browser_Bits\":\"32\",\"Platform\":\"Android\"}",
        "868583e553e656140ca57ecd5dde0752\t{\"Browser_Bits\":\"32\",\"Platform\":\"Android\",\"Platform_Version\":\"4.2\"}",
        "86d9e4a97df052981706292517d2861d\t{\"Browser_Bits\":\"32\",\"Platform\":\"Android\",\"Platform_Version\":\"4.4\"}",
        "86c5bc3afe97ca54b1e08fcc8c78a741\t{\"Browser_Bits\":\"32\",\"Platform\":\"Android\",\"Platform_Version\":\"4.3\"}",
        "8657530bff43c9135c47c2782a50ca74\t{\"Platform_Version\":\"4.2\"}",
        "86ee4231d0d56eb4f9a9b2b81f4da45a\t{\"Platform_Version\":\"8.2\"}",
        "865a48f61e030f0406b64141be3f049c\t{\"Platform_Version\":\"4.2\",\"isTablet\":true}",
        "8681964bf51eeb16190f8c2533f3b68a\t{\"Platform_Version\":\"9.2\"}",
        "86164729290dcfddec16f840be3ff1c4\t{\"Platform_Version\":\"8.4\"}",
        "86394b9707118f15a1ce485c55eb3418\t{\"Platform_Version\":\"10.3\"}",
        "86c98a3be50872d63693c3e6e8f14b40\t{\"Platform_Version\":\"4.2\",\"isTablet\":true}",
        "862be9e59411421f58edf1bb027ae20e\t{\"Platform_Version\":\"9.1\"}",
        "86c501c5e4843788e058aaf95a735213\t{\"Platform_Version\":\"8.0\"}",
        "8635e442b45854c6d0d2da7d6779dc1c\t{\"Platform_Version\":\"8.1\"}",
        "867b86a8eb48a372a4d360fcf55fc492\t{\"Platform_Version\":\"6.0\"}",
        "86d4dce8405a65e7b1b31a493a45186f\t{\"Platform_Version\":\"4.2\",\"isMobileDevice\":false}",
        "865f5eda2edcc4024c51ccb348fa96e9\t{\"Browser_Bits\":\"32\",\"Platform\":\"WinVista\",\"Platform_Version\":\"6.0\",\"Win32\":true}",
        "8694de239814addd07cffbde7d2b8fe3\t{\"Platform_Version\":\"4.2\",\"isTablet\":true}",
        "867a6e6e3d7696c28af423449e301261\t{\"Platform_Version\":\"8.1\"}",
        "863ff2f7582f24554638470a5d999cd7\t{\"Platform_Version\":\"4.4\",\"isTablet\":true}",
        "86bef4cdf5aaa5d812270734a54af3e5\t{\"Platform_Version\":\"4.2\",\"isTablet\":true}",
        "866c9d65c151f9ac97b66c9bafe91bdd\t{\"Browser_Bits\":\"32\",\"Platform\":\"MacOSX\",\"Platform_Version\":\"10\"}",
        "86e2b17e8dc09ccee3f2913147335505\t{\"Platform_Version\":\"4.2\",\"isTablet\":true}",
        "86209c460ce718c3614488ebc496eaf3\t{\"Platform_Version\":\"4.2\",\"isTablet\":true}",
        "86a59674851507e1ede37ddfae1c65d2\t{\"Platform_Version\":\"4.4\",\"isTablet\":true}",
        "86710a404b248777ae738ed5a4745b73\t{\"Platform_Version\":\"4.3\",\"isTablet\":true}",
        "86b2628913572a606baf2e60b563b953\t{\"Platform_Version\":\"4.4\",\"isTablet\":true}",
        "868afc2ad1152884c31eb2748bfd27b7\t{\"Platform_Version\":\"4.4\"}",
        "86a8d949255519131d8312964ddb8273\t{\"Platform_Version\":\"6.1\"}",
        "8693c98f3d7c60fa5e058540a89d94e2\t{\"Browser_Bits\":\"32\",\"Platform\":\"WinXP\",\"Platform_Version\":\"5.2\",\"Win32\":true}",
        "86cddebbdf97f955b87dbea66d5e1ff9\t{\"Browser_Bits\":\"32\",\"Platform\":\"MacOSX\",\"Platform_Version\":\"10\"}",
        "867b652abc010d42fec015c4aed1c060\t{\"Browser_Bits\":\"32\",\"Platform\":\"FreeBSD\"}",
        "86bb3af312e208090fb60ead6ecd9b92\t{\"Browser_Bits\":\"32\",\"Platform\":\"Win8.1\",\"Platform_Version\":\"6.3\",\"Win32\":true}",
        "8630bc046f5db037153ff3cde48de854\t{\"Browser_Bits\":\"32\",\"Platform\":\"WinVista\",\"Platform_Version\":\"6.0\",\"Win32\":true}",
        "867659b7faa9ea7106ab78f38002baa1\t{\"Browser_Bits\":\"32\",\"Platform\":\"WinXP\",\"Platform_Version\":\"5.2\",\"Win32\":true}",
        "862a8bb587f52ec506ea3aa4b35f9baf\t{\"Browser_Bits\":\"32\",\"Platform\":\"MacOSX\",\"Platform_Version\":\"10.10\"}",
        "8689eab8686ad9623ddd642c1f4217a4\t{\"Browser_Bits\":\"32\",\"Platform\":\"Win8\",\"Platform_Version\":\"6.2\",\"Win32\":true}",
        "8641db4a8ea945f6608bc9dd188f7f0f\t{\"Browser_Bits\":\"32\",\"Platform\":\"MacOSX\",\"Platform_Version\":\"10.9\"}",
        "86f986160a57a485bb23b409c514b6b9\t{\"Browser_Bits\":\"32\",\"Platform\":\"MacOSX\",\"Platform_Version\":\"10\"}",
        "866da6dbd0ec835ea4e5cb5e8f19bcb1\t{\"Browser_Bits\":\"32\",\"Platform\":\"WinVista\",\"Platform_Version\":\"6.0\",\"Win32\":true}",
        "8692cfd8327c8ae1c0d3df3d619ae9ad\t{\"Browser_Bits\":\"32\",\"Platform\":\"Linux\"}",
        "86e956e2689f4011c6db096e9c4d8d66\t{\"Browser_Bits\":\"32\",\"Platform\":\"Win8.1\",\"Platform_Version\":\"6.3\",\"Win32\":true}",
        "86f607ba66d998ac4aa10baf27e16b71\t{\"Browser_Bits\":\"32\",\"Platform\":\"MacOSX\",\"Platform_Version\":\"10\"}",
        "867171b46f4dae1bca7ec4cdd75da28d\t{\"Browser_Bits\":\"32\",\"Platform\":\"WinVista\",\"Platform_Version\":\"6.0\",\"Win32\":true}",
        "862b59fa8eda19373d91732a65efef6b\t{\"Browser_Bits\":\"32\",\"Platform\":\"WinXP\",\"Platform_Version\":\"5.1\",\"Win32\":true}",
        "86627a61556bd692c0e2d2fed54da5c7\t{\"Browser_Bits\":\"32\",\"Platform\":\"Win7\",\"Platform_Version\":\"6.1\",\"Win32\":true}",
        "8692af75e5b29d7a75078958c10882e0\t{\"Browser_Bits\":\"32\",\"Platform\":\"WinXP\",\"Platform_Version\":\"5.1\",\"Win32\":true}",
        "86825a03e7a8afb21e40e8217aabd460\t{\"Browser_Bits\":\"32\",\"Platform\":\"WinXP\",\"Platform_Version\":\"5.1\",\"Win32\":true}",
        "8606023bf046846c0bf3cef8c333eda0\t{\"Browser_Bits\":\"32\",\"Platform\":\"MacOSX\",\"Platform_Version\":\"10\"}",
        "86fc81cf206067dd31f73708ed2736f2\t{\"Browser_Bits\":\"32\",\"Platform\":\"Win8\",\"Platform_Version\":\"6.2\",\"Win32\":true}",
        "86bb7c1fec757135bf1e8d0bb01e3282\t{\"Browser_Bits\":\"32\",\"Platform\":\"MacOSX\",\"Platform_Version\":\"10.10\"}",
        "867d8242fd60ce7b0318992b8a037fb5\t{\"Browser_Bits\":\"32\",\"Platform\":\"WinXP\",\"Platform_Version\":\"5.1\",\"Win32\":true}",
        "86e5f886c22166706f8c108315440848\t{\"Browser_Bits\":\"32\",\"Platform\":\"WinVista\",\"Platform_Version\":\"6.0\",\"Win32\":true}",
        "865e6457947ef31971517270148769b3\t{\"Browser_Bits\":\"32\",\"Platform\":\"FreeBSD\"}",
        "865f254e7a77c33aa89fbf268e07634e\t[]",
        "860c1d1a53d5b0973afdc0612426a409\t{\"Browser_Bits\":\"32\",\"Platform\":\"WinVista\",\"Platform_Version\":\"6.0\",\"Win32\":true}",
        "867c4cc2b276a33b37cca866081ce2c4\t{\"Browser_Bits\":\"32\",\"Platform\":\"WinVista\",\"Platform_Version\":\"6.0\",\"Win32\":true}",
        "86b2c1fe6565049eeaf89df4c8154f46\t{\"Browser_Bits\":\"32\",\"Platform\":\"WinXP\",\"Platform_Version\":\"5.2\",\"Win32\":true}",
        "86b06a166b7ca825a703174eb41bb5e9\t{\"Browser_Bits\":\"32\",\"Platform\":\"WinXP\",\"Platform_Version\":\"5.1\",\"Win32\":true}",
        "865d5d18ed81234c2688bf0545074595\t{\"Browser_Bits\":\"32\",\"Platform\":\"Win8.1\",\"Platform_Version\":\"6.3\",\"Win32\":true}",
        "863f6d64193544fb7a371841b430ccc2\t{\"Browser_Bits\":\"32\",\"Platform\":\"Win8.1\",\"Platform_Version\":\"6.3\",\"Win32\":true}",
        "86e251c840c1d2081129b55ceccf76ae\t{\"Browser_Bits\":\"32\",\"Platform\":\"WinVista\",\"Platform_Version\":\"6.0\",\"Win32\":true}",
        "86a74b350a9ed4a55a4719b03badd28a\t[]",
        "86147b325f1db329066c145a64319a64\t{\"Browser_Bits\":\"32\",\"Platform\":\"MacOSX\",\"Platform_Version\":\"10\"}",
        "86f4dc4ba715e3b595a08416051b6c06\t{\"Browser_Bits\":\"32\",\"Platform\":\"Linux\"}",
        "86a35dcead2b2c101d430a986cd71574\t{\"Browser_Bits\":\"32\",\"Platform\":\"WinXP\",\"Platform_Version\":\"5.2\",\"Win32\":true}",
        "86e674e3cb74baef5840849dcadbdafb\t{\"Browser_Bits\":\"32\",\"Platform\":\"Win8\",\"Platform_Version\":\"6.2\",\"Win32\":true}",
        "8607964a6ae4544fcf542b246ca426c6\t{\"Browser_Bits\":\"32\",\"Platform\":\"WinXP\",\"Platform_Version\":\"5.2\",\"Win32\":true}",
        "862db8616e7fd83e0488a0c1f4205919\t{\"Browser_Bits\":\"32\",\"Platform\":\"Win8\",\"Platform_Version\":\"6.2\",\"Win32\":true}",
        "868bec99f5a87470ba7787bc46fe1b9f\t{\"Browser_Bits\":\"32\",\"Platform\":\"SunOS\"}",
        "861371a7d5ae6ae206722353e185c4c7\t{\"Browser_Bits\":\"32\",\"Platform\":\"WinVista\",\"Platform_Version\":\"6.0\",\"Win32\":true}",
        "862000cfa27d9fedf46a29d0227a5093\t{\"Browser_Bits\":\"32\",\"Platform\":\"MacOSX\",\"Platform_Version\":\"10\"}",
        "8635016fd2fe0f25c7c80aa736f97632\t{\"Browser_Bits\":\"32\",\"Platform\":\"WinXP\",\"Platform_Version\":\"5.2\",\"Win32\":true}",
        "862db8e1fd8b3b18b4f5ae086d618156\t{\"Browser_Bits\":\"32\",\"Platform\":\"FreeBSD\"}",
        "86f6e84a6cfacd898c5a39888956566c\t{\"Platform_Version\":\"8.2\"}",
        "863c3446174db2d5d343d78ee83496f6\t{\"Browser_Bits\":\"32\",\"Platform\":\"MacOSX\",\"Platform_Version\":\"10\"}",
        "861aba0fa25470b9da90b1bc6b892d0d\t{\"Platform_Version\":\"5.0\"}",
        "86884282a2904ccc81aeda0fad5576d6\t{\"Browser_Bits\":\"32\",\"Platform\":\"iOS\",\"Platform_Version\":\"9.0\"}",
        "867b2d7197194078e27c41e7895fade6\t{\"Browser_Bits\":\"32\",\"Platform\":\"iOS\",\"Platform_Version\":\"8.3\"}",
        "866f5dbe3466325138dd1ea78d5a09dd\t{\"Browser_Bits\":\"32\",\"Platform\":\"Android\",\"Platform_Version\":\"4.3\"}",
        "86638b64c76bc21f0e0aba6ef07f275a\t{\"Browser_Bits\":\"32\",\"Platform\":\"WinXP\",\"Platform_Version\":\"5.2\",\"Win32\":true}",
        "861edadb2acf50c64d301c34903c423a\t{\"Browser_Bits\":\"32\",\"Platform\":\"Win7\",\"Platform_Version\":\"6.1\",\"Win32\":true}",
        "86f4774e425f7f1475e503701933c19c\t{\"Browser_Bits\":\"32\",\"Platform\":\"WinVista\",\"Platform_Version\":\"6.0\",\"Win32\":true}",
        "86a50eaf06c2bc48a99d1564f7c63681\t{\"Browser_Bits\":\"32\",\"Platform\":\"Linux\"}",
        "867665baff576acf46635ddb07b3be39\t{\"Browser_Bits\":\"32\",\"Platform\":\"WinVista\",\"Platform_Version\":\"6.0\",\"Win32\":true}",
        "867448db84ca4209e44a3698a168a71f\t{\"Browser_Bits\":\"32\",\"Platform\":\"WinXP\",\"Platform_Version\":\"5.2\",\"Win32\":true}",
        "866818a7184f3497ca0d47012f06c1c4\t{\"Platform_Version\":\"5.0\"}",
        "866a1ff0d9e2512dabb69c47dc71a1be\t[]",
        "8671f82613acddb652b3623845eb1155\t{\"Platform_Version\":\"4.4\",\"isTablet\":true}",
        "86d039782bb539db379774f7b981838d\t{\"isTablet\":true}",
        "8665b1dd4719e99fc0cebc866c353984\t{\"Platform_Version\":\"5.1\"}",
        "868c5d4190c5d2f15edcfed9263136a6\t[]",
        "8676f4a50476edabf98120c24c9d2f0e\t{\"isTablet\":true}",
        "86b68d1104326ff64edf9deaca23df71\t{\"Browser_Bits\":\"32\",\"Platform\":\"Win8.1\",\"Platform_Version\":\"6.3\",\"Win32\":true}",
        "86b490b2f33e1debcf3d452d7a2e9fc5\t{\"Platform_Version\":\"4.4\",\"isTablet\":true}",
        "86bc72b3edd67709051dadd7ee41b8f1\t{\"Platform_Version\":\"4.2\",\"isTablet\":true}",
        "86054f1f2a74c72f16e615d887367c65\t{\"Platform_Version\":\"4.2\",\"isTablet\":true}",
        "865e9569cae20a1d35b4c95e3ec51638\t{\"Platform_Version\":\"4.4\",\"isTablet\":true}",
        "8630b2bc491f631a835cfff727e453d1\t{\"Platform_Version\":\"4.3\",\"isTablet\":true}",
        "8683718707342473f286a04cd470e10c\t{\"Platform_Version\":\"4.2\",\"isTablet\":true}",
        "86c24aecf2dc4d0ebd04f8fe89eb1ef8\t{\"Platform_Version\":\"4.2\",\"isTablet\":true}",
        "86b2901da3367826dcdac2cd431f7130\t{\"Platform_Version\":\"4.3\",\"isTablet\":true}",
        "86e2cf4de5d7bb23fbe49493efdf8df7\t{\"Platform_Version\":\"4.3\",\"isTablet\":true}",
        "86c75072431b4c37cb9d36919f95a08c\t{\"Platform_Version\":\"4.2\",\"isTablet\":true}",
        "866d03293b5f059a4305a7381b1a2d44\t[]",
        "8642adcd60158a0fad4ef1b7c42afbfd\t{\"Browser_Bits\":\"32\",\"Platform\":\"Win10\",\"Platform_Version\":\"10.0\",\"Win32\":true}",
        "860024b8261b5ce9b757b568ffe2e1cd\t{\"Platform_Version\":\"4.3\",\"isTablet\":true}",
        "86d0af4957af063e9e301e1f9caa1f50\t{\"Platform_Version\":\"4.2\",\"isTablet\":true}",
        "86b395c80aae406fff2c4af1893453d0\t{\"Platform_Version\":\"4.4\",\"isTablet\":true}",
        "8680e495e052d34af0d7a975373708e5\t{\"Platform_Version\":\"4.2\",\"isTablet\":true}",
        "8629376f1de0ffe1ba4fe71a3416fc93\t{\"Platform_Version\":\"4.2\",\"isTablet\":true}",
        "861755807856078301a2469acf2b40a6\t{\"Platform_Version\":\"4.2\",\"isTablet\":true}",
        "86acd104374019a7038fe53ea5b37ca9\t{\"Browser_Bits\":\"32\",\"Platform\":\"iOS\",\"isMobileDevice\":true}",
        "865da8a271b31ba0b96994d51573eed6\t{\"Platform_Version\":\"4.3\",\"isTablet\":true}",
        "867f33c19ad0cfe49687bf319036b6c4\t{\"Platform_Version\":\"4.2\",\"isTablet\":true}",
        "86f572f57f74e2e8d0ef0d470d9f8e1a\t{\"Platform_Version\":\"4.2\",\"isTablet\":true}",
        "864c3759ed0be6e0a033a0daa5ebd48f\t{\"Platform_Version\":\"4.4\",\"isTablet\":true}",
        "86e169ab0e2f848be355a39b88352202\t{\"Platform_Version\":\"4.2\",\"isTablet\":true}",
        "862fdeba63d2ed7d2d66fcb9e2a5b9f7\t[]",
        "8636e3d227e74dde5d0caff0610680e7\t{\"Platform_Version\":\"4.2\",\"isTablet\":true}",
        "86e33d8efbda1c76f8cec5a753ca3e67\t{\"Platform_Version\":\"8.0\"}",
        "8637ef47ea1cfa7140704ae11f99d6f5\t[]",
        "8613c2951cb03729ff83446eed787e91\t{\"Platform_Version\":\"4.2\",\"isTablet\":true}",
        "86e4f7c6ff9bcb55bd7896a6660df2ad\t{\"Platform_Version\":\"4.2\",\"isTablet\":true}",
        "868a17bf4ce0b5ccfddfd15c9f1461d6\t{\"Platform_Version\":\"4.3\",\"isTablet\":true}",
        "86fe636cf9925585c7fa45b54602b6b2\t{\"Platform_Version\":\"4.2\",\"isTablet\":true}",
        "8697b693f2c93e10a09e7eaa46002f6e\t{\"Platform_Version\":\"4.2\",\"isTablet\":true}",
        "861d7a383a6a66710e5325acbc79819b\t{\"Platform_Version\":\"5.1\",\"isTablet\":true}",
        "86d965205360dba8f9583bfa236abf20\t{\"Platform_Version\":\"4.3\",\"isTablet\":true}",
        "8607791bb76462aefc8e6d69639f1ccc\t{\"Platform_Version\":\"8.2\"}",
        "86acc1ee35235f49b04990989207079d\t{\"Platform_Version\":\"4.3\",\"isTablet\":true}",
        "861917e52aff8723ad1a3ab688931ca7\t{\"Platform_Version\":\"8.4\"}",
        "86f1dad7016238522f21bb0f45eedc30\t{\"Browser_Bits\":\"32\",\"Platform\":\"Win8.1\",\"Platform_Version\":\"6.3\",\"Win32\":true}",
        "86697ba6cbc476b18087ed0a99db8bf8\t[]",
        "86f997a26f28ccbd4b05f7c0a8823791\t{\"Platform_Version\":\"7.0\"}",
        "8647f28652328c53c076c5583197f6a3\t{\"Platform_Version\":\"9.2\"}",
        "863b7ccecbd4be0f93b92a79bb0ae15e\t{\"Platform_Version\":\"4.3\",\"isTablet\":true}",
        "863a3cc3e7fe4d829fd448810fa5d359\t{\"Platform_Version\":\"4.2\",\"isTablet\":true}",
        "86670942a567257a772e63379e0f6dd8\t{\"Platform_Version\":\"4.2\",\"isTablet\":true}",
        "86583b2da36c8735c58fc5d669933e05\t{\"Browser_Bits\":\"32\",\"Platform\":\"Win10\",\"Platform_Version\":\"10.0\",\"Win32\":true}",
        "86c9d9ca32fb9d7abdb396048d50b735\t{\"Platform_Version\":\"4.4\",\"isTablet\":true}",
        "860af6cb6e844bb186bdee8b8162ad57\t{\"Platform_Version\":\"4.4\",\"isTablet\":true}",
        "86914e42b40d47d0018b83d4892afbb5\t{\"Platform_Version\":\"4.2\",\"isTablet\":true}",
        "86a4c2041ec8f7c931e689baa678d383\t{\"Browser_Bits\":\"32\",\"Platform\":\"Win10\",\"Platform_Version\":\"10.0\",\"Win32\":true}",
        "869ac5b4e42fc300e597293eb7752f7b\t{\"Browser_Bits\":\"32\",\"Platform\":\"MacOSX\",\"Platform_Version\":\"10.10\"}",
        "8670e7818de013fb958be353cca179c1\t{\"Browser_Bits\":\"32\",\"Platform\":\"MacOSX\",\"Platform_Version\":\"10.11\"}",
        "86ee7fee6eb23392030d1fe6422d2782\t{\"Browser_Bits\":\"32\",\"Platform\":\"Win7\",\"Platform_Version\":\"6.1\",\"Win32\":true}",
        "860bcfeebd3c99176089bd9453a849af\t{\"Platform_Version\":\"4.3\",\"isTablet\":true}",
        "86855f17d1a5632b0be231c5144008c1\t{\"Platform_Version\":\"4.2\",\"isTablet\":true}",
        "86cef25d0a9c206b32aaaca75186e964\t{\"Platform_Version\":\"4.4\",\"isTablet\":true}",
        "86785c0dd3f9cdfda5f7e7434ee158e3\t{\"Platform_Version\":\"4.4\",\"isTablet\":true}",
        "86e3d7d04bdeade3d5ba7062a7445249\t{\"Platform_Version\":\"4.4\",\"isTablet\":true}",
        "86c85bffda28f621c2ae59dffaebddcd\t{\"Platform_Version\":\"9.0\"}",
        "8673b9a7703b4b965b0a3e38b91c5ff3\t{\"Platform_Version\":\"4.4\",\"isTablet\":true}",
        "86ec4aa7d658563be11a9fd065413d51\t{\"Platform_Version\":\"4.3\",\"isTablet\":true}",
        "865650e68958478280a224ec3b85b603\t{\"Platform_Version\":\"4.2\",\"isTablet\":true}",
        "86143749c6f02e4c71c14df6892035d7\t{\"isTablet\":true}",
        "86b1f24991e0898985052ef7ab4d123f\t{\"Platform_Version\":\"4.2\",\"isTablet\":true}",
        "8636e41b319dfc1ddfdd0f5335c9f223\t{\"Platform_Version\":\"4.2\",\"isTablet\":true}",
        "86d2017e79183f989cdb7df2faf9d335\t{\"Platform_Version\":\"4.4\",\"isTablet\":true}",
        "866c9575b2e19dc25bcfb214ba37cf27\t{\"Platform_Version\":\"10.0\"}",
        "86950da3a9f4705a6a41c87dc3f27904\t{\"Platform_Version\":\"4.3\",\"isTablet\":true}",
        "867d9ed0f48ddbbbaefc9e1efac6e6d9\t{\"Platform_Version\":\"4.3\",\"isTablet\":true}",
        "8639f28fa77cd1eb1ed2c1b8fd86b574\t{\"Platform_Version\":\"4.3\",\"isTablet\":true}",
        "86cb4566e432e77f6f3d738570eba3b9\t{\"Platform_Version\":\"4.2\",\"isTablet\":true}",
        "8682f5d242bdd42f01482c6b7354db0f\t{\"Platform_Version\":\"4.2\",\"isTablet\":true}",
        "86d21fe5eb49c8e4c5f420bebff79312\t{\"Platform_Version\":\"4.4\",\"isTablet\":true}",
        "8683a7a98facbd5b126de1dd68fb5fd4\t{\"Browser_Bits\":\"32\",\"Platform\":\"WinXP\",\"Platform_Version\":\"5.1\",\"Win32\":true}",
        "8681f6f0fd7ef1eb78a2dc59d4cfed79\t{\"Browser_Bits\":\"32\",\"Platform\":\"WinVista\",\"Platform_Version\":\"6.0\",\"Win32\":true}",
        "86c4f2bc7f9a652cbe15f8ab56d04806\t{\"Browser_Bits\":\"32\",\"Platform\":\"Win7\",\"Platform_Version\":\"6.1\",\"Win32\":true}",
        "867714d3f5664abd8bdc9921d3c33c16\t{\"Browser_Bits\":\"32\",\"Platform\":\"Win7\",\"Platform_Version\":\"6.1\",\"Win32\":true}",
        "869afe9de3e9b7372915ec787c172ca0\t{\"Platform_Version\":\"7.0\",\"isTablet\":true}",
        "86ff898fec8e7ed333792dc365b38298\t{\"Browser_Bits\":\"32\",\"Platform\":\"Win7\",\"Platform_Version\":\"6.1\",\"Win32\":true}",
        "86f83309a425a3fa088aec217788966a\t{\"Browser_Bits\":\"32\",\"Platform\":\"MacOSX\",\"Platform_Version\":\"10.9\"}",
        "8662c8caece8d05f0bd65760532bc6e6\t{\"Platform_Version\":\"9.1\",\"isTablet\":true}",
        "86f11983cfca79e4159726911ec2f6d7\t{\"Platform_Version\":\"9.3\"}",
        "869a377370cfdeaea085049f67dee7eb\t{\"Platform_Version\":\"9.1\",\"isTablet\":true}",
        "86d0ddbd2ee22bf0072eeeb246fc9058\t{\"Platform_Version\":\"8.0\",\"isTablet\":true}",
        "863747ef613ca0048ea84a3b580c2ff2\t{\"Platform_Version\":\"10.2\"}",
        "86c5bf4addfb1e126c65eb4a2c02c9eb\t{\"Browser_Bits\":\"32\",\"Platform\":\"Linux\"}",
        "86b49c7ab25e575be8de77218f6ffbe5\t{\"Platform_Version\":\"10.2\"}",
        "8651ca8f1657a8e6e93e951484e83cd2\t{\"Browser_Bits\":\"32\",\"Platform\":\"WinXP\",\"Platform_Version\":\"5.2\",\"Win32\":true}",
        "86ca7e0cfe51e15562aee9d101180537\t{\"Browser_Bits\":\"32\",\"Platform\":\"iOS\",\"Platform_Version\":\"7.1\",\"isMobileDevice\":true}",
        "86165535dbf330be3b51c8536138dd09\t{\"Browser_Bits\":\"32\",\"Platform\":\"MacOSX\",\"Platform_Version\":\"10\"}",
        "868b3943a5c9690b3ac91b8f7d72756b\t[]",
        "86a507b447fff8431aef8a40102b490c\t{\"Browser_Bits\":\"32\",\"Platform\":\"MacOSX\",\"Platform_Version\":\"10\"}",
        "860c25bdea941befcf43d4864e57d0e2\t{\"Platform_Version\":\"6.0\"}",
        "86764f04e38737bb5627a40201312f1b\t{\"Browser_Bits\":\"32\",\"Platform\":\"Android\",\"isMobileDevice\":true}",
        "8634cc3c8860dbe2581dc71ab6e53395\t{\"Platform_Version\":\"4.2\"}",
        "868497d50bd6927d0d0fa348c2948d87\t{\"Platform_Version\":\"4.3\",\"isTablet\":true}",
        "866a9c2b79b4a8268b66c302e190145c\t{\"Platform_Version\":\"4.3\",\"isTablet\":true}",
        "86300ac2b93a5e3e638f94297c2d2f0f\t{\"Browser_Bits\":\"32\",\"Platform\":\"iOS\",\"Platform_Version\":\"7.1\"}",
        "86ca4f3db87eb286e01d3ccd60b77974\t{\"Browser_Bits\":\"32\",\"Platform\":\"iOS\",\"Platform_Version\":\"8.1\"}",
        "8623c1e6d93fab6b8250935da2164ca6\t{\"Browser_Bits\":\"32\",\"Platform\":\"iOS\",\"Platform_Version\":\"10.0\"}",
        "86992c80a379fa268218db8a71d39e41\t{\"Browser_Bits\":\"32\",\"Platform\":\"SymbianOS\"}",
        "86850c415b4b22f22c257b85f3d8d36c\t{\"Browser_Bits\":\"32\",\"Platform\":\"JAVA\"}",
        "8613c8183d7aef47bbf7e5cc63fa739c\t{\"Browser_Bits\":\"32\",\"Platform\":\"JAVA\"}",
        "86f60ff1dc6c1fafcb4a22c4c2d60891\t{\"Browser_Bits\":\"32\",\"Platform\":\"JAVA\"}",
        "869c866cc995d351a567dcd80c4afe8e\t{\"Browser_Bits\":\"32\",\"Platform\":\"JAVA\"}",
        "865ecdae9592d986a535da97648ca1e8\t{\"isMobileDevice\":true}",
        "865e315347e1c58d3954c824a0356326\t{\"Browser_Bits\":\"32\",\"Platform\":\"Linux\"}",
        "86328f2204ad5c2ce60ec0b31430402a\t{\"Browser_Bits\":\"32\",\"Platform\":\"Linux\"}",
        "86de666e10d66bd76336dce2eeb6282d\t{\"Platform_Version\":\"8.2\"}",
        "86549ef721aa7626254d53658da340ac\t{\"Platform_Version\":\"8.1\"}",
        "8658b355245a9660e2e2af9fcec9548f\t{\"Platform_Version\":\"10.3\"}",
        "86dcd3c620dd66b917aeba94efee4be4\t{\"Platform_Version\":\"10.1\"}",
        "86886265499a594945df52085f102eda\t{\"Platform_Version\":\"8.4\"}",
        "86bfa26cd758fc6aa0f3bae554a678d7\t{\"Platform_Version\":\"9.2\"}",
        "8638e22b6560e60745759120a6e8ff3f\t{\"Platform_Version\":\"10.2\"}",
        "86cde5098fe72b0b004f0a9559328f27\t{\"Platform_Version\":\"10.1\",\"isTablet\":true}",
        "864bc989cf6382be467579292bb1334e\t{\"Platform_Version\":\"8.2\",\"isTablet\":true}",
        "86c8ee659981aca546ea87e8e528fe95\t{\"Platform_Version\":\"7.0\",\"isTablet\":true}",
        "86151f1cb7ccb29a55c4d04c079246cc\t{\"Platform_Version\":\"8.4\"}",
        "86b73a147d0e1ed6f78bf81db973e4a2\t{\"Platform_Version\":\"8.3\"}",
        "86fcce9e4006fcd3f36db8b6d3b5604c\t{\"Platform_Version\":\"8.2\"}",
        "86357280b98993b41f1af987e1d87b86\t{\"Platform_Version\":\"9.2\",\"isTablet\":true}",
        "86607c234daa44779eddc9d94f19d07c\t{\"Platform_Version\":\"8.4\"}",
        "862b6e132d08bfd8f38e6bbd0f36bc33\t{\"Platform_Version\":\"9.1\"}",
        "86df480178470de53152ad51e5ed30ac\t{\"Platform_Version\":\"8.2\"}",
        "8611c3ae6ec1f3d1a035b6e68b9ea1be\t{\"Platform_Version\":\"10.3\",\"isTablet\":true}",
        "8671e0e3a0390dc2081c46bb3b1435ad\t{\"Platform_Version\":\"7.1\"}",
        "867e6f00442232ac55773e79031a859a\t{\"Platform_Version\":\"8.2\"}",
        "86280de8f5a331e709ff3ee0bfed54e0\t{\"Platform_Version\":\"10.2\"}",
        "868cd6d390796beb14f11e599650bd76\t{\"Platform_Version\":\"9.1\"}",
        "8692189e369320aa63cf1e279b674881\t{\"Platform_Version\":\"8.2\"}",
        "8622e6bfae7290ae2677b0ab2efd13e0\t{\"Platform_Version\":\"10.1\"}",
        "865e87ecccac7baeb46e5de3574a561c\t{\"Platform_Version\":\"10.2\"}",
        "86c94c030fa16c4e9441c3d401054a32\t[]",
        "86633d020665d1d7950d969ba3bac397\t{\"Browser_Bits\":\"32\",\"Platform\":\"macOS\",\"Platform_Version\":\"10.12\"}",
        "8613c2fa0e4062bfd46d8af8530f988d\t{\"Browser_Bits\":\"32\",\"Platform\":\"MacOSX\",\"Platform_Version\":\"10.10\"}",
        "86242122036f7a89fdda0a5ca1fb439c\t{\"Platform_Version\":\"8.2\",\"isTablet\":true}",
        "86b6993eb8f08e1ac8c3798a037719f3\t{\"Platform_Version\":\"8.0\"}",
        "865249767e16fb551b542e3a9f8ca67e\t{\"Platform_Version\":\"8.1\",\"isTablet\":true}",
        "869a845a2afea6f7f79c6c609cf3b36c\t{\"Platform_Version\":\"8.0\"}",
        "86ec9f9eeca789f5bc4c52fd5711a9f6\t{\"Platform_Version\":\"8.4\"}",
        "864b153ae3b3519452dcf63e224fbfb4\t{\"Platform_Version\":\"8.1\"}",
        "86df370699ad8107efa9fd3c39ae3c40\t{\"Platform_Version\":\"10.0\"}",
        "868d71b93d9ed19a0e3459ee4edc1b84\t{\"Platform_Version\":\"4.4\",\"isTablet\":true}",
        "86437a7063f915e9d56dba1ce342595e\t{\"Platform_Version\":\"8.2\",\"isTablet\":true}",
        "868f8a39eecab69955fd6867d2c71f8c\t{\"Platform_Version\":\"10.1\"}",
        "86252e78be8b3855c8c04ed85862bcff\t{\"Platform_Version\":\"8.2\",\"isTablet\":true}",
        "86c624f8c096fbc90a0a54879d05591f\t{\"Platform_Version\":\"10.0\",\"isTablet\":true}",
        "866a337fe30c90dfbc4e2e144d1b8422\t{\"Platform_Version\":\"10.1\"}",
        "86afb68c6407e2a9cd6d89ee376aa1de\t{\"Platform_Version\":\"9.1\",\"isTablet\":true}",
        "867bfe0d354c9dd4d680f0c919d57e4e\t{\"Browser_Bits\":\"32\",\"Platform\":\"Android\",\"isMobileDevice\":true}",
        "86621f48c3a7b813091b2feccd50fd91\t[]",
        "8630c48c9d5de3840c533c8f9104585a\t{\"Platform_Version\":\"7.1\"}",
        "86d4c97b41798357565946f2bf351ff5\t[]",
        "8662a131fc138e14403024822c1cae73\t{\"Browser_Bits\":\"32\",\"Platform\":\"Darwin\"}",
        "862845df82f9cdd680217b234c16bd72\t[]",
        "86a73c99f12cdc5498f44480219da685\t{\"Platform\":\"WinXP\",\"Platform_Version\":\"5.2\",\"Win32\":true}",
        "86b8b1b9e71f4647b1cca48ff0fb98fb\t[]",
        "86ba36f7965acddd345c3d2fcf5ba7ae\t{\"Platform\":\"Win7\",\"Platform_Version\":\"6.1\"}",
        "86bdfa2d440bfa2bc75b0d2fa698018b\t{\"Browser_Bits\":\"32\",\"Platform\":\"WinXP\",\"Platform_Version\":\"5.2\",\"Win32\":true}",
        "86d81b50a691d9ddf722475fbed7a179\t{\"Browser_Bits\":\"32\",\"Platform\":\"Win32\",\"Win32\":true}",
        "868242271c66a140d6d9224420006460\t{\"Browser_Bits\":\"32\",\"Platform\":\"WinXP\",\"Platform_Version\":\"5.1\",\"Win32\":true}",
        "86f95561345a409bfbca2a9df4b93c42\t{\"Browser_Bits\":\"32\",\"Platform\":\"WinVista\",\"Platform_Version\":\"6.0\",\"Win32\":true}",
        "8644ef26794143e27b66218fc389f0ab\t{\"Platform\":\"Win7\",\"Platform_Version\":\"6.1\"}",
        "863d4ac9bc5ee2b8da0df58e66bf7591\t{\"Browser_Bits\":\"32\",\"Platform\":\"Win8.1\",\"Platform_Version\":\"6.3\",\"Win32\":true}",
        "86b5d33cb3da706b4d9811e5f71329e4\t{\"Browser_Bits\":\"32\",\"Platform\":\"Win8.1\",\"Platform_Version\":\"6.3\",\"Win32\":true}",
        "865794ce7d979ec83cb14956608a33c2\t{\"Browser_Bits\":\"32\",\"Platform\":\"WinVista\",\"Platform_Version\":\"6.0\",\"Win32\":true}",
        "861fc2191f125c491745c9e22629fe64\t{\"Browser_Bits\":\"32\",\"Platform\":\"Win10\",\"Platform_Version\":\"10.0\",\"Win32\":true}",
        "86682e1d230d2e041819c36ea326ef1f\t{\"Browser_Bits\":\"64\",\"Platform\":\"DragonFly BSD\"}",
        "86b4b97990cf699da70ba5595f0a8671\t{\"Browser_Bits\":\"32\",\"Platform\":\"WinXP\",\"Platform_Version\":\"5.1\",\"Win32\":true}",
        "86020fa2130d6fb27779c77215d29ac1\t{\"Browser_Bits\":\"32\",\"Platform\":\"MacOSX\",\"Platform_Version\":\"10.10\"}",
        "86b6e3a8e2deff9bb4761de54b173888\t{\"Browser_Bits\":\"32\",\"Platform\":\"WinVista\",\"Platform_Version\":\"6.0\",\"Win32\":true}",
        "86b39bb240546e5688537e8ea75a6bd3\t{\"Browser_Bits\":\"32\",\"Platform\":\"Win8.1\",\"Platform_Version\":\"6.3\",\"Win32\":true}",
        "86be33e9e64ecbba9bcd29e3e042d32e\t{\"Browser_Bits\":\"32\",\"Platform\":\"MacOSX\",\"Platform_Version\":\"10.9\"}",
        "86a506aa4ece0e5ab83bab3362ad2120\t{\"Browser_Bits\":\"32\",\"Platform\":\"Win8.1\",\"Platform_Version\":\"6.3\",\"Win32\":true}",
        "8685328073102d2c1c47c866ac074d51\t{\"Browser_Bits\":\"32\",\"Platform\":\"WinXP\",\"Platform_Version\":\"5.1\",\"Win32\":true}",
        "86de87bd4264b96c1a79dd48dbc4ea02\t{\"Browser_Bits\":\"32\",\"Platform\":\"Win7\",\"Platform_Version\":\"6.1\",\"Win32\":true}",
        "8687b81f84a9d3b3dfc0ad5b5a882d5e\t{\"Browser_Bits\":\"32\",\"Platform\":\"MacOSX\",\"Platform_Version\":\"10.10\"}",
        "86e90d5c4a7045c4f7f573e619707575\t{\"Browser_Bits\":\"32\",\"Platform\":\"WinVista\",\"Platform_Version\":\"6.0\",\"Win32\":true}",
        "863c2551725dee9899240d4b37508e64\t{\"Browser_Bits\":\"32\",\"Platform\":\"MacOSX\",\"Platform_Version\":\"10\"}",
        "86e2f14ac27d82ed4ab613d93915015d\t{\"Browser_Bits\":\"32\",\"Platform\":\"Linux\"}",
        "86ea643aa41688623542e0cbee3f60cf\t{\"Platform_Version\":\"10.0\"}",
        "869518c8e3e5d943f5bf07551632692b\t{\"Browser_Bits\":\"32\",\"Platform\":\"WinXP\",\"Platform_Version\":\"5.2\",\"Win32\":true}",
        "863910165e8d422e36438925ed205911\t{\"Browser_Bits\":\"32\",\"Platform\":\"WinXP\",\"Platform_Version\":\"5.1\",\"Win32\":true}",
        "86da5cbe8988c8cd2734c985817ac022\t{\"Platform_Version\":\"10.1\"}",
        "8693bd610e93ca98eb56c4f4b17a2b40\t{\"Platform_Version\":\"9.0\",\"isTablet\":true}",
        "86253cf5ce3db726652eb7349ceab5b0\t{\"Browser_Bits\":\"32\",\"Platform\":\"WinXP\",\"Platform_Version\":\"5.1\",\"Win32\":true}",
        "86e49d389bbbfb01994033bebfd8bdfb\t{\"Browser_Bits\":\"32\",\"Platform\":\"Win32\",\"Win32\":true}",
        "86f3f215740f2d8d72469d32860b44dc\t{\"Browser_Bits\":\"32\",\"Platform\":\"Linux\"}",
        "86f826a8bf5153a1c0840f6023198194\t{\"Platform_Version\":\"4.3\"}",
        "8687d99bb9783fb07686305106db287a\t{\"Platform_Version\":\"5.1\",\"isTablet\":true}",
        "86d3b33100801cc68365c3a4179f5dc0\t[]",
        "86074f1f4e70c8409baeb9ae22a70291\t{\"isTablet\":true}",
        "86c9b09006f5e13397af8736dc2f02eb\t{\"Browser_Bits\":\"32\",\"Platform\":\"FreeBSD\"}",
        "865ce9c796f3d571c2243aca785335af\t{\"Browser_Bits\":\"32\",\"Platform\":\"WinXP\",\"Platform_Version\":\"5.1\",\"Win32\":true}",
        "8635a44c3a44e63b17dbc545f10d6659\t{\"Browser_Bits\":\"32\",\"Platform\":\"Linux\"}",
        "866e8f14e948d804aff3de25bd99dd02\t{\"Browser_Bits\":\"32\",\"Platform\":\"MacOSX\",\"Platform_Version\":\"10.9\"}",
        "86c3895861912a0d798be51a9778f914\t{\"Browser_Bits\":\"32\",\"Platform\":\"Win7\",\"Platform_Version\":\"6.1\",\"Win32\":true}",
        "86dd69881d98f0daa7b32c59ef480ac5\t{\"Browser_Bits\":\"64\",\"Platform\":\"IRIX64\"}",
        "866d05aec32b29e33d98c36b2b2cff9e\t{\"Browser_Bits\":\"32\",\"Platform\":\"HP-UX\"}",
        "868322b5b85a249a4b0fee84708116af\t{\"Browser_Bits\":\"32\",\"Platform\":\"FreeBSD\"}",
        "8694db2f78fb14c4fc1f1120dbcd0180\t{\"Browser_Bits\":\"32\",\"Platform\":\"WinVista\",\"Platform_Version\":\"6.0\",\"Win32\":true}",
        "8619617c0ebb8411d19f579507252521\t{\"Browser_Bits\":\"32\",\"Platform\":\"MacOSX\",\"Platform_Version\":\"10.10\"}",
        "8624d8155ee3ffc837e807ff85027f9c\t[]",
        "8628efa55b102a7bcf6d5937256f1ac2\t{\"Platform\":\"WinXP\",\"Platform_Version\":\"5.1\",\"Win32\":true}",
        "860e14fb1108ccb924bb8c58cc52f7ed\t[]",
        "8618034e795cda528da35d195d0d55a6\t{\"Browser_Bits\":\"32\",\"Platform\":\"SunOS\"}",
        "86dc3ba3f408f2a48fdb4d62e29ca08b\t{\"Browser_Bits\":\"32\",\"Platform\":\"OpenVMS\"}",
        "8654d4f5f73b2b31b4a393346308a4b1\t[]",
        "86d779111bffd205e48ad961190ec02f\t[]"
    ]
}