{
    "content": [
        "630c08aed9f0934fb358fc8a9547b54c\t[]",
        "63c478f709017e7dc7e143c77b74bd63\t[]",
        "636ae8712d065a9e3628b540e44c31b1\t{\"Browser_Bits\":\"32\",\"Platform\":\"MacOSX\",\"Platform_Version\":\"10\"}",
        "639c603976e3f4c0e8c1eda39a292da1\t[]",
        "63108182e398b69179028bacbe9aa2c1\t[]",
        "63ac264adc4f4551f4520ba151bcc370\t[]",
        "63ba5ae8fd7257227cd46bb86caa1119\t[]",
        "631a06b761f7ce1b7cf6e8027eba3f8f\t[]",
        "630ac356c720ac04e6b7908507239806\t[]",
        "63e71f85a4f4e9c30089417cf93676ba\t[]",
        "6320893e88666e8b851ac5b87157c795\t[]",
        "63308549e59ed6317260b3bd24a19f1f\t{\"Browser_Bits\":\"32\",\"Platform\":\"Android\",\"isMobileDevice\":true}",
        "63d8eb9643f71c3e8c8c4a9b94dabc4f\t{\"Browser_Bits\":\"32\",\"Platform\":\"Android\",\"isMobileDevice\":true}",
        "634bded184cd6fd79a995ef731488f5a\t{\"Platform\":\"WinXP\",\"Platform_Version\":\"5.1\"}",
        "634e03989d52c5b39c95b6a4c8bb3511\t{\"Platform\":\"Win8.1\",\"Platform_Version\":\"6.3\"}",
        "630f9436ccd02ab11673c9f997738596\t{\"Platform\":\"MacOSX\",\"Platform_Version\":\"10.9\",\"Win32\":false}",
        "63903aa3cd3bb9f849c6b7aa90cac526\t{\"Platform\":\"iOS\",\"Platform_Version\":\"10.3\",\"Win32\":false,\"isMobileDevice\":true,\"isTablet\":true}",
        "63d30f24eeb2b8b42877c9307088c7dd\t{\"Platform\":\"iOS\",\"Platform_Version\":\"10.2\",\"Win32\":false,\"isMobileDevice\":true,\"isTablet\":true}",
        "634d1bc6f1ae00a1af606da020f8f20c\t{\"isTablet\":true}",
        "63c2243386b917138eba79c64cf03656\t{\"Platform_Version\":\"10.1\",\"isTablet\":true}",
        "63f061b389ba8341898ec426625c6f69\t{\"Platform_Version\":\"8.2\",\"isTablet\":true}",
        "63348d19e365e896518572371db3ef91\t{\"Platform\":\"iOS\",\"Platform_Version\":\"7.0\",\"isTablet\":true}",
        "63014c540be42c4015bd1fd4f428431b\t{\"Platform_Version\":\"4.4\"}",
        "63c9eb040db52603df033743fae049bf\t{\"Platform\":\"iOS\",\"Platform_Version\":\"8.2\"}",
        "63ae6a13d3646f559a96136adb31583a\t{\"Platform_Version\":\"4.4\"}",
        "63e822af0aff54202f81ab5691bc9984\t{\"Platform\":\"iOS\"}",
        "633769228b0255a8d4154d9735c565d1\t{\"Platform\":\"iOS\",\"Platform_Version\":\"9.1\"}",
        "63b26fa779e9631a1154e62c5949aa2d\t{\"Platform\":\"iOS\",\"Platform_Version\":\"7.0\"}",
        "632b84ed7c651bbf90c7c2cfd6998dde\t{\"Platform_Version\":\"5.1\"}",
        "638d8ca398668a7c374cdab8a04b20b5\t{\"Platform\":\"iOS\",\"Platform_Version\":\"8.4\",\"isTablet\":true}",
        "639804724f044084d630065a4ee3a59f\t{\"Platform\":\"iOS\",\"Platform_Version\":\"8.3\"}",
        "630a6542801cf47ecf31cb7c22256f23\t[]",
        "6334149405e516ee51658fbe4dccc7f4\t{\"Platform_Version\":\"4.2\",\"isTablet\":true}",
        "636279d67e79d03904dae96a566c6611\t{\"Browser_Bits\":\"32\",\"Platform\":\"Android\"}",
        "63702542277187cd1d73bbc0c82f5815\t{\"Browser_Bits\":\"32\",\"Platform\":\"Android\",\"Platform_Version\":\"4.2\"}",
        "631a88baf1e460a154b929c7483fe12c\t{\"Browser_Bits\":\"32\",\"Platform\":\"iOS\",\"Platform_Version\":\"7.0\"}",
        "6336c41607f53e0fb742064be022b0af\t{\"Browser_Bits\":\"32\",\"Platform\":\"JAVA\"}",
        "63c328c95cc5c761d01c28e600f8d21f\t{\"Browser_Bits\":\"32\",\"Platform\":\"Series40\"}",
        "6341e09a22d33e069081112f6256c600\t[]",
        "634b1e0e3d342f5ed0ea01fba875b7dd\t{\"Platform_Version\":\"9.1\",\"isTablet\":true}",
        "63e40973f2057fe781231a022d3cd3ae\t{\"Browser_Bits\":\"32\",\"Platform\":\"WinXP\",\"Platform_Version\":\"5.2\",\"Win32\":true}",
        "63abcee8a7ac6826784ba1b986417983\t{\"Browser_Bits\":\"32\",\"Platform\":\"Win7\",\"Platform_Version\":\"6.1\",\"Win32\":true}",
        "63a18b6b7f09a1dc710f4d997bb06941\t{\"Platform\":\"Linux\",\"Win32\":false}",
        "639b6f4977ab42800777c64e2e048fc1\t{\"Platform\":\"Linux\",\"Win32\":false}",
        "6300e798fc31c5fc7544cc18a015abc3\t{\"Platform\":\"WinXP\",\"Platform_Version\":\"5.1\"}",
        "632428835507ecbd5f29996b46e46eed\t{\"Platform\":\"Win8.1\",\"Platform_Version\":\"6.3\",\"Win32\":true}",
        "63d574d095652fa44fd9d6d0f1ab0b3f\t{\"Browser_Bits\":\"32\",\"Platform\":\"Linux\"}",
        "63d0be8f00d3e30f10b1e6197e6ec4f3\t{\"Platform\":\"Win10\",\"Platform_Version\":\"10.0\",\"Win32\":true}",
        "63b1f5b935e1f13789c4bead56f0cd82\t{\"Platform\":\"WinXP\",\"Platform_Version\":\"5.2\",\"Win32\":true}",
        "63de73415cc5ee2addf52b2564f3e125\t{\"Platform_Version\":\"5.1\",\"isTablet\":true}",
        "63e396828fbf64dcabcb6874fcf12860\t{\"Platform_Version\":\"5.1\"}",
        "6388b98a596facc82059952f69a93f29\t{\"Platform_Version\":\"4.4\",\"isTablet\":true}",
        "63c5d3c1be652fa02428e386cd83e7e1\t{\"Platform_Version\":\"4.4\",\"isTablet\":true}",
        "6352038e01d168e17d7e7399b7b3a5f4\t{\"Platform_Version\":\"4.2\",\"isTablet\":true}",
        "6394c57365a2fadf1834a94c2e3c34d8\t{\"Platform_Version\":\"4.3\",\"isTablet\":true}",
        "63542afc89f7ad43adba39d6f6ece696\t{\"Platform_Version\":\"4.4\",\"isTablet\":true}",
        "6348873fcdb0e0e7a3b7d8dcace6d990\t{\"Platform_Version\":\"4.2\",\"isTablet\":true}",
        "63fead488a3cd87fd443815e90146723\t{\"Platform_Version\":\"4.2\",\"isTablet\":true}",
        "635d5a64bcf7dc8ab177572fd475ca2b\t{\"Platform_Version\":\"4.4\",\"isTablet\":true}",
        "63b44101ff0d42b4eb3cf00618063d64\t{\"isMobileDevice\":true}",
        "63ed8b81a425972efc0f6a7edd6a895f\t{\"Browser_Bits\":\"32\",\"Platform\":\"Android\",\"Platform_Version\":\"5.0\"}",
        "636009a4dfa24f583c868268e7bda61a\t{\"Browser_Bits\":\"32\",\"Platform\":\"Android\",\"Platform_Version\":\"6.1\"}",
        "631347ade43cab106c0962b5a5baf15e\t{\"Browser_Bits\":\"32\",\"Platform\":\"Android\",\"Platform_Version\":\"6.0\"}",
        "631c904f2ba92706634f03303e58b985\t{\"Platform_Version\":\"8.1\"}",
        "632edfad626a878880d10d8fc9590cdd\t{\"Platform_Version\":\"8.4\"}",
        "63480c809f8836fdcff91fe4d512200a\t{\"Platform_Version\":\"7.1\",\"isTablet\":true}",
        "637785133137e7b66e246f6f5299ba52\t{\"Platform_Version\":\"9.3\",\"isTablet\":true}",
        "63f9c31beff092bf8e052a7ba4d639d7\t{\"Platform_Version\":\"8.1\"}",
        "635b703df8d375e8b43311f46cec8128\t{\"Platform_Version\":\"8.0\"}",
        "637d7092a9e288ae26ca3928c5ccf656\t{\"Platform_Version\":\"7.1\"}",
        "63673a78caf0efbc5b34fb03ff9d04b1\t{\"Platform_Version\":\"4.4\",\"isTablet\":true}",
        "63f804237fc15adfd0bbd8c16f97b720\t{\"Platform_Version\":\"8.2\"}",
        "63622ca23d92f64fdf8be12aa2209ab5\t{\"Platform_Version\":\"5.0\",\"isTablet\":true}",
        "63e9b0bc78e07149a102d19c102a647e\t{\"Platform_Version\":\"9.0\",\"isTablet\":true}",
        "639d3b36889c87d49e2585c96292d32e\t{\"Platform_Version\":\"9.2\"}",
        "63786d40f7fca878a71078778a63ef62\t{\"Platform_Version\":\"8.4\",\"isTablet\":true}",
        "63e2725d1c4b44619e37f911d6c5ad07\t{\"Platform_Version\":\"4.2\",\"isTablet\":true}",
        "633cc3367096dad1166128d613c16c75\t{\"Platform_Version\":\"4.4\",\"isTablet\":true}",
        "638a3c0a3fe9aec836cd20d41593ce3a\t[]",
        "63c55839cab9725db2b34235ae206bb4\t{\"Platform_Version\":\"5.0\",\"isTablet\":true}",
        "6349f4040cab7989b7cc09ea6ddf3dc5\t{\"Platform_Version\":\"9.0\"}",
        "63644ce9197ed838230b44b99e6c60b1\t{\"Platform_Version\":\"4.2\",\"isTablet\":true}",
        "63136d3f9f2f117f7cd22372429f4203\t{\"Platform_Version\":\"4.3\",\"isTablet\":true}",
        "63e7e197755bfd47cda2de0441a569b3\t{\"Platform_Version\":\"4.3\",\"isTablet\":true}",
        "630c6729f6eabc27adf4eafb5af59632\t{\"Platform_Version\":\"4.4\",\"isTablet\":true}",
        "6365f9e7a9b443659e6fc4f951d15ae4\t{\"Platform_Version\":\"4.2\",\"isTablet\":true}",
        "63da4d571eef96b856c28e8ccf3f9de1\t{\"Browser_Bits\":\"32\",\"Platform\":\"Android\",\"isMobileDevice\":true}",
        "6378efdd3d374eba3aa4647c01096da2\t{\"Platform_Version\":\"4.4\",\"isTablet\":true}",
        "63105c141046db5182c3ae1e988987cd\t{\"Browser_Bits\":\"32\",\"Platform\":\"MacOSX\",\"Platform_Version\":\"10.9\"}",
        "63ec269123b6377abfb6c8a71a395b4a\t{\"Browser_Bits\":\"32\",\"Platform\":\"WinXP\",\"Platform_Version\":\"5.1\",\"Win32\":true}",
        "63b57c9f08ffa307e5adadcb2fa15e51\t{\"Browser_Bits\":\"32\",\"Platform\":\"Win7\",\"Platform_Version\":\"6.1\",\"Win32\":true}",
        "63d8ed0339701f1f94f28ddd2231c53a\t{\"Browser_Bits\":\"32\",\"Platform\":\"Win8.1\",\"Platform_Version\":\"6.3\",\"Win32\":true}",
        "63d74bd0d343e65be20b0d479334f0f9\t{\"Browser_Bits\":\"32\",\"Platform\":\"Win7\",\"Platform_Version\":\"6.1\",\"Win32\":true}",
        "63e59e7524e572bac9b9414dcd8ac576\t{\"Browser_Bits\":\"32\",\"Platform\":\"Linux\"}",
        "63f1025c35ec7665bd1722f670011754\t{\"Browser_Bits\":\"32\",\"Platform\":\"WinVista\",\"Platform_Version\":\"6.0\",\"Win32\":true}",
        "632c6ecee02cee48267e93a3685c3297\t{\"Browser_Bits\":\"32\",\"Platform\":\"WinVista\",\"Platform_Version\":\"6.0\",\"Win32\":true}",
        "63dc72c158a3ee03ba49afed4b5be2f9\t{\"Browser_Bits\":\"32\",\"Platform\":\"MacOSX\",\"Platform_Version\":\"10.10\"}",
        "634dc3f657e5f3eb3353de95360da4f9\t{\"Browser_Bits\":\"32\",\"Platform\":\"WinXP\",\"Platform_Version\":\"5.1\",\"Win32\":true}",
        "637bacc70444ea0fe3a048bdc1f51a9c\t{\"Browser_Bits\":\"32\",\"Platform\":\"Linux\"}",
        "63c531f87b9be9ff1d024b19bde9da0a\t{\"Browser_Bits\":\"32\",\"Platform\":\"Linux\"}",
        "63731bd5d1333da28a4074c7716f473f\t{\"Browser_Bits\":\"32\",\"Platform\":\"WinVista\",\"Platform_Version\":\"6.0\",\"Win32\":true}",
        "63ce1a5b38f18f70c70f56e5541b0e39\t{\"Browser_Bits\":\"32\",\"Platform\":\"WinXP\",\"Platform_Version\":\"5.2\",\"Win32\":true}",
        "63c8d0cfccf2ee67260e750b8f96dd45\t{\"Browser_Bits\":\"32\",\"Platform\":\"Win8\",\"Platform_Version\":\"6.2\",\"Win32\":true}",
        "63c31721b4ea0e2daab45ec69e92c116\t{\"Browser_Bits\":\"32\",\"Platform\":\"Win7\",\"Platform_Version\":\"6.1\",\"Win32\":true}",
        "6395a14679246d0c2e158eac8041e845\t{\"Browser_Bits\":\"32\",\"Platform\":\"WinXP\",\"Platform_Version\":\"5.2\",\"Win32\":true}",
        "63f24734dc2d52d9d554504d28ff409b\t{\"Browser_Bits\":\"32\",\"Platform\":\"SunOS\"}",
        "63a48ed68d1bc2bf5920e6b7b8006002\t{\"Browser_Bits\":\"32\",\"Platform\":\"WinVista\",\"Platform_Version\":\"6.0\",\"Win32\":true}",
        "6386e97a19768017cb90ad18f31c3772\t{\"Browser_Bits\":\"32\",\"Platform\":\"Win8.1\",\"Platform_Version\":\"6.3\",\"Win32\":true}",
        "6360535e1dee541108169220d372e726\t{\"Browser_Bits\":\"32\",\"Platform\":\"WinXP\",\"Platform_Version\":\"5.2\",\"Win32\":true}",
        "6305964c8e1052c1b3bbb52fc29f6bde\t{\"Browser_Bits\":\"32\",\"Platform\":\"WinXP\",\"Platform_Version\":\"5.2\",\"Win32\":true}",
        "635a4656a23b87ebaf8a7a042e50fa8e\t{\"Browser_Bits\":\"32\",\"Platform\":\"SunOS\"}",
        "6323295f38efcb733dc5b698a40825ca\t{\"Browser_Bits\":\"32\",\"Platform\":\"WinVista\",\"Platform_Version\":\"6.0\",\"Win32\":true}",
        "635a9c15cb8ae6098bc6a0c67875c957\t{\"Browser_Bits\":\"32\",\"Platform\":\"WinVista\",\"Platform_Version\":\"6.0\",\"Win32\":true}",
        "63aa65c145b6b3c9941becf2455c5baa\t{\"Browser_Bits\":\"32\",\"Platform\":\"Win7\",\"Platform_Version\":\"6.1\",\"Win32\":true}",
        "6309dc018e15310f8eca9810db6320c1\t{\"Browser_Bits\":\"32\",\"Platform\":\"Win8.1\",\"Platform_Version\":\"6.3\",\"Win32\":true}",
        "6323c9b5c21abd7065cb2aeaef789608\t{\"Browser_Bits\":\"32\",\"Platform\":\"Linux\"}",
        "63724d4c98e43720062026a5bf0b561c\t{\"Browser_Bits\":\"32\",\"Platform\":\"Win7\",\"Platform_Version\":\"6.1\",\"Win32\":true}",
        "6360d719802b99d3ba2d3adeb53ec6df\t{\"Browser_Bits\":\"32\",\"Platform\":\"WinXP\",\"Platform_Version\":\"5.2\",\"Win32\":true}",
        "638c7c6b412314be99fba5ed7c077cf2\t{\"Browser_Bits\":\"32\",\"Platform\":\"WinVista\",\"Platform_Version\":\"6.0\",\"Win32\":true}",
        "63457a7cea66917f470e5d33ffdfb44c\t{\"Browser_Bits\":\"32\",\"Platform\":\"Win7\",\"Platform_Version\":\"6.1\",\"Win32\":true}",
        "63d3c6d48447fe0edafc7ba8d2f94991\t{\"Browser_Bits\":\"32\",\"Platform\":\"WinVista\",\"Platform_Version\":\"6.0\",\"Win32\":true}",
        "637f82a0ce0ca0e0cf26a4425ef8363d\t{\"Browser_Bits\":\"32\",\"Platform\":\"Win7\",\"Platform_Version\":\"6.1\",\"Win32\":true}",
        "63967131bed538ca346dc1078806cd3d\t{\"Browser_Bits\":\"32\",\"Platform\":\"MacOSX\",\"Platform_Version\":\"10.9\"}",
        "637ea5335e4bc583c132a5f9e087d2fc\t{\"Browser_Bits\":\"32\",\"Platform\":\"MacOSX\",\"Platform_Version\":\"10\"}",
        "634ef40da09166add03424b2f237faa4\t{\"Browser_Bits\":\"32\",\"Platform\":\"Win8\",\"Platform_Version\":\"6.2\",\"Win32\":true}",
        "63820aebeab7588e149e20d89e185558\t{\"Browser_Bits\":\"32\",\"Platform\":\"Android\",\"Platform_Version\":\"6.0\"}",
        "63d868cd11042848dd0eee1dc68fc538\t{\"Browser_Bits\":\"32\",\"Platform\":\"WinXP\",\"Platform_Version\":\"5.2\",\"Win32\":true}",
        "632a24a167db6a692657b57f941e35f7\t{\"Browser_Bits\":\"32\",\"Platform\":\"WinXP\",\"Platform_Version\":\"5.2\",\"Win32\":true}",
        "633bdbba5fa2dde74b9fc0b6f00a6a9b\t{\"Browser_Bits\":\"32\",\"Platform\":\"Win8.1\",\"Platform_Version\":\"6.3\",\"Win32\":true}",
        "6371f8c548e6b1c0b98e7b2ee6c01dcd\t{\"Browser_Bits\":\"32\",\"Platform\":\"WinXP\",\"Platform_Version\":\"5.2\",\"Win32\":true}",
        "635bc5145d589ecfff20babcae366e30\t[]",
        "636319c0f0549f9031688d8a7ada765d\t{\"Browser_Bits\":\"32\",\"Platform\":\"Win8.1\",\"Platform_Version\":\"6.3\",\"Win32\":true}",
        "6325d4eb7a30be67d79c9bfccdc47d49\t{\"Platform_Version\":\"4.4\",\"isTablet\":true}",
        "638f684dfc79a2b647dda78d6183e2fe\t{\"Platform_Version\":\"4.2\",\"isTablet\":true}",
        "63bb4c1030cdb073818508aab4a6b3ca\t{\"Platform_Version\":\"5.1\"}",
        "63101d7c9caff01970d336047c5adeab\t{\"Platform_Version\":\"4.4\",\"isTablet\":true}",
        "6318b563d1493da585945d5d8b62d9eb\t{\"isTablet\":true}",
        "632a88bf20c11f268f3d2752e70a018f\t{\"Platform_Version\":\"4.4\",\"isTablet\":true}",
        "630cea00da8ed9e60239d0f0b9c77299\t{\"Browser_Bits\":\"32\",\"Platform\":\"ChromeOS\"}",
        "631eeec86a2975c6029a333185ee20e3\t{\"Platform_Version\":\"4.2\",\"isTablet\":true}",
        "6306022651bd60c8680a041749f8f23a\t[]",
        "63ebcd45d8954d198306e2583169b019\t[]",
        "63651773260fcaa91faf39ea82291216\t{\"Platform_Version\":\"4.2\",\"isTablet\":true}",
        "634c664d6b6adfb3796c2af8de3ada99\t{\"Platform_Version\":\"4.3\",\"isTablet\":true}",
        "636d5feaf1ec6a303c33b24ca963347c\t{\"Browser_Bits\":\"32\",\"Platform\":\"Win8\",\"Platform_Version\":\"6.2\",\"Win32\":true}",
        "637c50f7f5b358a5aed9147c309406c7\t{\"Platform_Version\":\"4.3\",\"isTablet\":true}",
        "6365b514214dc96ce8d5c12602733b55\t{\"Platform_Version\":\"9.3\"}",
        "631f3722920975e1a6d961b205def6ad\t{\"Platform_Version\":\"4.2\",\"isTablet\":true}",
        "63c565827f9d0c2a45f7aca20261e520\t{\"Platform_Version\":\"4.2\",\"isTablet\":true}",
        "6351580e420652ff5b979880ab00b9f3\t{\"Platform_Version\":\"4.2\",\"isTablet\":true}",
        "633ecaf8656db10f8850088dedc28ebf\t{\"Platform_Version\":\"5.0\"}",
        "63b010f122bd0bfd496b661e91482538\t{\"Browser_Bits\":\"32\",\"Platform\":\"Win8.1\",\"Platform_Version\":\"6.3\",\"Win32\":true}",
        "63ba5d18338c658e4a5eebf8024aaca5\t{\"Platform_Version\":\"5.0\",\"isTablet\":true}",
        "63ca272323206281eba8a9d3340c4347\t{\"Platform_Version\":\"4.2\",\"isTablet\":true}",
        "63028a71c03e4a55d3ee19aae4129212\t{\"Platform_Version\":\"4.4\",\"isTablet\":true}",
        "633466c3344624199c548ccc1ed3f83d\t{\"Platform_Version\":\"4.4\",\"isTablet\":true}",
        "63ececaaeb968505ed87d33721c935b3\t{\"Platform_Version\":\"4.3\"}",
        "639075fa7e71d302d47c6434b5a15e1f\t{\"Platform_Version\":\"5.0\",\"isTablet\":true}",
        "6387481b0b7b031b6762f3dc70c0a0b6\t{\"Platform_Version\":\"4.3\",\"isTablet\":true}",
        "636c131c289a1ab593ed4b026102aac3\t{\"Browser_Bits\":\"32\",\"Platform\":\"Win10\",\"Platform_Version\":\"6.4\",\"Win32\":true}",
        "6337d1688b7c6dcb47c90121181185b4\t{\"Platform_Version\":\"4.4\",\"isTablet\":true}",
        "63173e57f7639e0182c4d9b1e1b614f4\t{\"Platform_Version\":\"4.2\",\"isTablet\":true}",
        "633434a5f37be110892923dd0bf5a87b\t{\"Platform_Version\":\"8.4\"}",
        "631bf638a1346d97032457fe5efc3973\t{\"Browser_Bits\":\"32\",\"Platform\":\"FreeBSD\"}",
        "63cacc756698c48f2ecfedbf6e13d3c2\t{\"Platform_Version\":\"4.2\",\"isTablet\":true}",
        "63c0e5a23dc704a874789a0fe42b348c\t{\"Platform_Version\":\"8.2\",\"isTablet\":true}",
        "636a680a5c71a0ccae357c9ef33b6651\t{\"Platform_Version\":\"8.4\"}",
        "63fdfda822e1aed9a34b0e0b8f856553\t{\"Platform_Version\":\"4.4\",\"isTablet\":true}",
        "63bc1608042b0a456cc77e26f755a1b4\t{\"Platform_Version\":\"4.4\",\"isTablet\":true}",
        "636a66d0892a5b9bd173a62851affa6f\t{\"Platform_Version\":\"4.4\",\"isTablet\":true}",
        "632fe66c569eef9ca12a0a2c25051eea\t{\"Platform_Version\":\"4.2\",\"isTablet\":true}",
        "6350a377885013d1fc1dd9dc7e870911\t{\"Platform_Version\":\"4.4\",\"isTablet\":true}",
        "632f630c47091fd302806cc804b6efdf\t{\"Platform_Version\":\"4.4\",\"isTablet\":true}",
        "63f139c289c6ec620ee8e4eaf7688da1\t{\"Platform_Version\":\"4.2\",\"isTablet\":true}",
        "63827678d11c25889d7b837fc31663cf\t{\"Platform_Version\":\"10.2\"}",
        "6386b36f14e3c0a1f93000316b9bd3b6\t{\"Platform_Version\":\"4.3\",\"isTablet\":true}",
        "6321b670ee14a5a924286da1642ef424\t{\"Platform_Version\":\"10.0\"}",
        "63c3c50e7331ba77d13c300af92d3924\t{\"Platform_Version\":\"4.2\",\"isTablet\":true}",
        "63716044b1e75a0dd849ef8b6604379b\t{\"Platform_Version\":\"9.3\"}",
        "6346fde42e6e92e3f64883c66c858ae1\t{\"Platform_Version\":\"4.2\",\"isTablet\":true}",
        "63600457818f6d8bca47812d1f35a507\t{\"Platform_Version\":\"4.4\",\"isTablet\":true}",
        "63f35dc0eddd22a8ab9156195ebf1227\t{\"Platform_Version\":\"4.2\",\"isTablet\":true}",
        "6398f158c76c8f0a48950981a3214b77\t{\"Platform_Version\":\"4.3\",\"isTablet\":true}",
        "63d3237b3b3b7ae2a4ac520773be168a\t{\"Platform_Version\":\"4.3\",\"isTablet\":true}",
        "6351a9de23e8d4b853134aaca2107cd3\t{\"Platform_Version\":\"4.2\",\"isTablet\":true}",
        "6317463ef77fed270818692d26a9cb17\t{\"Platform_Version\":\"8.4\"}",
        "638d2e4ded1feea0dbe4e02d1e7bb6dd\t{\"Platform_Version\":\"7.1\"}",
        "63ca3ecc1b5d8af65c48c57a9ca5b98b\t{\"Browser_Bits\":\"32\",\"Platform\":\"ChromeOS\"}",
        "6337907deee07892dd8e67a2992aa285\t{\"Platform_Version\":\"4.4\",\"isTablet\":true}",
        "63755b2593d844c395e0f419a4f3b34c\t{\"Platform_Version\":\"5.1\"}",
        "639e6ee5136aae97b854fae4ab15a1f8\t{\"Platform_Version\":\"10.1\",\"isTablet\":true}",
        "63d3c6245d8a2b4344c80209f15a95c5\t{\"Browser_Bits\":\"32\",\"Platform\":\"Win7\",\"Platform_Version\":\"6.1\",\"Win32\":true}",
        "63e44feb9d1e2f2b156c3847023f2fae\t{\"Platform_Version\":\"4.2\",\"isTablet\":true}",
        "63264390353846456d3a792264cccb39\t{\"Platform_Version\":\"9.2\",\"isTablet\":true}",
        "63e869dd85c2b0e9f0dd45a3c77c9156\t{\"Platform_Version\":\"4.2\",\"isTablet\":true}",
        "63be0ab4a05e82b6d2519889eb1a256b\t{\"Platform_Version\":\"4.2\",\"isTablet\":true}",
        "639450883affa646a6ce4ad6673979d5\t{\"Browser_Bits\":\"32\",\"Platform\":\"Win7\",\"Platform_Version\":\"6.1\",\"Win32\":true}",
        "630ac22449fe5c7a369e240da220b566\t{\"Browser_Bits\":\"32\",\"Platform\":\"WinXP\",\"Platform_Version\":\"5.2\",\"Win32\":true}",
        "63d7dcdabd9612f6c7e3fec04ce08bd9\t{\"Browser_Bits\":\"32\",\"Platform\":\"Win8\",\"Platform_Version\":\"6.2\",\"Win32\":true}",
        "634b4aa417dc34c80c59e06641e8702f\t{\"Browser_Bits\":\"32\",\"Platform\":\"Win8\",\"Platform_Version\":\"6.2\",\"Win32\":true}",
        "6318bdbd69d26a1e2599626d33aa20d7\t{\"Browser_Bits\":\"32\",\"Platform\":\"Win8.1\",\"Platform_Version\":\"6.3\",\"Win32\":true}",
        "63a4c154508dd96f4766105f12d408cf\t{\"isTablet\":true}",
        "63e3e4c69dfaeadc9a8e5385f44dabc1\t{\"Browser_Bits\":\"32\",\"Platform\":\"Win8\",\"Platform_Version\":\"6.2\",\"Win32\":true}",
        "63186f034c88e1e602fc4dacb464168f\t{\"Browser_Bits\":\"32\",\"Platform\":\"OpenBSD\"}",
        "63eb4b2e02003d596fcc904b2065b6e8\t{\"Platform_Version\":\"8.0\"}",
        "6398cf7ffa462a2827318e2c2a53ad23\t{\"Platform_Version\":\"8.4\"}",
        "6389cfa9877589f176f6a2a6993892ec\t{\"Platform_Version\":\"8.3\"}",
        "638541e1decf63a29898ed12ec5eb621\t{\"Platform_Version\":\"10.2\"}",
        "6367e1ef69637b070d9ff2c8b2222a41\t{\"Platform_Version\":\"8.0\"}",
        "63b6a09f243bf9eb9188cf4a98b3e4dd\t{\"Browser_Bits\":\"32\",\"Platform\":\"iOS\",\"isMobileDevice\":true}",
        "6390de669da078c06bbd436b1ea8abe7\t{\"Platform_Version\":\"10.1\"}",
        "63c2255589d2d52257a049911018c59f\t{\"Platform_Version\":\"4.2\"}",
        "634eef66d9872de88c9098ed01b6c56d\t{\"Browser_Bits\":\"32\",\"Platform\":\"MeeGo\"}",
        "6334d204045925e215def5ae34353a59\t{\"Platform_Version\":\"10.3\"}",
        "63fcd919b13f1a8992a2cf8741d9c016\t{\"Platform_Version\":\"10.0\"}",
        "63a3ba9101240965ec113eec340caf5f\t[]",
        "6351b6a6a0633d0e610715e6a08a8c71\t[]",
        "639df6b8b37ad8bf0e9edd57032ed4b2\t[]",
        "63cd69463a904bb712184c30b2c5bb76\t{\"Browser_Bits\":\"32\",\"Platform\":\"Win10\",\"Platform_Version\":\"6.4\",\"Win32\":true}",
        "634405ade0dd7f87161cd7b5eaa8237f\t[]",
        "63ad72786b48293283a4eaa8d5d09eed\t{\"Browser_Bits\":\"32\",\"Platform\":\"RIM OS\"}",
        "6340efc8e18119d6f861aa5649529ef4\t{\"Browser_Bits\":\"32\",\"Platform\":\"RIM OS\"}",
        "6355177d23fc8c4701a5972618247c9a\t[]",
        "63c7df793b4bbaba7cb7e02b31c7c799\t{\"Browser_Bits\":\"32\",\"Platform\":\"SymbianOS\",\"isMobileDevice\":true}",
        "636558dafa15542a40978baed12f73af\t{\"Browser_Bits\":\"32\",\"Platform\":\"Linux\"}",
        "63701894453bc3b5828bdc6165a7a82e\t{\"Browser_Bits\":\"32\",\"Platform\":\"Win8\",\"Platform_Version\":\"6.2\",\"Win32\":true}",
        "632803515317b7e3087d83f77b3d6a15\t{\"Platform_Version\":\"4.3\"}",
        "63b4a65bcbf09af3e35975eea5ba6d6c\t{\"Platform_Version\":\"4.4\",\"isTablet\":true}",
        "63ddb9f76c6492c2dc7e73e943b9d937\t{\"Platform_Version\":\"4.4\",\"isTablet\":true}",
        "63d1c9c842e38d42a29fc0531b71d7c6\t{\"Browser_Bits\":\"32\",\"Platform\":\"iOS\",\"Platform_Version\":\"8.2\"}",
        "63f356e6ff092f608180d7e2f51f19e6\t{\"Browser_Bits\":\"32\",\"Platform\":\"iOS\",\"Platform_Version\":\"9.2\",\"isTablet\":true}",
        "6332fba0de492dd008e2dd22638af8b4\t{\"Browser_Bits\":\"32\",\"Platform\":\"iOS\",\"Platform_Version\":\"10.1\"}",
        "6322af3fd70fd96cbc93123032856782\t{\"Browser_Bits\":\"32\",\"Platform\":\"iOS\",\"Platform_Version\":\"9.2\"}",
        "6316f8533e964047d5fd78eb3247faa8\t{\"Browser_Bits\":\"32\",\"Platform\":\"JAVA\"}",
        "6342945f178f45776896e10017e281c9\t{\"Browser_Bits\":\"32\",\"Platform\":\"Tizen\"}",
        "6334e7e28ab642900200aa71ca9b7633\t{\"Browser_Bits\":\"32\",\"Platform\":\"JAVA\"}",
        "63feecc3065d26a276e12e5a856ed32f\t{\"Browser_Bits\":\"32\",\"Platform\":\"iOS\",\"Platform_Version\":\"10.3\",\"isTablet\":true}",
        "6329b855c0e0ffe6e016f461511d13fc\t{\"Browser_Bits\":\"32\",\"Platform\":\"iOS\",\"Platform_Version\":\"10.2\"}",
        "63e6e3fbae96433a2ac305a9dbee10f8\t{\"Platform_Version\":\"9.3\"}",
        "63225c5d314183775b9dd86e8d38ea39\t{\"Platform_Version\":\"8.1\"}",
        "6370e154797aeba1f30e996890c3d2a4\t{\"Platform_Version\":\"9.1\"}",
        "636b5fb210dcc556cf27abc954678d5b\t{\"Platform_Version\":\"8.1\",\"isTablet\":true}",
        "633a22c2394120596595ce56d5304bd4\t{\"isTablet\":true}",
        "637a1b2a894e1990d3466810519fd0b6\t{\"Platform_Version\":\"8.0\"}",
        "63c45f3c023269d8bf385afa438c6759\t{\"Platform_Version\":\"9.3\"}",
        "63a31326228201d479db189559bbae9c\t{\"Platform_Version\":\"8.3\",\"isTablet\":true}",
        "63b59d4f4fd9416c8aa8bce6c7d916ef\t{\"Platform_Version\":\"8.0\",\"isTablet\":true}",
        "6321dc0f0b3e7ef4aebc5706e67835d9\t{\"Platform_Version\":\"10.1\"}",
        "632b1fd01e0c4eebc74303b95b5cf9dd\t{\"Platform_Version\":\"9.1\",\"isTablet\":true}",
        "63794fb619df2bdd974c5cea21e51309\t{\"Platform_Version\":\"7.0\"}",
        "631afae239d1da57e222ae1bcbd5be10\t{\"Platform_Version\":\"9.3\",\"isTablet\":true}",
        "63facf7b9789295ebd91cd97e30a5713\t{\"Platform_Version\":\"8.0\",\"isTablet\":true}",
        "63c45f41f9700ed9ae9b7caaee4e5098\t{\"Browser_Bits\":\"32\",\"Platform\":\"WinVista\",\"Platform_Version\":\"6.0\",\"Win32\":true}",
        "63a7b3bea98917d8370ac3cc83e9596b\t{\"Browser_Bits\":\"32\",\"Platform\":\"MacOSX\",\"Platform_Version\":\"10.9\"}",
        "63f280cba292c28d547f8405c36a4392\t{\"Platform_Version\":\"9.1\"}",
        "630f9e325c38fdc5e1f75813778d4197\t{\"Platform_Version\":\"9.0\"}",
        "6352f007af13350da25904ec69ef67a9\t[]",
        "63742bca612e425d24ac5d680054e431\t{\"Browser_Bits\":\"32\",\"Platform\":\"iOS\",\"isMobileDevice\":true}",
        "633e66f7dfefd086548c5a6d8f5f4012\t{\"Browser_Bits\":\"32\",\"Platform\":\"Win32\",\"Win32\":true}",
        "63dd8953406b69f371c456b56958e621\t{\"Platform_Version\":\"8.0\"}",
        "631ef31051ad13bb84ac5a87c1027b6c\t{\"Platform_Version\":\"5.1\"}",
        "6342b5f9f102b4bf1a54e2d7a3ff426b\t{\"Platform_Version\":\"8.4\"}",
        "63a73f18433bba6493ecfe16d81b98f5\t{\"Platform_Version\":\"8.4\"}",
        "6333ac570da945bff6c8ae5255d80ad5\t{\"Browser_Bits\":\"32\",\"Platform\":\"RISC OS\"}",
        "63623e0030a2ddd035172fe382050dd6\t{\"Browser_Bits\":\"32\",\"Platform\":\"Win7\",\"Platform_Version\":\"6.1\",\"Win32\":true}",
        "634fcda3ac5ce6e34ea9a160f33cede7\t{\"Browser_Bits\":\"32\",\"Platform\":\"MacOSX\",\"Platform_Version\":\"10\"}",
        "63811fbd62030b8ce180d1f0e68e7f5d\t[]",
        "63066ae48837115f45a3229d7695932f\t{\"Browser_Bits\":\"32\",\"Platform\":\"Linux\"}",
        "63434656693bc892c775804014f33d73\t[]",
        "6306a5908577e1d8b5877fa1162101ce\t{\"Browser_Bits\":\"32\",\"Platform\":\"OpenBSD\"}",
        "63779d18f91204c00a5d2e299386b941\t{\"Platform_Version\":\"10.10\"}",
        "63aa72b8144497565098d7eade52a001\t[]",
        "63c442128b6032180508af90a88867cf\t{\"Browser_Bits\":\"32\",\"Platform\":\"Win32\",\"Win32\":true}",
        "63590d1388b3a74b2699df048a754019\t{\"Browser_Bits\":\"32\",\"Platform\":\"WinVista\",\"Platform_Version\":\"6.0\",\"Win32\":true}",
        "63e5519a80f55ae93d4f777ee3ab86dd\t{\"Browser_Bits\":\"32\",\"Platform\":\"WinXP\",\"Platform_Version\":\"5.2\",\"Win32\":true}",
        "63b6127562d0b4ac1b744fafdc96f278\t{\"Browser_Bits\":\"32\",\"Platform\":\"WinXP\",\"Platform_Version\":\"5.1\",\"Win32\":true}",
        "6340a98e479c1bca266c9b466f7c5ffd\t{\"Browser_Bits\":\"32\",\"Platform\":\"Linux\"}",
        "63380a55d482437c512de5a2395644f7\t{\"Browser_Bits\":\"32\",\"Platform\":\"WinVista\",\"Platform_Version\":\"6.0\",\"Win32\":true}",
        "6301c4d9d10127f34b272852543e99e1\t{\"isTablet\":true}",
        "63f569f5991ee9c9c59a15c935559f67\t{\"Browser_Bits\":\"32\",\"Platform\":\"WinXP\",\"Platform_Version\":\"5.1\",\"Win32\":true}",
        "6327666b0b8b52670e0cf02ff52924ae\t{\"Platform\":\"Win7\",\"Platform_Version\":\"6.1\"}",
        "63e703433d5b4bf9c98bb322dba06f57\t{\"Browser_Bits\":\"32\",\"Platform\":\"MacOSX\",\"Platform_Version\":\"10\"}",
        "63d8095ca82c4b43e54ee6db56325d26\t{\"Platform\":\"Win7\",\"Platform_Version\":\"6.1\"}",
        "63839bf62743c74198036714d5682983\t{\"Browser_Bits\":\"32\",\"Platform\":\"Win8.1\",\"Platform_Version\":\"6.3\",\"Win32\":true}",
        "63bda28bf9e7ea6d74555bc312a9ecd1\t{\"Browser_Bits\":\"32\",\"Platform\":\"Win10\",\"Platform_Version\":\"10.0\",\"Win32\":true}",
        "636cbe27c76a002176adf364b57ccf40\t{\"Browser_Bits\":\"32\",\"Platform\":\"Win10\",\"Platform_Version\":\"10.0\",\"Win32\":true}",
        "63cda1c78623265311c117613fb60ce8\t{\"Browser_Bits\":\"32\",\"Platform\":\"WinXP\",\"Platform_Version\":\"5.1\",\"Win32\":true}",
        "63f8b3abe0e3e39c445fefbe64ba40f8\t{\"Browser_Bits\":\"32\",\"Platform\":\"Win8\",\"Platform_Version\":\"6.2\",\"Win32\":true}",
        "63d745ff57a2b7dd4bf49f0b218d87ec\t{\"Browser_Bits\":\"32\",\"Platform\":\"Win32\",\"Win32\":true}",
        "63102015269af577d0516f782f2d8c2c\t{\"Browser_Bits\":\"32\",\"Platform\":\"Win8\",\"Platform_Version\":\"6.2\",\"Win32\":true}",
        "6391de9c0a05ca769ac1177255f89dd6\t[]",
        "6343e956989a3b894ccfd30bb0f962d0\t{\"Browser_Bits\":\"32\",\"Platform\":\"Linux\"}",
        "63e91ff8da60101760ef1d56febe681b\t{\"Browser_Bits\":\"32\",\"Platform\":\"FreeBSD\"}",
        "6390b5272243da0e6e222c76f1b28c39\t{\"Browser_Bits\":\"32\",\"Platform\":\"WinXP\",\"Platform_Version\":\"5.1\",\"Win32\":true}",
        "637196192bea66ce7a179c8b07a7e89a\t{\"Browser_Bits\":\"32\",\"Platform\":\"Win8\",\"Platform_Version\":\"6.2\",\"Win32\":true}",
        "63131a8846236663a43c77cfb3e0bb0f\t{\"Browser_Bits\":\"32\",\"Platform\":\"Amiga OS\"}",
        "633a2a044346a34e661ec0b616077e4e\t{\"Browser_Bits\":\"32\",\"Platform\":\"MacOSX\",\"Platform_Version\":\"10\"}",
        "63a2a9db8a8c0625c5b7c313b28d3d60\t{\"Browser_Bits\":\"32\",\"Platform\":\"Win8\",\"Platform_Version\":\"6.2\",\"Win32\":true}",
        "6364841ec35ae96a6463996f7a2eed3f\t{\"Browser_Bits\":\"32\",\"Platform\":\"WinXP\",\"Platform_Version\":\"5.2\",\"Win32\":true}",
        "63e08645e898bf2438ab89737d74c730\t{\"Browser_Bits\":\"32\",\"Platform\":\"Win7\",\"Platform_Version\":\"6.1\",\"Win32\":true}",
        "6391b1dbc9afc9b834519dfab6fc9645\t{\"Browser_Bits\":\"32\",\"Platform\":\"WinXP\",\"Platform_Version\":\"5.2\",\"Win32\":true}",
        "635f973f186d153b6ee8893268fc4be0\t{\"Browser_Bits\":\"32\",\"Platform\":\"WinXP\",\"Platform_Version\":\"5.2\",\"Win32\":true}",
        "6363477aad7503ccfb05ebccd5ffb6c0\t{\"Platform_Version\":\"9.3\"}",
        "638d389f7b76dbb4c74629e9e534e0b4\t{\"Platform_Version\":\"9.3\"}",
        "6336e5a349abac72875a189677ee68ba\t[]",
        "63f7adfb18541c554987f81bcf5e035e\t{\"Platform_Version\":\"9.1\"}",
        "630f0925fecda98889340b3d41f692d4\t{\"Browser_Bits\":\"32\",\"Platform\":\"iOS\",\"Platform_Version\":\"7.1\",\"isMobileDevice\":true}",
        "638d5387949d45711f4fa34617ede2d9\t{\"Browser_Bits\":\"32\",\"Platform\":\"Win8\",\"Platform_Version\":\"6.2\",\"Win32\":true}",
        "63a6f6caaafeb7d457dfdec1751f3349\t{\"isMobileDevice\":true}",
        "63556cb1289abb4487b07ad1e40784e1\t[]",
        "636502a0561bdb6dbd144179180c279d\t{\"Browser_Bits\":\"32\",\"Platform\":\"Win7\",\"Platform_Version\":\"6.1\",\"Win32\":true}",
        "634a7d22082fab873a4f4f0be37f5398\t{\"Browser_Bits\":\"32\",\"Platform\":\"Linux\"}",
        "6323e551cc083c689032363b173f0833\t[]",
        "63a6fcb7b741c1c6664ffd4ec7478b90\t{\"Browser_Bits\":\"32\",\"Platform\":\"Linux\"}",
        "632d1074764fb5437fb835900eadf9e0\t[]",
        "639c04bd90db8d319c5c807182ad4d94\t[]",
        "63610f5dc4c798fec609fbbcaeed2c7d\t{\"Platform_Version\":\"4.3\"}",
        "634d73a5e5941e3662f1effb761f9c49\t[]",
        "63855d797e74e7a9ed7de21600f920a7\t{\"Platform_Version\":\"7.1\",\"isTablet\":true}",
        "63397a842e751f11d9429eb5a1d86bcb\t{\"Platform_Version\":\"4.4\",\"isTablet\":true}",
        "639579d8a9aa6762649821a4d19b0eee\t{\"Browser_Bits\":\"32\",\"Platform\":\"WinXP\",\"Platform_Version\":\"5.1\",\"Win32\":true}",
        "6306ad61736b98bee09aca56b7d17e35\t{\"Browser_Bits\":\"32\",\"Platform\":\"OS\\\/2\"}",
        "632c974dcdbed0a1cafec224d52ddf1e\t{\"Browser_Bits\":\"32\",\"Platform\":\"WinVista\",\"Platform_Version\":\"6.0\",\"Win32\":true}",
        "63013a6b9df9d2ba709d1336d9c0bb10\t{\"Browser_Bits\":\"32\",\"Platform\":\"MacOSX\",\"Platform_Version\":\"10.9\"}",
        "631ac9be01b08c82044b75ae28a4df33\t{\"Browser_Bits\":\"32\",\"Platform\":\"Win32\",\"Win32\":true}",
        "63836d7bf29ad2e00d1de5f65799a3b6\t{\"Browser_Bits\":\"32\",\"Platform\":\"OpenBSD\"}",
        "63a730b272b7e6d7a95e686b5e10d1fe\t{\"Browser_Bits\":\"64\",\"Platform\":\"IRIX64\"}",
        "63a22b9160f9ed99ab5a7c53a4e15025\t{\"Browser_Bits\":\"32\",\"Platform\":\"Win7\",\"Platform_Version\":\"6.1\",\"Win32\":true}",
        "63e76a3e8e2c43c9ab8cbe0f12a89346\t{\"Browser_Bits\":\"32\",\"Platform\":\"Win8\",\"Platform_Version\":\"6.2\",\"Win32\":true}",
        "63c97ff96f394950bb35ab16d26d333e\t{\"Browser_Bits\":\"32\",\"Platform\":\"Win7\",\"Platform_Version\":\"6.1\",\"Win32\":true}",
        "630920d958ee6042b76b06caee716374\t{\"Browser_Bits\":\"32\",\"Platform\":\"NetBSD\"}",
        "63dd033d76a703ac66602465f2cc00bf\t{\"Browser_Bits\":\"32\",\"Platform\":\"Win8.1\",\"Platform_Version\":\"6.3\",\"Win32\":true}",
        "63d318cf339b74d0aac4da1edeb48c50\t{\"Browser_Bits\":\"32\",\"Platform\":\"AIX\"}",
        "6355fe9e65c2a750f1a7e7d125eebc55\t{\"Browser_Bits\":\"32\",\"Platform\":\"MacOSX\",\"Platform_Version\":\"10.9\"}",
        "63fa0afc74364ad091e979ace31b68ef\t{\"Browser_Bits\":\"64\",\"Platform\":\"IRIX64\"}",
        "63c1b427589413d8f8865acbbe0201d2\t{\"Browser_Bits\":\"32\",\"Platform\":\"WinVista\",\"Platform_Version\":\"6.0\",\"Win32\":true}",
        "63dcfc6fef25f8b44c2b55b86be0daaf\t{\"Browser_Bits\":\"32\",\"Platform\":\"Darwin\"}",
        "63e8cd97aa5c7a2be2db450b9ddb71a4\t[]",
        "63343ce223462d8bb27f07f0cabec622\t{\"Browser_Bits\":\"32\",\"Platform\":\"Linux\"}",
        "636ca409b9f71c88d3b675ec94198f67\t{\"Platform\":\"Win7\",\"Platform_Version\":\"6.1\",\"Win32\":true}",
        "63fca050b1c536b41aa62c43c125cc43\t[]",
        "63034541bcb8c2c1822a1f0361e27528\t[]",
        "63f9ab284f28af0f9cc686d971a4beec\t{\"Browser_Bits\":\"32\",\"Platform\":\"MacOSX\",\"Platform_Version\":\"10.10\"}",
        "636925029708119ca4354047ef0a796b\t[]",
        "63e96527cb2659756e65705c737b38af\t[]",
        "638492f19e9ba28e58484c45ae4de016\t{\"Platform_Version\":\"8.2\"}",
        "63b8cbf65ec7b82fb68858a77a9ae5aa\t[]",
        "633a884e2336ee5808af7472c0b6eac2\t{\"Browser_Bits\":\"32\",\"Platform\":\"Win7\",\"Platform_Version\":\"6.1\",\"Win32\":true}",
        "6363bff28c1e90f604264148698a3423\t{\"Browser_Bits\":\"32\",\"Platform\":\"OpenBSD\"}",
        "638a29b3acaba5e8ad30a0dd5830bf84\t[]",
        "63691685824e208adb68667ba32ec391\t{\"Browser_Bits\":\"32\",\"Platform\":\"iOS\",\"isMobileDevice\":true}",
        "63039edfacce1566acd98ad689767c60\t{\"Browser_Bits\":\"32\",\"Platform\":\"Darwin\"}",
        "63b1c75cb7340a59ffcebfab5a66dd5a\t{\"Platform_Version\":\"8.4\"}",
        "63eb59a5df5a83bf05a181d608cab88d\t{\"Platform_Version\":\"10.10\"}",
        "639621169d8866633b4a792135acc88f\t{\"Platform_Version\":\"10.9\"}"
    ]
}