{
    "content": [
        "07218690a1d619ad6f45380db3525015\t11\tgroschobot\\\/.*",
        "075df01b6a9efb3284d5d982cf2c49fe\t6\tsmtbot",
        "07715e6d0e0223bf2bd3ded1ff74184c\t38\tvisited by http\\:\\\/\\\/tools\\.geek\\-tools\\.org",
        "07736a7ad57d8d1a6016eb36ae9529c3\t29\tnaverbot\\-.* \\(nhn corp.*naver\\.com\\)",
        "077dc317fc8f35138e9b70c6f7c1ca57\t35\tbenq\\-e[\\d][\\d]\\\/[\\d][\\d] .* browser\\\/up\\.browser\\\/[\\d]\\.[\\d].*",
        "07b0b59011feb2d1058b5e44af37e3a8\t25\ticab\\\/[\\d]\\.[\\d].* \\(.*windows nt [\\d]\\.[\\d].*\\)",
        "07b0b59011feb2d1058b5e44af37e3a8\t19\ticab\\\/[\\d]\\.[\\d].* \\(.*mac os x.*\\)",
        "07b757fde849644dbe87975ab239c9c2\t23\tsie\\-m[\\d][\\d]\\\/.* up\\.browser\\\/[\\d]\\.[\\d].*",
        "07e6237104259b825ac0ae9207ec808e\t10\tgoldenpod\\\/.*"
    ]
}