{
    "content": [
        "3b6c84b7303c1ecb02709d22a0f4bb7d\t[]",
        "3b26c7613521507ee1b5101e1429fd18\t[]",
        "3ba2c8f8bbae86cb7b5bc10652e28a83\t[]",
        "3bb3e5971bfd23f3b38b27c8109cf6fd\t[]",
        "3b3470ddd6a7294e8a6dcb7401f73d31\t[]",
        "3b4a94265c15bd853ca2773720f016b3\t[]",
        "3b5e5a71d996ca142fe9f12104f09da1\t[]",
        "3ba8a909c3bfa8de4904b689cfae5c29\t[]",
        "3b2974a9ff6c70de7ca8e313c444c696\t[]",
        "3b63e8dc971fdaf7634124f03249d870\t[]",
        "3b9178a49f3dc31378ac0a0715beff5d\t[]",
        "3b1ad29e009aa77ffead239b2d1f74da\t{\"Browser_Bits\":\"32\",\"Platform\":\"Win10\",\"Platform_Version\":\"6.4\",\"Win32\":true}",
        "3b79f01206c049544a6896183949ae50\t{\"Browser_Bits\":\"32\",\"Platform\":\"WinXP\",\"Platform_Version\":\"5.2\",\"Win32\":true}",
        "3bc7b4f15a3790d7b13b6f6b8fa9c3f3\t{\"Browser_Bits\":\"32\",\"Platform\":\"Win32\",\"Win32\":true}",
        "3bf58b398b156224dad2fea7e7d0919c\t{\"Platform\":\"iOS\",\"Platform_Version\":\"8.3\",\"Win32\":false,\"isMobileDevice\":true,\"isTablet\":true}",
        "3bb246c4dd2855cd138b8fe76b603333\t{\"Platform\":\"iOS\",\"Platform_Version\":\"8.3\",\"Win32\":false,\"isMobileDevice\":true,\"isTablet\":true}",
        "3b4a726f615ec8b530957037f0e5cc83\t{\"Platform\":\"WinVista\",\"Platform_Version\":\"6.0\"}",
        "3bf1fe9eab4211006788b0d6e214f50b\t{\"Platform\":\"iOS\",\"Platform_Version\":\"8.3\",\"Win32\":false,\"isMobileDevice\":true,\"isTablet\":true}",
        "3b7af9d20a58fd2bc79379e4f6d6aeba\t{\"Platform\":\"iOS\",\"Platform_Version\":\"10.2\",\"Win32\":false,\"isMobileDevice\":true,\"isTablet\":true}",
        "3b9f75e5161b65668b3c3f32a34dd865\t{\"Platform\":\"MacOSX\",\"Platform_Version\":\"10.9\",\"Win32\":false}",
        "3bc7761fc2c49a0cb2c456b03d79ed82\t{\"Platform\":\"iOS\",\"Platform_Version\":\"10.2\",\"Win32\":false,\"isMobileDevice\":true,\"isTablet\":true}",
        "3b28d050df3376f0d73d7481c2851356\t{\"Platform_Version\":\"10.0\",\"isTablet\":true}",
        "3b7a035e621a55b5a2dc311c45b0288d\t[]",
        "3b5133cd21ab19f4a8e6fc468035ad5d\t{\"Platform_Version\":\"5.0\"}",
        "3b7c831db1a623ff00f6302c73a8084c\t{\"Platform_Version\":\"8.4\",\"isTablet\":true}",
        "3b495e570991620ac77e48db79069a04\t{\"Platform_Version\":\"10.0\",\"isTablet\":true}",
        "3b6057d4ff36095d83c6844671dadf0c\t{\"Platform_Version\":\"10.1\"}",
        "3b73b04c8d2742a9f84f6fd730a4513a\t{\"Browser_Bits\":\"32\",\"Platform\":\"Win8\",\"Platform_Version\":\"6.2\",\"Win32\":true}",
        "3b9f23d0fd45b12129691a1644cc8183\t{\"Platform\":\"iOS\",\"Platform_Version\":\"8.2\"}",
        "3bf0b512d1ac0c4f30d28c2563b7bee8\t{\"Browser_Bits\":\"32\",\"Platform\":\"Win8\",\"Platform_Version\":\"6.2\",\"Win32\":true}",
        "3bd685ab5cb3221a50951bbd7ef9ed0c\t{\"Platform\":\"iOS\",\"Platform_Version\":\"10.3\"}",
        "3bbeb611bac75049756e26530c2559ad\t{\"Platform\":\"iOS\",\"isTablet\":true}",
        "3bfb7a0cd075abf5573f6d567219b029\t{\"Platform\":\"iOS\",\"Platform_Version\":\"7.1\"}",
        "3be34200edca28656c5108c85a172945\t{\"Platform\":\"iOS\",\"Platform_Version\":\"9.2\"}",
        "3b62cf7ef35e46581639f52d4fdbdd9d\t{\"Platform\":\"iOS\",\"Platform_Version\":\"8.4\",\"isTablet\":true}",
        "3b883db1438f756265911da692063d60\t{\"Platform_Version\":\"4.2\",\"isTablet\":true}",
        "3b33707f6a68192962abcb135d00b23b\t{\"Platform_Version\":\"6.1\"}",
        "3b9c964e842179d75df06b27ed80af98\t{\"Platform_Version\":\"5.0\"}",
        "3be1c4e5cafb20a349680241ea1ab7e6\t{\"Browser_Bits\":\"32\",\"Platform\":\"Win8\",\"Platform_Version\":\"6.2\",\"Win32\":true}",
        "3b05f934931524756b6b15f54f6789fd\t{\"Browser_Bits\":\"32\",\"Platform\":\"SymbianOS\"}",
        "3b1fb47eb8872b4ea88ab913cafa0c00\t{\"Platform\":\"SymbianOS\"}",
        "3bcaa0cd67b5615855fc4aff2fa73889\t{\"Browser_Bits\":\"32\",\"Platform\":\"WinXP\",\"Platform_Version\":\"5.2\",\"Win32\":true}",
        "3b9bdbc96842e8399a3f4e562bba1b5c\t{\"Platform_Version\":\"4.3\"}",
        "3b65e1ff783d6d670790f5313622b2ab\t{\"Platform_Version\":\"4.2\"}",
        "3b924ff50e91ddd443809469b6d7a1dc\t{\"Platform\":\"MacOSX\",\"Platform_Version\":\"10.10\",\"Win32\":false}",
        "3b329814aafdbae3d97c28dffe373ef1\t{\"Browser_Bits\":\"32\",\"Platform\":\"Win32\",\"Win32\":true}",
        "3bec73a5e40373dc2e462015175e1b04\t{\"Platform\":\"WinXP\",\"Platform_Version\":\"5.2\",\"Win32\":true}",
        "3bc686d14e82bf113c217981f52b8e4e\t{\"Platform\":\"Win8\",\"Platform_Version\":\"6.2\",\"Win32\":true}",
        "3b367fc8b6e67f0e231ae5bd76eb31e3\t{\"Platform\":\"Win10\",\"Platform_Version\":\"10.0\",\"Win32\":true}",
        "3b3b7cfb9f0d801e5ad11293baf2e45f\t{\"Platform_Version\":\"9.1\",\"isTablet\":true}",
        "3bb62f12efb14ac7e292ad2e1b7c9d25\t[]",
        "3b99df49e4eb869b84f5c4f9b10b5fa9\t{\"Platform_Version\":\"6.0\",\"isTablet\":true}",
        "3ba7b975432ef286a35d8847e5b18b45\t{\"Platform\":\"Win7\",\"Platform_Version\":\"6.1\",\"Win32\":true}",
        "3bd10726c3f00f019a794628bce37cc7\t{\"Platform\":\"WinVista\",\"Platform_Version\":\"6.0\",\"Win32\":true}",
        "3b04cd928f4a75cc724b1fbe07f4cb89\t{\"Platform\":\"Win8.1\",\"Platform_Version\":\"6.3\",\"Win32\":true}",
        "3bc7fa272a65bdf6f137c31092d9d46d\t{\"Platform_Version\":\"4.2\",\"isTablet\":true}",
        "3b4872ca7c030d8bbdfb7edb188a5e14\t{\"Platform_Version\":\"4.3\",\"isTablet\":true}",
        "3bfe61ce4a23f2745c02c164eba185cc\t{\"Platform_Version\":\"4.3\",\"isTablet\":true}",
        "3ba5401f3b35e6403bf608d50b7c2ddf\t{\"Platform_Version\":\"4.4\",\"isTablet\":true}",
        "3b4bc4162e7ecff551ff23e78086ffd9\t{\"Platform_Version\":\"4.3\",\"isTablet\":true}",
        "3bcc24473441f442f78a600f44a62800\t{\"Platform_Version\":\"4.3\",\"isTablet\":true}",
        "3bd2b5a805191f197cce15f0f5d384ca\t{\"Platform_Version\":\"4.4\",\"isTablet\":true}",
        "3b455db5b75935e35a798985b263a7f1\t{\"Platform\":\"Win8\",\"Platform_Version\":\"6.2\"}",
        "3bdacef7134cf16d40ad8b6c3f99a016\t{\"Platform_Version\":\"4.3\",\"isTablet\":true}",
        "3b7d1cb91676c1f265f7397ee8315756\t{\"Platform_Version\":\"4.2\",\"isTablet\":true}",
        "3b39fb1615185cc7e937357ce01455c5\t{\"Platform_Version\":\"4.3\",\"isTablet\":true}",
        "3bd91d75f6f559e57f712e7659e7bb85\t{\"Platform_Version\":\"4.4\",\"isTablet\":true}",
        "3b3b72277db415697b3228050f359919\t{\"Platform_Version\":\"4.3\",\"isTablet\":true}",
        "3bfd0a38f807551cbc8fd083b9916cf9\t{\"Platform_Version\":\"4.3\",\"isTablet\":true}",
        "3b81b21eab11a3b54da4a2086393f68c\t{\"Platform_Version\":\"4.3\"}",
        "3bc47c2da8a0107905e0c2d9847615d8\t{\"Platform_Version\":\"4.4\",\"isTablet\":true}",
        "3bbdc86c9c429da669c07acb6a6fedd9\t{\"Browser_Bits\":\"32\",\"Platform\":\"Android\"}",
        "3b14c1a356f523cac191a204f469b813\t{\"Browser_Bits\":\"32\",\"Platform\":\"Android\",\"Platform_Version\":\"5.1\"}",
        "3b3d9cc6171e6e443c3b091889c75402\t{\"Browser_Bits\":\"32\",\"Platform\":\"Android\",\"Platform_Version\":\"6.0\"}",
        "3bad3ba76b0b3264b188a8b7e68798c0\t{\"Browser_Bits\":\"32\",\"Platform\":\"Android\",\"Platform_Version\":\"4.4\"}",
        "3bf0745369b3353d545f5bbb9ba5d340\t{\"Browser_Bits\":\"32\",\"Platform\":\"Android\"}",
        "3b29afc29f83cc150ef609b4adfd1969\t{\"Browser_Bits\":\"32\",\"Platform\":\"Android\",\"Platform_Version\":\"7.0\"}",
        "3b9de9c483ed3b07665aa4e3b8e5e727\t{\"Browser_Bits\":\"32\",\"Platform\":\"Android\",\"Platform_Version\":\"6.0\"}",
        "3bc6e8dcc6a7e7459b2a271629d38544\t{\"Browser_Bits\":\"32\",\"Platform\":\"Android\",\"Platform_Version\":\"7.1\"}",
        "3b77af567ac63fdd232bf9af81992d8f\t{\"isMobileDevice\":true}",
        "3b49df8d72fa6560e7296926ffe665ab\t{\"Browser_Bits\":\"32\",\"Platform\":\"Android\",\"Platform_Version\":\"7.0\"}",
        "3bcd5d41e5eaa40ea1c3731254395f2c\t{\"Platform_Version\":\"9.1\"}",
        "3b1ff579e204f09353c3a9af1ecd5781\t{\"Platform_Version\":\"4.4\",\"isTablet\":true}",
        "3b7b5d969fef9ad6f94722d47f2ebf98\t{\"Platform_Version\":\"4.2\",\"isTablet\":true}",
        "3b82fe14c19239bb077d8b6163e374ac\t{\"Platform_Version\":\"5.1\"}",
        "3b3b727f0bd275f7b1cae89dd9907813\t{\"Platform_Version\":\"4.4\",\"isTablet\":true}",
        "3be078666d9a9c5fa68d6324b331c730\t{\"Platform_Version\":\"7.0\",\"isTablet\":true}",
        "3bedf8fb2b70248dd8458e3977b6ce87\t{\"Platform_Version\":\"8.2\"}",
        "3b42f354ce67f2f6ccafe8b6795c4cd3\t{\"Platform_Version\":\"10.0\"}",
        "3bb440a36792c305cc3107f4ec2b3e7d\t{\"Browser_Bits\":\"32\",\"Platform\":\"MacOSX\",\"Platform_Version\":\"10.9\"}",
        "3b4b3c24439d0a0099804318bc1c4ba1\t{\"Browser_Bits\":\"32\",\"Platform\":\"Win32\",\"Win32\":true}",
        "3bc80a49abe32f943588dc20cf49ff8f\t{\"Platform_Version\":\"7.1\",\"isTablet\":true}",
        "3bd3fc92d2217a1eeef16cc3ddec8585\t{\"Platform_Version\":\"10.0\"}",
        "3b7f0ee037a29150b368dfc05f78260a\t{\"Platform_Version\":\"4.4\",\"isTablet\":true}",
        "3b465fca78d46c960f4fdf8e0243b9a6\t{\"Platform_Version\":\"8.3\"}",
        "3bbf015b6275a63bb39e577b43324b79\t{\"Platform_Version\":\"4.2\",\"isTablet\":true}",
        "3bb7d4139b0745a11c47065fc9dd3f66\t{\"Browser_Bits\":\"32\",\"Platform\":\"Win8\",\"Platform_Version\":\"6.2\",\"Win32\":true}",
        "3b6384085249c9efa5e682e7f7ccc64d\t{\"Browser_Bits\":\"32\",\"Platform\":\"WinXP\",\"Platform_Version\":\"5.1\",\"Win32\":true}",
        "3b37edecde0b7ae0bd29eb75dd0337b9\t{\"Platform_Version\":\"8.4\"}",
        "3b1d9b32135906b19183f457aeb2edcd\t{\"Platform_Version\":\"9.3\"}",
        "3bda202a74cc268b5457edc86851207f\t{\"Platform_Version\":\"4.2\",\"isTablet\":true}",
        "3b618d549486f9e59bc43b5127d483a8\t{\"Platform_Version\":\"4.2\",\"isTablet\":true}",
        "3b7dbac4e5cab1fc50237041e27b165e\t{\"Platform_Version\":\"5.0\"}",
        "3b77fa80a8cf4061c7c43639f2d4c1fd\t{\"Platform_Version\":\"4.3\",\"isTablet\":true}",
        "3b777f77f11ed35362060074511ff224\t{\"Browser_Bits\":\"32\",\"Platform\":\"SymbianOS\"}",
        "3b1f5bd1c8adca582f36ce68025c63b2\t{\"Browser_Bits\":\"32\",\"Platform\":\"MacOSX\",\"Platform_Version\":\"10.9\"}",
        "3b1f0211acbd0c3441b5b8625ee0b560\t{\"Browser_Bits\":\"32\",\"Platform\":\"Win7\",\"Platform_Version\":\"6.1\",\"Win32\":true}",
        "3b47d4e0843b1f52b0068ce85b457517\t{\"Browser_Bits\":\"32\",\"Platform\":\"MacOSX\",\"Platform_Version\":\"10.10\"}",
        "3b0918fa14db1a36b0f4d216b6c13be2\t{\"Browser_Bits\":\"32\",\"Platform\":\"WinVista\",\"Platform_Version\":\"6.0\",\"Win32\":true}",
        "3b942bbfd65e3e8ff86efac94c2506f0\t[]",
        "3b06a10fbe8c5d90acd183ae1a3cdce1\t{\"Browser_Bits\":\"32\",\"Platform\":\"Linux\"}",
        "3b84e519b2561670d70e0bc4d8ef91ce\t{\"Browser_Bits\":\"32\",\"Platform\":\"Win8.1\",\"Platform_Version\":\"6.3\",\"Win32\":true}",
        "3b5afc8e0f70c1a49622ebe5be55b28c\t{\"Browser_Bits\":\"32\",\"Platform\":\"Win8\",\"Platform_Version\":\"6.2\",\"Win32\":true}",
        "3b15fb9daafd70d4ed86fefd7ba9fee7\t{\"Browser_Bits\":\"32\",\"Platform\":\"Linux\"}",
        "3b2a256588c5955f9d683f9c0145ef5e\t{\"Browser_Bits\":\"32\",\"Platform\":\"Linux\"}",
        "3bef08b3214f4600bfe0ff0ce709bb31\t{\"Browser_Bits\":\"32\",\"Platform\":\"MacOSX\",\"Platform_Version\":\"10.10\"}",
        "3b2288e6c9289e1e701e564a4f0dd9c7\t{\"Browser_Bits\":\"32\",\"Platform\":\"WinVista\",\"Platform_Version\":\"6.0\",\"Win32\":true}",
        "3b592e8f7fcb72425d393bfd4d8b70ec\t{\"Browser_Bits\":\"32\",\"Platform\":\"Win8\",\"Platform_Version\":\"6.2\",\"Win32\":true}",
        "3b8ac1de3cd3a4087f7c7d9916e0cdbd\t{\"Browser_Bits\":\"32\",\"Platform\":\"Win8.1\",\"Platform_Version\":\"6.3\",\"Win32\":true}",
        "3b5b1e51395b1203ab922e720b46bbe6\t{\"Browser_Bits\":\"32\",\"Platform\":\"WinXP\",\"Platform_Version\":\"5.1\",\"Win32\":true}",
        "3b637b7ebda65d1ad3ac0abee2298ba2\t{\"Browser_Bits\":\"32\",\"Platform\":\"FreeBSD\"}",
        "3baa922ec516703f4fa659dba72a80f4\t{\"Browser_Bits\":\"32\",\"Platform\":\"Win8\",\"Platform_Version\":\"6.2\",\"Win32\":true}",
        "3b659ac06170b3bd5674befa7cd587b0\t{\"Browser_Bits\":\"32\",\"Platform\":\"WinXP\",\"Platform_Version\":\"5.1\",\"Win32\":true}",
        "3bb828feae86855b0b2f12db368cfda7\t{\"Browser_Bits\":\"32\",\"Platform\":\"MacOSX\",\"Platform_Version\":\"10\"}",
        "3b8853cb9ed152fba7d53c9d5adcdaed\t{\"Browser_Bits\":\"32\",\"Platform\":\"WinXP\",\"Platform_Version\":\"5.1\",\"Win32\":true}",
        "3ba9cd868c765d9752f250a9d1303f5d\t{\"Browser_Bits\":\"32\",\"Platform\":\"Linux\"}",
        "3b09044915c98b551588bd53ebcc7e92\t{\"Browser_Bits\":\"32\",\"Platform\":\"Linux\"}",
        "3bd1beb9505c25c2119a51183ab89c7c\t{\"Browser_Bits\":\"32\",\"Platform\":\"MacOSX\",\"Platform_Version\":\"10.10\"}",
        "3bccdcd17ae71ee90e4ac9ef08c961fc\t{\"Browser_Bits\":\"32\",\"Platform\":\"WinXP\",\"Platform_Version\":\"5.2\",\"Win32\":true}",
        "3b84d25e55c71af3eb4a0651c5bbbc86\t{\"Browser_Bits\":\"32\",\"Platform\":\"MacOSX\",\"Platform_Version\":\"10.10\"}",
        "3ba2c7361a06ac942b6a44cd3fca1af2\t{\"Browser_Bits\":\"32\",\"Platform\":\"WinXP\",\"Platform_Version\":\"5.1\",\"Win32\":true}",
        "3ba77ccffd3711f054d1503de6ad6a27\t{\"Browser_Bits\":\"32\",\"Platform\":\"Linux\"}",
        "3bd0d00875800fa9747ab54ab350f870\t{\"Browser_Bits\":\"32\",\"Platform\":\"MacOSX\",\"Platform_Version\":\"10\"}",
        "3b898ba38de84ae93adbff4bd51cbb97\t{\"Browser_Bits\":\"32\",\"Platform\":\"MacOSX\",\"Platform_Version\":\"10\"}",
        "3bf268d021e3b7ea994f420398a7872d\t{\"Browser_Bits\":\"32\",\"Platform\":\"FreeBSD\"}",
        "3b8eb89114e8efc581e40782a1023808\t{\"Browser_Bits\":\"32\",\"Platform\":\"Linux\"}",
        "3bac047a82840e7441055bd80091ba6f\t{\"Browser_Bits\":\"32\",\"Platform\":\"Linux\"}",
        "3b3e09bd9b105cec3ec68c67cec4a6e6\t{\"Browser_Bits\":\"32\",\"Platform\":\"MacOSX\",\"Platform_Version\":\"10.10\"}",
        "3b1a9cd3854692312771adc21cba206e\t{\"Browser_Bits\":\"32\",\"Platform\":\"Win8.1\",\"Platform_Version\":\"6.3\",\"Win32\":true}",
        "3ba4d88777b3b245f116eeb7f81fbe76\t[]",
        "3b37a77fc429b9385a8c23281c1befcf\t{\"Browser_Bits\":\"32\",\"Platform\":\"WinXP\",\"Platform_Version\":\"5.2\",\"Win32\":true}",
        "3b6f45320cbabd8e8d67025cf78654e5\t{\"Browser_Bits\":\"32\",\"Platform\":\"WinXP\",\"Platform_Version\":\"5.2\",\"Win32\":true}",
        "3bdfaf56ae59d8dc5831753ce455c0dd\t{\"Browser_Bits\":\"32\",\"Platform\":\"Win8\",\"Platform_Version\":\"6.2\",\"Win32\":true}",
        "3bc3cba50a2fbb2d783b7b26da736a04\t{\"Browser_Bits\":\"32\",\"Platform\":\"SunOS\"}",
        "3bac5ccd230f52271bc35bedeaa73ac4\t{\"Browser_Bits\":\"32\",\"Platform\":\"iOS\",\"isTablet\":true}",
        "3bb6255a378c7bdfb4b1ead852389876\t{\"Browser_Bits\":\"32\",\"Platform\":\"Android\",\"isTablet\":true}",
        "3bada878ce6996baedfaa85745c09de3\t{\"Browser_Bits\":\"32\",\"Platform\":\"MacOSX\",\"Platform_Version\":\"10.9\"}",
        "3b83b11ffd0e0466b172fd5079024f1f\t{\"Browser_Bits\":\"32\",\"Platform\":\"WinXP\",\"Platform_Version\":\"5.2\",\"Win32\":true}",
        "3be35b0dd2676dd305b6d09c315ca999\t{\"Browser_Bits\":\"32\",\"Platform\":\"MacOSX\",\"Platform_Version\":\"10.9\"}",
        "3beec391f85615af165543a4f30eca81\t{\"Browser_Bits\":\"32\",\"Platform\":\"WinXP\",\"Platform_Version\":\"5.1\",\"Win32\":true}",
        "3bc5be4d3a3af172c10474d4b7cfd69d\t{\"Browser_Bits\":\"32\",\"Platform\":\"Linux\"}",
        "3b704b535a950654d32ea6ed83292be6\t{\"Browser_Bits\":\"32\",\"Platform\":\"Win8.1\",\"Platform_Version\":\"6.3\",\"Win32\":true}",
        "3bea6fdb0f47cb800273026856048234\t{\"Browser_Bits\":\"32\",\"Platform\":\"Win7\",\"Platform_Version\":\"6.1\",\"Win32\":true}",
        "3bef20c5be56d88c848f10c2849fd06f\t[]",
        "3b2f6b11737f211df650cb5979b286cf\t{\"isTablet\":true}",
        "3b39e56c694c01e1e5adc5dfd7859a48\t{\"Platform_Version\":\"4.2\"}",
        "3b9018727e08430be46d6026f9cf75e9\t{\"isTablet\":true}",
        "3bdb67b466252004e1f7c14064bef673\t[]",
        "3bdf4b414b6ba107224e5c21f70dafc4\t{\"Browser_Bits\":\"32\",\"Platform\":\"WinVista\",\"Platform_Version\":\"6.0\",\"Win32\":true}",
        "3bf3c4da7c9066f66c02e7f99353c17f\t{\"Browser_Bits\":\"32\",\"Platform\":\"WinXP\",\"Platform_Version\":\"5.2\",\"Win32\":true}",
        "3b6a695dd896bb7983cfd52fb90a7862\t{\"Platform_Version\":\"4.2\",\"isTablet\":true}",
        "3b11d34d2af67b90a3f64add0d0cd8ed\t{\"Platform_Version\":\"9.2\"}",
        "3bf538c94d8baff46e1831cb1df393a4\t{\"Platform_Version\":\"4.2\",\"isTablet\":true}",
        "3bb2af4d6478d0ab8700dc82173a81d3\t{\"Platform_Version\":\"4.4\",\"isTablet\":true}",
        "3bcdf327e0ffebac611239b2322bf4e5\t{\"Platform_Version\":\"4.2\",\"isTablet\":true}",
        "3bc3fa3da8cd4751bdf8b6958fcca5b6\t{\"Platform_Version\":\"4.2\",\"isTablet\":true}",
        "3bd67bfd6d3d49c49623eed5e6979620\t{\"Platform_Version\":\"4.2\",\"isTablet\":true}",
        "3b7b24c0e1a4abc22b4275e89f90e528\t{\"Platform_Version\":\"4.3\",\"isTablet\":true}",
        "3b29f1809e57cf4d3a30823e715c9c2d\t{\"Platform_Version\":\"4.4\",\"isTablet\":true}",
        "3b3ab99baafdb195a0aa910477244087\t{\"Platform_Version\":\"4.4\",\"isTablet\":true}",
        "3b34244909b4e0d68a4ad986c61b54da\t{\"Platform_Version\":\"4.3\",\"isTablet\":true}",
        "3b58cab947f25563f72381640e712909\t{\"Platform_Version\":\"9.1\"}",
        "3b6e90959f31d7c03119a618d5119b46\t{\"Platform_Version\":\"4.2\",\"isTablet\":true}",
        "3b64ea289ecf925a670869fe69ddc9be\t{\"Platform_Version\":\"4.4\",\"isTablet\":true}",
        "3b31d44e37296db14f274ae7b6c02c8e\t{\"Platform_Version\":\"4.3\",\"isTablet\":true}",
        "3bdd141ce5af12971716487c7d81fe21\t{\"Platform_Version\":\"4.2\",\"isTablet\":true}",
        "3b8b09f6711b28f33ee17d2c9ecfece8\t{\"Platform_Version\":\"4.4\",\"isTablet\":true}",
        "3b61f1431bd6bce0cbdfde12cd91159a\t{\"Platform_Version\":\"4.2\",\"isTablet\":true}",
        "3b9e76305df2a95f9b126dcab6713ac5\t{\"Platform_Version\":\"4.3\",\"isTablet\":true}",
        "3be8b5e528135105a4233e241005b337\t{\"Platform_Version\":\"5.1\",\"isTablet\":true}",
        "3b4229ce743bd10862bdd1b6a0d75b0c\t{\"Platform_Version\":\"4.2\",\"isTablet\":true}",
        "3b551f1f8b379fd0830fe0bab7ff530f\t{\"Browser_Bits\":\"32\",\"Platform\":\"FreeBSD\"}",
        "3b3d2b7ecdf003e51d0ebcc0d4e24ba4\t[]",
        "3babb1ddb150f6c758071bd9e9e8f79c\t{\"Platform_Version\":\"4.2\",\"isTablet\":true}",
        "3b54afb9d347f45864b2b8d855fc5e7f\t{\"Platform_Version\":\"9.1\"}",
        "3b6936af4bbba6f9adc1d5bb5bfa1257\t{\"Browser_Bits\":\"32\",\"Platform\":\"Win8\",\"Platform_Version\":\"6.2\",\"Win32\":true}",
        "3bed56c15f0505e2fa4cdb3edf36bdf2\t{\"Platform_Version\":\"4.2\"}",
        "3b9ccd5db389f82c73eaee2acc1679ac\t{\"Platform_Version\":\"4.2\",\"isTablet\":true}",
        "3ba14a70db625023c439503a124ccdd0\t{\"Platform_Version\":\"4.2\",\"isTablet\":true}",
        "3bd7383d5df364e3e69473027cfc16c5\t{\"Platform_Version\":\"4.2\",\"isTablet\":true}",
        "3b1f54a955ee63831f7c7edeaac71311\t{\"Browser_Bits\":\"32\",\"Platform\":\"Win32\",\"Win32\":true}",
        "3bc7128326e9321aa15eb0f0e29b87a0\t{\"Platform_Version\":\"5.0\",\"isTablet\":true}",
        "3b15d833901d91759dbeb1b98397902e\t{\"Platform_Version\":\"4.3\",\"isTablet\":true}",
        "3b36988473036f595c4a6e37e5da40dc\t{\"Platform_Version\":\"4.2\",\"isTablet\":true}",
        "3b4f9bfa3dea2377a85629ff3f267a03\t{\"Platform_Version\":\"8.4\"}",
        "3b564957cf68034f3c5eae1b89602667\t{\"Browser_Bits\":\"32\",\"Platform\":\"WinXP\",\"Platform_Version\":\"5.1\",\"Win32\":true}",
        "3b7f536723209d392d854683e97670e7\t{\"Platform_Version\":\"4.3\",\"isTablet\":true}",
        "3b53c7b5b38518a2ade370a19e14b55b\t{\"Platform_Version\":\"4.2\",\"isTablet\":true}",
        "3b6b45dec0d26a0ca98d82393434191f\t{\"Platform_Version\":\"4.3\",\"isTablet\":true}",
        "3b06f118610d8849c0198be73bceb11b\t{\"Platform_Version\":\"4.4\",\"isTablet\":true}",
        "3b7fd80e6bb410593df240ce75b45a04\t{\"Platform_Version\":\"4.2\",\"isTablet\":true}",
        "3b0c56ec19f3f3b0a942b0e9e70d51ab\t{\"Platform_Version\":\"9.0\",\"isTablet\":true}",
        "3ba079c7243cf9bee0487b95de08dc19\t{\"Platform_Version\":\"4.3\",\"isTablet\":true}",
        "3b90589aef5cbe3fb3ed33d693cae64e\t{\"Platform_Version\":\"4.3\",\"isTablet\":true}",
        "3bd7dd5f067c85e18003ed5425120ca2\t[]",
        "3b828c260342c84e5a9d7aaf9cf904fc\t{\"Browser_Bits\":\"32\",\"Platform\":\"WinVista\",\"Platform_Version\":\"6.0\",\"Win32\":true}",
        "3b6df640fb340da0dc19d3843d89a90a\t{\"Platform_Version\":\"9.2\",\"isTablet\":true}",
        "3be0ba2178ada856fc4b64ff555b683b\t{\"Browser_Bits\":\"32\",\"Platform\":\"Win8\",\"Platform_Version\":\"6.2\",\"Win32\":true}",
        "3bd3ba71bdc3fe537999ca348d93f275\t{\"Platform_Version\":\"4.3\",\"isTablet\":true}",
        "3b8eb067ba1443b6f2299eb8d5aca833\t{\"Platform_Version\":\"4.2\",\"isTablet\":true}",
        "3b98ce9a9ec32d03763b444c632760e9\t{\"Platform_Version\":\"4.3\",\"isTablet\":true}",
        "3b9fb08f6b65ef0bf3a8e56b21efff51\t{\"Platform_Version\":\"8.3\"}",
        "3b411b9a3e772cd55766c6c415e05055\t{\"Platform_Version\":\"4.3\",\"isTablet\":true}",
        "3b621d572f60a8f862752e40908850cf\t{\"Platform_Version\":\"4.2\",\"isTablet\":true}",
        "3b65d1afb97f6daafcb0db1c2241539f\t{\"Platform_Version\":\"7.0\"}",
        "3b5c2fe4f8e232099e54050bc45b69dd\t{\"Platform_Version\":\"5.0\",\"isTablet\":true}",
        "3b58d8511b2e4cbcc02b32bdea2524d2\t{\"Platform_Version\":\"4.2\"}",
        "3bd2342f8b49ab496844bc4c699efe33\t{\"Platform_Version\":\"4.4\",\"isTablet\":true}",
        "3bfa3cf6ff89b0c3893037fddb98cee4\t[]",
        "3b0bf0dffd1a3aa2aa4427cf31a48c8b\t{\"Browser_Bits\":\"32\",\"Platform\":\"Win32\",\"Win32\":true}",
        "3be1bf5c5be0b18a97c5eb7f82800a51\t{\"Platform_Version\":\"4.4\",\"isTablet\":true}",
        "3b7331869aa847390b360ad5fc0207bc\t{\"Platform_Version\":\"4.2\"}",
        "3b911a6de3809b7255fd27e4643d8bb8\t[]",
        "3b2bb70b1f94c4c8e7e1afca43a49846\t{\"Browser_Bits\":\"32\",\"Platform\":\"WinXP\",\"Platform_Version\":\"5.1\",\"Win32\":true}",
        "3bcdb84e34cce615fd4ee12f770e24ba\t{\"Platform_Version\":\"8.1\",\"isTablet\":true}",
        "3bbae6be70dba8c8c9f99115fca318c0\t{\"Platform_Version\":\"8.1\",\"isTablet\":true}",
        "3bceb30a32050323431b68df8d2ccab8\t{\"Platform_Version\":\"8.3\",\"isTablet\":true}",
        "3bdeac2a7a57d828b30bfe6b77da8cb0\t{\"Platform_Version\":\"10.1\"}",
        "3beb11b20bc5cd70eeaf79a799458024\t{\"Platform_Version\":\"9.1\"}",
        "3b32b2a4955484b043f5819337feebad\t{\"isMobileDevice\":true}",
        "3b4d92efa999227218b0b15d6c107b38\t{\"Browser_Bits\":\"32\",\"Platform\":\"Win8.1\",\"Platform_Version\":\"6.3\",\"Win32\":true}",
        "3b47d222efc1a6c7d36064984f24c26d\t{\"Platform_Version\":\"4.1\"}",
        "3bfa22c33bd6e013059777dd479ab88a\t{\"isTablet\":true}",
        "3b28a752a25f02c6731e71d89bb750df\t{\"Platform_Version\":\"10.3\"}",
        "3b7330a7328ab4d3ed85c1c34ff0ecce\t[]",
        "3bba56fb08e09b55c1c28628ab77dfdb\t[]",
        "3b4e6c9fdb5b9b344b400f697882b310\t{\"Browser_Bits\":\"32\",\"Platform\":\"WinXP\",\"Platform_Version\":\"5.1\",\"Win32\":true}",
        "3b8a0360502fa2017fff984a74998d26\t{\"Browser_Bits\":\"32\",\"Platform\":\"Win32\",\"Win32\":true}",
        "3b04e33e4de46d7c0a9878b4ffb15b3d\t{\"Browser_Bits\":\"32\",\"Platform\":\"Android\",\"Platform_Version\":\"4.3\"}",
        "3bd521726a4ac99528a602908d16f885\t{\"Platform_Version\":\"4.2\"}",
        "3ba0130cb259e37122b0526065b03bef\t{\"Browser_Bits\":\"32\",\"Platform\":\"SymbianOS\",\"isMobileDevice\":true}",
        "3b42039c55466202b1d999b553574a59\t{\"Platform_Version\":\"4.3\"}",
        "3b7df27472bab4eb2baad4c499958f9e\t{\"Platform_Version\":\"4.4\"}",
        "3b4d910cc3a833d652e642dec2548a95\t{\"Platform_Version\":\"4.2\",\"isTablet\":true}",
        "3bfa91c418853afa2ed1339708da7927\t{\"Platform_Version\":\"4.3\"}",
        "3b055b0625b2e30534032d331125a070\t{\"isMobileDevice\":true}",
        "3b561b998f11ec22c178a6e604754ca2\t{\"Browser_Bits\":\"32\",\"Platform\":\"iOS\",\"Platform_Version\":\"9.0\",\"isTablet\":true}",
        "3b67683bbe9d9a25ce8654893db45a10\t{\"Browser_Bits\":\"32\",\"Platform\":\"iOS\",\"Platform_Version\":\"10.0\"}",
        "3bf7a00826dad12f8db438228e43a0f6\t{\"Browser_Bits\":\"32\",\"Platform\":\"Brew\",\"Platform_Version\":\"2.0\"}",
        "3bba4a3e0261101aa943ac8a1ea6c78a\t{\"Browser_Bits\":\"32\",\"Platform\":\"SunOS\"}",
        "3b0e67644ed72622492c36e652d2357d\t{\"Platform_Version\":\"8.4\"}",
        "3bbaf2a9931ad236105a3a7230eb8944\t{\"Platform_Version\":\"8.3\"}",
        "3be4fb864ab9ee95ec0b60540809b572\t{\"Platform_Version\":\"9.0\",\"isTablet\":true}",
        "3b8ab7bc8e1e21d7d32ef10c55d93509\t{\"Platform_Version\":\"9.3\"}",
        "3b0e87e4f3d5a5b7e892fb935c5603be\t{\"Platform_Version\":\"9.2\"}",
        "3b945aed8a572c62317e1eaa9226c153\t{\"Platform_Version\":\"9.1\"}",
        "3b2a623be816ee93412f3169a9394c64\t{\"Platform_Version\":\"8.4\"}",
        "3b34276cba62e9d33eaa20b1db6fec8d\t{\"Platform_Version\":\"10.1\"}",
        "3b0a967b7d50a23aaa36e6042a88d4f3\t{\"Platform_Version\":\"8.3\",\"isTablet\":true}",
        "3bfe188a0dd7c50409b2949416661082\t{\"Platform_Version\":\"8.3\",\"isTablet\":true}",
        "3b665a9ef40402c149a1740da5a595e6\t{\"isTablet\":true}",
        "3b9cc5fd50b86b75bb1f564e264124dd\t{\"Platform_Version\":\"8.4\"}",
        "3b6cb94e0694a13bf4ff5c15c5640be5\t{\"Platform_Version\":\"9.1\"}",
        "3b1feb2fb58b7569cbca292eabee1d5e\t{\"Platform_Version\":\"8.3\"}",
        "3bcb8556d34c0c64d1e9ab1f7c9cacb6\t{\"Platform_Version\":\"8.1\"}",
        "3b67e345b6a2a741c724dd706fdb0765\t{\"Platform_Version\":\"8.1\",\"isTablet\":true}",
        "3bd5f68782d97e3beb387938545fbebd\t{\"Platform_Version\":\"10.1\"}",
        "3bb5c27afcf03587a5d4c5939002c2cb\t{\"Platform_Version\":\"7.1\"}",
        "3b9ccd359ec04195a346337fbbb7d987\t{\"Platform_Version\":\"7.0\",\"isTablet\":true}",
        "3ba2818090c79dd44c21877043b0f389\t{\"Platform_Version\":\"7.0\"}",
        "3bb6f5e3b5712fcff54de6add50678c2\t{\"Platform_Version\":\"10.9\"}",
        "3ba4ecac9f682b09294d274a56212a06\t{\"Browser_Bits\":\"32\",\"Platform\":\"MacOSX\",\"Platform_Version\":\"10.11\"}",
        "3b708642d2038ca5c08b4d92d9bfbe8f\t{\"Browser_Bits\":\"32\",\"Platform\":\"MacOSX\",\"Platform_Version\":\"10\"}",
        "3bb711356d486a631d1889d94e703002\t{\"Platform_Version\":\"9.0\",\"isTablet\":true}",
        "3be1941714801f468211cef296a5bd40\t{\"Platform_Version\":\"9.1\",\"isTablet\":true}",
        "3ba77469a6e14cef90410bdf7560e587\t[]",
        "3bd57c59cfdbe05ba4ee1bbe6028fda5\t{\"Platform_Version\":\"8.0\"}",
        "3b87bb69627a748fcf5ad55b85e91eff\t{\"Platform_Version\":\"10.2\"}",
        "3b7236a8f4439302c53972a58fd6b5bf\t{\"Browser_Bits\":\"32\",\"Platform\":\"Android\",\"isMobileDevice\":true}",
        "3babe4f1d5b2a76bd40813c7485d3ede\t{\"Platform_Version\":\"8.3\"}",
        "3b5ed7121b011fcf105492b765ee4723\t{\"Platform_Version\":\"10.3\",\"isTablet\":true}",
        "3b2c9ab2d139ce031f8b330b93ca2f0b\t{\"Platform_Version\":\"8.3\"}",
        "3b0bc9a8b862dcf0528efa978217b13b\t{\"isTablet\":true}",
        "3bd1b0ed3b77f947adc94b89a36e51cd\t{\"Platform_Version\":\"9.0\"}",
        "3b5320745d70279814d4a98303b3dd5d\t{\"Platform_Version\":\"9.0\",\"isTablet\":true}",
        "3bb3f5cd4cac4598ec2159f143485822\t{\"Platform_Version\":\"8.3\"}",
        "3b73e2d2afd26bd491934b1481388253\t{\"Platform_Version\":\"8.3\"}",
        "3b42dbdebfe16daafeaca7364ee49e57\t{\"Browser_Bits\":\"32\",\"Platform\":\"Unix\"}",
        "3beaa0948c49edf3379b41781373afef\t{\"Platform\":\"Win8.1\",\"Platform_Version\":\"6.3\"}",
        "3b86a39cd94b2b6cb00e5fe826ce8190\t[]",
        "3b155b3e39afc856572c8a1a594efca3\t{\"Browser_Bits\":\"32\",\"Platform\":\"FreeBSD\"}",
        "3bc676e635f8ffd77942a75beca79b5c\t{\"Platform_Version\":\"10.10\"}",
        "3b962ffdbe9e3a4ea41547e98ed761f5\t[]",
        "3bbde13b82015119ff3402751f44a808\t{\"Platform\":\"Linux\"}",
        "3b1bfb755c9756820a20af37562078d3\t{\"Browser_Bits\":\"32\",\"Platform\":\"WinVista\",\"Platform_Version\":\"6.0\",\"Win32\":true}",
        "3bb4948c3c61a9fe79d784e40482745e\t{\"Browser_Bits\":\"32\",\"Platform\":\"WinVista\",\"Platform_Version\":\"6.0\",\"Win32\":true}",
        "3bb9f8a26ab2533110fc4c6866524e89\t{\"Browser_Bits\":\"32\",\"Platform\":\"WinVista\",\"Platform_Version\":\"6.0\",\"Win32\":true}",
        "3bacae877a3f6499fc13ee75dabcf347\t{\"Browser_Bits\":\"32\",\"Platform\":\"Win32\",\"Win32\":true}",
        "3b69f41e10106454caaf10341fa6ce0c\t{\"Browser_Bits\":\"32\",\"Platform\":\"WinXP\",\"Platform_Version\":\"5.2\",\"Win32\":true}",
        "3bd2d39653f61e4b39ac3c16beb1bc8b\t{\"Browser_Bits\":\"32\",\"Platform\":\"Win32\",\"Win32\":true}",
        "3b88f140db5202dbcb9666953e611e2d\t{\"Browser_Bits\":\"32\",\"Platform\":\"WinXP\",\"Platform_Version\":\"5.2\",\"Win32\":true}",
        "3b7785696bb69bbf79f73057d78c492a\t{\"Browser_Bits\":\"32\",\"Platform\":\"WinXP\",\"Platform_Version\":\"5.2\",\"Win32\":true}",
        "3b472b666fdc0f4d07953be057808d21\t{\"Browser_Bits\":\"32\",\"Platform\":\"WinVista\",\"Platform_Version\":\"6.0\",\"Win32\":true}",
        "3b1d661b40a29305596514497ab3a1a5\t{\"Browser_Bits\":\"32\",\"Platform\":\"Win8\",\"Platform_Version\":\"6.2\",\"Win32\":true}",
        "3bae8c3c879ebaadd6ebf30c90d6f00d\t{\"Browser_Bits\":\"32\",\"Platform\":\"Win8.1\",\"Platform_Version\":\"6.3\",\"Win32\":true}",
        "3b928b791984e0b1d5ae128d4e71957d\t{\"Browser_Bits\":\"32\",\"Platform\":\"Win8\",\"Platform_Version\":\"6.2\",\"Win32\":true}",
        "3b7b3ff850be733e6941b1422f9be2c9\t{\"Browser_Bits\":\"32\",\"Platform\":\"Win8.1\",\"Platform_Version\":\"6.3\",\"Win32\":true}",
        "3b7bfaa293e093444c80620cef329204\t{\"Browser_Bits\":\"32\",\"Platform\":\"WinVista\",\"Platform_Version\":\"6.0\",\"Win32\":true}",
        "3bfb7bbac3cbd5161cc2291892915d47\t{\"Browser_Bits\":\"32\",\"Platform\":\"WinXP\",\"Platform_Version\":\"5.2\",\"Win32\":true}",
        "3ba5d99641362a0ce25241988ed6fac0\t{\"Browser_Bits\":\"32\",\"Platform\":\"WinXP\",\"Platform_Version\":\"5.1\",\"Win32\":true}",
        "3b374ca9c9a8f8becfb351734bdefe9f\t{\"Browser_Bits\":\"32\",\"Platform\":\"OS\\\/2\"}",
        "3b7e9ba2545c720979b16269ccea3c79\t{\"Browser_Bits\":\"32\",\"Platform\":\"Win7\",\"Platform_Version\":\"6.1\",\"Win32\":true}",
        "3bf874a6c8194827c0a4d2d275d238bc\t{\"Browser_Bits\":\"32\",\"Platform\":\"WinVista\",\"Platform_Version\":\"6.0\",\"Win32\":true}",
        "3b9d1b414fd23883a8ec29fe5e8d6f41\t{\"Browser_Bits\":\"32\",\"Platform\":\"Linux\"}",
        "3b3a57712ab18c5feaa6505ef698613e\t{\"Browser_Bits\":\"32\",\"Platform\":\"OS\\\/2\"}",
        "3bd8adb487188b7c921c995dda31d74a\t{\"Browser_Bits\":\"32\",\"Platform\":\"OS\\\/2\"}",
        "3b7cbefe82f59a3a3127272bef67d023\t{\"Browser_Bits\":\"32\",\"Platform\":\"MacOSX\",\"Platform_Version\":\"10\"}",
        "3b196e5a6a637b234e82f8b2f200df08\t{\"Browser_Bits\":\"32\",\"Platform\":\"Win7\",\"Platform_Version\":\"6.1\",\"Win32\":true}",
        "3b708562fba364d355df4812da173c61\t{\"Browser_Bits\":\"32\",\"Platform\":\"WinXP\",\"Platform_Version\":\"5.2\",\"Win32\":true}",
        "3b802f8e2d9243e0fe5d5ecd3e87e23b\t{\"Browser_Bits\":\"32\",\"Platform\":\"Win7\",\"Platform_Version\":\"6.1\",\"Win32\":true}",
        "3b36f8f9d03322e2a50b6f0432c9198a\t{\"Browser_Bits\":\"32\",\"Platform\":\"Win7\",\"Platform_Version\":\"6.1\",\"Win32\":true}",
        "3b04c3a82e59423ed6c84a0b7d0f0647\t{\"Browser_Bits\":\"32\",\"Platform\":\"WinXP\",\"Platform_Version\":\"5.2\",\"Win32\":true}",
        "3b7868aedd3b39793e5ddaf1159d1417\t{\"Browser_Bits\":\"32\",\"Platform\":\"Win8\",\"Platform_Version\":\"6.2\",\"Win32\":true}",
        "3b3c5989570ff5a6c15c17a1d6f22fae\t{\"Browser_Bits\":\"32\",\"Platform\":\"WinXP\",\"Platform_Version\":\"5.1\",\"Win32\":true}",
        "3b8d14500cd57d8aa741ec0884275568\t{\"Platform_Version\":\"8.1\"}",
        "3b27ad9c014e56d734525dad97497cb1\t{\"Browser_Bits\":\"32\",\"Platform\":\"Win10\",\"Platform_Version\":\"10.0\",\"Win32\":true}",
        "3b6bf194a4d8237a0c51154a57023c25\t{\"Platform_Version\":\"5.1\"}",
        "3bca5c74a0feb0ea79daf3616c512441\t{\"Browser_Bits\":\"32\",\"Platform\":\"Android\",\"isMobileDevice\":true}",
        "3bcf53ced212a0fd8828381ba6962acf\t[]",
        "3b1e66ad1d36d7912ecf9f5c58d82b16\t[]",
        "3b7da6a235fc940d0c3fef7fe6e72ba2\t[]",
        "3b5ca23a4f1d66bd79f7dd6842d8083f\t{\"Browser_Bits\":\"32\",\"Platform\":\"MacOSX\",\"Platform_Version\":\"10.11\"}",
        "3bd82b22d945c33a62dd214f22f2cac7\t{\"Browser_Bits\":\"32\",\"Platform\":\"WinVista\",\"Platform_Version\":\"6.0\",\"Win32\":true}",
        "3bf03464e0ba998b6354caa8ab535114\t{\"Browser_Bits\":\"32\",\"Platform\":\"Win10\",\"Platform_Version\":\"6.4\",\"Win32\":true}",
        "3bb062a7429a13a622d6f6f7a840378f\t{\"Browser_Bits\":\"32\",\"Platform\":\"SunOS\"}",
        "3bd4c5fedd8cc7b17d3f0ed2e22fe8fc\t{\"Browser_Bits\":\"32\",\"Platform\":\"HP-UX\"}",
        "3b3365cdc46594f9561f6a136ac67a6f\t{\"Browser_Bits\":\"32\",\"Platform\":\"WinXP\",\"Platform_Version\":\"5.1\",\"Win32\":true}",
        "3b90aea1886f49d46ee732c92657ef37\t{\"Browser_Bits\":\"32\",\"Platform\":\"DragonFly BSD\"}",
        "3ba9c6d9dc5db3cfff0874d7ad3a125c\t{\"Browser_Bits\":\"32\",\"Platform\":\"Win8\",\"Platform_Version\":\"6.2\",\"Win32\":true}",
        "3b0e507d4a0e212b732e817e880c5227\t{\"Browser_Bits\":\"32\",\"Platform\":\"WinVista\",\"Platform_Version\":\"6.0\",\"Win32\":true}",
        "3b5e97a82e3bfa70c1658e66c5cf4e3d\t{\"Browser_Bits\":\"32\",\"Platform\":\"SunOS\"}",
        "3b0e4fb7ae528987a663d4e34ad07347\t{\"Platform\":\"WinVista\",\"Platform_Version\":\"6.0\",\"Win32\":true}",
        "3bebe99a5166388cc566f90c5ccbd958\t[]",
        "3b06d38f3ecb2fe39ca91b0c29aad268\t{\"Platform_Version\":\"8.3\"}",
        "3b6792ee74be83d0f2dffda74578a437\t{\"Platform_Version\":\"7.0\"}",
        "3b1ded9dcfa37eb2e6060441f2b2acbb\t{\"Platform_Version\":\"8.0\"}",
        "3b96b9359e9b7d1e2af3a6bebdbc40af\t{\"Browser_Bits\":\"32\",\"Platform\":\"Win8\",\"Platform_Version\":\"6.2\",\"Win32\":true}",
        "3b06da07d95a204ac3b9da2f040833fd\t[]",
        "3b5e2edf7fb69fac68c61246728eb01a\t[]",
        "3b53df92820fe9533d1891b23e208c53\t[]",
        "3b322fa1825d2db0fc148b7481797217\t[]"
    ]
}