{
    "content": [
        "cc01a47eec5ad978ae961a468236ea7c\t14\tquicknews\\\/[\\d]\\.[\\d][\\d].*",
        "cc1a02def3dfdc90160b82fbd3e86040\t15\tflatarts_favico",
        "cc37486c84f0b761af4d0ce52ab81263\t11\tmnogosearch.*",
        "cc40a7c1ae30a19543406fd702ae9a89\t19\tfeeddler rss reader",
        "cc66124cd30ff802f7e7df6d6c975799\t10\tau\\-mic\\\/[\\d]\\.[\\d].*",
        "cc83ac616f9f54def6bc067e7c1b665e\t35\tfirefox\\\/[\\d][\\d]\\.[\\d].*anonymized by abelssoft.*",
        "cc90045d7eb29cc442b438dd57485830\t11\tpad\\-bot [\\d]\\.[\\d]",
        "cc97b08f2f0cbda0d659be9a6bdeb552\t5\tcusto.*",
        "cc9e22e3d6af6b800f6f343ddd4ec96e\t30\tandroiddownloadmanager generic",
        "cc9e22e3d6af6b800f6f343ddd4ec96e\t26\tandroiddownloadmanager [\\d]\\.[\\d]",
        "cc9e22e3d6af6b800f6f343ddd4ec96e\t22\tandroiddownloadmanager.*",
        "ccb342ee9b2250b53c8c5e9398c7c65e\t33\tbenq\\-morpheus\\\/[\\d]\\.[\\d] .* up\\.browser\\\/[\\d]\\.[\\d].*",
        "cce97280670efa86374cba514d5ac550\t13\tadnormcrawler.*"
    ]
}