{
    "content": [
        "09c4bd42efe1c7409e15fe4728770778\t[]",
        "090e53e9622eb3e29501c51007c758e9\t[]",
        "094dc4766f6db1fc340a656bfbe7477d\t[]",
        "0909a30342da98cef25d1c8760fc77b1\t[]",
        "099d8c801d73f23242c358d85c26bc66\t[]",
        "09f3bf7884082ec39b976d0c92c118b6\t{\"Platform_Version\":\"10.11\"}",
        "09b72e31e3413bdc01e91a03903db9e2\t[]",
        "090c3cd3dc289e6a6d1091efed1dbb57\t[]",
        "093ab57e0984780126ffd226a799b680\t[]",
        "09f83dd728d557635639b299f6e5a793\t{\"Browser_Bits\":\"32\",\"Platform\":\"Win10\",\"Platform_Version\":\"10.0\",\"Win32\":true}",
        "096fcd16a50e1e40ba20688650affef5\t[]",
        "0993510d61f73441185c8308cd334a8e\t{\"Browser_Bits\":\"32\",\"Platform\":\"Win10\",\"Platform_Version\":\"6.4\",\"Win32\":true}",
        "094062b1e9857a09ff2171941eb28b6c\t{\"Platform\":\"iOS\",\"Platform_Version\":\"8.0\",\"Win32\":false,\"isMobileDevice\":true,\"isTablet\":true}",
        "09b4c468470cda28c487f0e44e27954c\t{\"Platform\":\"Win10\",\"Platform_Version\":\"10.0\"}",
        "092c637e7d8b6f469b1612c7dff31730\t{\"Platform\":\"Linux\",\"Win32\":false}",
        "098efaae74ffe33db551ec034d576fd2\t{\"Platform\":\"iOS\",\"Platform_Version\":\"10.1\",\"Win32\":false,\"isMobileDevice\":true,\"isTablet\":true}",
        "09a4cde2e27f0a8656a37c874d5d9aae\t{\"Platform_Version\":\"9.2\",\"isTablet\":true}",
        "093e65b27fe78c39d58de638cf9158c5\t{\"Platform_Version\":\"4.2\"}",
        "09536fe2bfe772908de9d4308227745f\t{\"Platform_Version\":\"7.1\",\"isTablet\":true}",
        "09a5c5ff3b86538b40663bf425794661\t{\"Platform_Version\":\"10.0\",\"isTablet\":true}",
        "096fd2e2ce4d198d21040164cb2e4a28\t{\"Browser_Bits\":\"32\",\"Platform\":\"Win32\",\"Win32\":true}",
        "09516216ee754cd5df4210480aa11490\t{\"Platform_Version\":\"5.1\",\"isTablet\":true}",
        "09cd107d3b6c429e4e77d12474f0a323\t{\"Platform_Version\":\"4.4\",\"isTablet\":true}",
        "0994373d5d5aa84d065e2959df13c943\t{\"Platform_Version\":\"5.1\"}",
        "0911f73c18da3fd9006ab86110f97bc0\t[]",
        "092774e9b11b3d7271ef7298b0cebaf7\t{\"Platform\":\"iOS\",\"Platform_Version\":\"8.4\"}",
        "09df97c2ee6fff3ae5ad282ddd762207\t{\"Platform\":\"iOS\",\"Platform_Version\":\"10.3\"}",
        "0992a2633bf9fbf782416968e05882ba\t{\"Platform\":\"iOS\",\"Platform_Version\":\"7.1\"}",
        "094d57841b15109c3665a13132637a61\t[]",
        "0967cfcc7800262b6a0f17ba993e8972\t{\"Browser_Bits\":\"32\",\"Platform\":\"Win10\",\"Platform_Version\":\"10.0\",\"Win32\":true}",
        "09ad93232aaec4d69f83a803729f4119\t[]",
        "09aa7b7351ced33a15fee09c9a41d231\t{\"Platform_Version\":\"4.2\"}",
        "09e01eed6299bf2cd7247097cadb764f\t{\"Platform_Version\":\"4.4\"}",
        "09d892b943a1288d89da5421ed896146\t{\"Browser_Bits\":\"32\",\"Platform\":\"Android\",\"Platform_Version\":\"4.2\"}",
        "09cc44924846801dde528f901b567eb7\t[]",
        "09056a50e695145e298e5d2055a9d396\t{\"Platform_Version\":\"4.3\",\"isTablet\":true}",
        "096b4bc2e12bc246f34444f36011ddf2\t{\"Browser_Bits\":\"32\",\"Platform\":\"WinXP\",\"Platform_Version\":\"5.1\",\"Win32\":true}",
        "09f87decb02de544d937c6166e6d6a2f\t{\"Browser_Bits\":\"32\",\"Platform\":\"Win7\",\"Platform_Version\":\"6.1\",\"Win32\":true}",
        "093e2d4b91286bab4774ea777c82ba94\t{\"Platform\":\"iOS\"}",
        "0942bcaa59c0b7424af389bebbf96381\t{\"Platform\":\"Win8\",\"Platform_Version\":\"6.2\"}",
        "09329d89e11d5be938672d082e313722\t{\"Browser_Bits\":\"32\",\"Platform\":\"Linux\"}",
        "091d2a086998c32de3f036e464bb4582\t{\"Platform\":\"Win10\",\"Platform_Version\":\"10.0\",\"Win32\":true}",
        "094077d88687c93183f4292779c23f62\t{\"Platform\":\"Win10\",\"Platform_Version\":\"6.4\",\"Win32\":true}",
        "09133ec8195ce70a3008676cc12497b6\t{\"Platform\":\"WinXP\",\"Platform_Version\":\"5.1\",\"Win32\":true}",
        "09741db31d26b6ec0e4eef505b173ee4\t{\"Platform_Version\":\"8.3\"}",
        "099f55e5f1f8c54da664008aa5ffa771\t[]",
        "09c45764210572c8d93ea6c634959d75\t{\"Platform_Version\":\"4.3\",\"isTablet\":true}",
        "096909e5a4f96ed1698e2413fa94ff75\t{\"Platform_Version\":\"4.2\",\"isTablet\":true}",
        "09a7f687d3b52c90f302f91eaead713f\t{\"Platform_Version\":\"4.2\",\"isTablet\":true}",
        "09749997260400a362c69c1bdd7766c4\t{\"Platform_Version\":\"4.2\",\"isTablet\":true}",
        "0929b73b0cc11182fa645fe6162dd1a0\t{\"Platform_Version\":\"5.1\"}",
        "0992b692679738f62a948f9fddeeefea\t{\"Platform_Version\":\"4.4\",\"isTablet\":true}",
        "09ac4fba87a23a4ffb21d9f69efc5bca\t{\"Platform_Version\":\"4.2\",\"isTablet\":true}",
        "09cd748dba5031aa0bdcc8cbb563e3b3\t{\"Platform_Version\":\"4.4\"}",
        "098538b57d14c489ed14b238b21d49b7\t{\"Platform_Version\":\"4.3\",\"isTablet\":true}",
        "094ee83596fee2a1c878c9554561c75b\t{\"Platform_Version\":\"4.3\",\"isTablet\":true}",
        "095e5f2ed5f60976e9d50fa508b07e58\t{\"Platform_Version\":\"4.4\",\"isTablet\":true}",
        "099ba93bb96f61f4430089476d320065\t{\"Platform_Version\":\"4.2\",\"isTablet\":true}",
        "096d9538fb932b6e767a1cb9dfb71017\t{\"isMobileDevice\":true}",
        "09f9c123da6a2584d888a7495720e282\t{\"Browser_Bits\":\"32\",\"Platform\":\"Android\",\"Platform_Version\":\"5.0\"}",
        "0924350d8a11b50efb8d1e43700ceb20\t{\"Platform_Version\":\"9.3\",\"isTablet\":true}",
        "0984a7a8f19ceec99599b1bbb43da9f4\t{\"Platform_Version\":\"5.0\"}",
        "09a0fcb6e749df5bcf71c0b19e6e6743\t{\"Platform_Version\":\"10.2\"}",
        "09342d9d8b72ad98327b886544c04355\t{\"isTablet\":true}",
        "099a47b0512e0b94655af1a5b473952f\t{\"Platform_Version\":\"9.3\"}",
        "09fcad34a0693d7e6e787b818fc2919a\t{\"Platform_Version\":\"9.2\"}",
        "0993974dd8672ee819936230b01b7a61\t[]",
        "092cc1d77b5060daa24667abcf3aa14f\t{\"Platform_Version\":\"9.2\"}",
        "096c0885df8ec4c1a9e5a33f724000aa\t{\"Platform_Version\":\"10.1\"}",
        "09c3642429a56997a6c6dd26f5ddd692\t{\"Platform_Version\":\"6.0\"}",
        "092bd5281c3a1cf07687e41d2f7b4b9e\t{\"Platform_Version\":\"9.2\"}",
        "0918f44fc48030a756bb53c4209b41f4\t{\"Browser_Bits\":\"32\",\"Platform\":\"Win10\",\"Platform_Version\":\"10.0\",\"Win32\":true}",
        "094c0f8d8f7780f48d88274ef7a4dedc\t[]",
        "092fe0d3941b426a7b96164951f6619a\t{\"Platform_Version\":\"4.2\",\"isMobileDevice\":false}",
        "091942c23347a44745127daf810c864b\t{\"Platform_Version\":\"4.4\",\"isTablet\":true}",
        "09c39b7968b163fcf7e6b6f2abdfdb08\t{\"Browser_Bits\":\"32\",\"Platform\":\"MacOSX\",\"Platform_Version\":\"10.9\"}",
        "09345e4db82ae7a5aa829274629f072c\t{\"Platform_Version\":\"4.4\",\"isTablet\":true}",
        "09093784e4f13f115d2425c0360bfb32\t{\"Browser_Bits\":\"32\",\"Platform\":\"WinVista\",\"Platform_Version\":\"6.0\",\"Win32\":true}",
        "09e29766a4d58a0e55dbe5f47e21e818\t{\"Platform_Version\":\"8.2\"}",
        "09acbfe2c6d2c27470ca6d260929dbc5\t{\"Platform_Version\":\"10.0\",\"isTablet\":true}",
        "09515af6d142f728072782eb140b8f34\t{\"Platform_Version\":\"8.4\"}",
        "0959e16eb639da9bae275d92d5540de1\t{\"Platform_Version\":\"4.2\",\"isTablet\":true}",
        "0959fdc54b60e106b16dee9f4dcdcb21\t{\"Platform_Version\":\"4.4\",\"isTablet\":true}",
        "0990e23e6be926851225531aa0594edc\t{\"Platform_Version\":\"4.3\"}",
        "09ce609a187ceee96c8afec4152cb8fd\t{\"Platform_Version\":\"4.2\",\"isTablet\":true}",
        "0919e69be82c4edd1434d5ed87cfd10e\t{\"Platform_Version\":\"4.4\"}",
        "09bba11dc42a91fa6fd9bb662944d376\t{\"Platform_Version\":\"4.4\"}",
        "0970944227dcb889408e1f623037c164\t{\"Browser_Bits\":\"32\",\"Platform\":\"SymbianOS\",\"isTablet\":true}",
        "092356ae65516c6e9a1618b0e6428b04\t{\"Browser_Bits\":\"32\",\"Platform\":\"Android\",\"Platform_Version\":\"4.3\"}",
        "0924a25539008ae03162aacc8f9efb12\t{\"Browser_Bits\":\"32\",\"Platform\":\"FreeBSD\"}",
        "09a2526d81595c8e3fa54f486603ffde\t{\"Browser_Bits\":\"32\",\"Platform\":\"MacOSX\",\"Platform_Version\":\"10.9\"}",
        "0964f3fbe621ca607ddea0a4097e671c\t{\"Browser_Bits\":\"32\",\"Platform\":\"WinVista\",\"Platform_Version\":\"6.0\",\"Win32\":true}",
        "097e56704c751297fa7d7095d0ffcc22\t{\"Browser_Bits\":\"32\",\"Platform\":\"WinXP\",\"Platform_Version\":\"5.1\",\"Win32\":true}",
        "09a3179b4c7239fb585a6f4c978d7c9e\t{\"Browser_Bits\":\"32\",\"Platform\":\"WinXP\",\"Platform_Version\":\"5.1\",\"Win32\":true}",
        "09017996b34ff085d65c80464bc6db39\t{\"Browser_Bits\":\"32\",\"Platform\":\"MacOSX\",\"Platform_Version\":\"10\"}",
        "094d9043bba4ae1bd0c44616ccb99f56\t{\"Browser_Bits\":\"32\",\"Platform\":\"Win8.1\",\"Platform_Version\":\"6.3\",\"Win32\":true}",
        "09c910c0699f1f4529f86856d46be0c2\t{\"Browser_Bits\":\"32\",\"Platform\":\"Win8.1\",\"Platform_Version\":\"6.3\",\"Win32\":true}",
        "095051d340ea90cfe7bda53543c6e8a0\t{\"Browser_Bits\":\"32\",\"Platform\":\"WinXP\",\"Platform_Version\":\"5.2\",\"Win32\":true}",
        "09b29f061690072bee5cffea8d48d1c1\t{\"Browser_Bits\":\"32\",\"Platform\":\"Win8.1\",\"Platform_Version\":\"6.3\",\"Win32\":true}",
        "09eda3618a318689d9053d318f5a1b1e\t[]",
        "099d5bc6fcfc219988de15280e940858\t{\"Browser_Bits\":\"32\",\"Platform\":\"Win8\",\"Platform_Version\":\"6.2\",\"Win32\":true}",
        "09f03e2a9754435cf578365d27c68caf\t{\"Browser_Bits\":\"32\",\"Platform\":\"FreeBSD\"}",
        "09ef88864b1f6a46856f73b010c8d467\t{\"Browser_Bits\":\"32\",\"Platform\":\"Win8.1\",\"Platform_Version\":\"6.3\",\"Win32\":true}",
        "09e71c1dcef9fedf8e601ceec3b7675d\t{\"Browser_Bits\":\"32\",\"Platform\":\"WinXP\",\"Platform_Version\":\"5.2\",\"Win32\":true}",
        "097159943f57c6d294a9dacc3ccc02b4\t{\"Browser_Bits\":\"32\",\"Platform\":\"Linux\"}",
        "09439bbd537653cbbc9c19e64ecd9d0a\t{\"Browser_Bits\":\"32\",\"Platform\":\"WinXP\",\"Platform_Version\":\"5.2\",\"Win32\":true}",
        "092b906da550b4bf1327c7c02234dc63\t{\"Browser_Bits\":\"32\",\"Platform\":\"SunOS\"}",
        "09ee8ed0d28286c94b4165ab054990ad\t{\"Browser_Bits\":\"32\",\"Platform\":\"Win8\",\"Platform_Version\":\"6.2\",\"Win32\":true}",
        "091f238d2a98cee34bede9b114ffa119\t{\"Browser_Bits\":\"32\",\"Platform\":\"MacOSX\",\"Platform_Version\":\"10\"}",
        "0903f6a94d3668ed7a2b0d1c143263f0\t{\"Browser_Bits\":\"32\",\"Platform\":\"SunOS\"}",
        "097d2c5f263189af43e5b8e2ed548aa9\t{\"Browser_Bits\":\"32\",\"Platform\":\"Win8.1\",\"Platform_Version\":\"6.3\",\"Win32\":true}",
        "0993a09a7aa4a72dbd94781ebea7e834\t{\"Browser_Bits\":\"32\",\"Platform\":\"Win8\",\"Platform_Version\":\"6.2\",\"Win32\":true}",
        "095c0f405503e4053289c7902b7231ef\t[]",
        "096e814c5c785a48d2d789cd4fd08b96\t{\"Browser_Bits\":\"32\",\"Platform\":\"Win7\",\"Platform_Version\":\"6.1\",\"Win32\":true}",
        "0973a173721b8698fd4ac608ffe9fe31\t{\"Browser_Bits\":\"32\",\"Platform\":\"Linux\"}",
        "0980e5a16f91348846116fde1f10371d\t{\"Browser_Bits\":\"32\",\"Platform\":\"Linux\"}",
        "091c90cdf05c4398d89def5fd62ee2b8\t{\"Browser_Bits\":\"32\",\"Platform\":\"Win8\",\"Platform_Version\":\"6.2\",\"Win32\":true}",
        "096709a682450e38fd6a297647ee54c0\t{\"Browser_Bits\":\"32\",\"Platform\":\"FreeBSD\"}",
        "09d1beb714a307af171db542c2fc2559\t{\"Browser_Bits\":\"32\",\"Platform\":\"Win7\",\"Platform_Version\":\"6.1\",\"Win32\":true}",
        "097da6020c7eda7cdddb30897553864e\t{\"Browser_Bits\":\"32\",\"Platform\":\"FreeBSD\"}",
        "09bac9c6eb83d25d5f75bea9d6633d4d\t{\"Browser_Bits\":\"32\",\"Platform\":\"WinXP\",\"Platform_Version\":\"5.1\",\"Win32\":true}",
        "0923d7356276e6ddb99eb85ce283df35\t{\"Browser_Bits\":\"32\",\"Platform\":\"MacOSX\",\"Platform_Version\":\"10.9\"}",
        "099dbac133054218e258cbcc5443c692\t{\"Browser_Bits\":\"32\",\"Platform\":\"Linux\"}",
        "091010cb65373db402a0a678f2f1ad29\t{\"Browser_Bits\":\"32\",\"Platform\":\"MacOSX\",\"Platform_Version\":\"10\"}",
        "0939c133a10a131f559e1804001250f7\t{\"Browser_Bits\":\"32\",\"Platform\":\"MacOSX\",\"Platform_Version\":\"10.10\"}",
        "09e5109cc1466d8a7f33936d0b55cd31\t{\"Browser_Bits\":\"32\",\"Platform\":\"MacOSX\",\"Platform_Version\":\"10.10\"}",
        "096e36751de8af886755542f5880ee19\t{\"Browser_Bits\":\"32\",\"Platform\":\"Win8\",\"Platform_Version\":\"6.2\",\"Win32\":true}",
        "09b6ebcdbee0b55a4f2bb1ce59bfb94e\t{\"Browser_Bits\":\"32\",\"Platform\":\"Win8\",\"Platform_Version\":\"6.2\",\"Win32\":true}",
        "099f55ddbbf32052089f6e4e35830cc7\t{\"Browser_Bits\":\"32\",\"Platform\":\"MacOSX\",\"Platform_Version\":\"10.10\"}",
        "09475551ce48023347fd112255075832\t{\"Browser_Bits\":\"32\",\"Platform\":\"WinXP\",\"Platform_Version\":\"5.1\",\"Win32\":true}",
        "090d266e809167387c8f57525d1fd7a9\t{\"Browser_Bits\":\"32\",\"Platform\":\"Win8.1\",\"Platform_Version\":\"6.3\",\"Win32\":true}",
        "09bc7bab66b12106d24ed20aa154559b\t{\"Browser_Bits\":\"32\",\"Platform\":\"SunOS\"}",
        "097d781463c67c223f4fe44520052bd1\t{\"Platform_Version\":\"10.2\"}",
        "09f08af3bf27d3470d0636343dede887\t[]",
        "09b54ba0a0ecb166c5ae04fa9242596a\t{\"Browser_Bits\":\"32\",\"Platform\":\"Android\",\"Platform_Version\":\"5.1\"}",
        "09e3808e898a172838bf999d87d06e16\t{\"Browser_Bits\":\"32\",\"Platform\":\"MacOSX\",\"Platform_Version\":\"10.9\"}",
        "093e0b81093aa33bc51527d966dfbaf4\t{\"Browser_Bits\":\"32\",\"Platform\":\"WinXP\",\"Platform_Version\":\"5.2\",\"Win32\":true}",
        "091cc1ea921bafd1030623caec1941d1\t{\"Platform_Version\":\"4.2\",\"isTablet\":true}",
        "0972b12a621e7fdb173c801dea497053\t{\"Browser_Bits\":\"32\",\"Platform\":\"WinXP\",\"Platform_Version\":\"5.2\",\"Win32\":true}",
        "0909419f354a8ae40aa1dea0c12ecb65\t{\"Browser_Bits\":\"32\",\"Platform\":\"Win8.1\",\"Platform_Version\":\"6.3\",\"Win32\":true}",
        "09b9ac0d17d42fe4065711cb732c29db\t{\"Platform_Version\":\"7.1\"}",
        "0903e22a1d56f493dfa90b33a381831b\t{\"Platform_Version\":\"8.3\"}",
        "098fb0da2be26df8c4705524b72c1757\t{\"Browser_Bits\":\"32\",\"Platform\":\"Win8.1\",\"Platform_Version\":\"6.3\",\"Win32\":true}",
        "090483aba2bb379340a7489c0dae8c45\t[]",
        "098d1a56fee683b5a95d823689e8c731\t{\"Browser_Bits\":\"32\",\"Platform\":\"Win8\",\"Platform_Version\":\"6.2\",\"Win32\":true}",
        "09919a5d089c7e62d6a4309937daf95d\t{\"Platform_Version\":\"4.2\"}",
        "095247ccdb9ba87fa90bf29521fefc0f\t{\"Platform_Version\":\"5.1\"}",
        "09237b31d8e5596701bb7d40ef80699d\t{\"isTablet\":true}",
        "09b05bbd117ed4e2c2c12568ab2c7eb7\t{\"isTablet\":true}",
        "097db0a240f54410dc3b1c1c1ece8846\t[]",
        "09d0abc373e8c8710f4bb9b897134095\t{\"isTablet\":true}",
        "096cffef86282ec93605689041ec4421\t{\"Browser_Bits\":\"32\",\"Platform\":\"WinVista\",\"Platform_Version\":\"6.0\",\"Win32\":true}",
        "095a7548d182095049d89564bf51ea2b\t{\"Platform_Version\":\"5.0\",\"isTablet\":true}",
        "093fcf8b93be64313a7167a54d2fd8a2\t{\"Platform_Version\":\"4.4\",\"isTablet\":true}",
        "09b57b8cd790e522b9c35555d825ef59\t{\"Platform_Version\":\"4.2\",\"isTablet\":true}",
        "09fb847a82ab75c1fe05dab70b42ce17\t{\"Platform_Version\":\"7.0\"}",
        "09e69e0123a3cd18220e70a6979b80fe\t{\"Platform_Version\":\"4.2\",\"isTablet\":true}",
        "09aa2a5b46c8c25b98e6eb0ed18b86fd\t{\"Platform_Version\":\"4.3\",\"isTablet\":true}",
        "09104b0a370b1c0a0515b8f3d5809b01\t{\"Platform_Version\":\"4.4\",\"isTablet\":true}",
        "09b318da7f391594c0eb21bba7691ec2\t{\"Browser_Bits\":\"32\",\"Platform\":\"MacOSX\",\"Platform_Version\":\"10.10\"}",
        "09396cc046723fcb8e94f769fd921b46\t{\"Platform_Version\":\"4.4\",\"isTablet\":true}",
        "09ac1472588ebfa347270b070f923cec\t{\"Platform_Version\":\"4.2\",\"isTablet\":true}",
        "09e765d7b21199f70aadd2ff10a906e7\t{\"Platform_Version\":\"9.3\",\"isTablet\":true}",
        "09946d0f3e43f48b039100dfb8c50028\t{\"Browser_Bits\":\"32\",\"Platform\":\"Win10\",\"Platform_Version\":\"10.0\",\"Win32\":true}",
        "095138571064e01de68d394ddacda8c8\t{\"Platform_Version\":\"4.2\",\"isTablet\":true}",
        "09d38507cbd8c2279a0d77c8d4bc14e8\t{\"Platform_Version\":\"4.4\",\"isTablet\":true}",
        "09e0e21074390dfd5a9a91acc500b7d1\t{\"Platform_Version\":\"4.4\",\"isTablet\":true}",
        "092da994c77499dbe656d9a1b037a44a\t{\"Browser_Bits\":\"32\",\"Platform\":\"ChromeOS\"}",
        "098566f53a7672fac44b49695c1dfd11\t{\"Platform_Version\":\"4.2\",\"isTablet\":true}",
        "099e70a3f8e813f23e056c4ee6b257a4\t{\"Platform_Version\":\"4.4\"}",
        "09044986719908fd76d972163661c358\t{\"Platform_Version\":\"10.3\",\"isTablet\":true}",
        "095ed023c8e00d08c53e42ff9c0bb828\t[]",
        "09c2c974bda7ed25c69688c71fd6a714\t{\"Platform_Version\":\"4.4\",\"isTablet\":true}",
        "09830f684ac21178149b368a509ba6dc\t{\"Platform_Version\":\"4.3\",\"isTablet\":true}",
        "095247b056811d9f203384108b98ae19\t{\"Platform_Version\":\"4.4\",\"isTablet\":true}",
        "0994056a3bfa7cf42044b61b000ba607\t{\"Platform_Version\":\"4.2\",\"isTablet\":true}",
        "09580d3f3a0c5a8f6e3ff97bbaaf06c2\t{\"Platform_Version\":\"4.3\",\"isTablet\":true}",
        "09de3a351469b433713730dded6e96ab\t{\"Platform_Version\":\"4.3\",\"isTablet\":true}",
        "0971f33055e8bd203a9b8f93e00f998e\t{\"isTablet\":true}",
        "09758bccc7266cd65da54543825347cf\t{\"Platform_Version\":\"4.2\",\"isTablet\":true}",
        "0995d73adb571d8c922d398fc44d096a\t{\"Platform_Version\":\"4.2\",\"isTablet\":true}",
        "0941dbbb54203b6014101305ea99b205\t[]",
        "09e1d4e084cd879fd10179bc2360a5f8\t{\"Platform_Version\":\"4.2\",\"isTablet\":true}",
        "096a3d637f8f0a2403aff4ffa5f3c045\t[]",
        "09ac408089ae10723e2d8d3471e51eaa\t{\"Platform_Version\":\"4.3\",\"isTablet\":true}",
        "090b790550ea901b90a79c16001ecf8a\t{\"Platform_Version\":\"4.2\",\"isTablet\":true}",
        "09c2bc0701d8e2448a2a233ea20c6075\t{\"Platform_Version\":\"8.1\"}",
        "09dc3a7d08f1df99fb1a53cc7ef73faf\t{\"Browser_Bits\":\"32\",\"Platform\":\"WinXP\",\"Platform_Version\":\"5.1\",\"Win32\":true}",
        "0969b0044498d70e473eb8fc2f98e03b\t{\"Platform_Version\":\"4.3\",\"isTablet\":true}",
        "0905fe92532df9ef436af740ffb03b87\t{\"Platform_Version\":\"4.2\",\"isTablet\":true}",
        "09139417fee35654076e96a61ba27b2b\t{\"Platform_Version\":\"4.4\",\"isTablet\":true}",
        "091e106476ab7488aeee9151e4157186\t{\"Platform_Version\":\"4.3\",\"isTablet\":true}",
        "09045bdfdabd387f0ea79eefc802c70b\t{\"Platform_Version\":\"7.0\"}",
        "09c566f5e436d0f74ad6694310d2d3f1\t{\"Platform_Version\":\"9.1\"}",
        "09e74704553f6fbac3a6a0751db30caf\t{\"Platform_Version\":\"4.4\",\"isTablet\":true}",
        "09642a755125afc02ad3c95c7a681a24\t{\"Platform_Version\":\"4.2\",\"isTablet\":true}",
        "092ebd0977e0c5208264357a26cb61b0\t{\"Platform_Version\":\"4.2\",\"isTablet\":true}",
        "09499aaf7f696804c4c45eb485d75fb8\t{\"Browser_Bits\":\"32\",\"Platform\":\"Win7\",\"Platform_Version\":\"6.1\",\"Win32\":true}",
        "0974b91f40baa7772fd9b190e04e64ea\t{\"Platform_Version\":\"4.3\",\"isTablet\":true}",
        "09b1730e8dce443e5cd61b0a2a878313\t{\"Platform_Version\":\"4.2\",\"isTablet\":true}",
        "09de85d2d2a433181a8296ff88f53d79\t{\"Platform_Version\":\"10.3\",\"isTablet\":true}",
        "09a6074b757ad52292aeffa19168ca96\t{\"Platform_Version\":\"4.2\",\"isTablet\":true}",
        "09a894d845ca8a8e298daea4c579f902\t[]",
        "093060b708e2eceb96f908b613de9a03\t{\"Platform_Version\":\"4.2\",\"isTablet\":true}",
        "095a8fa191b0184cbdd214571ca3b769\t{\"Browser_Bits\":\"32\",\"Platform\":\"Linux\"}",
        "09088aa82de775ba8f0a4a63fc598064\t{\"Platform_Version\":\"4.4\",\"isTablet\":true}",
        "091bd58c83d35c57bdcc21642ad2f80b\t{\"Platform_Version\":\"8.0\",\"isTablet\":true}",
        "0904e7141b9ed62f5652cee395416cba\t{\"Platform_Version\":\"4.4\",\"isTablet\":true}",
        "09108ee5f14906be3cac4bc4864ebaed\t{\"Platform_Version\":\"4.4\",\"isTablet\":true}",
        "095451ccd8326f97ead82558d86b89e2\t{\"Platform_Version\":\"4.2\",\"isTablet\":true}",
        "0954811f0dac14b0e0531bd57be716ab\t{\"Platform_Version\":\"4.3\",\"isTablet\":true}",
        "092406b45ac3b8637d5d103682fb2d4a\t{\"Platform_Version\":\"4.3\",\"isTablet\":true}",
        "09481e9fabaec894be4cf8b583f7a2b1\t{\"Browser_Bits\":\"32\",\"Platform\":\"WinXP\",\"Platform_Version\":\"5.2\",\"Win32\":true}",
        "09dc3c69df7db0847c4283ab845b161a\t{\"Platform_Version\":\"8.0\"}",
        "0929f8f6186728282971f2e9db9436fc\t{\"Browser_Bits\":\"32\",\"Platform\":\"Android\",\"isMobileDevice\":true}",
        "09723554f02819fce48d1c6f460cd5ef\t{\"Platform_Version\":\"8.1\"}",
        "0937694ce9a958db35054482fe25a5ee\t{\"isTablet\":true}",
        "090eaeb162ad4f5808b499abc9a8a317\t{\"Platform_Version\":\"10.1\"}",
        "09d1dbb5b6dfb9f0fc8f3c93e94f638c\t{\"Platform_Version\":\"8.1\"}",
        "096c79ebeeba1ae54c52634055241be3\t{\"Platform_Version\":\"8.2\"}",
        "0938613a87180058a6526d6139e29e08\t{\"Browser_Bits\":\"32\",\"Platform\":\"Win8\",\"Platform_Version\":\"6.2\",\"Win32\":true}",
        "090e2ef096117f07fb22eb85ca29088d\t{\"Platform_Version\":\"5.1\",\"isTablet\":true}",
        "09c48191638697b2ac082dbee1dbcde1\t{\"Platform_Version\":\"5.0\"}",
        "09c32f6b622e13275a5de7cc30ac9463\t{\"Platform_Version\":\"10.0\"}",
        "093091ed60a17b02c2cb8d384830ab7d\t{\"Platform\":\"Win7\",\"Platform_Version\":\"6.1\"}",
        "096d1d7deade26e758ddbe6c9d8c4e98\t{\"Platform_Version\":\"7.0\"}",
        "09d3f269fd7be7a40155e9900bd58ab8\t{\"Browser_Bits\":\"32\",\"Platform\":\"Win7\",\"Platform_Version\":\"6.1\",\"Win32\":true}",
        "09a73c82a77fe14618566662661c01f2\t{\"isMobileDevice\":true}",
        "0912db23624e14e7d2fad7f7387af53c\t{\"Browser_Bits\":\"32\",\"Platform\":\"WinXP\",\"Platform_Version\":\"5.2\",\"Win32\":true}",
        "091096b0e1b3e0f6e075e4e43df87c5a\t{\"Browser_Bits\":\"32\",\"Platform\":\"iOS\",\"Platform_Version\":\"7.1\"}",
        "09808ee2a90b39436461141ef175cce4\t{\"Browser_Bits\":\"32\",\"Platform\":\"Linux\"}",
        "0959a48ff5574e70c31add8ad15fdd67\t{\"Browser_Bits\":\"32\",\"Platform\":\"iOS\",\"isMobileDevice\":true}",
        "0939be7f897576182712449a895dc544\t{\"Browser_Bits\":\"32\",\"Platform\":\"Android\",\"isMobileDevice\":true}",
        "0924b578d3f2059db0cd54d7c1c31a4f\t{\"Platform_Version\":\"4.3\"}",
        "091d8f8b17d3ebf8bca4e99842d3ebb1\t{\"Browser_Bits\":\"32\",\"Platform\":\"iOS\",\"Platform_Version\":\"10.1\"}",
        "09f7eb4e5b494315811cf0867d4fefca\t{\"Browser_Bits\":\"32\",\"Platform\":\"iOS\",\"Platform_Version\":\"8.3\"}",
        "093618802a4cdf189f8922851ea391c2\t{\"Browser_Bits\":\"32\",\"Platform\":\"WinPhone\"}",
        "097d4ea59b70104d1eb3afdc48fda7b9\t{\"isMobileDevice\":true}",
        "097d8770769623e17fb86f427c8ca164\t{\"Browser_Bits\":\"32\",\"Platform\":\"JAVA\"}",
        "09ce26505b92098365a6c71866e60b1b\t{\"Browser_Bits\":\"32\",\"Platform\":\"Linux\"}",
        "09bd0d004aa97e42a181db192b9de154\t{\"Platform_Version\":\"10.0\",\"isTablet\":true}",
        "09fda1474b048aa4aea0e0de5b141c7c\t{\"Platform_Version\":\"8.0\"}",
        "093911331224b41efca47c013028ecd6\t{\"Platform_Version\":\"8.0\",\"isTablet\":true}",
        "09d3b644ca52cb284c9cbbb4c6c30b0f\t{\"Platform_Version\":\"9.0\"}",
        "096f21a75f9609c7444ce7caef0401e8\t[]",
        "0984c92437a91af31dc0c58f8e30c384\t[]",
        "091c58b2edbe6b5fa49a25b6676ff19b\t{\"Platform_Version\":\"7.1\"}",
        "09fd657a7e1072f3c9669386657779d2\t{\"Platform_Version\":\"9.3\"}",
        "09ea8ee816bc184455129fd1bd195ebd\t{\"Platform_Version\":\"8.1\"}",
        "09e60b9353ef77b80fb3e08d41fd7fb7\t{\"Platform_Version\":\"8.2\"}",
        "09ddbf8086dd03965030deda65d94598\t{\"Platform_Version\":\"7.1\"}",
        "09feabee9cdec515233f344dc6010285\t{\"Browser_Bits\":\"32\",\"Platform\":\"iOS\",\"isMobileDevice\":true}",
        "0975dad48c5e839f80946a271cf333ef\t{\"Platform_Version\":\"10.1\"}",
        "09562f72c7ba338634ca9e8fa457cf58\t{\"Platform_Version\":\"8.4\"}",
        "09a8d35d8dacea4dd0114bdb8e406c57\t{\"Platform_Version\":\"8.1\"}",
        "094a2def83c06355ce6089642142b45b\t[]",
        "092106ab595985b644fa9160a89ac61d\t{\"Platform_Version\":\"9.3\"}",
        "09c8075e7994d2aec81b79848ae98b8f\t{\"Platform_Version\":\"7.0\",\"isTablet\":true}",
        "0900262634f31e7e22c57c09c1c0a324\t{\"Platform_Version\":\"10.0\"}",
        "09dd071180936a6966a770352473f69e\t{\"Platform_Version\":\"9.2\",\"isTablet\":true}",
        "096a3173b7567c97aab45ebfd612936f\t{\"Platform_Version\":\"9.1\"}",
        "098e453b1887c6ec900481b9fd619eed\t{\"Platform_Version\":\"9.0\",\"isTablet\":true}",
        "09a7089de3207f075689e67a96651ddb\t{\"Platform_Version\":\"9.0\",\"isTablet\":true}",
        "0979de86fbd1c0484995730f590c4b52\t{\"Platform_Version\":\"10.1\"}",
        "09f8e4dcd56cc83e35c2093635042709\t{\"Platform_Version\":\"9.0\"}",
        "0959990cfb0f23547a8155670ea35a34\t{\"Platform_Version\":\"7.0\",\"isTablet\":true}",
        "09aaf45ff1cd7415a78b296676eeae0a\t{\"Browser_Bits\":\"32\",\"Platform\":\"WinXP\",\"Platform_Version\":\"5.2\",\"Win32\":true}",
        "09d392d945f19a6bb891a310db1c1db3\t[]",
        "09ed73580902c5bb6b588575b4440132\t{\"Platform_Version\":\"9.2\",\"isTablet\":true}",
        "09df0dc86ff7018b339b05bfc6510bf4\t{\"Platform_Version\":\"8.1\"}",
        "09d3434a5d9d7b4377126c876bc605c4\t{\"Platform_Version\":\"7.1\"}",
        "099bcacfbe99fc475775dd4d7b2efd88\t{\"Platform_Version\":\"9.3\"}",
        "090b2b8cb075fc7db8a8901bcce06d3c\t{\"Platform_Version\":\"8.0\",\"isTablet\":true}",
        "09eefd42689667bdd7bfb1475d5288af\t{\"Platform_Version\":\"9.1\",\"isTablet\":true}",
        "09fcee86433655a11ff3d522be187f59\t{\"isTablet\":true}",
        "09694c1305c3135ef9fc2881f1516dfc\t{\"Platform_Version\":\"8.0\"}",
        "0964b5218635a1c51ff24543ee242514\t{\"Browser_Bits\":\"32\",\"Platform\":\"OpenVMS\"}",
        "0993dbeaaca48449e25ef89104e3d6c3\t{\"Browser_Bits\":\"32\",\"Platform\":\"Unix\"}",
        "097fc4b8bd4d87a1ad11424499234145\t[]",
        "09a4a0a4b80b9dc327bd944266377eaa\t{\"Platform\":\"Win7\",\"Platform_Version\":\"6.1\"}",
        "09627c68462a6b93ee51de7db761dba5\t{\"Browser_Bits\":\"32\",\"Platform\":\"Win32\",\"Win32\":true}",
        "098cf558c300944c088c6a3dbfa7d5ec\t{\"Browser_Bits\":\"32\",\"Platform\":\"WinVista\",\"Platform_Version\":\"6.0\",\"Win32\":true}",
        "09527659bc9dcb2404643038b7ac7db2\t{\"Browser_Bits\":\"32\",\"Platform\":\"Win32\",\"Win32\":true}",
        "098cf1288d34280af0cc89a072ff0927\t{\"Browser_Bits\":\"32\",\"Platform\":\"WinXP\",\"Platform_Version\":\"5.1\",\"Win32\":true}",
        "094abeb2b3d3338a8ca3cad919c74975\t{\"Browser_Bits\":\"32\",\"Platform\":\"WinXP\",\"Platform_Version\":\"5.2\",\"Win32\":true}",
        "092f07d1d7c5f55893f611e533733e2a\t{\"Browser_Bits\":\"32\",\"Platform\":\"WinXP\",\"Platform_Version\":\"5.1\",\"Win32\":true}",
        "099be9c1ec8d50b0fb515c630b20204f\t{\"Browser_Bits\":\"32\",\"Platform\":\"Win7\",\"Platform_Version\":\"6.1\",\"Win32\":true}",
        "09eb4887e4f15ed303e16fdd07b20e70\t{\"isTablet\":true}",
        "09374edc9ebb7121b82f1ab2435b3fd3\t{\"Browser_Bits\":\"32\",\"Platform\":\"macOS\",\"Platform_Version\":\"10.12\"}",
        "094cd1fe6d1e494a31f0d685ce3bbba3\t{\"Browser_Bits\":\"32\",\"Platform\":\"MacOSX\",\"Platform_Version\":\"10.11\"}",
        "0967af66686265e6d4d2e913cd1c9db3\t[]",
        "09027293935bceea67471281eab94487\t{\"Platform\":\"WinVista\",\"Platform_Version\":\"6.0\"}",
        "0929871ec45096ce5d9c4ccbee740ebe\t{\"Browser_Bits\":\"32\",\"Platform\":\"WinVista\",\"Platform_Version\":\"6.0\",\"Win32\":true}",
        "092664acafa64de94b8772994ca5374e\t{\"Browser_Bits\":\"32\",\"Platform\":\"WinRT8\",\"Platform_Version\":\"6.2\"}",
        "0982a1259c5df0733169c9e86b87d727\t{\"Browser_Bits\":\"32\",\"Platform\":\"Win8\",\"Platform_Version\":\"6.2\",\"Win32\":true}",
        "094b1305e7959e87569ec31335ed5806\t{\"Browser_Bits\":\"32\",\"Platform\":\"WinXP\",\"Platform_Version\":\"5.1\",\"Win32\":true}",
        "091839232a400fab50d439403569d0df\t{\"Browser_Bits\":\"32\",\"Platform\":\"Win8.1\",\"Platform_Version\":\"6.3\",\"Win32\":true}",
        "09c182b3ac3884eae742d76a2cd8f5b4\t{\"Browser_Bits\":\"32\",\"Platform\":\"Win7\",\"Platform_Version\":\"6.1\",\"Win32\":true}",
        "0997197dbb606074b23b81b851cc7962\t{\"Browser_Bits\":\"32\",\"Platform\":\"MacOSX\",\"Platform_Version\":\"10.10\"}",
        "09851b8e0386fcb651bdfa5927822ad9\t{\"Browser_Bits\":\"32\",\"Platform\":\"FreeBSD\"}",
        "09d403be5867555790df07debb893f73\t{\"Browser_Bits\":\"32\",\"Platform\":\"OpenBSD\"}",
        "092f2aee54f6b5fbc5bc36cdcac0db70\t{\"Browser_Bits\":\"32\",\"Platform\":\"Linux\"}",
        "090dd0e1ea4690c6e8a0f446af3b23f0\t{\"Browser_Bits\":\"32\",\"Platform\":\"MacOSX\",\"Platform_Version\":\"10.10\"}",
        "09d5816b75c19f33dbcadc416541beb1\t{\"Browser_Bits\":\"32\",\"Platform\":\"Win7\",\"Platform_Version\":\"6.1\",\"Win32\":true}",
        "0927f1aa878e92ec39cf48d2bb536ee4\t{\"Browser_Bits\":\"32\",\"Platform\":\"MacOSX\",\"Platform_Version\":\"10\"}",
        "095893cdf14ea14de78e5c242aba6575\t{\"Browser_Bits\":\"32\",\"Platform\":\"Win32\",\"Win32\":true}",
        "093c1b162ffac3cc52495bb539d496c8\t{\"Platform_Version\":\"9.2\",\"isTablet\":true}",
        "09788a642543cc259a5b6e7afe1d8131\t{\"Platform_Version\":\"8.2\"}",
        "0980d0b57e2adfcb9ae35e841c80fa16\t{\"Browser_Bits\":\"32\",\"Platform\":\"WinVista\",\"Platform_Version\":\"6.0\",\"Win32\":true}",
        "09b9a381d5ba71bfe20d65069ab32410\t{\"Browser_Bits\":\"32\",\"Platform\":\"WinXP\",\"Platform_Version\":\"5.1\",\"Win32\":true}",
        "09c347dfa4c227934fafda627dce637b\t{\"Browser_Bits\":\"32\",\"Platform\":\"WinXP\",\"Platform_Version\":\"5.2\",\"Win32\":true}",
        "092531901b0645fd6140daa027812fda\t{\"Browser_Bits\":\"32\",\"Platform\":\"WinVista\",\"Platform_Version\":\"6.0\",\"Win32\":true}",
        "095ab27cc53c0041416b54c5ca848c34\t{\"Platform\":\"FirefoxOS\"}",
        "09972bb46265c2bb7e90532778b9c0e3\t{\"Browser_Bits\":\"32\",\"Platform\":\"Win8.1\",\"Platform_Version\":\"6.3\",\"Win32\":true}",
        "09f2b67be5244e6537148ef8c83cb54e\t{\"Platform\":\"Win10\",\"Platform_Version\":\"6.4\"}",
        "0978adb4b7b297a4e7b95f4f098b9b60\t[]",
        "099c3132df69c92d5386e839deea8c74\t{\"Browser_Bits\":\"32\",\"Platform\":\"Win10\",\"Platform_Version\":\"6.4\",\"Win32\":true}",
        "091641646becc277cf852c6b206e0541\t{\"Platform_Version\":\"4.3\"}",
        "098dcb03d5682a3169308b8d4fd9ba49\t{\"Platform_Version\":\"4.3\"}",
        "092dd8a1b367e29109f2505b99f65311\t{\"Platform_Version\":\"6.1\",\"isTablet\":true}",
        "09916a787e88aaa5fe5266541c1f7689\t{\"Browser_Bits\":\"32\",\"Platform\":\"Win10\",\"Platform_Version\":\"10.0\",\"Win32\":true}",
        "09e8297d461e7e92bc37be453fd9c985\t{\"Browser_Bits\":\"32\",\"Platform\":\"MacOSX\",\"Platform_Version\":\"10.11\"}",
        "090c146c75f1d57bd419e5d662508860\t{\"Browser_Bits\":\"32\",\"Platform\":\"Win10\",\"Platform_Version\":\"6.4\",\"Win32\":true}",
        "097fbb5917acf4288ded71c97514c027\t{\"Browser_Bits\":\"32\",\"Platform\":\"Win8\",\"Platform_Version\":\"6.2\",\"Win32\":true}",
        "09fd7f2391629c50f8fd65b179605595\t{\"Browser_Bits\":\"32\",\"Platform\":\"Win8\",\"Platform_Version\":\"6.2\",\"Win32\":true}",
        "09eb1ab21e83103fcb0a8ca0f7140729\t{\"Browser_Bits\":\"32\",\"Platform\":\"MacOSX\",\"Platform_Version\":\"10\"}",
        "09f31566ceb140aaa32ce542403045c4\t{\"Browser_Bits\":\"32\",\"Platform\":\"Win10\",\"Platform_Version\":\"10.0\",\"Win32\":true}",
        "09cbd233093999907f49df3cc8516d31\t{\"Browser_Bits\":\"32\",\"Platform\":\"WinXP\",\"Platform_Version\":\"5.2\",\"Win32\":true}",
        "09b6b5b255c7d8e9e0e84c298f08c430\t{\"Browser_Bits\":\"32\",\"Platform\":\"MacOSX\",\"Platform_Version\":\"10\"}",
        "099ea27689b0cc662d3fd484fab2284d\t{\"Browser_Bits\":\"32\",\"Platform\":\"Win10\",\"Platform_Version\":\"6.4\",\"Win32\":true}",
        "098c9f140a33e76c4c9ff43d064d66e3\t{\"Browser_Bits\":\"32\",\"Platform\":\"WinXP\",\"Platform_Version\":\"5.1\",\"Win32\":true}",
        "0942b1080af5cd969007a35f7ef604ee\t{\"Browser_Bits\":\"32\",\"Platform\":\"HP-UX\"}",
        "091d92a82768f8aab9564a24a7a4a3d3\t{\"Browser_Bits\":\"32\",\"Platform\":\"WinXP\",\"Platform_Version\":\"5.2\",\"Win32\":true}",
        "094c7165d6a5df788a5e121d92587f0f\t{\"Browser_Bits\":\"32\",\"Platform\":\"SunOS\"}",
        "092aaad00a8b529c0dc1b3ce297815a8\t{\"Browser_Bits\":\"32\",\"Platform\":\"WinXP\",\"Platform_Version\":\"5.1\",\"Win32\":true}",
        "090adecc517e0e90202f38dea6cf4f78\t{\"Browser_Bits\":\"32\",\"Platform\":\"WinXP\",\"Platform_Version\":\"5.1\",\"Win32\":true}",
        "09914de51cd44a8aeeabb1d20b381284\t{\"Browser_Bits\":\"32\",\"Platform\":\"DragonFly BSD\"}",
        "0958cb3882348c49e90458f832c143ba\t{\"Browser_Bits\":\"32\",\"Platform\":\"MacOSX\",\"Platform_Version\":\"10\"}",
        "0921e9160afb2c096cc6008052e5547c\t{\"Platform\":\"WinXP\",\"Platform_Version\":\"5.1\",\"Win32\":true}",
        "098f721337435888b9bd78809f467a4d\t[]",
        "094dd72f5df977e8b39abd62d64e39db\t[]",
        "094929ebf72b4d7f1b73d1b3f607a94c\t{\"Browser_Bits\":\"32\",\"Platform\":\"Linux\"}",
        "09e200f8938054160e0f76e44bd405da\t{\"Browser_Bits\":\"32\",\"Platform\":\"MacOSX\",\"Platform_Version\":\"10.10\"}",
        "098aae7f3231c4fd45621db4285b00a9\t{\"Browser_Bits\":\"32\",\"Platform\":\"MacOSX\",\"Platform_Version\":\"10\"}",
        "0948da3a330f15af34e7935004bf839f\t[]",
        "093431839c7607182c3b6b39e2bed75f\t{\"Platform_Version\":\"5.0\"}",
        "09f7517601821ed4e0e8f4aa8cbd96df\t{\"Browser_Bits\":\"32\",\"Platform\":\"iOS\",\"Platform_Version\":\"9.0\"}",
        "094c1322a1efb15f7f21e50b3a9bb37d\t[]",
        "09c513d82e3cd4925f334074fbd53320\t[]",
        "09473409b2f10c6219beae3ebe74f9d3\t[]",
        "09faa58b4fd04710cc07612f185cdfa5\t{\"Platform_Version\":\"7.0\"}",
        "09299dce3ae53338246424558bee96ba\t{\"Browser_Bits\":\"32\",\"Platform\":\"OS\\\/2\"}"
    ]
}