{
    "content": [
        "f11eee334cb7674ab31a6ce07bc68a0b\t22\tdorado wap\\-browser\\\/[\\d]\\.[\\d].*",
        "f11eee334cb7674ab31a6ce07bc68a0b\t18\tdorado wap\\-browser.*\tdorado wap browser",
        "f12a938424c4bb7300d54048270ab992\t11\tturnitinbot.*\tturnitinbot",
        "f13db23f94f9fbb90fc0485c51c5fa7c\t26\tfastsearch web crawler for.*",
        "f13dfb3d6ca8c6c0fa1db3455b825289\t25\tsie\\-s[\\d][\\d]\\\/[\\d]. up\\.browser\\\/[\\d]\\.[\\d].*",
        "f16aca16bcfe853c01699c0b55ac2bbe\t12\techoping\\\/[\\d]\\.[\\d].*",
        "f19e5d92fd30c2dd3060b65edfabc568\t40\tblitzbot@tricus\\.com \\(mozilla compatible\\).*",
        "f1a81d782dea6a19bdca383bffe68452\t23\tspider \\(tspyyp@tom\\.com\\)",
        "f1b57ba2f77b4b794abbd5bb27666376\t9\twebsauger.*",
        "f1b8b12b0bdecf3e55bed281f3e0e5ca\t13\twordpress\\\/[\\d]\\.[\\d].*",
        "f1d13a1cf2571006468a99f021b01791\t16\tappengine\\-google.*"
    ]
}