{
    "content": [
        "21718fbbd8b029cd8c3e7804a99aa30d\t{\"Version\":\"0\",\"Released\":\"Mon, 30 Oct 2017 20:22:51 +0000\",\"Format\":\"php\",\"Type\":\"CUSTOM\"}",
        "21bf2c3e1ab316913c5f30e936a0685b\t[]",
        "21110f55eb0a0e9279c2f5f2150fb003\t{\"Browser_Bits\":\"32\",\"Platform\":\"Win8\",\"Platform_Version\":\"6.2\",\"Win32\":true}",
        "21e20b2d7db69846caa528b26f50dbbe\t[]",
        "216030a263b389652216dbd200e9c7f5\t[]",
        "21e683fe41373820184b02be67f05d1a\t[]",
        "2140451381c83186c96dfddb91189147\t{\"Browser_Bits\":\"32\",\"Platform\":\"Linux\"}",
        "21aafb32e79c28b43b26220993f11747\t[]",
        "21328cd397bfe01deabcf4f97883efe6\t{\"Platform_Version\":\"5.1\"}",
        "2199e5daf3785cd908ea9552acd2687c\t{\"Platform_Version\":\"4.4\"}",
        "21af58c6814ae3d3bb36a1f48c3641ac\t{\"Browser_Bits\":\"32\",\"Platform\":\"WinXP\",\"Platform_Version\":\"5.2\",\"Win32\":true}",
        "21e57e15b2b04c85e0acb55a3bafab56\t{\"Browser_Bits\":\"32\",\"Platform\":\"Win8\",\"Platform_Version\":\"6.2\",\"Win32\":true}",
        "2139a53c9277e832e8e17b57e9f97199\t{\"Platform\":\"iOS\",\"Platform_Version\":\"9.0\",\"Win32\":false,\"isMobileDevice\":true,\"isTablet\":true}",
        "21d841d6fccca28865c39adda8947039\t{\"Platform\":\"MacOSX\",\"Platform_Version\":\"10.9\",\"Win32\":false}",
        "216a58b3614a3dde7e0bd894a67e5026\t{\"Platform\":\"MacOSX\",\"Platform_Version\":\"10.10\",\"Win32\":false}",
        "21e33998119d86481ff07f4d85cd14bd\t{\"Platform\":\"Win8.1\",\"Platform_Version\":\"6.3\"}",
        "21ad97c56eee73f6181199190923b097\t{\"Platform_Version\":\"9.1\",\"isTablet\":true}",
        "219ceac92e07b223dcc2f93e4a1b2855\t{\"Platform_Version\":\"8.4\",\"isTablet\":true}",
        "211e3b48ff2c4830539e2d77af5211b0\t{\"Browser_Bits\":\"32\",\"Platform\":\"Android\",\"Platform_Version\":\"4.2\",\"isTablet\":true}",
        "2102a1a43177516e0d63d94fd8dfd52b\t{\"Browser_Bits\":\"32\",\"Platform\":\"iOS\",\"Platform_Version\":\"8.3\"}",
        "2174087ddb163cf2ab59c199e68ab230\t{\"Browser_Bits\":\"32\",\"Platform\":\"MacOSX\",\"Platform_Version\":\"10.10\"}",
        "2126d51827cbce9158d6d178e6c9320f\t{\"Platform\":\"iOS\",\"isTablet\":true}",
        "21a3cc7ae51e09da95715f8ebadad3b2\t{\"Platform\":\"iOS\"}",
        "21609d29608d74b72415d6152377b261\t{\"Platform\":\"iOS\"}",
        "21280f0fbe349748169a503542789842\t{\"Platform\":\"iOS\",\"Platform_Version\":\"7.0\"}",
        "219f722efa700455976ee939f96c86fa\t{\"Platform_Version\":\"4.2\",\"isTablet\":true}",
        "219682107036f96d04f66963fe6adfc7\t{\"Platform_Version\":\"4.3\"}",
        "2167afe78b8f682a899078eb69f91434\t{\"Platform\":\"iOS\",\"Platform_Version\":\"8.4\"}",
        "21217ea60755d08f9006b4afcdfeff71\t{\"Platform\":\"iOS\",\"Platform_Version\":\"8.2\"}",
        "211620811f96947cddec9300705b1d7a\t{\"Platform_Version\":\"5.1\"}",
        "2195ab303a4f09956bc0b41ce9e644eb\t{\"Platform_Version\":\"4.3\"}",
        "21472582d42364b4dc66363f7be2394f\t{\"Platform_Version\":\"5.0\"}",
        "21da78c82bc41189d4c8894a36c15132\t{\"Browser_Bits\":\"32\",\"Platform\":\"Android\",\"Platform_Version\":\"4.3\"}",
        "21e4d6c7f5696b330cff5c1339718306\t{\"Browser_Bits\":\"32\",\"Platform\":\"Android\"}",
        "21ccfa310884ef5b25f77f1454650f36\t{\"Browser_Bits\":\"32\",\"Platform\":\"WinPhone8\",\"Platform_Version\":\"8.0\"}",
        "21c57e3be80a010e211fdf335852babb\t{\"Browser_Bits\":\"32\",\"Platform\":\"SymbianOS\"}",
        "21dc3165b15d6a01d43a39d41e07f1a6\t{\"Platform\":\"iOS\",\"Platform_Version\":\"10.3\"}",
        "219c082a55c3f1e2d140a3ce8e9e309a\t{\"Platform\":\"Win10\",\"Platform_Version\":\"10.0\"}",
        "2161b0342146d1413350f50fb5e71683\t{\"Platform\":\"Win10\",\"Platform_Version\":\"10.0\"}",
        "21a38590daca356c9ba2b069b79d13a3\t{\"Platform\":\"MacOSX\",\"Platform_Version\":\"10.9\",\"Win32\":false}",
        "219148ce7e689395463a84e5d89e30f4\t{\"Platform_Version\":\"5.0\"}",
        "21b4133aaac3490417c14766f668cd50\t{\"Platform\":\"Linux\",\"Win32\":false}",
        "219f603129f19ca091d1fa783c9e8793\t{\"Platform\":\"Win10\",\"Platform_Version\":\"6.4\",\"Win32\":true}",
        "217e3b7a327333fb617e116f763e46e1\t{\"Platform\":\"Win7\",\"Platform_Version\":\"6.1\",\"Win32\":true}",
        "210c39cc242ff12b30440dc00d668521\t{\"Platform\":\"WinVista\",\"Platform_Version\":\"6.0\",\"Win32\":true}",
        "219bf444763e8455add8aa2a4bdc5534\t{\"Platform\":\"Win10\",\"Platform_Version\":\"10.0\",\"Win32\":true}",
        "21cba6febf971c6ef7bd6a9367ec8554\t{\"Platform\":\"Win8\",\"Platform_Version\":\"6.2\",\"Win32\":true}",
        "215659f7888b8dfd4462319f7fd43b0f\t{\"Platform_Version\":\"10.3\"}",
        "21b79e2a031043ffadf414a79052f03b\t{\"Platform_Version\":\"4.2\",\"isTablet\":true}",
        "21a6df8311f747d8bd9e2d74faf0a717\t{\"Browser_Bits\":\"32\",\"Platform\":\"Linux\"}",
        "21a161951728dcaf3236f287b2abb174\t{\"Platform_Version\":\"4.4\",\"isTablet\":true}",
        "219841adc9bf0bedfe2e91ce40b464c0\t{\"Platform_Version\":\"4.3\",\"isTablet\":true}",
        "215e99c688fe55f4f26dd1c475fca21d\t{\"Platform_Version\":\"4.3\",\"isTablet\":true}",
        "2164a6f51b308b2b3ce3510f690a46b3\t{\"Platform_Version\":\"4.2\",\"isTablet\":true}",
        "21884a1d0e4d7ea4a4f7aacca89c1dce\t{\"Browser_Bits\":\"32\",\"Platform\":\"Android\",\"Platform_Version\":\"6.0\"}",
        "21eb213553842547e03c138838ad1670\t{\"Browser_Bits\":\"32\",\"Platform\":\"Android\"}",
        "2109cecc7fdf60e6ca0e3179c5cabf28\t{\"Browser_Bits\":\"32\",\"Platform\":\"Android\",\"Platform_Version\":\"7.1\"}",
        "212e8b6b8c0e24e2764d774f916b9093\t{\"Platform_Version\":\"4.2\",\"isTablet\":true}",
        "21e83cdc6b4d23c96874f6353b4d0774\t{\"Platform_Version\":\"8.3\"}",
        "21f2e902ce1971138d2290b860512dea\t[]",
        "2170d8b0230f0ccf437c00d42473abcd\t{\"Browser_Bits\":\"32\",\"Platform\":\"Win32\",\"Win32\":true}",
        "21db4d724173fd2da2c6be14270f0572\t{\"Platform_Version\":\"9.1\"}",
        "21555266846d4b10b341f2851b95a67e\t{\"Platform_Version\":\"9.0\"}",
        "21505b690d8dacd251cd1b30ee0144cc\t{\"Platform_Version\":\"9.1\"}",
        "215ce016bb732168ebc3c42413613c12\t{\"Platform_Version\":\"10.2\"}",
        "2106ec182dd1a916a7a66bc1302c2e4f\t{\"Browser_Bits\":\"32\",\"Platform\":\"MacOSX\",\"Platform_Version\":\"10\"}",
        "2115fb5673bd7219dd96423964ba85cd\t{\"Platform_Version\":\"4.4\",\"isTablet\":true}",
        "21002041eb690aee0ab5c3784ee58b60\t{\"Platform_Version\":\"4.4\",\"isTablet\":true}",
        "210a3a340ab82e2c5a182dd51a0c13d6\t{\"Browser_Bits\":\"32\",\"Platform\":\"WinXP\",\"Platform_Version\":\"5.1\",\"Win32\":true}",
        "210b6a3feb9f40ea3de5fd7a89f1544f\t{\"Platform_Version\":\"4.4\",\"isTablet\":true}",
        "218bc17f8e4ca4036687aed863cc0228\t{\"Platform_Version\":\"4.2\"}",
        "211a0fe991025cefaa86e0b8b04b5772\t{\"Platform_Version\":\"4.2\",\"isTablet\":true}",
        "217f03a3cf1e9399677422b2d10e49ef\t[]",
        "211c031d1728583861ea09a2ff24c30f\t[]",
        "214ae7747a4bd0f642f60640780ec3e2\t{\"Browser_Bits\":\"32\",\"Platform\":\"Android\",\"isMobileDevice\":true}",
        "21d0407465e2a9b017a456ae8fe3c377\t{\"Platform_Version\":\"4.4\",\"isTablet\":true}",
        "21b36a533399d4118eb20e78732ef825\t{\"Platform_Version\":\"4.4\",\"isTablet\":true}",
        "21e6bae02c070b13c2b0f10b7d1f0b5c\t{\"Browser_Bits\":\"32\",\"Platform\":\"Android\"}",
        "2110af268828895d02a2c26277ed76c2\t{\"Browser_Bits\":\"32\",\"Platform\":\"Android\"}",
        "214962ef85dc31713809bbbc98bb147d\t{\"Browser_Bits\":\"32\",\"Platform\":\"Android\",\"isMobileDevice\":true}",
        "21c41e6725551578f80087a5a5be571a\t{\"Browser_Bits\":\"32\",\"Platform\":\"WinXP\",\"Platform_Version\":\"5.1\",\"Win32\":true}",
        "21d07d2fec84f05f37d5f1da1bc48934\t{\"Browser_Bits\":\"32\",\"Platform\":\"Maemo\"}",
        "21706827a600cb2e20607bb6caf365e2\t{\"Browser_Bits\":\"32\",\"Platform\":\"Win7\",\"Platform_Version\":\"6.1\",\"Win32\":true}",
        "21a281f5d28ffb6358b03ac3f9c40549\t{\"Browser_Bits\":\"32\",\"Platform\":\"WinVista\",\"Platform_Version\":\"6.0\",\"Win32\":true}",
        "21d8a1d4fac15c0a4badf2e3655ec8c5\t{\"Browser_Bits\":\"32\",\"Platform\":\"WinXP\",\"Platform_Version\":\"5.2\",\"Win32\":true}",
        "21241de6c056e231408a966f4dbf8b50\t{\"Browser_Bits\":\"32\",\"Platform\":\"FreeBSD\"}",
        "21b5d5cdf9c77660a81b4e53ad9a1cc7\t{\"Browser_Bits\":\"32\",\"Platform\":\"Linux\"}",
        "215e0f3346c94d26b5821e8d95fe8c71\t{\"Browser_Bits\":\"32\",\"Platform\":\"MacOSX\",\"Platform_Version\":\"10.10\"}",
        "2125cd7dd82ca664b75db0f6d3effcbd\t{\"Browser_Bits\":\"32\",\"Platform\":\"FreeBSD\"}",
        "21b579276b81e9a1d165da134e16e7a0\t{\"Browser_Bits\":\"32\",\"Platform\":\"WinXP\",\"Platform_Version\":\"5.1\",\"Win32\":true}",
        "214fe5c4cda43f9b8943aca952e076b6\t{\"Browser_Bits\":\"32\",\"Platform\":\"Linux\"}",
        "216501066fb5cafda8e05d2952d22e32\t{\"Browser_Bits\":\"32\",\"Platform\":\"Win7\",\"Platform_Version\":\"6.1\",\"Win32\":true}",
        "21e193bfd9db4270d8ae8d526ce0f74d\t{\"Browser_Bits\":\"32\",\"Platform\":\"Linux\"}",
        "21b51f86cfbfa1cce9490af506d6efef\t{\"Browser_Bits\":\"32\",\"Platform\":\"Win8.1\",\"Platform_Version\":\"6.3\",\"Win32\":true}",
        "21ace3ba375a90cf084fb9ad0d01b1cc\t{\"Browser_Bits\":\"32\",\"Platform\":\"Win8.1\",\"Platform_Version\":\"6.3\",\"Win32\":true}",
        "21c58c8c6d9dded87bdd94f93b41f521\t{\"Browser_Bits\":\"32\",\"Platform\":\"Win8\",\"Platform_Version\":\"6.2\",\"Win32\":true}",
        "21a99151a41f4920411139eec4d8ad9c\t{\"Browser_Bits\":\"32\",\"Platform\":\"WinXP\",\"Platform_Version\":\"5.1\",\"Win32\":true}",
        "219960e45a4602e4646d5f97b5780828\t{\"Browser_Bits\":\"32\",\"Platform\":\"MacOSX\",\"Platform_Version\":\"10.9\"}",
        "21a3c90ee4203fba90c29f50f87d9e67\t{\"Browser_Bits\":\"32\",\"Platform\":\"Win8\",\"Platform_Version\":\"6.2\",\"Win32\":true}",
        "211e3bb50c6230f0bfb9aabe1d759c71\t{\"Browser_Bits\":\"32\",\"Platform\":\"MacOSX\",\"Platform_Version\":\"10\"}",
        "219d731c483126ddb85e324a9e520a89\t[]",
        "21d3832ef5cc8029f7cce1e77c9b7e0e\t{\"Browser_Bits\":\"32\",\"Platform\":\"Win8.1\",\"Platform_Version\":\"6.3\",\"Win32\":true}",
        "21e3c4a6c4aceead023701d9c30cca52\t{\"Browser_Bits\":\"32\",\"Platform\":\"Win8\",\"Platform_Version\":\"6.2\",\"Win32\":true}",
        "21c5d798bde41176610048bd2cedc0e1\t{\"Browser_Bits\":\"32\",\"Platform\":\"Win32\",\"Win32\":true}",
        "21581881431c9cf82b5c82e5478d5916\t{\"Browser_Bits\":\"32\",\"Platform\":\"Win7\",\"Platform_Version\":\"6.1\",\"Win32\":true}",
        "21230d21e481fc4a48f2ec6daf0b4926\t{\"Browser_Bits\":\"32\",\"Platform\":\"WinXP\",\"Platform_Version\":\"5.2\",\"Win32\":true}",
        "2122a14246f9abe7239f9865373732b3\t{\"Browser_Bits\":\"32\",\"Platform\":\"WinVista\",\"Platform_Version\":\"6.0\",\"Win32\":true}",
        "2125e21b0d2efa2e138c6ed547eb1505\t{\"Browser_Bits\":\"32\",\"Platform\":\"Win8.1\",\"Platform_Version\":\"6.3\",\"Win32\":true}",
        "21bddf7f2c6a7ef278371b04e7e41e1f\t{\"Browser_Bits\":\"32\",\"Platform\":\"WinXP\",\"Platform_Version\":\"5.2\",\"Win32\":true}",
        "21454fcba9388e8daf5e2281a88b3c4c\t{\"Browser_Bits\":\"32\",\"Platform\":\"WinXP\",\"Platform_Version\":\"5.2\",\"Win32\":true}",
        "21e787eb29ee4c5b2dee05857edff45e\t{\"Browser_Bits\":\"32\",\"Platform\":\"MacOSX\",\"Platform_Version\":\"10.10\"}",
        "216b250d0505fcfae2539625b2edbff5\t{\"Browser_Bits\":\"32\",\"Platform\":\"Win8.1\",\"Platform_Version\":\"6.3\",\"Win32\":true}",
        "215c5e711dd9456722b2e330497ce57e\t{\"Browser_Bits\":\"32\",\"Platform\":\"MacOSX\",\"Platform_Version\":\"10\"}",
        "217420ba9a9ae40c2ad0bf17f49c3d72\t{\"Browser_Bits\":\"32\",\"Platform\":\"WinXP\",\"Platform_Version\":\"5.2\",\"Win32\":true}",
        "214e6e3b16b2226e00117a4ccb69ebf3\t{\"Browser_Bits\":\"32\",\"Platform\":\"Linux\"}",
        "216a156e965e1430cf75c6c14d303be3\t{\"Browser_Bits\":\"32\",\"Platform\":\"MacOSX\",\"Platform_Version\":\"10.9\"}",
        "21ccf7bd269f0fa47508473e707b6338\t{\"Browser_Bits\":\"32\",\"Platform\":\"SunOS\"}",
        "2190af448af15a1ed12635e1e2c66dea\t{\"Browser_Bits\":\"32\",\"Platform\":\"iOS\",\"Platform_Version\":\"8.1\"}",
        "212de2726d2095b87df79dfa531f5ada\t{\"Browser_Bits\":\"32\",\"Platform\":\"iOS\",\"Platform_Version\":\"8.1\"}",
        "21de36081cf56b71dee6990896475867\t{\"Browser_Bits\":\"32\",\"Platform\":\"iOS\",\"Platform_Version\":\"8.3\"}",
        "2157c332362a34fd3982c54324fcb072\t{\"Browser_Bits\":\"32\",\"Platform\":\"iOS\",\"Platform_Version\":\"8.2\"}",
        "217d8f0ca62f1c5e62fd7283bb196d01\t{\"Browser_Bits\":\"32\",\"Platform\":\"Android\",\"Platform_Version\":\"4.4\",\"isTablet\":true}",
        "21fe69adfdf414e7f8a6c907e2f526c3\t{\"Browser_Bits\":\"32\",\"Platform\":\"WinXP\",\"Platform_Version\":\"5.1\",\"Win32\":true}",
        "21e1ccb5452ca5015e907f92417149a8\t{\"Browser_Bits\":\"32\",\"Platform\":\"Linux\"}",
        "21b2ab6e3cb8f1fa29962183d7571802\t[]",
        "2116931f0811066ba2a2c9f602c7a1a9\t{\"Browser_Bits\":\"32\",\"Platform\":\"Win8.1\",\"Platform_Version\":\"6.3\",\"Win32\":true}",
        "2106c367b944cf0081ee2101fbcb23e8\t{\"Browser_Bits\":\"32\",\"Platform\":\"MacOSX\",\"Platform_Version\":\"10\"}",
        "21d30d06c247b669288e5278bf5cad93\t{\"Platform_Version\":\"4.3\",\"isTablet\":true}",
        "21d54c39d1c7894b11b802f70e2dde6e\t{\"isTablet\":true}",
        "2177311432f67b70e8f32503c4e16b53\t{\"Browser_Bits\":\"32\",\"Platform\":\"MacOSX\",\"Platform_Version\":\"10.11\"}",
        "218565d430a8d5514d56709daa39d873\t{\"Browser_Bits\":\"32\",\"Platform\":\"MacOSX\",\"Platform_Version\":\"10.10\"}",
        "21fbc85af446302a5eac69415327e18d\t[]",
        "21e0905b08e506d37d6488a173d56d27\t{\"Platform_Version\":\"4.2\",\"isTablet\":true}",
        "214695d6debadcff73d2ddd6b3b6d981\t{\"Platform_Version\":\"4.2\",\"isTablet\":true}",
        "21001b9590d1c5b76dfe2abf2e702c5e\t{\"Platform_Version\":\"9.2\",\"isTablet\":true}",
        "2109aabd43e795814bbf69751bf6349f\t{\"Platform_Version\":\"4.4\",\"isTablet\":true}",
        "21a434b9c5545a3bad8bacdac09243f0\t[]",
        "210c41bcf9f391b84c3ee4390cb18340\t{\"Browser_Bits\":\"32\",\"Platform\":\"iOS\",\"isMobileDevice\":true}",
        "2199d4eb4dafeb0a34c946517657b2cd\t{\"Platform_Version\":\"4.2\",\"isTablet\":true}",
        "2141bc3fc5b55608f8077e5b197c1958\t{\"Platform_Version\":\"9.3\"}",
        "21b9d77575ac8395016304bcc5c69c88\t{\"Platform_Version\":\"4.2\",\"isTablet\":true}",
        "215768dfffbb482427dcb4422f300bfc\t{\"Platform_Version\":\"4.3\",\"isTablet\":true}",
        "211623edf52ab3eaff95b7175fb986d8\t{\"Platform_Version\":\"4.2\",\"isTablet\":true}",
        "21e891ab63e30acfe4db16d520ce7f56\t{\"Platform_Version\":\"4.2\",\"isTablet\":true}",
        "2111547b6d036f55fe3076954cdf8a9e\t{\"Platform_Version\":\"4.3\",\"isTablet\":true}",
        "219a9b711edab132e270329c1eab2437\t{\"Platform_Version\":\"4.3\",\"isTablet\":true}",
        "21a74f5e29def41a8a587893fb96b679\t{\"Platform_Version\":\"4.2\",\"isTablet\":true}",
        "2163ab4f84a0ea7672832c4ec6cd6061\t{\"isTablet\":true}",
        "219953b6bb094e0a077c698f41083a6e\t{\"Platform_Version\":\"9.0\",\"isTablet\":true}",
        "21f4c840aeb048805eb0426c651f7a9c\t{\"Platform_Version\":\"4.3\",\"isTablet\":true}",
        "21964dba493f280c635d5a2c6c0b6080\t[]",
        "2164a69dec18a40b210f028ab6578c48\t{\"Browser_Bits\":\"32\",\"Platform\":\"MacOSX\",\"Platform_Version\":\"10\"}",
        "2177b66a54f26406b72a2e633039103a\t{\"Platform_Version\":\"4.4\",\"isTablet\":true}",
        "214f70a0b67a94cac3a9c7be521d9902\t{\"Platform_Version\":\"4.4\",\"isTablet\":true}",
        "21732cffaefd4c2f25d60d1aca7fc340\t{\"Platform_Version\":\"4.4\",\"isTablet\":true}",
        "216042da6ca5b699c05825478fb31e88\t{\"Platform_Version\":\"4.4\",\"isTablet\":true}",
        "218951ce25eee77d77be2c7d556bcaa4\t{\"Platform_Version\":\"4.2\",\"isTablet\":true}",
        "21b7d2fae5e421da45e9b4d7d5a70763\t{\"Platform_Version\":\"4.3\",\"isTablet\":true}",
        "214dbc6449f6485cc550b55c0c1567db\t{\"Platform_Version\":\"4.4\",\"isTablet\":true}",
        "2172c073750034501ce65f7856c65d01\t{\"Browser_Bits\":\"32\",\"Platform\":\"WinXP\",\"Platform_Version\":\"5.2\",\"Win32\":true}",
        "211158ff0152ba7ba91f7a097f2277d5\t{\"Platform_Version\":\"4.2\",\"isTablet\":true}",
        "21299382b0e30dc2f5b2e99eefa9a34d\t{\"Platform_Version\":\"10.0\"}",
        "21d66ed1f21eddc0b470e66df2ed6708\t{\"Platform_Version\":\"4.4\",\"isTablet\":true}",
        "219227e45ba566cc0ab3d9dd0a92ae65\t{\"Platform_Version\":\"4.4\",\"isTablet\":true}",
        "21af207735b34318e88a8bf4675e2734\t{\"Platform_Version\":\"4.4\",\"isTablet\":true}",
        "21822de7704eb08348b4b9f9443d5249\t{\"Platform_Version\":\"4.2\",\"isTablet\":true}",
        "21984f295179f796bb3582f4315e3cbc\t{\"Platform_Version\":\"4.4\",\"isTablet\":true}",
        "2124b5d23435c8b17031ba0e25634da5\t{\"Platform_Version\":\"4.2\",\"isTablet\":true}",
        "21ba6e39a2c820135e2c4c0b221dcb9b\t{\"Platform_Version\":\"4.2\",\"isTablet\":true}",
        "216d13bc02f3ae78ed36c3ea4a77eb05\t[]",
        "21fb8dbd5cbec960d33c0d2dff0cacc2\t{\"Platform_Version\":\"4.4\",\"isTablet\":true}",
        "215d9bde0e3f0f4706a94fa0852a0c9b\t{\"Platform_Version\":\"4.4\",\"isTablet\":true}",
        "21fae2aae4ad3554a16a196c7fcb6cdc\t{\"Browser_Bits\":\"32\",\"Platform\":\"MacOSX\",\"Platform_Version\":\"10.9\"}",
        "219af6a04df39caaf73ab85ea4879a7c\t{\"Platform_Version\":\"4.4\",\"isTablet\":true}",
        "21a86531a5e76a06cab2c8672bc8a609\t{\"Platform_Version\":\"4.3\",\"isTablet\":true}",
        "21241aad771a41b0faac301e39909924\t{\"Platform_Version\":\"4.2\",\"isTablet\":true}",
        "214c2b2be7c71601eab2a404664217f5\t{\"Platform_Version\":\"4.4\"}",
        "214b3e1aabc199e44ce834efa7212c06\t{\"Platform_Version\":\"8.0\"}",
        "21e1f8d7d4811a0872a7a08ac270192e\t{\"Platform_Version\":\"7.0\"}",
        "21e9fede9b9b1543ff69990ff6becd2f\t{\"Platform_Version\":\"9.1\"}",
        "218cd06e3bb1eb80b8b1a69ba94cd982\t{\"Browser_Bits\":\"32\",\"Platform\":\"Win32\",\"Win32\":true}",
        "21405adfe25bf5d0d2c6575f7b6dd94c\t{\"Platform_Version\":\"4.3\",\"isTablet\":true}",
        "211701e8969508a6f7ba4ae672799e2d\t{\"Platform_Version\":\"4.3\",\"isTablet\":true}",
        "214ebd126150121c2bec332242f562b2\t{\"Platform_Version\":\"4.2\",\"isTablet\":true}",
        "2190a1ab658e6ec53266374354bc5634\t{\"Platform_Version\":\"4.2\",\"isTablet\":true}",
        "21172cf4645d0fd60d12837c3beabb8d\t{\"Platform_Version\":\"4.4\",\"isTablet\":true}",
        "217c4aa8f071c4681aed421f8a509d18\t{\"Browser_Bits\":\"32\",\"Platform\":\"Win32\",\"Win32\":true}",
        "2148955e86727816572cf28c888351d0\t{\"Platform_Version\":\"4.3\",\"isTablet\":true}",
        "21d13a07dbf973778b0958b3499b3d43\t{\"Browser_Bits\":\"32\",\"Platform\":\"MacOSX\",\"Platform_Version\":\"10.9\"}",
        "21a3a49b4a022ea9b1c0dc12767e50fd\t{\"Browser_Bits\":\"32\",\"Platform\":\"Win8.1\",\"Platform_Version\":\"6.3\",\"Win32\":true}",
        "218d3e02d2eba8effb5d5e4420f947a5\t{\"Browser_Bits\":\"32\",\"Platform\":\"WinVista\",\"Platform_Version\":\"6.0\",\"Win32\":true}",
        "21c03c3273cc63d48b0b4538a14a62a5\t{\"Browser_Bits\":\"32\",\"Platform\":\"MacOSX\",\"Platform_Version\":\"10.9\"}",
        "21980fc30839586d56bd98f94a80e5cd\t{\"Browser_Bits\":\"32\",\"Platform\":\"WinXP\",\"Platform_Version\":\"5.1\",\"Win32\":true}",
        "21bf0be01e7d08ca637821c2072a2135\t{\"Browser_Bits\":\"32\",\"Platform\":\"Win32\",\"Win32\":true}",
        "2154d4a62c29646ad0bd91c889cabe70\t{\"Platform_Version\":\"8.4\"}",
        "21be7756183c0800fc97a6c7456a21ff\t{\"Platform_Version\":\"8.2\"}",
        "21e015534085e664479cd400f23033f5\t{\"Platform_Version\":\"8.4\"}",
        "2175f1a68b210225183a17e1a6d0f903\t{\"Platform_Version\":\"10.1\"}",
        "2187eda708693e53e4e39d74e11aa9ab\t{\"Platform_Version\":\"10.1\"}",
        "2195f0fc4f0f4a1c15fcd2ad1486c8f3\t{\"Browser_Bits\":\"32\",\"Platform\":\"Win8.1\",\"Platform_Version\":\"6.3\",\"Win32\":true}",
        "219f2e5dada96212461e59d1e767ca91\t{\"Browser_Bits\":\"32\",\"Platform\":\"Win8.1\",\"Platform_Version\":\"6.3\",\"Win32\":true}",
        "21f8c2b7329e85eaf00819ca3479225a\t{\"Platform_Version\":\"3.1\"}",
        "2177214b42c2e8f4113d8a07aa56517e\t{\"Browser_Bits\":\"32\",\"Platform\":\"iOS\"}",
        "21701fdf49194b85b057978c90cba6c0\t{\"Browser_Bits\":\"32\",\"Platform\":\"iOS\",\"Platform_Version\":\"7.1\"}",
        "21b8bb5b4b0778312aaa8843033d6ff6\t[]",
        "2123347e917285b94b7ab5d4a3550ed1\t{\"Browser_Bits\":\"32\",\"Platform\":\"iOS\",\"Platform_Version\":\"8.0\"}",
        "2173ac29a83f5795c17f7961007525df\t{\"Browser_Bits\":\"32\",\"Platform\":\"Android\",\"Platform_Version\":\"4.2\"}",
        "2176c2a329ccbf2d72a75f83141e3c94\t{\"Browser_Bits\":\"32\",\"Platform\":\"iOS\",\"Platform_Version\":\"8.0\"}",
        "214ee9bfbad117789178df26208cf53a\t[]",
        "2176eb6054a91f3c36aeb7a1b14ed4e5\t{\"Platform_Version\":\"5.1\"}",
        "21b1cc0df96275352a460a8a7c01d02f\t{\"Platform_Version\":\"4.4\"}",
        "210cfd737b1419dc0eeed4697ed3face\t{\"Browser_Bits\":\"32\",\"Platform\":\"JAVA\"}",
        "21cea19f132c33736598b916369daa0a\t{\"Browser_Bits\":\"32\",\"Platform\":\"SymbianOS\"}",
        "212e5348b89dcd0df5e463c5dc1a14fd\t{\"Browser_Bits\":\"32\",\"Platform\":\"JAVA\"}",
        "21714ae43d8da8e3d5c9aeeb0c67f570\t{\"Browser_Bits\":\"32\",\"Platform\":\"Android\"}",
        "21f239aa6ce560435c7f3c30d50abb26\t{\"Browser_Bits\":\"32\",\"Platform\":\"JAVA\"}",
        "213b06b7971314b14f9c74b5cb689574\t{\"Browser_Bits\":\"32\",\"Platform\":\"SymbianOS\"}",
        "21a1a7a89cfa6be9114322c11206c8b6\t{\"Browser_Bits\":\"32\",\"Platform\":\"iOS\",\"Platform_Version\":\"9.1\",\"isTablet\":true}",
        "21c4ecf6686c4506c89df31949de0384\t{\"Browser_Bits\":\"32\",\"Platform\":\"FreeBSD\"}",
        "213b01884f7a4cea7dff990b8178a7d6\t{\"Platform_Version\":\"8.0\"}",
        "21ba8206e98a35605503483eae99e9b6\t{\"Platform_Version\":\"8.1\",\"isTablet\":true}",
        "21082f34a4eef117fdc4da03db42cb9e\t{\"Platform_Version\":\"10.3\"}",
        "21aa210177c518040eeb06d414e88d44\t{\"Platform_Version\":\"8.3\"}",
        "2184e14cb6ee285990f85a5c83eaf84a\t{\"Platform_Version\":\"8.4\"}",
        "21798cae9275704da145615f40cdce0a\t{\"Platform_Version\":\"8.2\"}",
        "219b70baa4dffc56515e5791068103b2\t{\"Platform_Version\":\"9.3\",\"isTablet\":true}",
        "21950b6cf1ca0cf46016dc7a90fdf3cf\t{\"Platform_Version\":\"10.3\",\"isTablet\":true}",
        "21a52f8a22a6e2478d72ad5f8e1e21cf\t{\"Platform_Version\":\"7.0\"}",
        "211516532d9e9f4214d7cc78281fa64b\t{\"Platform_Version\":\"9.2\",\"isTablet\":true}",
        "21613f2b7944fd952127acaf07c09791\t{\"isTablet\":true}",
        "21aeb8e62488f6d654f8fd122103c8a8\t{\"Platform_Version\":\"10.0\",\"isTablet\":true}",
        "21bd43e627e3ce8e7803f8da13169b0c\t{\"Platform_Version\":\"10.2\"}",
        "2164195033e5532ac81eb4c07e814dad\t{\"Platform_Version\":\"8.0\",\"isTablet\":true}",
        "213b1cafd4f66630625c97f38359746f\t{\"Platform_Version\":\"8.3\"}",
        "211071484ed81c05bbd552f865113120\t{\"Platform_Version\":\"10.1\"}",
        "21acd6eb544fe667a895dbf095b77d74\t{\"Platform_Version\":\"10.1\",\"isTablet\":true}",
        "2178f3ae761622fbf7a7999da7d522d8\t[]",
        "213899aa8a95f1c9e3a64ddcc8117ed9\t{\"Platform_Version\":\"10.1\",\"isTablet\":true}",
        "2147b40fe178757536970ed084e2d5c8\t{\"Platform_Version\":\"8.1\",\"isTablet\":true}",
        "21bed43ad28c9ba1bd9c04d454a5acff\t{\"Platform_Version\":\"8.3\",\"isTablet\":true}",
        "216f6f57c7a9cf5a525cff96a5d1209f\t{\"Browser_Bits\":\"32\",\"Platform\":\"MacOSX\",\"Platform_Version\":\"10.9\"}",
        "21db4b42d19433014091b3067a237618\t{\"Browser_Bits\":\"32\",\"Platform\":\"MacOSX\",\"Platform_Version\":\"10.9\"}",
        "213b421d45cab3a78ac9b9cfed06a21d\t{\"Platform_Version\":\"9.3\",\"isTablet\":true}",
        "2189868a9a086de93c82fcfef8516346\t[]",
        "21d13a532bed149929e7836e1d2f71a1\t{\"Platform_Version\":\"7.0\"}",
        "2142f073828ba67e6fc76680e9dc53d4\t{\"Platform_Version\":\"9.3\"}",
        "21fc2c78af75f67950974d40c8ad6780\t[]",
        "21b512768faa1c7bb29c15daaed8c7be\t[]",
        "219cba8b74b3fad0a1d8c76e08888e40\t{\"Platform_Version\":\"8.2\",\"isTablet\":true}",
        "21734d140efe54fe3540e9af028873d4\t{\"Platform_Version\":\"9.1\",\"isTablet\":true}",
        "217f2165d3ed3431398cae6da5906068\t{\"Browser_Bits\":\"32\",\"Platform\":\"Linux\"}",
        "2139e69d70e382a4db8ef53439db9f72\t{\"Browser_Bits\":\"32\",\"Platform\":\"iOS\",\"isMobileDevice\":true}",
        "213a2d1eae6f948377dfbab8c31cfd15\t{\"Platform_Version\":\"7.0\"}",
        "21877b2f4e934e62373551d13f48b9a8\t{\"Browser_Bits\":\"32\",\"Platform\":\"Darwin\"}",
        "21a8c7b94e9a39658919c657195857af\t{\"Browser_Bits\":\"32\",\"Platform\":\"RIM OS\",\"Platform_Version\":\"7.0\",\"isMobileDevice\":true}",
        "2196b45d5bd4d74295a4451a06b778ee\t{\"Browser_Bits\":\"32\",\"Platform\":\"MacOSX\",\"Platform_Version\":\"10\"}",
        "210a8a7bc66f666c3e9ad95951d41084\t{\"Browser_Bits\":\"32\",\"Platform\":\"Win7\",\"Platform_Version\":\"6.1\",\"Win32\":true}",
        "21cec85daec14fcb36fea510f0f40d8a\t{\"Browser_Bits\":\"32\",\"Platform\":\"WinXP\",\"Platform_Version\":\"5.2\",\"Win32\":true}",
        "215496a8f06e9175526bdf95eb285be7\t{\"Browser_Bits\":\"32\",\"Platform\":\"HP-UX\"}",
        "21697b569eb874fec373285000c22afe\t{\"Browser_Bits\":\"32\",\"Platform\":\"Win32\",\"Win32\":true}",
        "2161dccb5411247a6cc3aeb6c72cd96f\t{\"Browser_Bits\":\"32\",\"Platform\":\"Win7\",\"Platform_Version\":\"6.1\",\"Win32\":true}",
        "21d933b0b59eb68b011a1036ec0411f2\t{\"Browser_Bits\":\"32\",\"Platform\":\"WinXP\",\"Platform_Version\":\"5.1\",\"Win32\":true}",
        "21707cd2731c47caaf44fcf119017a1a\t{\"Browser_Bits\":\"32\",\"Platform\":\"WinXP\",\"Platform_Version\":\"5.1\",\"Win32\":true}",
        "219419324107c31aa61a7013c0aa37ff\t{\"Browser_Bits\":\"32\",\"Platform\":\"WinXP\",\"Platform_Version\":\"5.2\",\"Win32\":true}",
        "2159147de419f3b813888cfee20079d8\t{\"Browser_Bits\":\"32\",\"Platform\":\"WinXP\",\"Platform_Version\":\"5.2\",\"Win32\":true}",
        "215fa1e9b00411794162ebb4bbba77e9\t[]",
        "21191839af56611bfbf05d52f4e5c4e0\t{\"Browser_Bits\":\"32\",\"Platform\":\"Win8\",\"Platform_Version\":\"6.2\",\"Win32\":true}",
        "216ec4f6829bebcf508e04f833a2a9eb\t{\"Platform_Version\":\"10.1\"}",
        "21acf3964bf23fa38ee12fe90a5b6d65\t{\"Platform\":\"Win8.1\",\"Platform_Version\":\"6.3\"}",
        "21cdbd51be6f2e48cb20dfe790dbfa30\t{\"Browser_Bits\":\"32\",\"Platform\":\"Maemo\",\"isMobileDevice\":true}",
        "2146094c05e080ab66589906ca6efcfa\t[]",
        "2107a88fd8da68c66e6fe6a64b462d1f\t[]",
        "217a54be57874db7dbc94972f0c91b82\t{\"Platform_Version\":\"5.1\",\"isTablet\":true}",
        "21ff1f94a2bbfc8c648739a4081c419e\t{\"Platform_Version\":\"6.0\"}",
        "219f04a4643c850f2ff990b697a2c0b2\t{\"Platform_Version\":\"7.0\",\"isTablet\":true}",
        "2128b9d82c49874d63b1db9a2e2aa60d\t{\"Platform_Version\":\"4.3\",\"isTablet\":true}",
        "21e8cb721c34dc1807d5cc983b07d492\t{\"Browser_Bits\":\"32\",\"Platform\":\"FirefoxOS\",\"Platform_Version\":\"2.5\",\"isMobileDevice\":true}",
        "212238cd84ee9e5379bbd5843dd1ebca\t{\"Browser_Bits\":\"32\",\"Platform\":\"FreeBSD\"}",
        "21c108e5c13239cde5c6f9fb29e4a082\t{\"Browser_Bits\":\"32\",\"Platform\":\"Win7\",\"Platform_Version\":\"6.1\",\"Win32\":true}",
        "21bedab2d3dc444925b2dd3c10a451ac\t{\"Browser_Bits\":\"32\",\"Platform\":\"Linux\"}",
        "21532da9dc4461697d97e68091c33300\t{\"Browser_Bits\":\"32\",\"Platform\":\"Win7\",\"Platform_Version\":\"6.1\",\"Win32\":true}",
        "21d79e7c67fea162187d4ea21ee84c16\t{\"Browser_Bits\":\"32\",\"Platform\":\"NetBSD\"}",
        "21572c07d27b666969e58cc8adf2fd26\t{\"Browser_Bits\":\"32\",\"Platform\":\"MacOSX\",\"Platform_Version\":\"10.10\"}",
        "21e7c5815acf358bcfb051370a8f0f1e\t{\"Browser_Bits\":\"32\",\"Platform\":\"FreeBSD\"}",
        "2100fbbb789cb884885058cc534ff767\t{\"Browser_Bits\":\"32\",\"Platform\":\"OpenBSD\"}",
        "21ff052600fba25bff7973c3f632449e\t{\"Browser_Bits\":\"32\",\"Platform\":\"WinXP\",\"Platform_Version\":\"5.1\",\"Win32\":true}",
        "21789841ef93c86b30682f6e69a9f646\t{\"Browser_Bits\":\"32\",\"Platform\":\"WinXP\",\"Platform_Version\":\"5.1\",\"Win32\":true}",
        "21b1be38a352cb6c364c9b81c705cd73\t{\"Browser_Bits\":\"32\",\"Platform\":\"Win7\",\"Platform_Version\":\"6.1\",\"Win32\":true}",
        "2188977ac281c4aef04813886151613f\t{\"Browser_Bits\":\"64\",\"Platform\":\"IRIX64\"}",
        "21fb72a2d8950b5d5383361eb66bec17\t{\"Browser_Bits\":\"32\",\"Platform\":\"WinXP\",\"Platform_Version\":\"5.1\",\"Win32\":true}",
        "2122f44cc59f436251556540e3323643\t{\"Browser_Bits\":\"32\",\"Platform\":\"WinXP\",\"Platform_Version\":\"5.1\",\"Win32\":true}",
        "2187b77dfba3c478e1c1246ae852fe04\t{\"Platform\":\"Win8\",\"Platform_Version\":\"6.2\"}",
        "21afd47c414502f348cd15a0508caad6\t{\"Platform_Version\":\"7.0\",\"isTablet\":true}",
        "21fcf9c2bc3906387841f2b81646ee57\t[]",
        "219199eb1f0763324eb56dcdcf03161e\t{\"Platform_Version\":\"7.0\"}",
        "21af769b068953056d66cdfe92f1ff71\t{\"Platform_Version\":\"8.2\"}",
        "21d3cb69eb4f7c64e1e26b3dc77259a1\t[]",
        "2164370f57e3745f06cf243113de8334\t[]",
        "21a6d3e729c2877b9d0d78afd3b610f8\t[]",
        "218d8327e11e6057514ed15949a7d05d\t[]",
        "21860ceecdad35ed3cedd942cfe2ce9a\t[]"
    ]
}