{
    "content": [
        "929ee0273184bcf72fe94baa35b9123a\t[]",
        "92a8b67c62d20f487886ad43ada3d3e5\t[]",
        "9238f830dd7900a3e137039270b1b928\t[]",
        "92e28b408856cad2e9952f51745d350f\t[]",
        "92570e552eb87dd48cfbc403992d5f2e\t{\"Browser_Bits\":\"32\",\"Platform\":\"Win10\",\"Platform_Version\":\"6.4\",\"Win32\":true}",
        "92e59c19651c8576223fae11ce03746b\t[]",
        "9219146843b58125c93b0ca83cffe61a\t[]",
        "9212062053398feddf0aad5605db87ca\t[]",
        "92dc91b99d142cca881cf6bcb04b12b5\t[]",
        "9230f14fd5cfd3f95cd4d5fdc67ea088\t[]",
        "92d08b7c4e1df0790017721ef8c478ae\t{\"Platform_Version\":\"4.4\"}",
        "92245746b72d1cf42d4f6455f423579f\t{\"Browser_Bits\":\"32\",\"Platform\":\"WinXP\",\"Platform_Version\":\"5.1\",\"Win32\":true}",
        "9243a9dffbfe2eaf8f752c74c791a7bd\t{\"Browser_Bits\":\"32\",\"Platform\":\"MacOSX\",\"Platform_Version\":\"10.11\"}",
        "926ac03b5ae1e8302a9eb20fd70ad8e5\t{\"Browser_Bits\":\"32\",\"Platform\":\"Win7\",\"Platform_Version\":\"6.1\",\"Win32\":true}",
        "925d2376ddb3c26e66fe182857502639\t{\"Platform\":\"MacOSX\",\"Platform_Version\":\"10.11\",\"Win32\":false}",
        "920b44d4d0862d7eab2b85d3663be3de\t{\"Platform\":\"iOS\",\"Platform_Version\":\"10.0\",\"Win32\":false,\"isMobileDevice\":true,\"isTablet\":true}",
        "92961b8b1841d43359a52ee4f3ed9331\t{\"Platform\":\"Win8.1\",\"Platform_Version\":\"6.3\"}",
        "924c436166cccb7fc4478dda6b748146\t{\"Platform\":\"MacOSX\",\"Platform_Version\":\"10.9\",\"Win32\":false}",
        "928c246001d4d1fe463aeacb71d7c350\t{\"Platform\":\"iOS\",\"Platform_Version\":\"10.2\",\"Win32\":false,\"isMobileDevice\":true,\"isTablet\":true}",
        "92512cd1c3114c1c3a14afb2d6e3e5a7\t{\"Platform\":\"Win8.1\",\"Platform_Version\":\"6.3\"}",
        "925789e450bde1d089431648ed8857f7\t{\"Platform\":\"iOS\",\"Platform_Version\":\"8.1\",\"Win32\":false,\"isMobileDevice\":true,\"isTablet\":true}",
        "92607fb9799dfc28e03b1efa62a91b8b\t{\"Platform\":\"iOS\",\"Platform_Version\":\"10.3\",\"Win32\":false,\"isMobileDevice\":true,\"isTablet\":true}",
        "9290b68be3e4ffaec358b7dd6f74a715\t{\"Platform\":\"iOS\",\"Platform_Version\":\"9.3\",\"Win32\":false,\"isMobileDevice\":true,\"isTablet\":true}",
        "927a12236caf02d3212b7fae1a1b4a5c\t{\"Platform\":\"iOS\",\"Platform_Version\":\"9.2\",\"Win32\":false,\"isMobileDevice\":true,\"isTablet\":true}",
        "928f50cdf6f65cdfb325bd121f316095\t{\"Platform\":\"MacOSX\",\"Platform_Version\":\"10.11\",\"Win32\":false}",
        "92864788986cb1a43dcb1dcda071f713\t{\"Platform\":\"iOS\",\"Platform_Version\":\"8.0\",\"Win32\":false,\"isMobileDevice\":true,\"isTablet\":true}",
        "92137be7b21032dbc7d1f80d7b5eb50b\t{\"Platform\":\"MacOSX\",\"Platform_Version\":\"10.11\",\"Win32\":false}",
        "925f9d054b85f16402ef6caf9fd838be\t{\"Platform\":\"iOS\",\"Platform_Version\":\"8.2\",\"Win32\":false,\"isMobileDevice\":true,\"isTablet\":true}",
        "929004b89002dc6bc0bb031b632a7fc5\t{\"Platform\":\"MacOSX\",\"Platform_Version\":\"10.10\",\"Win32\":false}",
        "9242e1a95cc16226aa37447e3761a3cc\t{\"Platform_Version\":\"4.4\",\"isTablet\":true}",
        "921eca6a158d8eb41955c4df06f38314\t{\"Platform_Version\":\"4.3\"}",
        "92afe09eb5511901c5a71ac60fbff201\t{\"Platform_Version\":\"10.2\",\"isTablet\":true}",
        "9238248a1936c5ba46fcffaf5166c776\t{\"Platform_Version\":\"8.2\",\"isTablet\":true}",
        "92fbb911a694d52c5302a1079639035c\t{\"Platform_Version\":\"8.1\",\"isTablet\":true}",
        "928867afabd01768af44003207041f4b\t{\"Platform_Version\":\"10.0\",\"isTablet\":true}",
        "92460e1c0b99866b4b91bfabae8a9103\t{\"Browser_Bits\":\"32\",\"Platform\":\"Android\",\"isMobileDevice\":true}",
        "92c65da208b883f53e4638b2ff3ce445\t{\"Platform\":\"iOS\"}",
        "92d3e2497ffa17a47b9d770d4f926e5c\t{\"Platform\":\"iOS\",\"Platform_Version\":\"10.2\",\"isTablet\":true}",
        "9269b0ff374ed5d41055fd82df3f3204\t{\"Platform\":\"iOS\",\"Platform_Version\":\"9.3\"}",
        "92c902ef8484626f192b41f8b4f0ebf4\t{\"Platform\":\"iOS\",\"Platform_Version\":\"8.0\",\"isTablet\":true}",
        "9201ace0ff013c0aa4197252a913e246\t{\"Platform\":\"iOS\",\"Platform_Version\":\"7.0\",\"isTablet\":true}",
        "92e09c93bfdc4fee9def1e769c8f8f3b\t{\"Platform\":\"iOS\",\"Platform_Version\":\"10.1\"}",
        "9291985afef52d614df241589375d68a\t{\"Platform_Version\":\"4.2\",\"isTablet\":true}",
        "92f4e1fa312cb41537a1ce0f4fa8430b\t{\"Platform_Version\":\"5.0\"}",
        "92280dcc4e722a629dca1d4b3e33f243\t{\"Platform_Version\":\"4.2\",\"isTablet\":true}",
        "92f333663b4dc4726304452b49279236\t{\"Platform\":\"iOS\",\"isTablet\":true}",
        "92bde0abfa676f2250cc14fbecb7682b\t{\"Platform_Version\":\"5.0\"}",
        "920df590a75531ac4d99c1be0d5e829b\t{\"Platform\":\"iOS\",\"Platform_Version\":\"7.1\"}",
        "9203b9f9d5514d479cea7c26cf24e850\t{\"Platform_Version\":\"4.2\"}",
        "92ff05b20c9b4b8dc9478a9d2f1eeff4\t{\"Platform_Version\":\"4.2\",\"isTablet\":true}",
        "921e88839fa178fb823c2ade03c9efeb\t{\"Browser_Bits\":\"32\",\"Platform\":\"WinPhone8\",\"Platform_Version\":\"8.0\"}",
        "929ed5fccb17312536b1e6eccf532df5\t{\"Browser_Bits\":\"32\",\"Platform\":\"Android\"}",
        "926c97aeea641e65fe078cfcf06a0d7b\t[]",
        "92c8436639ea29f76516ed7e71ee6813\t{\"Platform\":\"JAVA\"}",
        "92bed0b642d32e5745b9cdb513d2c11e\t[]",
        "92726f6e7ff7fcc944fd560e56a6ba7a\t[]",
        "9200f9df2335319ad8c48c015642d9cb\t[]",
        "92b8b3386be40f31aa61c7734f8bd6ad\t{\"Platform_Version\":\"4.2\"}",
        "927f146a98e7f597e037204450803426\t{\"Platform\":\"Win8.1\",\"Platform_Version\":\"6.3\",\"Win32\":true}",
        "923309c5e14578d597d5af3dc265dc58\t[]",
        "92a504ed029013106799bdd0be57ede2\t{\"Browser_Bits\":\"32\",\"Platform\":\"Linux\"}",
        "925a2057786349cf10ff69a5b13f3d7c\t{\"Platform\":\"Win8.1\",\"Platform_Version\":\"6.3\",\"Win32\":true}",
        "9268290b8995dc016e13561074d26bc7\t{\"Platform\":\"WinXP\",\"Platform_Version\":\"5.2\",\"Win32\":true}",
        "924832a22c2aeb94045114f3fc2ce4e6\t[]",
        "92a1cd2157ca53d3d3a8160881dd0679\t[]",
        "929c17d1660972eaf9292c848355fe4a\t[]",
        "92785b7f549a48a1e3d5252efdb34ff4\t{\"Platform_Version\":\"7.1\"}",
        "924e9e1274a08dfd9dbde6fe040ff6be\t{\"Platform_Version\":\"5.1\"}",
        "928aca30ff574d0f87e6ad63bdc3b277\t{\"Platform_Version\":\"4.2\",\"isTablet\":true}",
        "925a507ab14337d0079fe895484afd46\t{\"Platform_Version\":\"4.2\",\"isTablet\":true}",
        "92ae35220dcff37af4035969b8cd1111\t{\"isMobileDevice\":true}",
        "92cd3cfb749fb12ffa7c29f52a6d3a95\t{\"Platform_Version\":\"4.2\",\"isTablet\":true}",
        "920797f6fb5c55a2bf40712e7ece0097\t{\"Platform_Version\":\"4.2\",\"isTablet\":true}",
        "92a42de36560c151a6cdb6b2bfbc3616\t{\"Platform_Version\":\"5.0\",\"isTablet\":true}",
        "9215d8ac3979c6d2492c5e6f123d0b04\t{\"Platform_Version\":\"4.2\",\"isTablet\":true}",
        "92c479a830c196e26522a4b8f203f214\t{\"Platform_Version\":\"4.4\",\"isTablet\":true}",
        "9280757bdfd4d36a7ef0c157cba55fc8\t{\"Platform_Version\":\"4.2\",\"isTablet\":true}",
        "924fdd90dae881bfa8a05033a8328fb2\t{\"Platform_Version\":\"4.4\",\"isTablet\":true}",
        "92a08929bfbbe3fc37cd54c973a2e666\t{\"Platform_Version\":\"4.3\",\"isTablet\":true}",
        "928739898d68deeb5973799fdb74bc4f\t{\"Platform_Version\":\"4.4\",\"isTablet\":true}",
        "921e58530b7e60d0fa50e29bebceac2a\t{\"Platform_Version\":\"4.4\"}",
        "92812e2e3fb1bc207f87e7081617c189\t{\"Browser_Bits\":\"32\",\"Platform\":\"Android\",\"Platform_Version\":\"4.3\"}",
        "92dbb20890c742eec04c11359ff15a11\t{\"Browser_Bits\":\"32\",\"Platform\":\"Android\",\"Platform_Version\":\"7.0\"}",
        "92e5ca7de3f7197609aa9acf9995a1c3\t{\"Browser_Bits\":\"32\",\"Platform\":\"Android\",\"Platform_Version\":\"5.1\"}",
        "9263740fea11a4750396e3cbcacee78b\t{\"Browser_Bits\":\"32\",\"Platform\":\"Android\",\"Platform_Version\":\"7.1\"}",
        "9257cec39fc7d1bbcd7a56508b13d563\t{\"Platform_Version\":\"8.0\"}",
        "92d0dd724d4228d66956470b613da683\t{\"Platform_Version\":\"6.0\"}",
        "92fe2f02f9decf0b4c824267ff07d2fb\t{\"Platform_Version\":\"10.1\",\"isTablet\":true}",
        "92bcebcb21d32c1656e45c9665b4e033\t{\"Platform_Version\":\"10.2\"}",
        "9254aea97a3d646919b84a06269f4ca6\t{\"Platform_Version\":\"9.3\",\"isTablet\":true}",
        "923dae2becaef3bc724b344c092df606\t{\"Browser_Bits\":\"32\",\"Platform\":\"Win7\",\"Platform_Version\":\"6.1\",\"Win32\":true}",
        "92a09963de674b5717c589a61ba8249e\t{\"Browser_Bits\":\"32\",\"Platform\":\"Win32\",\"Win32\":true}",
        "92945150c14e109d0d22e7e827e2550a\t{\"Browser_Bits\":\"32\",\"Platform\":\"WinXP\",\"Platform_Version\":\"5.2\",\"Win32\":true}",
        "921752fb4e06da6f42a10ef5bd660227\t{\"Browser_Bits\":\"32\",\"Platform\":\"macOS\",\"Platform_Version\":\"10.12\"}",
        "92d9213475a88c4c28c2b9d2affe7f7b\t{\"Platform_Version\":\"9.2\"}",
        "920cc569406d9fa31d02657a76b16dad\t{\"Browser_Bits\":\"32\",\"Platform\":\"macOS\",\"Platform_Version\":\"10.12\"}",
        "9248035fcebd2eb77b603ca498a95e79\t{\"Platform_Version\":\"9.2\"}",
        "9200ee9e9a6fd72c1fe5dbc2ca965be1\t{\"Platform_Version\":\"10.1\"}",
        "92569f401322f8582f67b2b4f3eeb203\t{\"Platform_Version\":\"9.0\"}",
        "920cef50a6aab21b8e70dc3a8308d360\t[]",
        "92b786df1d083411f135ac7c6faf1601\t{\"Platform_Version\":\"4.4\",\"isTablet\":true}",
        "92cf76cfc5b64c73a7dc42bc12ca8c9b\t{\"Browser_Bits\":\"32\",\"Platform\":\"WinVista\",\"Platform_Version\":\"6.0\",\"Win32\":true}",
        "92d463777f65f84c04f6dafc75138363\t{\"Browser_Bits\":\"32\",\"Platform\":\"macOS\",\"Platform_Version\":\"10.12\"}",
        "9296224e195388ca3932a6059cd6c3aa\t{\"Platform_Version\":\"4.4\",\"isTablet\":true}",
        "92331bad9c051a0ac6f36f4dc6dd3e13\t{\"Platform_Version\":\"4.4\",\"isTablet\":true}",
        "9213ba3ca530448df40e112dbe9b4291\t{\"Platform_Version\":\"4.4\",\"isTablet\":true}",
        "92a18d437b1b481e67cbf86de2111e74\t{\"Platform_Version\":\"4.4\"}",
        "9223392f4406e90e11c1f97ea1d78fc2\t{\"Platform_Version\":\"4.2\",\"isTablet\":true}",
        "92488e714545d1226d3d891a6f827f28\t{\"Platform_Version\":\"4.4\",\"isTablet\":true}",
        "925d35a30f81f4c9b6951af88b8a787c\t{\"Platform_Version\":\"4.2\",\"isTablet\":true}",
        "92c5daa1cdc8c8ebe00ad1b8231dea1d\t{\"Platform_Version\":\"8.2\",\"isTablet\":true}",
        "924030c952b26ec8634be8f8f7e12d1e\t{\"Platform_Version\":\"8.2\"}",
        "92b63df100bc2c1ae8a1a89093ebbb72\t{\"Platform_Version\":\"4.2\"}",
        "92043181b256f1dc10bcdbae2dfdc33b\t{\"Platform_Version\":\"4.2\",\"isTablet\":true}",
        "924f233eefb4f488c9a7b6605d2b8470\t{\"Platform_Version\":\"4.2\",\"isTablet\":true}",
        "921b84ea7911efa4eb2c501ff7fe82ae\t{\"Platform_Version\":\"4.3\",\"isTablet\":true}",
        "92fe61b7cc3414fe7ddf9284d84900c6\t{\"Platform_Version\":\"4.4\",\"isTablet\":true}",
        "92c521b1ff5263771d89cb7b942b79fa\t[]",
        "9233db48087cc96261ee747f4c3c3f18\t{\"Platform_Version\":\"4.2\",\"isTablet\":true}",
        "923153f65f394064c3414ba8ad25d1c6\t{\"Browser_Bits\":\"32\",\"Platform\":\"Android\",\"isTablet\":true}",
        "92bc4f58a14afb40e3c18188a6a3c4b6\t{\"Browser_Bits\":\"32\",\"Platform\":\"Android\"}",
        "9263871d61166700a121fbab377b6e79\t{\"Browser_Bits\":\"32\",\"Platform\":\"WinVista\",\"Platform_Version\":\"6.0\",\"Win32\":true}",
        "92e99b45a1aab98d7e08cd0a519f06ab\t{\"Browser_Bits\":\"32\",\"Platform\":\"Win8\",\"Platform_Version\":\"6.2\",\"Win32\":true}",
        "92ad830f362d916f332e51cd6cd58629\t{\"Browser_Bits\":\"32\",\"Platform\":\"WinXP\",\"Platform_Version\":\"5.1\",\"Win32\":true}",
        "9218314ddcb62aadb1bd34e992289b2e\t{\"Browser_Bits\":\"32\",\"Platform\":\"WinVista\",\"Platform_Version\":\"6.0\",\"Win32\":true}",
        "92e3185c42a86f4805ceddc6e940bb93\t{\"Browser_Bits\":\"32\",\"Platform\":\"Linux\"}",
        "924f4139e4567b299584a0cc6795d974\t{\"Browser_Bits\":\"32\",\"Platform\":\"Win7\",\"Platform_Version\":\"6.1\",\"Win32\":true}",
        "92f7fc0d6edef2fbe80415ea2a1efb72\t{\"Browser_Bits\":\"32\",\"Platform\":\"WinVista\",\"Platform_Version\":\"6.0\",\"Win32\":true}",
        "920a0aeebae5abf7263fd72b5fb9e4df\t{\"Browser_Bits\":\"32\",\"Platform\":\"WinXP\",\"Platform_Version\":\"5.1\",\"Win32\":true}",
        "9240138d28edb42fa15fa366a8bf0400\t{\"Browser_Bits\":\"32\",\"Platform\":\"Win8\",\"Platform_Version\":\"6.2\",\"Win32\":true}",
        "924bd52690a82de72ce6840a77e02d9d\t{\"Browser_Bits\":\"32\",\"Platform\":\"Win8\",\"Platform_Version\":\"6.2\",\"Win32\":true}",
        "92f754dc11f4c182cc2a7b3b34df7dd3\t{\"Browser_Bits\":\"32\",\"Platform\":\"WinXP\",\"Platform_Version\":\"5.2\",\"Win32\":true}",
        "9262b2f504cc38cb519a5944ece21624\t{\"Browser_Bits\":\"32\",\"Platform\":\"MacOSX\",\"Platform_Version\":\"10.10\"}",
        "923c0fab09f56ddb06d646b9c5010a50\t{\"Browser_Bits\":\"32\",\"Platform\":\"WinXP\",\"Platform_Version\":\"5.2\",\"Win32\":true}",
        "92d33c2ae0da29d5423658fb2131b9a8\t{\"Browser_Bits\":\"32\",\"Platform\":\"MacOSX\",\"Platform_Version\":\"10.10\"}",
        "92862619ee1a65161dd54d1bf0450fe5\t{\"Browser_Bits\":\"32\",\"Platform\":\"SunOS\"}",
        "920f43188ea93623cf7d49cebbd07760\t{\"Browser_Bits\":\"32\",\"Platform\":\"WinXP\",\"Platform_Version\":\"5.2\",\"Win32\":true}",
        "92d6e59ead8221a8b19934e357ea642e\t{\"Browser_Bits\":\"32\",\"Platform\":\"WinVista\",\"Platform_Version\":\"6.0\",\"Win32\":true}",
        "92c182bb04e5270fe99287b143c8d273\t{\"Browser_Bits\":\"32\",\"Platform\":\"MacOSX\",\"Platform_Version\":\"10\"}",
        "92819615bc07a39ef27eb02a75eefe1b\t{\"Browser_Bits\":\"32\",\"Platform\":\"SunOS\"}",
        "92f946312fa0e87d772d8d9a03a4400f\t{\"Browser_Bits\":\"32\",\"Platform\":\"WinXP\",\"Platform_Version\":\"5.1\",\"Win32\":true}",
        "9200e89c5249b430dd04c001080a865d\t{\"Browser_Bits\":\"32\",\"Platform\":\"Win8\",\"Platform_Version\":\"6.2\",\"Win32\":true}",
        "92163cf8c5110d83e8eea83ee9925de5\t{\"Browser_Bits\":\"32\",\"Platform\":\"Win8.1\",\"Platform_Version\":\"6.3\",\"Win32\":true}",
        "929a65a1088a376cbe957ec0124fe092\t{\"Browser_Bits\":\"32\",\"Platform\":\"WinXP\",\"Platform_Version\":\"5.1\",\"Win32\":true}",
        "92ff3735e05ba89995b6fb2ef468358f\t{\"Browser_Bits\":\"32\",\"Platform\":\"Win7\",\"Platform_Version\":\"6.1\",\"Win32\":true}",
        "925b2f19bd99b983bef3c1a3893ddf04\t{\"Browser_Bits\":\"32\",\"Platform\":\"Win7\",\"Platform_Version\":\"6.1\",\"Win32\":true}",
        "923a8150c2147f7c12e0930f56e7e359\t{\"Browser_Bits\":\"32\",\"Platform\":\"WinVista\",\"Platform_Version\":\"6.0\",\"Win32\":true}",
        "9269f9f39f35c034b1b8249806b4f89f\t{\"Browser_Bits\":\"32\",\"Platform\":\"WinVista\",\"Platform_Version\":\"6.0\",\"Win32\":true}",
        "92acf86cff3fce039fb7307f4ad58ef9\t{\"Browser_Bits\":\"32\",\"Platform\":\"WinXP\",\"Platform_Version\":\"5.1\",\"Win32\":true}",
        "927cd452d3f58c48d607c9a6966e1e74\t[]",
        "92451ecd4f8e215ca706c4c6c94d7af2\t{\"Browser_Bits\":\"32\",\"Platform\":\"iOS\",\"Platform_Version\":\"10.1\",\"isTablet\":true}",
        "9279d72709b5b888227641a9cd15e74a\t{\"Browser_Bits\":\"32\",\"Platform\":\"Android\",\"Platform_Version\":\"6.0\"}",
        "925014a487f31d8a800c3b8050c08b77\t{\"Browser_Bits\":\"32\",\"Platform\":\"Win7\",\"Platform_Version\":\"6.1\",\"Win32\":true}",
        "9270d6070c7442f3134ef6842ea04de8\t{\"Browser_Bits\":\"32\",\"Platform\":\"WinXP\",\"Platform_Version\":\"5.1\",\"Win32\":true}",
        "9219ebef9d6e45c4753328906bd82003\t{\"Browser_Bits\":\"32\",\"Platform\":\"iOS\",\"Platform_Version\":\"7.0\"}",
        "924f460750e230c987cc829437232729\t{\"Browser_Bits\":\"32\",\"Platform\":\"WinVista\",\"Platform_Version\":\"6.0\",\"Win32\":true}",
        "927f14bbe6e3750cd55562088d28caf2\t{\"Browser_Bits\":\"32\",\"Platform\":\"MacOSX\",\"Platform_Version\":\"10.9\"}",
        "9274a8f8b8067097c6a0d8104a6c0dac\t{\"Browser_Bits\":\"32\",\"Platform\":\"MacOSX\",\"Platform_Version\":\"10.10\"}",
        "924bae1ff442c3b23d8f2c24d6f9af1a\t{\"Browser_Bits\":\"32\",\"Platform\":\"WinXP\",\"Platform_Version\":\"5.1\",\"Win32\":true}",
        "9246209af022796af80a0eb4866d231e\t{\"Browser_Bits\":\"32\",\"Platform\":\"WinVista\",\"Platform_Version\":\"6.0\",\"Win32\":true}",
        "92632bcf4b86e7b8cc52e2a489df8f75\t{\"Platform_Version\":\"5.1\"}",
        "92cd6a123b50f7634b19829425cd59c4\t{\"Platform_Version\":\"4.4\",\"isTablet\":true}",
        "9248a0fa1894a4dfd6beda8153ba0280\t{\"isTablet\":true}",
        "923d8cf1dc46b1a8734dca37fa1416dd\t{\"Platform_Version\":\"4.2\",\"isTablet\":true}",
        "925376a353d2707833ab28838e64f4f8\t{\"isTablet\":true}",
        "92ef46e751d70893c6a049f451c5b3bf\t[]",
        "923ffc02330a5416e948201ae46983c4\t{\"Browser_Bits\":\"32\",\"Platform\":\"Win7\",\"Platform_Version\":\"6.1\",\"Win32\":true}",
        "9283650342d48a655746f0b3967d020f\t{\"Platform_Version\":\"4.2\",\"isTablet\":true}",
        "92000a1457a5f4b711ef5819988a7bc4\t{\"Platform_Version\":\"4.3\",\"isTablet\":true}",
        "921af83e6cb7668c599d02570b8a18f7\t{\"Platform_Version\":\"4.2\",\"isTablet\":true}",
        "92b889c58430349d4e13aca6e14a6d47\t{\"Platform_Version\":\"9.1\",\"isTablet\":true}",
        "92c0610a6ec44896cfe6fbdde11caafe\t{\"Platform_Version\":\"4.2\",\"isTablet\":true}",
        "924e38d2c199798a2fe316066e385ee8\t{\"Browser_Bits\":\"32\",\"Platform\":\"Win8.1\",\"Platform_Version\":\"6.3\",\"Win32\":true}",
        "92802c0c731cb76178a9465e84f40a00\t{\"Platform_Version\":\"4.3\",\"isTablet\":true}",
        "9249338d04eb8d9582fdc1d533999d7c\t{\"Platform_Version\":\"4.3\",\"isTablet\":true}",
        "92559a3027e6faf765efff9b0fb97980\t{\"Platform_Version\":\"4.4\",\"isTablet\":true}",
        "9287ca36a9916a78a388b8680d5f7342\t{\"Platform_Version\":\"4.3\",\"isTablet\":true}",
        "9221ec0d748debd4f1cb33232ae2d2ac\t{\"Platform_Version\":\"10.1\",\"isTablet\":true}",
        "92abf6a6d3438aae3490385e75e115d9\t{\"Platform_Version\":\"4.4\",\"isTablet\":true}",
        "9241cf174bb627ca1cbc09f6b1fe0877\t{\"Platform_Version\":\"4.2\",\"isTablet\":true}",
        "92d3b1cd550b87ce0eb3b3de86214a36\t{\"Platform_Version\":\"4.2\",\"isTablet\":true}",
        "92bbd036f22311cb361cac6379849ef5\t{\"Platform_Version\":\"7.0\",\"isTablet\":true}",
        "92f1b4c4a825e11c784363fa08d3fe73\t{\"Platform_Version\":\"4.3\",\"isTablet\":true}",
        "9241bad5e764fc96665541549573fb87\t{\"Platform_Version\":\"4.2\",\"isTablet\":true}",
        "92b677c00787339f489bbd723443dc40\t{\"Platform_Version\":\"4.3\",\"isTablet\":true}",
        "9235f64d4ffed357f329b0426489cac5\t{\"Platform_Version\":\"5.1\",\"isTablet\":true}",
        "92fc60e80edc8501bfe74b590d54ec51\t{\"Platform_Version\":\"4.4\",\"isTablet\":true}",
        "9278ac8efa68e705aee352b7ebbad638\t{\"Platform_Version\":\"4.3\",\"isTablet\":true}",
        "92a2a68a35a6045ff8f46c782a4b4ce7\t{\"Platform_Version\":\"4.3\",\"isTablet\":true}",
        "9255c67c0fe9e55091379765841aa7bd\t{\"Platform_Version\":\"4.2\",\"isTablet\":true}",
        "929072f595857cdf82b2d2540457384b\t{\"Platform_Version\":\"4.3\",\"isTablet\":true}",
        "9234bc8ef63932fc29e244d57667b96b\t{\"Platform_Version\":\"9.2\",\"isTablet\":true}",
        "92b085d6b4f2b8eaa9690da774578ad0\t{\"Platform_Version\":\"4.4\",\"isTablet\":true}",
        "9269a95a041d57a2e1fc3b00473494be\t{\"Platform_Version\":\"4.4\",\"isTablet\":true}",
        "925b42aad212f021d98d319062d70530\t{\"Platform_Version\":\"4.2\",\"isTablet\":true}",
        "92ffd42079f074376f1d2aea313a23f9\t{\"Platform_Version\":\"4.2\",\"isTablet\":true}",
        "92826bd11e18e60a4577f11c76aa590c\t{\"Platform_Version\":\"4.2\",\"isTablet\":true}",
        "921149cac116992bc463cfe44199e953\t{\"Platform_Version\":\"5.1\",\"isTablet\":true}",
        "9228c3d2e587c75bf113f6717db0f0bf\t{\"Platform_Version\":\"4.4\",\"isTablet\":true}",
        "92fd7aaac03c0946d436bf9392e89a81\t{\"Platform_Version\":\"4.3\",\"isTablet\":true}",
        "9278bac02879144dcc07d2d3e8e47867\t{\"Platform_Version\":\"4.4\",\"isTablet\":true}",
        "9262c1da45438cb5c65aa044dbb154ff\t{\"Platform_Version\":\"4.2\",\"isTablet\":true}",
        "927d03fe5c56d5d2077494442899000e\t{\"Browser_Bits\":\"32\",\"Platform\":\"Win10\",\"Platform_Version\":\"6.4\",\"Win32\":true}",
        "92f8ec9e49a5bf0ed5902b918ccad359\t{\"Platform_Version\":\"4.2\",\"isTablet\":true}",
        "92733668d99959cc899a45b273fe97ec\t{\"Platform_Version\":\"4.4\",\"isTablet\":true}",
        "92c4018096c5ad1a1892b5ab151d63b3\t{\"Browser_Bits\":\"32\",\"Platform\":\"FreeBSD\"}",
        "92019a450367a842408bdae982bcf018\t{\"Platform_Version\":\"4.3\",\"isTablet\":true}",
        "92a82fc5eee24ad51c12e7a3ef5e7edd\t{\"Platform_Version\":\"4.2\",\"isTablet\":true}",
        "9236794e6bb42fa6695cbfcf9a394851\t{\"Platform_Version\":\"4.2\",\"isTablet\":true}",
        "92b261c0f9289f4d55432f4b7d5d8589\t{\"Platform_Version\":\"9.0\",\"isTablet\":true}",
        "92aec50e6fd2b5d7fdcd320b8188a502\t{\"Platform_Version\":\"8.4\"}",
        "92cd70ce1a51590fd607ed70503e68cd\t{\"Platform_Version\":\"4.3\"}",
        "921772f5036001c173fa81c31d8d3935\t{\"Platform_Version\":\"8.2\",\"isTablet\":true}",
        "92c06037515c07a525a5b571e5e3018c\t{\"Platform_Version\":\"9.3\",\"isTablet\":true}",
        "929325e4483618fb954dbed9c608b2a3\t{\"Platform_Version\":\"4.2\",\"isTablet\":true}",
        "92dc2b827feb43b97bd06772d261cf87\t{\"Platform_Version\":\"4.3\",\"isTablet\":true}",
        "92fdb6550f75d1cb1a3e2667ac1dbf02\t{\"Platform_Version\":\"4.2\",\"isTablet\":true}",
        "92567040cecfcd748377551fa518fe11\t{\"Platform_Version\":\"4.2\",\"isTablet\":true}",
        "9272d2efbc5374ff018f26aa85e67586\t{\"Platform_Version\":\"9.2\"}",
        "92e526f8ea1fc8e60e5bdd8fc05a4638\t{\"Platform_Version\":\"8.4\"}",
        "922340f38d5d4dcb2e1b05ca8fabcb68\t{\"Browser_Bits\":\"32\",\"Platform\":\"WinXP\",\"Platform_Version\":\"5.2\",\"Win32\":true}",
        "92b8ea582c9602d89dbd4a77f08dfb41\t{\"Platform_Version\":\"8.0\",\"isTablet\":true}",
        "9255fa3293725f2523ccd302771be945\t{\"Browser_Bits\":\"32\",\"Platform\":\"MacOSX\",\"Platform_Version\":\"10.10\"}",
        "926f7b1e947315b2a1670d6f5174d643\t{\"Platform_Version\":\"4.2\",\"isTablet\":true}",
        "928247853825f6d975ebb068c0535369\t{\"Platform_Version\":\"4.3\",\"isTablet\":true}",
        "9292ee185a92af30255d4301e3ef328a\t{\"Platform_Version\":\"4.4\",\"isTablet\":true}",
        "92f45ce5aac6d6bf10fbd1dfbb6d328b\t{\"Browser_Bits\":\"32\",\"Platform\":\"MacOSX\",\"Platform_Version\":\"10\"}",
        "92d6e648fd18401f26fc8241eecfc435\t{\"Browser_Bits\":\"32\",\"Platform\":\"Android\",\"isMobileDevice\":true}",
        "92901f74372ee2619ba686cd0c1343b7\t{\"Platform_Version\":\"4.3\"}",
        "92faadc10d854a35c1f384b887e16e80\t{\"Platform_Version\":\"7.1\",\"isTablet\":true}",
        "9286ac5ded5b0cd1b49ba27b8104787f\t{\"Browser_Bits\":\"32\",\"Platform\":\"WinVista\",\"Platform_Version\":\"6.0\",\"Win32\":true}",
        "923a304f25fdd0976254b6ea684e1c34\t{\"Browser_Bits\":\"32\",\"Platform\":\"WinXP\",\"Platform_Version\":\"5.1\",\"Win32\":true}",
        "927bff5695aea3a3e693e5172c4445e0\t{\"Platform_Version\":\"7.1\"}",
        "92637fbd21f62efac2ccd8b693b19860\t{\"Platform_Version\":\"4.3\",\"isTablet\":true}",
        "9239291d206800c32a45b09f9fae1d9f\t{\"Browser_Bits\":\"32\",\"Platform\":\"Win32\",\"Win32\":true}",
        "9233f6a8d6b07cc093c5370f60685a8d\t{\"Browser_Bits\":\"32\",\"Platform\":\"WinVista\",\"Platform_Version\":\"6.0\",\"Win32\":true}",
        "92ed226512c195cc3bebabf7f667a33b\t{\"Browser_Bits\":\"32\",\"Platform\":\"Android\",\"isMobileDevice\":true}",
        "9274e3d573f098a5451a6953e152d1d3\t{\"Platform_Version\":\"8.4\"}",
        "92c629c2795b95e162235c44006e13fc\t{\"Platform_Version\":\"10.0\"}",
        "9212bdd8ff0c9880ffb11b3005c55f41\t{\"Platform_Version\":\"10.3\"}",
        "92a052b396245ab58d43abf813136b60\t{\"Platform_Version\":\"9.0\"}",
        "9216b87799b93424d0ae303b601d6b13\t{\"Platform_Version\":\"9.1\"}",
        "92640939e9d96e68d93eaffdc9502777\t{\"Platform_Version\":\"9.3\"}",
        "92a946a473709cd1ce1ff1fa1b9c2f15\t{\"Platform_Version\":\"8.2\"}",
        "9248bcc0893bc0f560e19b538ec3717b\t{\"Platform_Version\":\"10.3\"}",
        "92d219a2b65ab50bfb485cce8a7ceb39\t{\"Platform_Version\":\"4.2\"}",
        "92910eb73b2e4980ec32a3c65d2e8c4d\t{\"Platform_Version\":\"4.2\"}",
        "921d7279914bdfd1dad0342a0128d896\t[]",
        "92f826c78bc2c51879aa89b45146886b\t[]",
        "92e23322cc43763d2c0dcc75aaaae6ad\t{\"Browser_Bits\":\"32\",\"Platform\":\"Win32\",\"Win32\":true}",
        "92447f04c528899c149adce6aa3afd6e\t{\"Platform\":\"WinXP\",\"Platform_Version\":\"5.1\"}",
        "92c18c9137525605d9c4cf1408a71e13\t[]",
        "9209f4e3440fe8745d218fbd9cca239c\t{\"Browser_Bits\":\"32\",\"Platform\":\"Win8.1\",\"Platform_Version\":\"6.3\",\"Win32\":true}",
        "92c70e571c3381c78c76ab8474d1a702\t{\"Browser_Bits\":\"32\",\"Platform\":\"iOS\",\"Platform_Version\":\"7.1\",\"isMobileDevice\":true,\"isTablet\":true}",
        "920883aa4fb59b77b7d8c53e28f0c169\t[]",
        "926f619820f4e934629206f390936e2c\t{\"Browser_Bits\":\"32\",\"Platform\":\"WinXP\",\"Platform_Version\":\"5.2\",\"Win32\":true}",
        "9203188aa3ba3632ba1af21e2536d62f\t[]",
        "92aa627721f4fc6cbaf2047563cb7c85\t{\"Browser_Bits\":\"32\",\"Platform\":\"WinXP\",\"Platform_Version\":\"5.1\",\"Win32\":true}",
        "9263870f32375c53c31a433f61e354a3\t[]",
        "925f0cd0c6f47e2681ee86d7523a220b\t{\"Browser_Bits\":\"32\",\"Platform\":\"Android\",\"Platform_Version\":\"4.4\"}",
        "92bd5e1f04530746ce9e549589ba4662\t{\"Browser_Bits\":\"32\",\"Platform\":\"RIM OS\"}",
        "9236905432d341a93286e45d5dba5236\t{\"Platform\":\"Win8\",\"Platform_Version\":\"6.2\",\"Win32\":true}",
        "92dc65ee2494caf3f78115c241286608\t{\"Platform\":\"WinVista\",\"Platform_Version\":\"6.0\",\"Win32\":true}",
        "924374c1eb032b7fb5b097d0adea5231\t[]",
        "92ed9cb83bbef5f98b7ef86fb56f7411\t{\"Platform_Version\":\"6.0\"}",
        "92e49e9e143314ea80c8142332ad5f96\t{\"Platform_Version\":\"4.3\"}",
        "928347315ce7f1e1999548af12ce0d73\t{\"Browser_Bits\":\"32\",\"Platform\":\"Android\",\"isMobileDevice\":true}",
        "923f46722447af2c989f144083e244d7\t{\"Platform_Version\":\"4.4\"}",
        "9265cca2f8b98c2191220da9a6cf472b\t{\"Platform_Version\":\"4.2\",\"isTablet\":true}",
        "92bc310247879746b6fd283cf24372b1\t{\"Platform_Version\":\"4.2\",\"isTablet\":true}",
        "92da56264f202a7f7f08bc2bf4c4d45e\t{\"Browser_Bits\":\"32\",\"Platform\":\"iOS\",\"Platform_Version\":\"9.0\",\"isTablet\":true}",
        "92e86b959a40fe41de5bd82c47a257a8\t{\"Browser_Bits\":\"32\",\"Platform\":\"iOS\",\"isTablet\":true}",
        "929c556f146b1c3c33cff6061cd28a2d\t{\"Browser_Bits\":\"32\",\"Platform\":\"iOS\",\"Platform_Version\":\"9.0\",\"isTablet\":true}",
        "922952316ab2b85934b99da324680c91\t{\"Browser_Bits\":\"32\",\"Platform\":\"iOS\",\"Platform_Version\":\"9.0\"}",
        "92c7b62877f9ca8b6a6ca4fcc7fe899f\t{\"Browser_Bits\":\"32\",\"Platform\":\"iOS\",\"Platform_Version\":\"9.3\",\"isTablet\":true}",
        "924a10bcadd86089b18bc808661d5ba4\t{\"Browser_Bits\":\"32\",\"Platform\":\"iOS\",\"Platform_Version\":\"10.2\",\"isTablet\":true}",
        "920ef395598ad0921bb6c9c24b5cd9f4\t{\"Browser_Bits\":\"32\",\"Platform\":\"Android\"}",
        "92b14fe70d0c6f47238f49e99d413ad6\t{\"Browser_Bits\":\"32\",\"Platform\":\"iOS\",\"isTablet\":true}",
        "9272cab5b12b44f18f880b461db92197\t{\"isMobileDevice\":true}",
        "92e85aa70c9d1a38470c3a140ca24340\t{\"Browser_Bits\":\"32\",\"Platform\":\"iOS\",\"Platform_Version\":\"8.0\"}",
        "92adc416f93dc63e03df1f013127d188\t{\"Platform_Version\":\"10.1\",\"isTablet\":true}",
        "9223981b044b6c7fc1c614b11c921ad7\t{\"Platform_Version\":\"8.4\"}",
        "921678e92e2b8dd607241730e779961f\t{\"Platform_Version\":\"10.2\",\"isTablet\":true}",
        "927c63afc33b5ebcf976e7b8a8641865\t{\"Platform_Version\":\"8.0\"}",
        "92cd7c35f98a4652867d6c638438fd8f\t{\"Platform_Version\":\"10.1\"}",
        "9222de7371370eefeb997598ad014e62\t{\"Platform_Version\":\"8.4\"}",
        "9245b0c64c83bd128f741961860e6c19\t{\"Platform_Version\":\"9.1\",\"isTablet\":true}",
        "92101d86de0f1840f17cd926fc30e18f\t{\"Platform_Version\":\"8.4\",\"isTablet\":true}",
        "92ac94375e88f980ab98bae92b0f3791\t{\"Platform_Version\":\"7.0\",\"isTablet\":true}",
        "9271f87c7708822c8f2c660248a7d6c1\t{\"Platform_Version\":\"10.1\"}",
        "927ccda06453934fceabbdd639c9637f\t{\"Platform_Version\":\"10.3\",\"isTablet\":true}",
        "92fa78a6373989778c990ee4c5d3991b\t{\"Platform_Version\":\"8.3\"}",
        "9205a3c8ae75e4816896684c0e35d619\t{\"Platform_Version\":\"8.1\"}",
        "928e53b10238ae9f997c36403846070e\t{\"Platform_Version\":\"7.0\"}",
        "927504b80d13bf09a312cc78f8435e96\t{\"Platform_Version\":\"9.2\"}",
        "92729c609545ed5d165becb259b4c723\t{\"Platform_Version\":\"8.4\",\"isTablet\":true}",
        "925d74df70b76ce2b33cebf141532621\t{\"Platform_Version\":\"10.0\",\"isTablet\":true}",
        "927dc1792ebf27a4825578231d32bdaf\t{\"Platform_Version\":\"9.1\",\"isTablet\":true}",
        "92f2fc2adec494942dd07cb7d8e0a390\t{\"Platform_Version\":\"8.0\",\"isTablet\":true}",
        "922646438b8958e24f44b921ed355fa2\t{\"Platform_Version\":\"9.3\"}",
        "9299045e5b5bd6f21e9e39f1df91fbb3\t{\"Platform_Version\":\"8.3\"}",
        "92dd4231787336a8d6672e3251cc30f2\t{\"Platform_Version\":\"7.1\",\"isTablet\":true}",
        "92ae6d88702edd3fb6abe4bf5c1fbae9\t{\"Platform_Version\":\"9.1\"}",
        "92c0495fa8c0252c5a236775c8cd1a32\t[]",
        "92b6044d9433941c489a580bf8607f76\t{\"Platform_Version\":\"9.2\"}",
        "9257cc8ae611dcc7d964b221e8da003c\t[]",
        "9293abfcce6b07973ddd0d3967f56980\t{\"Platform_Version\":\"10.1\"}",
        "92e127c29a9ab90fbd96b4ba07459e71\t{\"Platform_Version\":\"8.4\"}",
        "92e3b599617913bdca883a4c01b68bbb\t{\"Platform_Version\":\"9.1\"}",
        "92d8f6e196ca8710e80dfb16d18e0252\t{\"Platform_Version\":\"10.3\",\"isTablet\":true}",
        "925c75a8268b170f7cf9aa284fb0a46d\t{\"Platform_Version\":\"8.1\"}",
        "9239f0ec56e8111004d016137d7d4f35\t{\"Platform_Version\":\"10.2\"}",
        "929ab6d103d6d1692cdfcd9907e13aff\t{\"Platform_Version\":\"10.0\"}",
        "92a1996461bfff491b937d7f2c3f779f\t{\"Platform_Version\":\"10.3\"}",
        "92c8f42cb594e003f3b956e6063af982\t{\"Platform_Version\":\"9.3\"}",
        "928c7953b0e124545b061478dc122501\t{\"Platform_Version\":\"10.2\"}",
        "928b8ef125c79fac837949c630fb0e23\t{\"Platform_Version\":\"9.0\"}",
        "924f0e77dab5b50397d24e98facd7014\t{\"Platform_Version\":\"9.1\",\"isTablet\":true}",
        "92493f5da31d18ff0cddcab29700b716\t{\"Platform_Version\":\"10.1\"}",
        "926d607987edc4a8e06ff8bd04506e61\t{\"Browser_Bits\":\"32\",\"Platform\":\"MacOSX\",\"Platform_Version\":\"10.10\"}",
        "9233da49bbf6f556e98bd97685a49603\t{\"Browser_Bits\":\"32\",\"Platform\":\"MacOSX\",\"Platform_Version\":\"10.9\"}",
        "92e4e9d68c9f965e7471d03b5240d196\t[]",
        "92aa1657c62c02674d91ff8aeb3bb3f4\t{\"Platform_Version\":\"10.0\"}",
        "9214d5bb48c09ddcd124cb6e5a5e61df\t{\"Browser_Bits\":\"32\",\"Platform\":\"iOS\",\"Platform_Version\":\"10.0\"}",
        "92beb8860d8de52810766af87c4679c9\t{\"Platform_Version\":\"7.1\"}",
        "9297bd4ef5282ccf58d401068242b90d\t[]",
        "92215a839b435ef082b35f80e48c4de7\t{\"Platform_Version\":\"10.1\"}",
        "9220c1eb0f5b876ba269454a02768d00\t{\"Platform_Version\":\"9.3\"}",
        "921d4e13dde409207f1e57aeac8e1234\t{\"Platform_Version\":\"8.1\",\"isTablet\":true}",
        "9244eb5086bf69e200cad376bd27d6e3\t[]",
        "92a84aa83fbd929726ad956ff8d17e55\t{\"Browser_Bits\":\"32\",\"Platform\":\"Win32\",\"Win32\":true}",
        "92a8efb96c041ed30d953415844bee73\t{\"Platform_Version\":\"9.0\"}",
        "929246193ebe6d2f0a4313c43835ae4b\t{\"Platform_Version\":\"8.1\"}",
        "92f8e571b6b9c5ccdf8b955904719271\t[]",
        "92031c7ddaccd94dd26be09277b87f67\t[]",
        "920f8d4b6e70d8a8a6546642ae916fa5\t{\"Platform\":\"WinVista\",\"Platform_Version\":\"6.0\",\"Win32\":true}",
        "92c8efd1ce0e16367008c539f03baefe\t{\"Browser_Bits\":\"32\",\"Platform\":\"PalmOS\",\"isMobileDevice\":true}",
        "923f1fb3a044b116dcdbaed3616d5d09\t[]",
        "92b35339df051c55a9718cbe17ce40f8\t{\"Browser_Bits\":\"32\",\"Platform\":\"Win8\",\"Platform_Version\":\"6.2\",\"Win32\":true}",
        "92af0a973f5b8a9cc627cf5f789ba2af\t{\"Browser_Bits\":\"32\",\"Platform\":\"HP-UX\"}",
        "92f65b53ef91719995865c75b8350f41\t{\"Browser_Bits\":\"32\",\"Platform\":\"Win32\",\"Win32\":true}",
        "92af3a98d3be8f6b3b5c653458316ba3\t{\"Browser_Bits\":\"32\",\"Platform\":\"Win7\",\"Platform_Version\":\"6.1\",\"Win32\":true}",
        "926da9a6ca34c433323506490f2a02f0\t{\"Browser_Bits\":\"32\",\"Platform\":\"MacOSX\",\"Platform_Version\":\"10\"}",
        "924c0b01f8c180b99eb99f2860d576d9\t{\"Browser_Bits\":\"32\",\"Platform\":\"Win10\",\"Platform_Version\":\"6.4\",\"Win32\":true}",
        "92cf4c7352168c75674e386e526cc04c\t{\"Browser_Bits\":\"32\",\"Platform\":\"macOS\",\"Platform_Version\":\"10.12\"}",
        "92382fd391ea5c5e15f32e494d571588\t{\"Browser_Bits\":\"32\",\"Platform\":\"WinVista\",\"Platform_Version\":\"6.0\",\"Win32\":true}",
        "92223983d26cf048c905b4e347b7a814\t{\"Platform\":\"WinXP\",\"Platform_Version\":\"5.1\"}",
        "92e2345f6a13d4a1b6c6028317df5707\t{\"Browser_Bits\":\"32\",\"Platform\":\"WinXP\",\"Platform_Version\":\"5.2\",\"Win32\":true}",
        "9230d039433b6a063e1435386dfbe76e\t{\"Browser_Bits\":\"32\",\"Platform\":\"Win10\",\"Platform_Version\":\"10.0\",\"Win32\":true}",
        "9245e664955526e5599cd893eee7a095\t{\"Browser_Bits\":\"32\",\"Platform\":\"Win32\",\"Win32\":true}",
        "926dc661577a2756c8b15a92bf5bde92\t[]",
        "921caa8b8e8c1f9f58bb8512bb830fa0\t{\"Browser_Bits\":\"32\",\"Platform\":\"OS\\\/2\"}",
        "921bfa82760f6c1a648ba9ca03d6c2dc\t{\"Browser_Bits\":\"32\",\"Platform\":\"Win8.1\",\"Platform_Version\":\"6.3\",\"Win32\":true}",
        "920c1d59785ccb20e44db506d3a8aead\t{\"Browser_Bits\":\"32\",\"Platform\":\"WinVista\",\"Platform_Version\":\"6.0\",\"Win32\":true}",
        "92276bea5b536b148731b55f5e08216f\t{\"Browser_Bits\":\"32\",\"Platform\":\"SunOS\"}",
        "9228db72fc7cb06845b99caf6f610e51\t{\"Browser_Bits\":\"32\",\"Platform\":\"SunOS\"}",
        "92d26a1de1cca26308bc41ee2fd230ea\t{\"Browser_Bits\":\"32\",\"Platform\":\"WinVista\",\"Platform_Version\":\"6.0\",\"Win32\":true}",
        "9268d7e8e0ad69ab599a4f2cea8a751e\t{\"Browser_Bits\":\"32\",\"Platform\":\"Win8\",\"Platform_Version\":\"6.2\",\"Win32\":true}",
        "92e9836abf68cd65454bc39d73392ff1\t{\"Browser_Bits\":\"32\",\"Platform\":\"FreeBSD\"}",
        "92853863c253689030001c7570466ded\t{\"Browser_Bits\":\"32\",\"Platform\":\"Win8\",\"Platform_Version\":\"6.2\",\"Win32\":true}",
        "92b63e32bc9a4e01e93a80e7d6495243\t{\"Browser_Bits\":\"32\",\"Platform\":\"Win8\",\"Platform_Version\":\"6.2\",\"Win32\":true}",
        "9271e9722761fd0c24b2325d5c1f285c\t{\"isTablet\":true}",
        "9239657c0e6049faf185dda3f10fff31\t{\"Browser_Bits\":\"32\",\"Platform\":\"WinVista\",\"Platform_Version\":\"6.0\",\"Win32\":true}",
        "9289382690be2f6a80ff39ab137a31db\t{\"Platform\":\"Win8.1\",\"Platform_Version\":\"6.3\"}",
        "92087c1e7ec329bd65ab7aee6d67b81c\t{\"Platform\":\"Win10\",\"Platform_Version\":\"6.4\"}",
        "9286a896975147652012d48871abb5d4\t[]",
        "9218be588440828b7636d435b63e6afa\t{\"Browser_Bits\":\"32\",\"Platform\":\"Linux\"}",
        "9223f8b908c5d7807740a725d897a456\t{\"Browser_Bits\":\"32\",\"Platform\":\"FreeBSD\"}",
        "92e0658b9cfac5b264c6ecdb868877e6\t{\"Browser_Bits\":\"32\",\"Platform\":\"Win32\",\"Win32\":true}",
        "923a75e11dafd51088857aea2dc7138b\t{\"Browser_Bits\":\"32\",\"Platform\":\"Win8.1\",\"Platform_Version\":\"6.3\",\"Win32\":true}",
        "92eac61d28197f6b94c674a36ea0300a\t{\"Platform_Version\":\"6.1\",\"isTablet\":true}",
        "9272617ee9be30faf5023e2f9a80d19f\t[]",
        "92b25360043912a3b19c827530e8cb23\t{\"Browser_Bits\":\"32\",\"Platform\":\"WinXP\",\"Platform_Version\":\"5.1\",\"Win32\":true}",
        "9235924973babcf21b33e1f0dfb83974\t{\"Browser_Bits\":\"32\",\"Platform\":\"MacOSX\",\"Platform_Version\":\"10.9\"}",
        "923bcf6051000a078fc123810a769889\t{\"Browser_Bits\":\"32\",\"Platform\":\"NetBSD\"}",
        "92adad619aa5215ab4a901db0eea0217\t{\"Browser_Bits\":\"32\",\"Platform\":\"WinXP\",\"Platform_Version\":\"5.1\",\"Win32\":true}",
        "92abff9bf88197532662b32fad02860a\t{\"Browser_Bits\":\"32\",\"Platform\":\"FreeBSD\"}",
        "92ca6c2832b213e6c2209a0004e40216\t{\"Browser_Bits\":\"32\",\"Platform\":\"NetBSD\"}",
        "9289069e5bc688b99e11ed14f6af7a43\t{\"Browser_Bits\":\"32\",\"Platform\":\"MacOSX\",\"Platform_Version\":\"10.9\"}",
        "92c3d2547be01f9dc1ca77eee809e491\t{\"Browser_Bits\":\"32\",\"Platform\":\"MacOSX\",\"Platform_Version\":\"10.11\"}",
        "92bdef4f66711d8828bf9fca888fb37e\t{\"Browser_Bits\":\"32\",\"Platform\":\"Win32\",\"Win32\":true}",
        "92db45415d68c01675c9e22b60abc200\t{\"Browser_Bits\":\"32\",\"Platform\":\"Win8\",\"Platform_Version\":\"6.2\",\"Win32\":true}",
        "92621683e70b8cff29288c4b279b2700\t{\"Browser_Bits\":\"32\",\"Platform\":\"Win8.1\",\"Platform_Version\":\"6.3\",\"Win32\":true}",
        "924713fbc96ee00b7af2bbb9827e6dd7\t{\"Browser_Bits\":\"32\",\"Platform\":\"Win8\",\"Platform_Version\":\"6.2\",\"Win32\":true}",
        "9218262cf8989090e02cb7934faa3930\t{\"Browser_Bits\":\"32\",\"Platform\":\"FreeBSD\"}",
        "92bc80029691f53c5756d65d65211a8f\t{\"Browser_Bits\":\"32\",\"Platform\":\"Win8\",\"Platform_Version\":\"6.2\",\"Win32\":true}",
        "9220dee76f8917b7e63a4f4bd1de1b32\t[]",
        "92d87f745f40cbaef0d1db13e4d414bf\t[]",
        "9201d96b4a70d5230e463067ef8a251a\t{\"Platform_Version\":\"5.0\"}",
        "9277e2af5b4b94aa92dcdeb6fb905912\t[]",
        "9209dd183eef2a8525e4ee86112506a9\t{\"Browser_Bits\":\"32\",\"Platform\":\"iOS\",\"isMobileDevice\":true}",
        "92e3002a199330f1baa32ecc8efe3810\t[]",
        "92b561504f5f1f86d47bf835d17715db\t{\"isMobileDevice\":true}",
        "92a1968b0b260b35caa1f9609868e68e\t{\"Browser_Bits\":\"32\",\"Platform\":\"WinXP\",\"Platform_Version\":\"5.1\",\"Win32\":true}",
        "92618bcd6964ee13a3d69c583f9b5c54\t{\"Browser_Bits\":\"32\",\"Platform\":\"SunOS\"}",
        "92f2d2bd55b5d80e5d3557b49f8b8782\t[]",
        "929e82a6653a092f0b1f7f8bcdf844c0\t{\"Platform_Version\":\"8.4\"}",
        "9283ba371bfe0a9123ac64a8e51efb60\t{\"Platform_Version\":\"10.10\"}"
    ]
}