{
    "content": [
        "29d9a5582502e1f34726be396e88dfee\t[]",
        "294aa8f4329d3fc8845a24a910e2618c\t[]",
        "29e3d59583ca04700b7cd06a75734bdf\t{\"Browser_Bits\":\"32\",\"Platform\":\"WinXP\",\"Platform_Version\":\"5.2\",\"Win32\":true}",
        "2907c9cb578d903dec6921bf0a42d28d\t{\"Browser_Bits\":\"32\",\"Platform\":\"Android\"}",
        "29924bb14a029222f8115d348293f977\t[]",
        "29d2cf13f7d1ac7db31d02746d3d03ab\t[]",
        "299728267f194ed4238d5fae5c92f228\t[]",
        "292952fca92cad3a610b638c3b2b01c5\t[]",
        "29738a5e749d6daca615db7fe6703474\t{\"Browser_Bits\":\"32\",\"Platform\":\"WinXP\",\"Platform_Version\":\"5.1\",\"Win32\":true}",
        "29eb0ab16438177dfbe2d8ac4257b044\t[]",
        "2986facc65ee039101316dd601bdbc4b\t{\"Browser_Bits\":\"32\",\"Platform\":\"Win8\",\"Platform_Version\":\"6.2\",\"Win32\":true}",
        "29823fb441ae6f8f0d17cc6c1ad7a0f8\t{\"Browser_Bits\":\"32\",\"Platform\":\"Win8.1\",\"Platform_Version\":\"6.3\",\"Win32\":true}",
        "2951209ca2f32aa7d3c1356981dd63b5\t{\"Platform\":\"iOS\",\"Win32\":false,\"isMobileDevice\":true,\"isTablet\":true}",
        "29b63f0ec7c29d6dc1e5271b2fcc6284\t{\"Platform\":\"iOS\",\"Platform_Version\":\"10.3\",\"Win32\":false,\"isMobileDevice\":true,\"isTablet\":true}",
        "29378c0fe0f35ee121426f9d3feb4654\t{\"Platform\":\"iOS\",\"Platform_Version\":\"10.1\",\"Win32\":false,\"isMobileDevice\":true,\"isTablet\":true}",
        "29269d923b1a54c3d0c8b3b32299f031\t{\"Platform\":\"iOS\",\"Platform_Version\":\"9.3\",\"Win32\":false,\"isMobileDevice\":true,\"isTablet\":true}",
        "29bdb7e60a225f25b28f7b583b5055f1\t{\"Platform_Version\":\"10.3\"}",
        "29e5ee047bdebf71e7043096a759897a\t{\"Platform_Version\":\"4.4\",\"isTablet\":true}",
        "290b26d9cc8a552c4ecf8c453cbf3aca\t{\"Platform_Version\":\"8.4\",\"isTablet\":true}",
        "29462dcfb78d8c7b9c4c04ae5d525218\t{\"Platform\":\"iOS\",\"Platform_Version\":\"9.1\",\"Win32\":false,\"isMobileDevice\":true,\"isTablet\":true}",
        "2902da01f8f91d29f58edbe3c3e30ecb\t{\"Platform\":\"iOS\",\"Platform_Version\":\"9.1\"}",
        "297e464032fee510378afb68faf64684\t{\"Platform_Version\":\"4.4\",\"isTablet\":true}",
        "298cbfa5ddc7769a6c1ef4133e7341a7\t{\"Platform\":\"iOS\",\"Platform_Version\":\"9.0\",\"isTablet\":true}",
        "29d1aa0be8f83cff19eef0140fbd8632\t[]",
        "2995839481d2c1421683a0e8b3d6d4f1\t{\"Platform_Version\":\"4.4\"}",
        "29134b9987e688148b96957cac353ed8\t{\"Browser_Bits\":\"32\",\"Platform\":\"WinXP\",\"Platform_Version\":\"5.1\",\"Win32\":true}",
        "294049ca96c8c025652ee8b1b8be2c56\t[]",
        "290386919ade53dd0b2df4568553b433\t{\"Platform_Version\":\"4.2\",\"isMobileDevice\":false}",
        "29d9d3411615e69ca562cfe1861a4455\t{\"Platform\":\"iOS\",\"Platform_Version\":\"7.1\"}",
        "29491ecca547250b8937425b406b2e2f\t{\"Platform_Version\":\"8.1\",\"isTablet\":true}",
        "293a07409c83c2769fab31c0421172ef\t{\"Platform_Version\":\"8.1\",\"isTablet\":true}",
        "29917d3b25bc91383b5b6dd029517013\t{\"Browser_Bits\":\"32\",\"Platform\":\"WinVista\",\"Platform_Version\":\"6.0\",\"Win32\":true}",
        "29786fa7e7ba3f99e99e24e88ada19bb\t{\"Platform\":\"iOS\",\"Platform_Version\":\"9.0\"}",
        "2989c4bf5b47d0beeac892b374f62dd4\t{\"Platform\":\"WinXP\",\"Platform_Version\":\"5.1\"}",
        "29e863e14801c3b4348fd65c831b5d02\t{\"Platform\":\"WinVista\",\"Platform_Version\":\"6.0\",\"Win32\":true}",
        "29dfc92873fa6ec61a4e9ba7488125f3\t{\"Platform\":\"Win8\",\"Platform_Version\":\"6.2\",\"Win32\":true}",
        "293e12b2784efebcccaa5623508b84df\t{\"Platform\":\"Win8\",\"Platform_Version\":\"6.2\",\"Win32\":true}",
        "29db16d40a7cdff0bc51f46995727fac\t{\"Platform\":\"Win8.1\",\"Platform_Version\":\"6.3\",\"Win32\":true}",
        "298b0411375760fcedf623429832c981\t{\"Browser_Bits\":\"32\",\"Platform\":\"Linux\"}",
        "29298f9a09993ba370344a2e97816c6f\t{\"Platform\":\"WinXP\",\"Platform_Version\":\"5.1\",\"Win32\":true}",
        "29bb89d0f433bd7c2299e0bf8b5f8d8a\t{\"Platform\":\"WinVista\",\"Platform_Version\":\"6.0\",\"Win32\":true}",
        "29568cb664fbae97ed236d2b8bf30e9a\t{\"Platform\":\"Win8\",\"Platform_Version\":\"6.2\",\"Win32\":true}",
        "2915d8f35f6130d8eddaea019f6dee1c\t{\"Browser_Bits\":\"32\",\"Platform\":\"Linux\"}",
        "29b06f8a8d2526bc3ba40a76974d7048\t{\"Platform_Version\":\"4.4\",\"isTablet\":true}",
        "2927e66e3e6f9a0435c489773347d908\t{\"Platform_Version\":\"4.4\",\"isTablet\":true}",
        "29b38265c5f0024ef329a366772d30d6\t{\"Platform_Version\":\"4.3\",\"isTablet\":true}",
        "2961b79e20f60dc64e4e681e82434107\t{\"Platform_Version\":\"4.3\"}",
        "2971e509f97f019df41b768a40740225\t{\"Platform_Version\":\"7.0\"}",
        "29906991d05047d53d8740640a515fb7\t{\"Platform_Version\":\"4.3\",\"isTablet\":true}",
        "296e1ada66b97a17dfc4deddea2127f7\t{\"Platform_Version\":\"4.3\",\"isTablet\":true}",
        "2967c6e0671f116157996e09e5b48de0\t{\"Platform_Version\":\"4.3\",\"isTablet\":true}",
        "29150fedf86c8ba46d20cc75050bb658\t[]",
        "29bd570a14006af4dedf58a9324648e4\t{\"Platform_Version\":\"4.3\",\"isTablet\":true}",
        "29438da568b026886ac8e1cddc71ceee\t{\"Platform_Version\":\"4.2\",\"isTablet\":true}",
        "2964c363ad8bccaf735facb2a898eae3\t{\"Platform_Version\":\"4.4\",\"isTablet\":true}",
        "29be350be5c1ab5e64d6cf252a5a42e1\t{\"Platform_Version\":\"4.2\",\"isTablet\":true}",
        "29be5f91468ee09b81cf52489138b3c8\t{\"Browser_Bits\":\"32\",\"Platform\":\"Android\",\"Platform_Version\":\"6.0\"}",
        "294ed69e1e82e93eeef2f1bf00b3ebb9\t{\"Browser_Bits\":\"32\",\"Platform\":\"Android\",\"Platform_Version\":\"6.0\"}",
        "294c55266a401bff07b456b1b9c65c60\t{\"Browser_Bits\":\"32\",\"Platform\":\"Android\",\"Platform_Version\":\"4.2\"}",
        "29f5425f4910c5892f0bd105acddab03\t{\"Browser_Bits\":\"32\",\"Platform\":\"Android\",\"Platform_Version\":\"6.0\"}",
        "2957b687d7b10e3a66c96cca682bd06b\t{\"Platform_Version\":\"8.1\"}",
        "2979d8694d467915033f88c050a74f98\t{\"Platform_Version\":\"4.4\",\"isTablet\":true}",
        "296736cf34249bc08f090da8495fe153\t{\"Browser_Bits\":\"32\",\"Platform\":\"Win10\",\"Platform_Version\":\"10.0\",\"Win32\":true}",
        "29ee17508025174649d87e52fb30a2ea\t{\"Platform_Version\":\"4.2\",\"isTablet\":true}",
        "29b53668ffd782f5aafb5c161ab7288b\t{\"Platform_Version\":\"8.3\"}",
        "29fc1be76b236b7efb67c868ac308b0d\t{\"Platform_Version\":\"8.3\"}",
        "29d9ed08e5c231b7726e7845a56f7cdd\t[]",
        "29a4c6fd6b7a701ceb698cba236fe50a\t{\"Platform_Version\":\"7.1\"}",
        "293be2926d1ac5a41818f6a0e79bb4eb\t{\"Platform_Version\":\"8.4\"}",
        "29bc9a2ee6abb71b37e29cb44e87be20\t{\"Browser_Bits\":\"32\",\"Platform\":\"Win10\",\"Platform_Version\":\"10.0\",\"Win32\":true}",
        "292075e328196c93b885ea62d24a3f5f\t{\"Platform_Version\":\"10.0\"}",
        "2967330e77b461ac596561f240d0b999\t{\"Platform_Version\":\"4.2\",\"isTablet\":true}",
        "29a90270cd8ff3824167062ef3c2fe30\t{\"Platform_Version\":\"4.4\",\"isTablet\":true}",
        "29daaefebab8edcefa7e820a7ee83710\t{\"Platform_Version\":\"9.2\",\"isTablet\":true}",
        "29059f556a1527c5928bff92ebf6cd7a\t{\"Browser_Bits\":\"32\",\"Platform\":\"Win10\",\"Platform_Version\":\"6.4\",\"Win32\":true}",
        "29e5ed4a237ae87a8c430cb68a29d869\t{\"Platform_Version\":\"9.0\"}",
        "2985d701c4bd6fe8cecb4ca205dc9dc2\t{\"Platform_Version\":\"10.2\"}",
        "29e110d90aa637d368564410631d68f7\t{\"Platform_Version\":\"4.2\",\"isTablet\":true}",
        "29b6f9fd7ee16deff1c4218c151c66e1\t{\"Platform_Version\":\"4.4\",\"isTablet\":true}",
        "29052a36210ed8dea7d96307dfa457c2\t{\"Platform_Version\":\"4.2\",\"isTablet\":true}",
        "2989736400ee4a54dcd49a628625f2f1\t{\"Platform_Version\":\"10.1\",\"isTablet\":true}",
        "29e988c101aaced03f572652ea6352ab\t{\"Platform_Version\":\"4.3\",\"isTablet\":true}",
        "29f18f7bc57bf58cf65630a3fb2a0a7e\t{\"Platform_Version\":\"6.0\"}",
        "29d20367b17e9668dfc93ce13e0beab0\t{\"Platform_Version\":\"7.1\"}",
        "2970c416e3f60a97664c91d713ddfb2f\t{\"Platform_Version\":\"4.2\",\"isTablet\":true}",
        "2999ee8a341daf34a438b5064c2599e3\t{\"Platform_Version\":\"4.2\",\"isTablet\":true}",
        "29142ea53245808c9312b42d960bc469\t{\"Platform_Version\":\"4.2\",\"isTablet\":true}",
        "296412fbb6ccf75d57087d7613b262c4\t{\"Platform_Version\":\"4.2\",\"isTablet\":true}",
        "29ae6c5c2840c0dbbe50ea24a6d9f69a\t{\"Platform_Version\":\"4.3\",\"isTablet\":true}",
        "29bbaf92bc2e768809e7cf9970df765c\t{\"Browser_Bits\":\"32\",\"Platform\":\"Android\",\"Platform_Version\":\"4.4\"}",
        "2950d8e2c9a8d3599c33eb3bbf2a91a2\t{\"Browser_Bits\":\"32\",\"Platform\":\"FreeBSD\"}",
        "293e2098e62628e81c309a4afd9c24c7\t[]",
        "29b3adf9eb8e57a18fc1f8996734dc1a\t{\"Browser_Bits\":\"32\",\"Platform\":\"WinXP\",\"Platform_Version\":\"5.2\",\"Win32\":true}",
        "29dd266182f38138ab77d7f67eb38edb\t{\"Browser_Bits\":\"32\",\"Platform\":\"WinXP\",\"Platform_Version\":\"5.2\",\"Win32\":true}",
        "29d843a3cd8a619d470be91db9c18c05\t{\"Browser_Bits\":\"32\",\"Platform\":\"WinVista\",\"Platform_Version\":\"6.0\",\"Win32\":true}",
        "29b3868451588a32ef2d3cbe258dca03\t{\"Browser_Bits\":\"32\",\"Platform\":\"WinVista\",\"Platform_Version\":\"6.0\",\"Win32\":true}",
        "2902088183ce963892e3a82d7ca4f50e\t{\"Browser_Bits\":\"32\",\"Platform\":\"Win8\",\"Platform_Version\":\"6.2\",\"Win32\":true}",
        "29be8b41b7ee3692e49ee7c366b88984\t{\"Browser_Bits\":\"32\",\"Platform\":\"WinXP\",\"Platform_Version\":\"5.1\",\"Win32\":true}",
        "290c58d52fdb78e9c75d5ced159067a5\t{\"Browser_Bits\":\"32\",\"Platform\":\"Win7\",\"Platform_Version\":\"6.1\",\"Win32\":true}",
        "293aa27f205dd8620ca86e5592d96baa\t{\"Browser_Bits\":\"32\",\"Platform\":\"MacOSX\",\"Platform_Version\":\"10\"}",
        "29bb6481b4d8e2aa90e82a812d8301b7\t{\"Browser_Bits\":\"32\",\"Platform\":\"WinVista\",\"Platform_Version\":\"6.0\",\"Win32\":true}",
        "299410d37947bbc5c543b60dbf765f4f\t{\"Browser_Bits\":\"32\",\"Platform\":\"WinVista\",\"Platform_Version\":\"6.0\",\"Win32\":true}",
        "297b61d0c68b676e6f89e66541e9cf5d\t{\"Browser_Bits\":\"32\",\"Platform\":\"Win8\",\"Platform_Version\":\"6.2\",\"Win32\":true}",
        "29c01704640aaa45b2a8f55cfb5e6376\t{\"Browser_Bits\":\"32\",\"Platform\":\"WinXP\",\"Platform_Version\":\"5.1\",\"Win32\":true}",
        "2923691d0efa2002063676baa1529847\t{\"Browser_Bits\":\"32\",\"Platform\":\"Win8.1\",\"Platform_Version\":\"6.3\",\"Win32\":true}",
        "29dc6e26ab41a99b58c08c86b7433bc9\t{\"Browser_Bits\":\"32\",\"Platform\":\"Win32\",\"Win32\":true}",
        "291d7323f9c646c0215ff42b7eaa4a2d\t{\"Browser_Bits\":\"32\",\"Platform\":\"Win8\",\"Platform_Version\":\"6.2\",\"Win32\":true}",
        "292e0fc27217dac16f18436f63ebf5be\t{\"Browser_Bits\":\"32\",\"Platform\":\"WinXP\",\"Platform_Version\":\"5.2\",\"Win32\":true}",
        "29dbbb23ab9c00c6a27ba7a1d6967f3a\t[]",
        "294ff8c04387d29daa311a002b96e662\t[]",
        "2903085462bedf65270beda6c2e28fc3\t{\"Browser_Bits\":\"32\",\"Platform\":\"Win8.1\",\"Platform_Version\":\"6.3\",\"Win32\":true}",
        "2991eab093395775cf1a7d4f61820173\t{\"Browser_Bits\":\"32\",\"Platform\":\"Win7\",\"Platform_Version\":\"6.1\",\"Win32\":true}",
        "29d60e0467702460abc311898c29b162\t{\"Browser_Bits\":\"32\",\"Platform\":\"MacOSX\",\"Platform_Version\":\"10.10\"}",
        "29f9d87f8d614a5f5b211a02b4575caf\t{\"Browser_Bits\":\"32\",\"Platform\":\"WinVista\",\"Platform_Version\":\"6.0\",\"Win32\":true}",
        "29a0789e6da8672d68da6d2817319549\t{\"Browser_Bits\":\"32\",\"Platform\":\"Win8\",\"Platform_Version\":\"6.2\",\"Win32\":true}",
        "291ee48433f0413da538cc6e4048ad9a\t{\"Browser_Bits\":\"32\",\"Platform\":\"WinXP\",\"Platform_Version\":\"5.2\",\"Win32\":true}",
        "29f7821e54b31f9da337565fbec1e265\t{\"Browser_Bits\":\"32\",\"Platform\":\"MacOSX\",\"Platform_Version\":\"10\"}",
        "29ff6e79350692bf5182e5a1348fa846\t{\"Browser_Bits\":\"32\",\"Platform\":\"Win8.1\",\"Platform_Version\":\"6.3\",\"Win32\":true}",
        "29213a69cdd631c16d8b64ce434606c7\t{\"Browser_Bits\":\"32\",\"Platform\":\"WinXP\",\"Platform_Version\":\"5.1\",\"Win32\":true}",
        "2976cce497d5e51cf575dbc379a90dcd\t{\"Browser_Bits\":\"32\",\"Platform\":\"Win8.1\",\"Platform_Version\":\"6.3\",\"Win32\":true}",
        "2962ce05d88f74c1902bcc69cc5d7287\t{\"Browser_Bits\":\"32\",\"Platform\":\"Win7\",\"Platform_Version\":\"6.1\",\"Win32\":true}",
        "293f7fbaed817091edb0b3a409b20bf5\t{\"Browser_Bits\":\"32\",\"Platform\":\"WinVista\",\"Platform_Version\":\"6.0\",\"Win32\":true}",
        "297db15cbdfecef9ff01d379a99ea441\t{\"Browser_Bits\":\"32\",\"Platform\":\"WinVista\",\"Platform_Version\":\"6.0\",\"Win32\":true}",
        "29498a4d24c857a10848f8c5af3a9cf8\t{\"Browser_Bits\":\"32\",\"Platform\":\"Win8\",\"Platform_Version\":\"6.2\",\"Win32\":true}",
        "29efc8bfafca3f0bdb03eebfc4e624dd\t{\"Browser_Bits\":\"32\",\"Platform\":\"Win8.1\",\"Platform_Version\":\"6.3\",\"Win32\":true}",
        "2939c9fb1175407ea7c4fb7f7a8fc81c\t{\"Browser_Bits\":\"32\",\"Platform\":\"Win8.1\",\"Platform_Version\":\"6.3\",\"Win32\":true}",
        "293cba4c84182837e2ef8fb7c1db6553\t{\"Browser_Bits\":\"32\",\"Platform\":\"Win8\",\"Platform_Version\":\"6.2\",\"Win32\":true}",
        "29cee3baa31cbd0963e0f3fb10704137\t{\"Browser_Bits\":\"32\",\"Platform\":\"WinVista\",\"Platform_Version\":\"6.0\",\"Win32\":true}",
        "29ffe77460f14cba930b7ebcaba2f195\t{\"Browser_Bits\":\"32\",\"Platform\":\"Win8.1\",\"Platform_Version\":\"6.3\",\"Win32\":true}",
        "29b3cf9340921f3ef3a78f19777e43a2\t{\"Browser_Bits\":\"32\",\"Platform\":\"WinXP\",\"Platform_Version\":\"5.1\",\"Win32\":true}",
        "29c6eb2e4275d5aa9dd714d6c9c7b029\t{\"Browser_Bits\":\"32\",\"Platform\":\"WinXP\",\"Platform_Version\":\"5.2\",\"Win32\":true}",
        "29d735a87eab1e223235fdc3472a6571\t{\"Browser_Bits\":\"32\",\"Platform\":\"Win8\",\"Platform_Version\":\"6.2\",\"Win32\":true}",
        "29f02facc2b52e7cefd683a02810b835\t{\"Browser_Bits\":\"32\",\"Platform\":\"Win7\",\"Platform_Version\":\"6.1\",\"Win32\":true}",
        "29cf4dedf1015913784d059530149ced\t{\"Browser_Bits\":\"32\",\"Platform\":\"WinVista\",\"Platform_Version\":\"6.0\",\"Win32\":true}",
        "290fa3197d8f0c56b12c352ba954d05f\t{\"Browser_Bits\":\"32\",\"Platform\":\"Win8\",\"Platform_Version\":\"6.2\",\"Win32\":true}",
        "29ffe1ea32769f00c56eb0656b1f5eab\t[]",
        "298e5182cef1cd76abfc17b402b67cd9\t[]",
        "29adc016a572f5a1b57ecf8ab7e0071f\t{\"Platform_Version\":\"8.3\",\"isTablet\":true}",
        "29206ddbf5244d1f419afe8321d15350\t{\"Browser_Bits\":\"32\",\"Platform\":\"WinXP\",\"Platform_Version\":\"5.1\",\"Win32\":true}",
        "29d511c1c1ffc346c921c9969b0288b3\t{\"Browser_Bits\":\"32\",\"Platform\":\"Android\",\"isMobileDevice\":true}",
        "29f8635ce72c1d8e74757ff58e9deb1d\t{\"Browser_Bits\":\"32\",\"Platform\":\"Android\",\"Platform_Version\":\"4.4\"}",
        "299631c98770dbe8f6792b166b086a0e\t{\"Browser_Bits\":\"32\",\"Platform\":\"iOS\",\"Platform_Version\":\"9.3\"}",
        "29e8f0fae96dc45b33500f680d9ecbc0\t{\"Browser_Bits\":\"32\",\"Platform\":\"WinVista\",\"Platform_Version\":\"6.0\",\"Win32\":true}",
        "2936a2d7fbbb6f839f689c823a4903fb\t[]",
        "292764070076c432313956f388ab73ae\t{\"Browser_Bits\":\"32\",\"Platform\":\"ChromeOS\"}",
        "29de1d6cb564aa26f45580e90a6d57cd\t{\"Browser_Bits\":\"32\",\"Platform\":\"MacOSX\",\"Platform_Version\":\"10\"}",
        "29afd5e553cb5681ecd75e8863ad1884\t{\"isTablet\":true}",
        "290ec3b1d274b2df48247a4bdd3bce08\t[]",
        "29fca6f0f313472055b3e777779688fd\t{\"Browser_Bits\":\"32\",\"Platform\":\"MacOSX\",\"Platform_Version\":\"10.9\"}",
        "2915151afe1f5fe57c9b0df5c8bb236d\t{\"Platform_Version\":\"4.2\",\"isTablet\":true}",
        "291e2289da551a0d5966efe312bda395\t{\"Platform_Version\":\"4.2\",\"isTablet\":true}",
        "29e29ffd78bf29546c3394fdbff0a667\t{\"Platform_Version\":\"4.4\",\"isTablet\":true}",
        "2945e1fd90379eb21fd7847d2cd78cb1\t{\"Platform_Version\":\"4.2\",\"isTablet\":true}",
        "29c5fe2ec75f26c7e60ba6fb762b830e\t{\"Platform_Version\":\"4.2\",\"isTablet\":true}",
        "29c0169cabfc7b271cfd0598e82f319c\t{\"Platform_Version\":\"4.4\",\"isTablet\":true}",
        "29df71b0eb84d20ef6cc0a9d92a78e9a\t[]",
        "29a4eb263835687121ae0b739caded96\t{\"Platform_Version\":\"4.2\",\"isTablet\":true}",
        "29b277d6bc3c72d353c119a381bf9ea9\t{\"Platform_Version\":\"4.4\",\"isTablet\":true}",
        "29beaf7db11e664718ccf900da22a6e9\t{\"Platform_Version\":\"4.2\",\"isTablet\":true}",
        "290a25249b720b27a86b11a906949245\t{\"Platform_Version\":\"4.3\",\"isTablet\":true}",
        "29eaf9e7dd425f4eaf2180ae5efef7d9\t{\"Platform_Version\":\"4.2\",\"isTablet\":true}",
        "298a519e9f8dfd52a4c48131b49551f8\t{\"Platform_Version\":\"4.3\",\"isTablet\":true}",
        "295a954bb91f149a6cee32b21ec37dc7\t{\"Platform_Version\":\"4.2\",\"isTablet\":true}",
        "29f1fadf34c320e124c5a6675d9316da\t{\"Platform_Version\":\"7.1\",\"isTablet\":true}",
        "29540137ad30e7a6fbebe0899c15760f\t{\"Platform_Version\":\"8.2\"}",
        "29230ac1f3dfeaafef326c074e9efa87\t{\"Platform_Version\":\"4.3\",\"isTablet\":true}",
        "2954cec3d3852baf4fcc5418d6918b87\t{\"Platform_Version\":\"4.2\",\"isTablet\":true}",
        "292ccccc239c496fab7f94866745c734\t{\"Platform_Version\":\"4.2\",\"isTablet\":true}",
        "2987c0e750f29e2699644621f724a6e5\t{\"Platform_Version\":\"4.4\",\"isTablet\":true}",
        "29bae81c49ec9e65915be6d7f1eb1458\t{\"Platform_Version\":\"4.4\",\"isTablet\":true}",
        "29151fab97a94d3227fa918ae7ee51e0\t{\"Platform_Version\":\"4.2\",\"isTablet\":true}",
        "293c3cc51cce18e42211c3cf689448d5\t{\"Platform_Version\":\"10.2\",\"isTablet\":true}",
        "2992739e8709ddd7b1f2114e5add965c\t{\"Platform_Version\":\"4.2\",\"isTablet\":true}",
        "294d6712e58525161c6003d667870f0f\t{\"Platform_Version\":\"4.2\",\"isTablet\":true}",
        "29c0c860d670c2244e67bd80e2358d1d\t{\"Platform_Version\":\"4.4\",\"isTablet\":true}",
        "29359fca6c0803cca02734cca03caeb8\t{\"Platform_Version\":\"4.2\",\"isTablet\":true}",
        "2944c76f6202fd986150147adcc66eb8\t{\"Platform_Version\":\"4.2\",\"isTablet\":true}",
        "291aab0ca6e80f8c52a7e7f9555a9477\t{\"Platform_Version\":\"4.2\",\"isTablet\":true}",
        "29ae01aaf4a9378e8c35b584d497fe5f\t{\"Platform_Version\":\"4.2\",\"isTablet\":true}",
        "29f35dd13acd4f717d07c40384ae151b\t{\"Platform_Version\":\"4.3\",\"isTablet\":true}",
        "29a68452e912a4c4e2f6ffe661f44bd7\t{\"Platform_Version\":\"4.4\",\"isTablet\":true}",
        "2917d64af4ee8a769894f4c29a32071b\t{\"Platform_Version\":\"10.0\",\"isTablet\":true}",
        "293463d63b2c4274fb9ed1e7205e506e\t{\"Platform_Version\":\"9.1\"}",
        "2989c4c8d5a52cc998e8e0ad7a0a558b\t{\"Platform_Version\":\"4.4\",\"isTablet\":true}",
        "297bb709cf995d269c80ac3c931300d6\t{\"Platform_Version\":\"4.2\",\"isTablet\":true}",
        "2981df3566c5af6b3daa14de35f191ba\t{\"Platform_Version\":\"8.0\"}",
        "29c8dc40354a88c82343daf6eb0da1ac\t{\"Platform_Version\":\"4.2\",\"isTablet\":true}",
        "290bacc77d6b3530aaa50fafc0fbdba3\t{\"Platform_Version\":\"4.2\",\"isTablet\":true}",
        "296fbb93df81c91df82a3e2441fba7a9\t{\"Platform_Version\":\"9.3\",\"isTablet\":true}",
        "29edb076c7eb3fdabf9af96963224fce\t{\"Platform_Version\":\"8.3\"}",
        "29e5ddc9fba17890d69bb41795ce9259\t{\"Browser_Bits\":\"32\",\"Platform\":\"Win8.1\",\"Platform_Version\":\"6.3\",\"Win32\":true}",
        "2915bfde2e611507d382edcce2d1fcd9\t{\"Platform_Version\":\"4.4\",\"isTablet\":true}",
        "2910cf0087205ea04c1b4e104b464e9b\t{\"Platform_Version\":\"4.3\",\"isTablet\":true}",
        "293cd29e483fb501966c80d73cdd8623\t{\"Platform_Version\":\"4.3\",\"isTablet\":true}",
        "297cd3d66502190ec52b587e8286fe33\t{\"Platform_Version\":\"4.3\",\"isTablet\":true}",
        "294f610016cf102378aed412e9a1581d\t{\"Platform_Version\":\"4.2\",\"isTablet\":true}",
        "29388f42745f45bd16cb2e606cfab92b\t{\"Platform_Version\":\"4.2\",\"isTablet\":true}",
        "294db690ca4637b43f31f436a3e4b364\t{\"Platform_Version\":\"4.3\",\"isTablet\":true}",
        "29da42f9f152ba990125889b9362a805\t{\"Platform_Version\":\"4.4\",\"isTablet\":true}",
        "29968d8dce8e341fda4f95f4235c2178\t{\"Browser_Bits\":\"32\",\"Platform\":\"OpenBSD\"}",
        "297b6e43b68f3439c808d033532d6bca\t{\"Platform_Version\":\"4.2\",\"isTablet\":true}",
        "29e67478686e8fdb8aa9506d62f9ac82\t{\"Browser_Bits\":\"32\",\"Platform\":\"Android\",\"isMobileDevice\":true}",
        "29fc9639913c74284ba1cd5b4499715e\t[]",
        "2939c3ff21ee14b63552531be5723ed5\t[]",
        "29bc37aa1d279292bd2586bf2037e3a9\t{\"Platform_Version\":\"9.3\",\"isTablet\":true}",
        "299da12cc11234bc832f369a410255e6\t{\"Platform_Version\":\"8.2\",\"isTablet\":true}",
        "29d2cde041e477d40b49abddb8ba8fa9\t{\"Browser_Bits\":\"32\",\"Platform\":\"WinXP\",\"Platform_Version\":\"5.1\",\"Win32\":true}",
        "29a73e09b56313304326aecbfadcc735\t[]",
        "29912c229a4d517f535e832267e7e5ad\t{\"isMobileDevice\":true}",
        "29872a95004e82357d4daa9a2a1d096f\t{\"Browser_Bits\":\"32\",\"Platform\":\"Darwin\"}",
        "294ca015e6fdddac39306853d4df2f13\t{\"Browser_Bits\":\"32\",\"Platform\":\"Win8\",\"Platform_Version\":\"6.2\",\"Win32\":true}",
        "2916e1bce499b599a4ad4fb9c3dd42e4\t{\"Browser_Bits\":\"32\",\"Platform\":\"Android\",\"Platform_Version\":\"4.2\"}",
        "29a2e936d72e3302131c28182032cc2b\t{\"Browser_Bits\":\"32\",\"Platform\":\"Android\",\"Platform_Version\":\"4.4\"}",
        "29b6fcfa8835f0f6210cbf083cdb17ba\t[]",
        "295a879ccfc449ec07e0005358dc8bd2\t{\"Platform_Version\":\"7.0\"}",
        "299ae8a82c75e50b13a41f9e3c1e05ed\t{\"Platform_Version\":\"6.0\"}",
        "29f472714d4efcd4b50275339124d36b\t{\"Platform_Version\":\"4.3\"}",
        "29eab597baf497621481d6b816df36f3\t{\"Browser_Bits\":\"32\",\"Platform\":\"iOS\",\"Platform_Version\":\"10.2\"}",
        "293092d77fb7b42d4d66d74f667fa937\t{\"Browser_Bits\":\"32\",\"Platform\":\"iOS\",\"Platform_Version\":\"7.1\"}",
        "29d79362896fb40e1b7b874953dee672\t{\"Browser_Bits\":\"32\",\"Platform\":\"iOS\",\"Platform_Version\":\"10.2\"}",
        "2984db994a6a7ecc1f9708cf975d7e6a\t{\"Browser_Bits\":\"32\",\"Platform\":\"Android\"}",
        "294cf661fde11cff9f36b7a2ca4340fb\t{\"Browser_Bits\":\"32\",\"Platform\":\"JAVA\"}",
        "299470e0bdafdae939f968066cde42b1\t{\"Browser_Bits\":\"32\",\"Platform\":\"JAVA\"}",
        "299c7b9e72fb649c76904b1d53503f76\t{\"Browser_Bits\":\"32\",\"Platform\":\"JAVA\"}",
        "2989da9c3b390999412901bdc6632bff\t{\"Browser_Bits\":\"32\",\"Platform\":\"JAVA\"}",
        "29a1458263c9fa6cbe5f4737dea65777\t{\"Platform_Version\":\"7.0\"}",
        "29fd0fc8568af3b40d92fb2163637050\t{\"Platform_Version\":\"10.1\"}",
        "29ed96c8177c57d568c007375ce2e1b7\t{\"Platform_Version\":\"8.4\",\"isTablet\":true}",
        "2913ff78f88b550f0356aa083bb12d4c\t{\"Platform_Version\":\"7.0\"}",
        "293ee74f7aa9c904bc66ce867bf06dd3\t{\"Platform_Version\":\"10.1\"}",
        "2937218fd4d7afeb30bdcc9bf07a5307\t{\"Platform_Version\":\"7.0\"}",
        "29a8b5441c25bfc84788c49480f28a43\t{\"Platform_Version\":\"7.0\",\"isTablet\":true}",
        "29ad3b25b12519beb901d5e824b3600a\t{\"Platform_Version\":\"10.0\"}",
        "295d7cdb1f41d17c4a1cb595e4edacff\t{\"Platform\":\"Win10\",\"Platform_Version\":\"6.4\",\"Win32\":true}",
        "29b69b9cd04e1d15670acde5aaec1553\t{\"Platform_Version\":\"8.1\",\"isTablet\":true}",
        "298a875441ecb34e2229919d152df700\t{\"Platform_Version\":\"7.0\",\"isTablet\":true}",
        "29d8924e7a1871adb29b41a81a731394\t{\"Platform_Version\":\"10.0\"}",
        "2942b763d57d4cb103bf87854d68aa38\t{\"Platform_Version\":\"9.2\",\"isTablet\":true}",
        "2954bfe99c635b37caef065bc2f632fc\t{\"Platform_Version\":\"8.2\"}",
        "2949d55b75f147379e7d2b78887e363c\t{\"Platform_Version\":\"9.2\",\"isTablet\":true}",
        "295c70ac3ab36e4ae9b07d6c032480a0\t{\"Platform_Version\":\"8.1\",\"isTablet\":true}",
        "294bbd2924eb756e26acbb98699d2c3f\t{\"isTablet\":true}",
        "29c5e18f29613e2cb44738b10ad7db7e\t{\"Platform_Version\":\"10.1\"}",
        "29bd9dab2991e7bd2e93c6c09dc9a238\t{\"Platform_Version\":\"8.0\"}",
        "29936366e19007d4c901bb0b0517c8e6\t{\"Platform_Version\":\"9.1\"}",
        "297740025500af5b5c5e627bdcf07735\t{\"Platform_Version\":\"8.4\",\"isTablet\":true}",
        "293b2b511a2d57d17ffe38a8d0aa26a1\t{\"Platform_Version\":\"10.2\",\"isTablet\":true}",
        "298bbc100934f5fdd6861d3a192e0a94\t{\"Platform_Version\":\"8.1\"}",
        "2972b85ce74854d4cc9ace763199ff4d\t{\"Platform_Version\":\"8.4\"}",
        "29e0ee6626b3db2cfc4df722adf92f2a\t[]",
        "29c2f023345f7bd3067006134343e59f\t{\"Platform_Version\":\"7.0\"}",
        "299bdfed2bdf633678800c62ee6556b7\t[]",
        "293728dfdebebf59dc6c63dec5196389\t{\"Browser_Bits\":\"32\",\"Platform\":\"MacOSX\",\"Platform_Version\":\"10.10\"}",
        "291e2c355e129acec2ecb591772ab617\t{\"Browser_Bits\":\"32\",\"Platform\":\"MacOSX\",\"Platform_Version\":\"10.11\"}",
        "29b443d4aae42b8d6dfdb166e484e5e1\t{\"Platform_Version\":\"7.0\"}",
        "29c5b4b79630a8905f01417bdb86926a\t[]",
        "298ba822612afd7844f072008fd4a301\t{\"Platform_Version\":\"9.3\"}",
        "29216008a85b70b3cfed1479733da213\t{\"Browser_Bits\":\"32\",\"Platform\":\"Android\",\"isMobileDevice\":true}",
        "29e548d818b608f9de8fa728c1c77d93\t{\"Platform_Version\":\"8.1\",\"isTablet\":true}",
        "29c02d352b494d2ecd207c5b2e1563d0\t{\"Platform_Version\":\"7.1\"}",
        "2957fdc066bd5d11e7dd3cf8e29de855\t{\"Platform_Version\":\"9.0\"}",
        "2973073fa3ae386967dc81eb41981765\t{\"Browser_Bits\":\"32\",\"Platform\":\"iOS\",\"isTablet\":true}",
        "2946b905a09c4aeabaa109aa3cffef81\t[]",
        "294a60c461cafb7e0c70676986242706\t{\"Platform_Version\":\"9.0\"}",
        "29695b994b3da670bdcacb38302ddcff\t{\"Platform_Version\":\"9.3\",\"isTablet\":true}",
        "29b47a5a1738e27f2617c5595112a13d\t{\"Platform_Version\":\"8.2\",\"isTablet\":true}",
        "2948a09a8f9e00b6c8aac870658b7a8c\t{\"Platform_Version\":\"10.0\",\"isTablet\":true}",
        "29b5b24da7dcdea777a42775ed8402db\t{\"Platform_Version\":\"9.2\",\"isTablet\":true}",
        "29033f1cefaf67c06c227a0dcd8d1086\t{\"Platform_Version\":\"10.0\",\"isTablet\":true}",
        "291d5e6eeb8b3903cf258ed3b73a12d4\t{\"Platform_Version\":\"8.0\",\"isTablet\":true}",
        "2978914720f0c19a6f79178a761bc556\t{\"Browser_Bits\":\"32\",\"Platform\":\"MacOSX\",\"Platform_Version\":\"10\"}",
        "29bb2103bf788f640f33180f408e2b22\t{\"Platform_Version\":\"8.1\",\"isTablet\":true}",
        "29ee95eb55ec86c50f1d0a55e888deff\t{\"Platform_Version\":\"8.4\"}",
        "290cdf5a8a2b794127ef459669ae19aa\t{\"Platform_Version\":\"8.0\"}",
        "2946127d690e9dadd4815a92b630f695\t{\"Platform_Version\":\"8.4\"}",
        "298dd19f613d00ca071b412d206bf879\t{\"Browser_Bits\":\"32\",\"Platform\":\"Unix\"}",
        "292d6ab6f7f98cf088c4fd1548953786\t[]",
        "297dad1c6b18527466413a15d6ae0f21\t[]",
        "29933c0ea8f5b32b7bbfc709baf0d5d0\t{\"Platform\":\"Win8.1\",\"Platform_Version\":\"6.3\",\"Win32\":true}",
        "29a3a19573d9eb01e3a10c4dd43edd61\t{\"Platform\":\"WinXP\",\"Platform_Version\":\"5.1\"}",
        "290ba254316e722c015fe076b8bcfaa6\t[]",
        "297e3d2d8a957905516666a480fe12db\t{\"Browser_Bits\":\"32\",\"Platform\":\"Linux\"}",
        "294307c783bd885780dfc5db71eef3c8\t{\"Browser_Bits\":\"32\",\"Platform\":\"WinXP\",\"Platform_Version\":\"5.2\",\"Win32\":true}",
        "2991bc65148587ad11ddd596543ff403\t{\"Browser_Bits\":\"32\",\"Platform\":\"Win8.1\",\"Platform_Version\":\"6.3\",\"Win32\":true}",
        "29f14c3917e97d0577176a552b2adfe7\t{\"Browser_Bits\":\"32\",\"Platform\":\"Win8\",\"Platform_Version\":\"6.2\",\"Win32\":true}",
        "29504e71486bc36cf954e16015c63ca9\t{\"Browser_Bits\":\"32\",\"Platform\":\"WinXP\",\"Platform_Version\":\"5.2\",\"Win32\":true}",
        "29bfa15aee6dc9241df127d49dc47983\t{\"Browser_Bits\":\"32\",\"Platform\":\"WinVista\",\"Platform_Version\":\"6.0\",\"Win32\":true}",
        "296a24d6768a6831613fd47f0579fd66\t{\"Browser_Bits\":\"32\",\"Platform\":\"Win7\",\"Platform_Version\":\"6.1\",\"Win32\":true}",
        "2994b1a5e53b26d85d7a0d014d6d3f55\t{\"Browser_Bits\":\"32\",\"Platform\":\"WinXP\",\"Platform_Version\":\"5.1\",\"Win32\":true}",
        "29a1232bb7c6fe9c722a880eced7eb10\t{\"Browser_Bits\":\"32\",\"Platform\":\"WinVista\",\"Platform_Version\":\"6.0\",\"Win32\":true}",
        "29b60040c01956a6046abe1166fbea8b\t{\"Browser_Bits\":\"32\",\"Platform\":\"Win10\",\"Platform_Version\":\"6.4\",\"Win32\":true}",
        "29cc768713c4f99491f9604dbebdb49b\t{\"Browser_Bits\":\"32\",\"Platform\":\"WinXP\",\"Platform_Version\":\"5.2\",\"Win32\":true}",
        "29c4360b71f5703e2a1ffedf14804737\t{\"Browser_Bits\":\"32\",\"Platform\":\"WinXP\",\"Platform_Version\":\"5.2\",\"Win32\":true}",
        "29c30b1149823a9bd8f10168ef2c0b17\t{\"Platform\":\"WinVista\",\"Platform_Version\":\"6.0\"}",
        "299848bedb7b0f14d96b8f2f4e86c5da\t{\"Platform\":\"Win8\",\"Platform_Version\":\"6.2\"}",
        "29a88881e6997b44527f090ad66ed6f1\t{\"Platform\":\"WinXP\",\"Platform_Version\":\"5.1\"}",
        "2963631c7f11e4ad4dd26c15a52532a0\t{\"Browser_Bits\":\"32\",\"Platform\":\"Win8.1\",\"Platform_Version\":\"6.3\",\"Win32\":true}",
        "294c2c1acdba8c74ed0ce69e78ac1251\t{\"Browser_Bits\":\"32\",\"Platform\":\"WinVista\",\"Platform_Version\":\"6.0\",\"Win32\":true}",
        "29712f9b011a392b28b24053a57dc173\t{\"Browser_Bits\":\"32\",\"Platform\":\"Linux\"}",
        "29256178576aa4f9dc038be9f14c3a94\t{\"Browser_Bits\":\"32\",\"Platform\":\"Win8\",\"Platform_Version\":\"6.2\",\"Win32\":true}",
        "291a79a887025fa1a2037b5912d40017\t{\"Browser_Bits\":\"32\",\"Platform\":\"MacOSX\",\"Platform_Version\":\"10.10\"}",
        "29a3b6d630e8720f99a9425e7a4cb3fe\t{\"Browser_Bits\":\"32\",\"Platform\":\"Win8\",\"Platform_Version\":\"6.2\",\"Win32\":true}",
        "293d648e235192c8cc7e3f9f0a16d3d1\t{\"Browser_Bits\":\"32\",\"Platform\":\"Win32\",\"Win32\":true}",
        "291188b3b8edb0d9fbc625fb229cd960\t{\"Browser_Bits\":\"32\",\"Platform\":\"Win7\",\"Platform_Version\":\"6.1\",\"Win32\":true}",
        "292f2a5d5a77b135735e65f6cfd074fb\t{\"Browser_Bits\":\"32\",\"Platform\":\"WinVista\",\"Platform_Version\":\"6.0\",\"Win32\":true}",
        "292580a8367790a7eecfe96f88627ac4\t{\"Browser_Bits\":\"32\",\"Platform\":\"Win32\",\"Win32\":true}",
        "29546e1f7e56d580a8f615f8b873aeb4\t{\"Browser_Bits\":\"32\",\"Platform\":\"WinVista\",\"Platform_Version\":\"6.0\",\"Win32\":true}",
        "291571d901c57bf8e191d4210277db90\t{\"Platform_Version\":\"8.2\"}",
        "29f91edcb229bccc60c420d66256f33f\t{\"Platform_Version\":\"10.3\",\"isTablet\":true}",
        "298554130802d5795193f4b3d1531d7d\t{\"Platform_Version\":\"7.0\",\"isTablet\":true}",
        "299291221e32c8656f19ca47126606b4\t{\"Browser_Bits\":\"32\",\"Platform\":\"iOS\",\"isMobileDevice\":true,\"isTablet\":true}",
        "290aa73f6b53949d244c87dd1d0b8ea0\t{\"Browser_Bits\":\"32\",\"Platform\":\"WinXP\",\"Platform_Version\":\"5.2\",\"Win32\":true}",
        "290951bb87bbc8f03ea51d11eb4d3507\t{\"isTablet\":true}",
        "29235b8e785c119c4e1a31ceb58ce5e1\t{\"Platform\":\"FirefoxOS\"}",
        "290dd7b57a7d567f7ba7eb6405432885\t[]",
        "29446d4be23bcf91f21fbb5e4483636c\t{\"Browser_Bits\":\"32\",\"Platform\":\"MacOSX\",\"Platform_Version\":\"10\"}",
        "292f23657aa91ced99843de7a09209c5\t{\"Browser_Bits\":\"32\",\"Platform\":\"Win10\",\"Platform_Version\":\"6.4\",\"Win32\":true}",
        "299980207bcb85edceb924e66177ee98\t{\"Browser_Bits\":\"32\",\"Platform\":\"macOS\",\"Platform_Version\":\"10.12\"}",
        "298edcc5da479292bb1c225267a2462d\t{\"Browser_Bits\":\"32\",\"Platform\":\"FreeBSD\"}",
        "29d1efdab8ad551ed42345299b78cfad\t{\"Browser_Bits\":\"32\",\"Platform\":\"Linux\"}",
        "29a7806a80a5fee4002f69ac958ce1b9\t{\"Browser_Bits\":\"32\",\"Platform\":\"SunOS\"}",
        "29eead9f5aba22b1efd0e2326f8f8dfc\t{\"Browser_Bits\":\"32\",\"Platform\":\"HP-UX\"}",
        "29405d9d98e12e7cd3490212a6926608\t{\"Browser_Bits\":\"32\",\"Platform\":\"OpenBSD\"}",
        "29d571a9da0f5200dc5d61355e2d97f6\t{\"Browser_Bits\":\"32\",\"Platform\":\"Win8\",\"Platform_Version\":\"6.2\",\"Win32\":true}",
        "29c08c6b4042a700c62908b56d2ae4b2\t{\"Browser_Bits\":\"32\",\"Platform\":\"MacOSX\",\"Platform_Version\":\"10.11\"}",
        "29e234768e42826b2203ad1e968390f8\t{\"Browser_Bits\":\"32\",\"Platform\":\"SunOS\"}",
        "297a2653d07237a6d6a586400e332c16\t{\"Browser_Bits\":\"32\",\"Platform\":\"MacOSX\",\"Platform_Version\":\"10.9\"}",
        "29985560bae3b345230c5d3502b898d6\t{\"Browser_Bits\":\"32\",\"Platform\":\"Win7\",\"Platform_Version\":\"6.1\",\"Win32\":true}",
        "29eb9037c9e8cfaede7c834de6c36258\t{\"Browser_Bits\":\"32\",\"Platform\":\"Win8\",\"Platform_Version\":\"6.2\",\"Win32\":true}",
        "29510dbae003ab76264fcc835bb13829\t{\"Browser_Bits\":\"32\",\"Platform\":\"WinXP\",\"Platform_Version\":\"5.2\",\"Win32\":true}",
        "2934d6305202778210ff21859286aeca\t{\"Browser_Bits\":\"32\",\"Platform\":\"MacOSX\",\"Platform_Version\":\"10.9\"}",
        "29c6cf396394505bf2c7736a681f7c1b\t{\"Browser_Bits\":\"32\",\"Platform\":\"Win8\",\"Platform_Version\":\"6.2\",\"Win32\":true}",
        "2924cf576c1b3b69c96b5002be86cf93\t{\"Browser_Bits\":\"64\",\"Platform\":\"IRIX64\"}",
        "2975aa5a41ed70af96113fc3c567e47d\t{\"Browser_Bits\":\"32\",\"Platform\":\"SunOS\"}",
        "29c2015e0d3ed8a2162a3eda4a32420b\t{\"Browser_Bits\":\"32\",\"Platform\":\"Android\",\"isMobileDevice\":true}",
        "298f0df3dbcb6e2cca0722af823245dc\t{\"Browser_Bits\":\"32\",\"Platform\":\"DragonFly BSD\"}",
        "290f2c10fd9c2fdd13c58d7af3056b49\t{\"Browser_Bits\":\"64\",\"Platform\":\"IRIX64\"}",
        "292af7507cc93053a0547baeb9834e31\t{\"Platform\":\"Win8.1\",\"Platform_Version\":\"6.3\"}",
        "29c20a774e3ec0ee9d23d130b150522e\t[]",
        "2938959fbc64495f167f1b031017aa44\t{\"Platform\":\"WinVista\",\"Platform_Version\":\"6.0\",\"Win32\":true}",
        "2950652b18a1014bdce7740cf3404769\t[]",
        "2924947ee77ff6b2c03fd17577374303\t[]",
        "29a797b8243adb298f8ad9e642b791ce\t{\"Browser_Bits\":\"32\",\"Platform\":\"Win32\",\"Win32\":true}",
        "2961319f6456e65653a8878a1cfdc435\t{\"Platform_Version\":\"8.0\"}",
        "29027dbb033f8f56310b86d76fb9d00c\t{\"Browser_Bits\":\"32\",\"Platform\":\"iOS\"}",
        "2910105df9e6838d8143ea8a28845561\t[]",
        "2997db25494b6c7fa77c78cd029b8218\t[]",
        "29568af4b937ee6d2c8d03d10a3ec4ff\t[]",
        "29d6b8e9b69e68200607cd805ca634b4\t{\"Browser_Bits\":\"32\",\"Platform\":\"Maemo\"}"
    ]
}