{
    "content": [
        "1ccd1760c4c6ad6aff0049c5f27cf698\t[]",
        "1c72c66a4ba436b1f2ccb411fd239651\t[]",
        "1c86ac903d3c406e1a2a77506c005cb0\t[]",
        "1ccb2f092c14ed2f84f69ae8d70c956e\t[]",
        "1cec117601ef954dafacb16ef2a495a6\t[]",
        "1c2da74429e0025d65e1cfe27bdb9b6c\t[]",
        "1c482c186ad03e1ee5e6c783d63d11cf\t[]",
        "1c5008f7e250fecd65f9b79b0d0e6edf\t{\"Platform_Version\":\"5.0\"}",
        "1c297b22f9909eaa3c9ff0e0c8287054\t{\"Platform\":\"macOS\",\"Platform_Version\":\"10.12\",\"Win32\":false}",
        "1ca777f06fc35db0e8e5ce1de788da26\t{\"Platform\":\"iOS\",\"Platform_Version\":\"9.3\",\"Win32\":false,\"isMobileDevice\":true,\"isTablet\":true}",
        "1c39faa4b094e87db704ca3fd61a8564\t{\"Platform\":\"iOS\",\"Platform_Version\":\"10.0\",\"Win32\":false,\"isMobileDevice\":true,\"isTablet\":true}",
        "1c2fcf2dadd2972ab712904eccf3eebc\t{\"Platform\":\"iOS\",\"Platform_Version\":\"10.1\",\"Win32\":false,\"isMobileDevice\":true,\"isTablet\":true}",
        "1cf4820c03688b81ec613ff9615f65b7\t{\"Platform_Version\":\"10.2\"}",
        "1c24e76bc3be84a4491614fdab7334f7\t{\"Platform_Version\":\"8.3\",\"isTablet\":true}",
        "1c86b8675eebaaa2fcd66eb83e4f4197\t{\"Platform_Version\":\"9.2\",\"isTablet\":true}",
        "1c62a7b77bcfcc0076f68177d9dc7368\t{\"Platform_Version\":\"7.0\",\"isTablet\":true}",
        "1cdc6cf452680a30583894b29485e997\t{\"Platform_Version\":\"10.2\"}",
        "1cf551ff19b3e3352ef39b58b2321a86\t{\"Browser_Bits\":\"32\",\"Platform\":\"Android\",\"Platform_Version\":\"4.4\",\"isTablet\":true}",
        "1c491e26dd2395a45f344b2562946d60\t{\"Platform_Version\":\"4.4\",\"isTablet\":true}",
        "1c86d38099c828e2159459a929e85c6d\t{\"Platform\":\"iOS\",\"Platform_Version\":\"8.3\"}",
        "1c6d03b1ef8a18ce14b448a185a79033\t{\"Platform_Version\":\"5.1\"}",
        "1cea0cc3ac13c358dd4f1ca38543cd21\t{\"Platform\":\"iOS\",\"Platform_Version\":\"9.3\"}",
        "1c2d1d73d7596534bf6b75855e22bea4\t{\"Platform\":\"iOS\",\"Platform_Version\":\"9.2\"}",
        "1c0c0df6192c86f537af95f7f6f517b4\t{\"Platform\":\"iOS\",\"Platform_Version\":\"8.1\",\"isTablet\":true}",
        "1c9f4df0c0d7b194e522625d5b64f931\t{\"Platform\":\"iOS\",\"Platform_Version\":\"9.0\"}",
        "1c2e6e43269aae165dc2204c90a88afc\t{\"Platform_Version\":\"5.0\"}",
        "1cbd46d0998c36443498b956371dd006\t{\"Platform\":\"iOS\",\"Platform_Version\":\"7.1\"}",
        "1cf2670f1fb2990b34d2fc7f1217e76d\t{\"Platform_Version\":\"5.0\"}",
        "1c30c7ef3fbd3229ba05ca661b371c06\t{\"Platform\":\"iOS\",\"Platform_Version\":\"9.1\",\"isTablet\":true}",
        "1c9ec9b49ea72fe05a84d4fe76cd2d38\t{\"Platform\":\"iOS\",\"isTablet\":true}",
        "1c13a77d28cb561a86e4f120b7e3da3e\t{\"Platform\":\"iOS\",\"Platform_Version\":\"8.2\"}",
        "1c7d1763e9e934cdb9a3fd849614701a\t[]",
        "1c25c1422cf61e6845ec1379538b01b3\t[]",
        "1c1b702f898df3a1f2076401c2eef3fd\t{\"Platform_Version\":\"4.3\"}",
        "1c977bdc8753e13729372aa6f83a4616\t{\"Browser_Bits\":\"32\",\"Platform\":\"Android\",\"Platform_Version\":\"4.3\"}",
        "1c715aa057fd9dd8ff13e54feb837984\t{\"Browser_Bits\":\"32\",\"Platform\":\"iOS\",\"Platform_Version\":\"7.1\"}",
        "1caffeae12d935a5428179c607370715\t{\"Browser_Bits\":\"32\",\"Platform\":\"WinXP\",\"Platform_Version\":\"5.2\",\"Win32\":true}",
        "1c5f3ae78524f4d02219bc5592810f73\t{\"Platform_Version\":\"4.2\"}",
        "1c24f41f12837c97aa6ed582c5fdcdcc\t{\"Platform\":\"JAVA\"}",
        "1cb3a06c8a640d37a06257c184780b50\t[]",
        "1c9c5ddd95e10fbc94706b2bb74244de\t{\"Platform_Version\":\"4.3\"}",
        "1cd086459c7c4fda060a831168f5ffa1\t{\"Platform_Version\":\"8.0\"}",
        "1c5b78153e14eb5573800b3ff8a16cf9\t{\"Platform\":\"iOS\",\"Platform_Version\":\"10.2\",\"isTablet\":true}",
        "1c5bfc596ad9459d88e16bfe0d5d7c58\t[]",
        "1c5e4ef3d76ca24eaea2b4c16cc353a8\t{\"Platform_Version\":\"4.3\"}",
        "1c835e3454f29284fd4fa802e3ac18d5\t[]",
        "1cd78f638da5168957b77503e7f8b224\t{\"Platform\":\"Win7\",\"Platform_Version\":\"6.1\",\"Win32\":true}",
        "1cebf3d9864a84cc161531eaeec86e63\t{\"Platform\":\"Win7\",\"Platform_Version\":\"6.1\",\"Win32\":true}",
        "1cddadf5ef9d0b9b16db62b0d47b129b\t{\"Platform_Version\":\"10.0\"}",
        "1c9f38db4c0e16f177dc23806d53ac33\t{\"Platform_Version\":\"7.0\"}",
        "1c93a706f85dbbfda8c7b4b18a2907e5\t{\"Platform_Version\":\"4.2\",\"isTablet\":true}",
        "1c9c792556759cf309afd6ad22344579\t{\"Platform_Version\":\"4.3\",\"isTablet\":true}",
        "1c151920ff74c9526b2e5b5b648dce34\t{\"Platform_Version\":\"4.2\",\"isTablet\":true}",
        "1cb148a8a9cf70dd56318fd8fc91a0bf\t{\"Platform_Version\":\"4.2\",\"isTablet\":true}",
        "1ca54bdfe89378570176627cad4b4883\t{\"Platform_Version\":\"4.4\",\"isTablet\":true}",
        "1ceeb68e8547c21155568184f7c8fb48\t{\"Platform_Version\":\"6.0\"}",
        "1c081bef333d5344457043b4118098f5\t{\"Platform_Version\":\"5.1\",\"isTablet\":true}",
        "1c451a68737081ece4ab9f35cf34a946\t{\"Platform_Version\":\"4.4\",\"isTablet\":true}",
        "1c29d561fae01d911ab9ae5d5a7b84f9\t{\"Platform_Version\":\"4.2\",\"isTablet\":true}",
        "1c7e009ec6cd963fee787ad95cb4c91d\t{\"Platform_Version\":\"4.3\",\"isTablet\":true}",
        "1c69fcace3494a6f24660efb75022285\t{\"Platform_Version\":\"4.4\"}",
        "1c4578c6f8ee9b98bd613e1e087c9174\t{\"Platform_Version\":\"4.4\",\"isTablet\":true}",
        "1c168cb6e6905a9ea77ce0e9f384d4d3\t{\"Platform_Version\":\"4.2\",\"isTablet\":true}",
        "1c34113d5c810561603973c47746ec60\t{\"Platform_Version\":\"5.0\"}",
        "1c56954c9acb5d472390a86a4c1c876c\t{\"Platform_Version\":\"4.4\",\"isTablet\":true}",
        "1c17f02412fb91e155ee24efc05edf0b\t{\"Platform_Version\":\"4.4\",\"isTablet\":true}",
        "1cedf97796607672149b8a8ca00f86fd\t{\"Platform_Version\":\"10.0\",\"isTablet\":true}",
        "1c4b9e7c1f4978076fee6d40eb59c817\t{\"Platform_Version\":\"8.4\"}",
        "1c67289d590dbffd13059fae54ecaffa\t{\"Browser_Bits\":\"32\",\"Platform\":\"macOS\",\"Platform_Version\":\"10.12\"}",
        "1c901b12e70663de38f5918c3b9579ef\t{\"Platform_Version\":\"8.2\",\"isTablet\":true}",
        "1c54b648f350de298c8f93a67afdec96\t{\"Browser_Bits\":\"32\",\"Platform\":\"Win8.1\",\"Platform_Version\":\"6.3\",\"Win32\":true}",
        "1c4fe8609432fd6c40e6697acaf1939c\t{\"Platform_Version\":\"8.0\"}",
        "1c923a5862af2ee59fda3da70da6496e\t{\"Browser_Bits\":\"32\",\"Platform\":\"WinXP\",\"Platform_Version\":\"5.1\",\"Win32\":true}",
        "1c1b7ab0164f0cb0b1196b3b5c6fa254\t{\"Platform_Version\":\"4.2\",\"isTablet\":true}",
        "1ca8bc17e7c1be254a17c102cf672b19\t{\"Browser_Bits\":\"32\",\"Platform\":\"Win10\",\"Platform_Version\":\"10.0\",\"Win32\":true}",
        "1c2c8c4d5d1d458772537673bce98828\t{\"Platform_Version\":\"10.0\"}",
        "1c7b43be2f6dd31c7309743de5cc6f03\t{\"Platform_Version\":\"4.4\",\"isTablet\":true}",
        "1c6523259ed4ab9c1a2ad605228f3bce\t{\"Browser_Bits\":\"32\",\"Platform\":\"Win32\",\"Win32\":true}",
        "1c757b42c026bbcb33191b7c4a342937\t{\"Browser_Bits\":\"32\",\"Platform\":\"WinVista\",\"Platform_Version\":\"6.0\",\"Win32\":true}",
        "1c002744271bd50de770ffc65569b040\t[]",
        "1cfe1c0800967552c50c6807710a1c42\t{\"Platform_Version\":\"7.0\"}",
        "1c971dfcdde949022e1efde08aafb64a\t{\"Platform_Version\":\"6.1\"}",
        "1ca2e8dad64b5f49b4c744e63b8b22e7\t{\"Platform_Version\":\"4.2\",\"isTablet\":true}",
        "1cd2f75755321932a308758649f24fb9\t{\"Platform_Version\":\"4.2\",\"isTablet\":true}",
        "1c283eee3130e4899915df1930d071bf\t{\"Browser_Bits\":\"32\",\"Platform\":\"MacOSX\",\"Platform_Version\":\"10.10\"}",
        "1cc05d614e1b263cf1e8ec423d45ff0e\t{\"Browser_Bits\":\"32\",\"Platform\":\"Win8.1\",\"Platform_Version\":\"6.3\",\"Win32\":true}",
        "1ca844b442a295607a5638fa3291eb11\t[]",
        "1caaabea27919cdfe96139deeed7bee3\t{\"Platform_Version\":\"9.0\"}",
        "1c8771c92af2c7550af1e8c6c68c8b26\t{\"Platform_Version\":\"8.1\"}",
        "1c2bbd607ba570e4a932af51485f7432\t{\"Platform_Version\":\"4.4\",\"isTablet\":true}",
        "1c50f23390e73a703685b3c212f76e32\t{\"Platform_Version\":\"4.2\",\"isTablet\":true}",
        "1ce1785c341bd264150f46ee4d3e85b4\t{\"Platform_Version\":\"4.2\",\"isTablet\":true}",
        "1cf684640281f2ee35f64725d2e85871\t{\"Platform_Version\":\"4.2\",\"isTablet\":true}",
        "1c912b6c474db58f5d59aba8078a329c\t{\"Platform_Version\":\"4.3\",\"isTablet\":true}",
        "1c0476f2ad9b86df718db27e8ec589ce\t{\"Browser_Bits\":\"32\",\"Platform\":\"Android\"}",
        "1c7fd80bc84e18df042ad94f2fc0bc0a\t{\"Browser_Bits\":\"32\",\"Platform\":\"MacOSX\",\"Platform_Version\":\"10\"}",
        "1c480ea653dfd9170e16d8347b680674\t{\"Browser_Bits\":\"32\",\"Platform\":\"WinXP\",\"Platform_Version\":\"5.2\",\"Win32\":true}",
        "1c561d2f9651b08482823baaf0094a95\t{\"Browser_Bits\":\"32\",\"Platform\":\"WinXP\",\"Platform_Version\":\"5.2\",\"Win32\":true}",
        "1cbefd8be9651f4b3965d8b34c2b3472\t{\"Browser_Bits\":\"32\",\"Platform\":\"Win7\",\"Platform_Version\":\"6.1\",\"Win32\":true}",
        "1cf7a94ce4cf516d5fa0f983ec100a6d\t{\"Browser_Bits\":\"32\",\"Platform\":\"Maemo\"}",
        "1c78728f2243be988e6df677ccc3451b\t{\"Browser_Bits\":\"32\",\"Platform\":\"WinXP\",\"Platform_Version\":\"5.2\",\"Win32\":true}",
        "1c1bcd42d1ede0b84fafefa01c25a33d\t{\"Browser_Bits\":\"32\",\"Platform\":\"FreeBSD\"}",
        "1cd81ff56843a5cd1bdb383711ea85f5\t{\"Browser_Bits\":\"32\",\"Platform\":\"WinXP\",\"Platform_Version\":\"5.2\",\"Win32\":true}",
        "1cd9857a0554866e92487f4d7d5627ca\t{\"Browser_Bits\":\"32\",\"Platform\":\"WinVista\",\"Platform_Version\":\"6.0\",\"Win32\":true}",
        "1c29f433444ff1e8b9f88359f578f406\t{\"Browser_Bits\":\"32\",\"Platform\":\"WinVista\",\"Platform_Version\":\"6.0\",\"Win32\":true}",
        "1ce0a3ee44c3b5c6923a45ccc326b14e\t{\"Browser_Bits\":\"32\",\"Platform\":\"Win8.1\",\"Platform_Version\":\"6.3\",\"Win32\":true}",
        "1ca795991f1ea3d12643a324e75fdd56\t{\"Browser_Bits\":\"32\",\"Platform\":\"WinVista\",\"Platform_Version\":\"6.0\",\"Win32\":true}",
        "1c31060278929514caa00289d0e30272\t{\"Browser_Bits\":\"32\",\"Platform\":\"Linux\"}",
        "1c9694b4cdcbe08af159b6f6b5f3c46b\t{\"Browser_Bits\":\"32\",\"Platform\":\"Win8\",\"Platform_Version\":\"6.2\",\"Win32\":true}",
        "1c16a6e207e072bf3a416cde454ba56b\t{\"Browser_Bits\":\"32\",\"Platform\":\"Win8.1\",\"Platform_Version\":\"6.3\",\"Win32\":true}",
        "1cdddb64811cc410cda680e30a503eac\t{\"Browser_Bits\":\"32\",\"Platform\":\"WinVista\",\"Platform_Version\":\"6.0\",\"Win32\":true}",
        "1caf38709672e2373028673461d140fb\t{\"Browser_Bits\":\"32\",\"Platform\":\"Win7\",\"Platform_Version\":\"6.1\",\"Win32\":true}",
        "1c3f71dfb507670045241afa5c7aabb8\t{\"Browser_Bits\":\"32\",\"Platform\":\"Win8\",\"Platform_Version\":\"6.2\",\"Win32\":true}",
        "1cd3baf0593855638bcc0183ed147ed1\t{\"Browser_Bits\":\"32\",\"Platform\":\"MacOSX\",\"Platform_Version\":\"10.9\"}",
        "1c9fdeb9ba3ca3a0c0eedd50b482368d\t{\"Browser_Bits\":\"32\",\"Platform\":\"MacOSX\",\"Platform_Version\":\"10.10\"}",
        "1cdfd77c110f1eb39464927d163616d0\t{\"Browser_Bits\":\"32\",\"Platform\":\"WinVista\",\"Platform_Version\":\"6.0\",\"Win32\":true}",
        "1c345e242faa7867fba529ad894df31f\t{\"Browser_Bits\":\"32\",\"Platform\":\"WinXP\",\"Platform_Version\":\"5.2\",\"Win32\":true}",
        "1cc2b4b13a068d146654e42902052eed\t{\"Browser_Bits\":\"32\",\"Platform\":\"Win8\",\"Platform_Version\":\"6.2\",\"Win32\":true}",
        "1cb78126c8b6fa94a8012a389ca2d1fd\t{\"Browser_Bits\":\"32\",\"Platform\":\"Linux\"}",
        "1c45f98dcf35fcbfdb843ec34a597ed0\t{\"Browser_Bits\":\"32\",\"Platform\":\"MacOSX\",\"Platform_Version\":\"10.10\"}",
        "1cc6fbfa154f60942b250e1e7a32c00f\t[]",
        "1c8346d1a673d26176451a84f8ff9403\t{\"Browser_Bits\":\"32\",\"Platform\":\"MacOSX\",\"Platform_Version\":\"10\"}",
        "1c32242058e0ea2730e834b3d89dead2\t{\"Browser_Bits\":\"32\",\"Platform\":\"Win8\",\"Platform_Version\":\"6.2\",\"Win32\":true}",
        "1c894aae8855a1ce3ef6df729af82bd4\t{\"Browser_Bits\":\"32\",\"Platform\":\"Win32\",\"Win32\":true}",
        "1c91b1b0364ee3ba24cc08c33e646b23\t{\"Browser_Bits\":\"32\",\"Platform\":\"FreeBSD\"}",
        "1cfab9ae6672b7b46daef96171ef0fd9\t{\"Browser_Bits\":\"32\",\"Platform\":\"Linux\"}",
        "1cb181c5dca3b6c2b107d17fd617cd78\t{\"Browser_Bits\":\"32\",\"Platform\":\"WinXP\",\"Platform_Version\":\"5.2\",\"Win32\":true}",
        "1c881fef66e7a5c931c161e139792c6c\t{\"Browser_Bits\":\"32\",\"Platform\":\"Win8.1\",\"Platform_Version\":\"6.3\",\"Win32\":true}",
        "1c1c7c4d9c7b46545cab8bcf9ee61bda\t{\"Browser_Bits\":\"32\",\"Platform\":\"WinXP\",\"Platform_Version\":\"5.2\",\"Win32\":true}",
        "1c7d957277e5d3f5c8921f2aabc80452\t{\"Browser_Bits\":\"32\",\"Platform\":\"Win8\",\"Platform_Version\":\"6.2\",\"Win32\":true}",
        "1cf7c9954e71a193f4a354b9ee5d0205\t{\"Browser_Bits\":\"32\",\"Platform\":\"Win8.1\",\"Platform_Version\":\"6.3\",\"Win32\":true}",
        "1c775a15b5a28e8496bf9edeb953154e\t{\"Browser_Bits\":\"32\",\"Platform\":\"WinXP\",\"Platform_Version\":\"5.2\",\"Win32\":true}",
        "1c3cd863e92e5bfeea1fe6553bdf11e9\t{\"Browser_Bits\":\"32\",\"Platform\":\"WinXP\",\"Platform_Version\":\"5.2\",\"Win32\":true}",
        "1ce10ce342250947f11694fabb7e9c35\t[]",
        "1c25d5db7e7a559d4ac13686fcba33fa\t{\"Browser_Bits\":\"32\",\"Platform\":\"WinXP\",\"Platform_Version\":\"5.2\",\"Win32\":true}",
        "1c8ee2d2c72d402f55d24363e798ffd7\t{\"Browser_Bits\":\"32\",\"Platform\":\"WinVista\",\"Platform_Version\":\"6.0\",\"Win32\":true}",
        "1cae71a6d4a1ea6d78989ce0ac3c0302\t{\"Browser_Bits\":\"32\",\"Platform\":\"WinXP\",\"Platform_Version\":\"5.1\",\"Win32\":true}",
        "1cf713d012801c70fe535616362b0abb\t{\"Browser_Bits\":\"32\",\"Platform\":\"Win8\",\"Platform_Version\":\"6.2\",\"Win32\":true}",
        "1c54dea26dd8a16a8b1df1ae2d76bfe4\t{\"Browser_Bits\":\"32\",\"Platform\":\"MacOSX\",\"Platform_Version\":\"10\"}",
        "1c3482958d20c778efd9d1a10dbc6214\t{\"Browser_Bits\":\"32\",\"Platform\":\"WinXP\",\"Platform_Version\":\"5.1\",\"Win32\":true}",
        "1c7bcfa0b24412057f6b8968e3915bdf\t{\"Browser_Bits\":\"32\",\"Platform\":\"WinVista\",\"Platform_Version\":\"6.0\",\"Win32\":true}",
        "1caa765eda18827822cecb43badaf2b0\t{\"Browser_Bits\":\"32\",\"Platform\":\"Win7\",\"Platform_Version\":\"6.1\",\"Win32\":true}",
        "1c6c07d2ac9304a03489bc66266df8b7\t{\"Browser_Bits\":\"32\",\"Platform\":\"SunOS\"}",
        "1ca9debfb02b0012875dd95b2af05ffa\t{\"Browser_Bits\":\"32\",\"Platform\":\"Win7\",\"Platform_Version\":\"6.1\",\"Win32\":true}",
        "1c1a41d12f11740cb069489cdeae7f85\t{\"Platform_Version\":\"10.3\",\"isTablet\":true}",
        "1c24ee974980b4b992a03d822f7b0118\t{\"Browser_Bits\":\"32\",\"Platform\":\"iOS\",\"Platform_Version\":\"8.2\"}",
        "1c602be6d5225d5e8a67114b82a91b56\t[]",
        "1c4d8b513160b014ae53557faaead775\t{\"Browser_Bits\":\"32\",\"Platform\":\"Win8\",\"Platform_Version\":\"6.2\",\"Win32\":true}",
        "1ccc671c3ec51e28959232e912e2b086\t{\"Platform_Version\":\"4.3\",\"isTablet\":true}",
        "1c0eede5bde66383ad60d2f56556c7e9\t{\"Browser_Bits\":\"32\",\"Platform\":\"WinXP\",\"Platform_Version\":\"5.2\",\"Win32\":true}",
        "1cf0fa615df3ec3330862b31cbc01076\t{\"Platform_Version\":\"6.0\"}",
        "1c76478eff58f888826a5144393896a0\t{\"Browser_Bits\":\"32\",\"Platform\":\"MacOSX\",\"Platform_Version\":\"10\"}",
        "1cb4a81cec861a2003c7ac3ad5f99f1f\t{\"Browser_Bits\":\"32\",\"Platform\":\"Win7\",\"Platform_Version\":\"6.1\",\"Win32\":true}",
        "1c64ae32ce01bbabf1141c49bf630781\t[]",
        "1cf3483751d8089337effbbf752a0696\t{\"isTablet\":true}",
        "1ccaf6c62127b1cb9e764ce88b11a187\t{\"isTablet\":true}",
        "1cf210c1603ba0186fa7cbf618fd1d2c\t{\"Platform_Version\":\"4.4\",\"isTablet\":true}",
        "1c6aacdaa2639b226c0c86206a353a1c\t{\"Platform_Version\":\"4.4\",\"isTablet\":true}",
        "1c9337865ec5a3d0f701121036009ad0\t{\"Platform_Version\":\"4.2\",\"isTablet\":true}",
        "1c00af949dfd912f1478ce35a55ed151\t{\"isTablet\":true}",
        "1c917e400576f814e77a0520200b7ee6\t{\"Browser_Bits\":\"32\",\"Platform\":\"MacOSX\",\"Platform_Version\":\"10.10\"}",
        "1caba2a8337f8fc1290a14590f954619\t{\"Browser_Bits\":\"32\",\"Platform\":\"MacOSX\",\"Platform_Version\":\"10.9\"}",
        "1cb3795b693e3d1f2f023847c454c292\t{\"Platform_Version\":\"4.4\",\"isTablet\":true}",
        "1c65a73805e288ac2c24e651be20eccc\t{\"Platform_Version\":\"4.2\",\"isTablet\":true}",
        "1c2316a56c7a6c478e14b73fc212f163\t{\"Platform_Version\":\"4.2\",\"isTablet\":true}",
        "1c1edc7523544cda175d095120154ebc\t{\"Platform_Version\":\"4.3\",\"isTablet\":true}",
        "1c214dd2db817a706a9514b6ddf6cb5f\t{\"Platform_Version\":\"10.1\"}",
        "1cbc6bf07b8a045bfb7d3861ff706713\t{\"Platform_Version\":\"4.3\",\"isTablet\":true}",
        "1cdbca40c5caf544e879e285f549749e\t{\"Platform_Version\":\"4.3\",\"isTablet\":true}",
        "1cecb0a7138a09d3c492b3bd5267f861\t{\"Platform_Version\":\"4.3\",\"isTablet\":true}",
        "1c6b2e99dcd90e79ac05ea4a263d64ac\t{\"Platform_Version\":\"4.2\",\"isTablet\":true}",
        "1c005de63d2568b8e0403f9c4978b4a7\t{\"Platform_Version\":\"10.2\"}",
        "1cc1b0e96002212e16b36ff6b0ff855f\t{\"Browser_Bits\":\"32\",\"Platform\":\"Win10\",\"Platform_Version\":\"6.4\",\"Win32\":true}",
        "1c6a3973bd1086a735213f9e8bc35132\t{\"Browser_Bits\":\"32\",\"Platform\":\"Win7\",\"Platform_Version\":\"6.1\",\"Win32\":true}",
        "1c686c5a910b90f5a2bed441cd7edb99\t[]",
        "1c939ca5c55c19354f7d42b05db03575\t{\"Platform_Version\":\"7.0\"}",
        "1c0a9229a652658a4b4c46f8f8ec5e38\t{\"Platform_Version\":\"9.1\"}",
        "1ca0da2b9e6438a3edaa7b16c8992b49\t{\"Platform_Version\":\"4.2\",\"isTablet\":true}",
        "1ccf63aae9679164552de5b096b4f771\t{\"Platform_Version\":\"4.2\",\"isTablet\":true}",
        "1c93b417301cf57707c2fe602d1cce65\t{\"Platform_Version\":\"4.2\",\"isTablet\":true}",
        "1c0d28c50a58ed95ca2c421eab856591\t{\"Platform_Version\":\"6.0\"}",
        "1c7ce44036b76a4d7c4d2bfaa9582370\t{\"Platform_Version\":\"4.4\",\"isTablet\":true}",
        "1ceed12a9f6715897f15b69bfc898c82\t{\"Platform_Version\":\"4.3\",\"isTablet\":true}",
        "1caa00e71849d209d77abb1dd086c28f\t{\"Platform_Version\":\"4.2\",\"isTablet\":true}",
        "1ca34cd4d2257d10ba75339f15bb13d9\t{\"Platform_Version\":\"9.0\",\"isTablet\":true}",
        "1c251d1be502f11dc6e95205f1d112b6\t{\"Platform_Version\":\"9.3\"}",
        "1c190dcecab7c593e64f7462aa7f337c\t{\"Platform_Version\":\"9.0\"}",
        "1c5dcafc06cba5d3fbf95dc26da049c1\t{\"Platform_Version\":\"4.4\",\"isTablet\":true}",
        "1c4bb3c16342bf3351ca1805bcfde14f\t{\"Platform_Version\":\"4.3\",\"isTablet\":true}",
        "1c8c80b47966dcb1ffa64f7b57eb69b3\t{\"Browser_Bits\":\"32\",\"Platform\":\"Win10\",\"Platform_Version\":\"10.0\",\"Win32\":true}",
        "1c590bd4ec2cd5abd4faaa287d84d548\t{\"Platform_Version\":\"4.4\",\"isTablet\":true}",
        "1c31ef3107adb997d4a27e75c2890630\t[]",
        "1c242f9d031937e9cbb1112d501a07e9\t{\"Platform_Version\":\"4.4\",\"isTablet\":true}",
        "1cb8d76dc996fe35828ed5163696a42c\t{\"Platform_Version\":\"4.2\",\"isTablet\":true}",
        "1ce3f5808671610176d6297fec66a67a\t[]",
        "1cf841ac51ddba32b63fdac62106135c\t{\"Platform_Version\":\"9.1\"}",
        "1c0d8b11c914992f1281d88892931b84\t{\"Platform_Version\":\"4.2\",\"isTablet\":true}",
        "1c431ca20b2fecad4e9ced8c998fc373\t{\"Platform_Version\":\"4.4\",\"isTablet\":true}",
        "1c0625df58c991c98add645fa29eb449\t{\"Browser_Bits\":\"32\",\"Platform\":\"WinXP\",\"Platform_Version\":\"5.2\",\"Win32\":true}",
        "1cc600796b15868500dc51b813fe0f6c\t{\"Browser_Bits\":\"32\",\"Platform\":\"Win32\",\"Win32\":true}",
        "1c44adadc51eae595e0ea8c2e2463e7a\t{\"Platform_Version\":\"4.4\",\"isTablet\":true}",
        "1c52e532e28e0c2dd1dfb4d0eee0525c\t{\"Platform_Version\":\"4.4\",\"isTablet\":true}",
        "1cb7966b40b4f310fece1d2c9e374cda\t{\"Platform_Version\":\"4.3\"}",
        "1cf559384ec2d6b2c295fd4241504d4c\t{\"Browser_Bits\":\"32\",\"Platform\":\"WinXP\",\"Platform_Version\":\"5.2\",\"Win32\":true}",
        "1ccab94ee5e8e7213df978e56135e25f\t{\"Platform_Version\":\"5.0\",\"isTablet\":true}",
        "1c3c149c80a47965e93e13170e06cb01\t{\"Platform_Version\":\"4.3\",\"isTablet\":true}",
        "1c2a2d082182c54c4865f8a915584c41\t{\"Platform_Version\":\"4.3\",\"isTablet\":true}",
        "1cea93825702f4195851e09eaf9ee873\t{\"Platform_Version\":\"4.2\",\"isTablet\":true}",
        "1c8bf5e6eca2ac7585e66e2223d4ab4c\t{\"Platform_Version\":\"4.4\",\"isTablet\":true}",
        "1cd7912f69f3532d502be56c4f6465e7\t{\"Platform_Version\":\"4.2\",\"isTablet\":true}",
        "1cddc0ce35d4d13e5f49a13963d6ad68\t{\"Browser_Bits\":\"32\",\"Platform\":\"Win7\",\"Platform_Version\":\"6.1\",\"Win32\":true}",
        "1c7f50df1d8adf244ae81c84a581de25\t{\"Browser_Bits\":\"32\",\"Platform\":\"MacOSX\",\"Platform_Version\":\"10.11\"}",
        "1c5365bcfe1431c902a27314cf6a2443\t{\"Platform_Version\":\"4.3\",\"isTablet\":true}",
        "1c27905784bc0653ff9800d8a156a530\t{\"Platform_Version\":\"4.2\",\"isTablet\":true}",
        "1cd13619678852491cec0f66f55f9704\t{\"Platform_Version\":\"4.2\",\"isTablet\":true}",
        "1c794b6594eab475fd61e28ba91adc16\t{\"Platform_Version\":\"4.2\"}",
        "1c11b3ac2bb36c1ef288f14c68b7d1c3\t{\"Browser_Bits\":\"32\",\"Platform\":\"Win10\",\"Platform_Version\":\"10.0\",\"Win32\":true}",
        "1c12e577106a1bd2bace6813c4135a8f\t{\"Platform_Version\":\"4.3\",\"isTablet\":true}",
        "1c6c44f7b35b1b0a932c2c65d4925e22\t{\"Platform_Version\":\"4.3\",\"isTablet\":true}",
        "1c13cc4117bd787438994efbaceafe7d\t{\"Platform_Version\":\"4.2\",\"isTablet\":true}",
        "1c399bbd43b531b8876d1d364fef4c54\t[]",
        "1ccdaa3035f1cb05dee8134217e5d69c\t{\"Platform_Version\":\"8.0\",\"isTablet\":true}",
        "1c7896741ce2eb8fcc0576ce2fdc18d4\t{\"Platform_Version\":\"8.0\"}",
        "1c790b8c88f6dd0a92517ce42de99c18\t{\"Platform_Version\":\"9.0\"}",
        "1c3574b7397ecbaabcf7d27a66f5d6c6\t{\"Platform_Version\":\"10.2\"}",
        "1c26f9eda7320cc609e2efb1c16a336f\t{\"Platform_Version\":\"4.4\",\"isTablet\":true}",
        "1c903172911de98cccc17961a08a21b3\t{\"Platform_Version\":\"4.4\",\"isTablet\":true}",
        "1c15e0f621c038211529af7fdb6301c3\t{\"Platform_Version\":\"4.2\",\"isTablet\":true}",
        "1cf6bc0819e75b86dc7d62ed8d69ae3f\t{\"Platform_Version\":\"4.2\",\"isTablet\":true}",
        "1c51ffdb2133cbe9b8c44915143b6756\t{\"Browser_Bits\":\"32\",\"Platform\":\"WinVista\",\"Platform_Version\":\"6.0\",\"Win32\":true}",
        "1cbf5f089feedcc11759638f34f73faf\t{\"Platform_Version\":\"4.3\",\"isTablet\":true}",
        "1c7f722d3d81492b84e8849580749a89\t{\"Browser_Bits\":\"32\",\"Platform\":\"ChromeOS\"}",
        "1ce77830c5b2e22b8d55ee5e36dea97f\t{\"Platform_Version\":\"4.2\",\"isTablet\":true}",
        "1ce2941cbfb465d713611522b9c72af0\t{\"Browser_Bits\":\"32\",\"Platform\":\"ChromeOS\"}",
        "1c77015c525c780b588e7af5deb41976\t{\"Browser_Bits\":\"32\",\"Platform\":\"WinVista\",\"Platform_Version\":\"6.0\",\"Win32\":true}",
        "1ca7f900b36767df1cfbf6f1e4f8c2ee\t{\"Platform_Version\":\"10.2\",\"isTablet\":true}",
        "1c189f810f22c7a1c8433bf81bc1db9d\t{\"Platform_Version\":\"8.0\"}",
        "1cc06cd6520dc28887a71e54a803cdd6\t{\"Platform_Version\":\"10.0\",\"isTablet\":true}",
        "1c35f4e092cd2849373e24f11a41d2ec\t{\"Platform_Version\":\"10.0\",\"isTablet\":true}",
        "1c764b758dd401bf6800f316badf5d86\t{\"Platform_Version\":\"8.1\"}",
        "1cebbe00563a541c1acb68f2312433d3\t{\"Browser_Bits\":\"32\",\"Platform\":\"WinVista\",\"Platform_Version\":\"6.0\",\"Win32\":true}",
        "1cf23073347d974fc1eee48832619f08\t{\"Browser_Bits\":\"32\",\"Platform\":\"Win7\",\"Platform_Version\":\"6.1\",\"Win32\":true}",
        "1c9ce2f31caadaf2dff3255c49f56844\t{\"Platform_Version\":\"4.2\"}",
        "1c97857acef47036b16b77cab14c031d\t{\"Platform_Version\":\"3.0\",\"isTablet\":true}",
        "1cb865e2f435e77d81b96f7adbf54bc4\t{\"Browser_Bits\":\"32\",\"Platform\":\"Linux\"}",
        "1c4bdb248d9b4e493b9041b52cee1387\t{\"Browser_Bits\":\"32\",\"Platform\":\"Win7\",\"Platform_Version\":\"6.1\",\"Win32\":true}",
        "1cb8ce312dc499f8b2a1d8c865d569b7\t{\"isMobileDevice\":true}",
        "1c3537d95e082172c7c9281a97f1ba2c\t{\"Browser_Bits\":\"32\",\"Platform\":\"WinXP\",\"Platform_Version\":\"5.1\",\"Win32\":true}",
        "1cb365631d723dff693d82891733de33\t{\"Platform\":\"Win7\",\"Platform_Version\":\"6.1\"}",
        "1c929fcee7cc307baf387d5a0cc0288f\t{\"Browser_Bits\":\"32\",\"Platform\":\"Android\",\"Platform_Version\":\"4.2\"}",
        "1c6c72b0e59f176851924896f8706aa2\t{\"Browser_Bits\":\"32\",\"Platform\":\"Android\",\"Platform_Version\":\"4.4\"}",
        "1c34c458beda001757692d61bb142d8e\t{\"Browser_Bits\":\"32\",\"Platform\":\"Android\"}",
        "1cc3d8376488bb4d9655446437e9e545\t{\"Browser_Bits\":\"32\",\"Platform\":\"Android\",\"Platform_Version\":\"4.3\"}",
        "1ca2257062b8b3fe9ea49912cbedc47b\t[]",
        "1c2e823bc2b6a6cbff5c575e548915bf\t{\"Browser_Bits\":\"32\",\"Platform\":\"Series40\",\"isMobileDevice\":true}",
        "1cb1a6a0e95ce23d328e710479d89b84\t{\"Browser_Bits\":\"32\",\"Platform\":\"Series40\",\"isMobileDevice\":true}",
        "1cd65bd2d87a8a1eb334d8eb15a4d986\t[]",
        "1c45f13920a98f641a4565483e77c281\t{\"Platform\":\"Win7\",\"Platform_Version\":\"6.1\",\"Win32\":true}",
        "1c9e266341ffbb8079d29c13a4c4c25c\t{\"Browser_Bits\":\"32\",\"Platform\":\"WinVista\",\"Platform_Version\":\"6.0\",\"Win32\":true}",
        "1cc97b97268415f2c0893509271f1711\t{\"Browser_Bits\":\"32\",\"Platform\":\"WinVista\",\"Platform_Version\":\"6.0\",\"Win32\":true}",
        "1c480b3c5bdf232496e81c22f4ab41d0\t{\"Platform_Version\":\"6.1\"}",
        "1cb1a90ded9614ca0cc9ef66bf746e64\t{\"Platform_Version\":\"4.2\"}",
        "1cd92b14b769a2cdae3639782442d98d\t{\"Platform_Version\":\"6.0\"}",
        "1c224f53b8de37969a49d826ac79b0e5\t{\"Platform_Version\":\"4.3\",\"isTablet\":true}",
        "1cf405f08bccdca0250a39c0eec1d1ce\t{\"Platform_Version\":\"4.2\",\"isTablet\":true}",
        "1cd61ddd72ae9f510fc2eca5bd0ac9d3\t{\"Browser_Bits\":\"32\",\"Platform\":\"iOS\"}",
        "1cc7592507ecddeb232595b6bbdcb283\t{\"Browser_Bits\":\"32\",\"Platform\":\"iOS\",\"Platform_Version\":\"8.0\"}",
        "1cb09c7f1a45a135fd37a8e678735a56\t{\"Browser_Bits\":\"32\",\"Platform\":\"JAVA\"}",
        "1c7dfcddddb7a877d5c30b933923ce6e\t{\"Browser_Bits\":\"32\",\"Platform\":\"OpenBSD\"}",
        "1cf8145708a2e2274d065e76e5532c05\t{\"Platform_Version\":\"8.4\"}",
        "1c023a3c42bdec4854d9e25bbe44cb22\t{\"Platform_Version\":\"8.4\"}",
        "1c37569a3087546c474041ce8fb17c09\t{\"Platform_Version\":\"8.2\"}",
        "1c9e61979b8779a563f5c18a6f8f9766\t[]",
        "1c8bc8f6e0023034679175c5cad42520\t[]",
        "1c9ae151c45da3f91a594137aa7e792e\t{\"Platform_Version\":\"7.0\"}",
        "1cc4b40dda2db9ef449d2ac2e3f59505\t{\"Browser_Bits\":\"32\",\"Platform\":\"iOS\",\"isMobileDevice\":true}",
        "1cd6f6dd2a4789d10204b510deea107e\t{\"Platform_Version\":\"7.1\"}",
        "1c9db0271416adc8babe91b2decc677c\t{\"Platform_Version\":\"8.2\",\"isTablet\":true}",
        "1ce2a1b86ad3d3e02493e112cabd3fdb\t{\"Platform_Version\":\"10.1\"}",
        "1ca4c1134275bd0d6f2eff9577fbbf6a\t{\"Platform_Version\":\"8.4\"}",
        "1c15120e4cf3f0348f06d949a022672f\t{\"Platform_Version\":\"8.0\"}",
        "1cc34b34108eb1c47a59648b2ff14310\t{\"Platform_Version\":\"9.0\"}",
        "1ccf5667a3d47d40f3ddecfd9ac69ea7\t{\"Platform_Version\":\"10.2\",\"isTablet\":true}",
        "1cd3eb5b9631b0fd4c37efb161e367a5\t{\"Platform_Version\":\"8.4\",\"isTablet\":true}",
        "1cd614b5a20957e6b49714bf945e9468\t{\"Platform_Version\":\"8.0\",\"isTablet\":true}",
        "1cbc911576caeb94115b1bb5528f379a\t{\"Platform_Version\":\"9.3\"}",
        "1c08f858101c4d5e132c8ce5d337f664\t{\"isTablet\":true}",
        "1cc1064783297fb2d1fae7b5437a629b\t{\"Platform_Version\":\"8.2\",\"isTablet\":true}",
        "1c8cd485e61da800a7b86fb38edff545\t{\"Platform_Version\":\"9.3\",\"isTablet\":true}",
        "1c5ab361b9e413d9c51e1ded4912f707\t{\"Platform_Version\":\"10.3\"}",
        "1c6cc41ff99c9917bc2ceafc0b7d3dd3\t{\"Platform_Version\":\"8.4\"}",
        "1c380db88ab5454e5eef2bc475d14bf9\t{\"Platform_Version\":\"8.1\"}",
        "1ce29f8cb61b3c6056ad4e9e182f943c\t{\"Platform_Version\":\"8.2\",\"isTablet\":true}",
        "1c62889c0e841bd33d77cdfb9346f6c5\t{\"Platform_Version\":\"8.4\",\"isTablet\":true}",
        "1c5d6722439c348c36840e9ce626dca0\t{\"Platform_Version\":\"8.1\"}",
        "1c424cb86f5d4d42118d7d7d0724c20c\t{\"Platform_Version\":\"9.2\"}",
        "1c768d9edea8790bf47c5f3dac53516e\t{\"Platform_Version\":\"9.0\"}",
        "1cdca586e45493a1927c7938bd88cb53\t{\"isTablet\":true}",
        "1ca8f3a62a064b0ec6730440e8aa1b74\t{\"Platform_Version\":\"8.3\"}",
        "1cb6f65e965f6d30f7de3cbb00b3780c\t{\"Platform_Version\":\"7.0\",\"isTablet\":true}",
        "1c318cc13e562a72d1372580fcf35c54\t{\"Browser_Bits\":\"32\",\"Platform\":\"Win7\",\"Platform_Version\":\"6.1\",\"Win32\":true}",
        "1c63bb3aa572b7fe4bb46383ad601be1\t{\"Platform_Version\":\"8.0\"}",
        "1ccee19a90cd5ed8cadfc51dfbe05556\t{\"Platform_Version\":\"9.0\"}",
        "1c9deca4fb7da0213a6f160fc8575cf9\t{\"Platform_Version\":\"10.3\"}",
        "1c163cc4f7d14079ad7049f31deeab2c\t{\"isTablet\":true}",
        "1c271d8e416df03ce299d2d3de73a23f\t[]",
        "1c27cddb381884afe19e85f50e309062\t{\"Platform_Version\":\"7.1\"}",
        "1cf9185509dae63b869caa147648399d\t{\"Platform_Version\":\"10.2\",\"isTablet\":true}",
        "1c6f6872e0cd5376c8becc751d460f05\t{\"Platform_Version\":\"9.0\",\"isTablet\":true}",
        "1cf21ed715efb6a3f9c918dcce65ea02\t{\"Platform_Version\":\"9.2\"}",
        "1c8f9daed9844d8f4eca5ec9a4a3d38c\t{\"Platform_Version\":\"8.2\"}",
        "1c27e88020f795594c30e2165ee8d4b8\t{\"Browser_Bits\":\"32\",\"Platform\":\"iOS\",\"isMobileDevice\":true}",
        "1c6cc6a4593b8485a4c2cf3d5b9ba74b\t{\"Platform_Version\":\"9.2\"}",
        "1c5706914e645b6d0385b3b0d46e751c\t{\"Platform_Version\":\"9.1\"}",
        "1cde9e865dc6ab1ca33e39cc370a50c7\t[]",
        "1c516af6b7e19d8e7f291262d6862096\t{\"Browser_Bits\":\"32\",\"Platform\":\"Win32\",\"Win32\":true}",
        "1cadd2d523760f55e67051a248f850a9\t{\"Platform_Version\":\"8.2\"}",
        "1cdbcc54f5746be20da986f7a6de6d05\t{\"Platform_Version\":\"8.1\"}",
        "1ca6db1fe73d3aa6a72972cb08894fbb\t{\"Platform_Version\":\"9.0\"}",
        "1cef3a62401ee6274df389c9eb755b04\t{\"Browser_Bits\":\"32\",\"Platform\":\"Unix\"}",
        "1cd447aead4b57d2e98c4f5d754411fa\t[]",
        "1cd5dce347b51a3ce756c3326fa42fdb\t{\"Platform\":\"Win7\",\"Platform_Version\":\"6.1\",\"Win32\":true}",
        "1c587e9f3bf3219ed0ab4a9b5ed19e49\t{\"Platform_Version\":\"10.10\"}",
        "1c6a46e5423abe20dd933fdf1d260b8e\t{\"Platform\":\"macOS\",\"Platform_Version\":\"10.12\"}",
        "1cb7c3d8924e575447a9389cdff6c02d\t{\"Platform_Version\":\"10.10\"}",
        "1c3a0ace72745376f2c6f484178a5916\t{\"Platform\":\"WinVista\",\"Platform_Version\":\"6.0\",\"Win32\":true}",
        "1c82e936fda6648934acc2795c786e13\t[]",
        "1cf346886cd7cbe5de899a42842b2c5c\t{\"Browser_Bits\":\"32\",\"Platform\":\"SunOS\"}",
        "1cdbef85f69e5033293e7cf193637133\t{\"Browser_Bits\":\"32\",\"Platform\":\"WinVista\",\"Platform_Version\":\"6.0\",\"Win32\":true}",
        "1c36f3515e67f915240024f75dfc46f9\t{\"Browser_Bits\":\"32\",\"Platform\":\"Win7\",\"Platform_Version\":\"6.1\",\"Win32\":true}",
        "1c622d4e2c469197b9d3bc8fc18218d8\t{\"Browser_Bits\":\"32\",\"Platform\":\"Win32\",\"Win32\":true}",
        "1ccc940d1d515d6f2e8270c670350884\t{\"Browser_Bits\":\"32\",\"Platform\":\"WinVista\",\"Platform_Version\":\"6.0\",\"Win32\":true}",
        "1c28048c56416499c05657e546d09488\t{\"Browser_Bits\":\"32\",\"Platform\":\"Win7\",\"Platform_Version\":\"6.1\",\"Win32\":true}",
        "1c9851a059ef5b5e3105b626c7ae0452\t{\"Browser_Bits\":\"32\",\"Platform\":\"MacOSX\",\"Platform_Version\":\"10.11\"}",
        "1c03eddb3f5da06de63c9b62fd05b280\t{\"Browser_Bits\":\"32\",\"Platform\":\"Win10\",\"Platform_Version\":\"10.0\",\"Win32\":true}",
        "1ca9169b24a87d09a5b003e2d348f145\t{\"Browser_Bits\":\"32\",\"Platform\":\"Linux\"}",
        "1c07e66a8c3a3cd3a0f6c9a31fb79c70\t{\"Browser_Bits\":\"32\",\"Platform\":\"macOS\",\"Platform_Version\":\"10.12\"}",
        "1cd16b23d4ba252bd7a3e0c57cc7f9f3\t{\"Browser_Bits\":\"32\",\"Platform\":\"MacOSX\",\"Platform_Version\":\"10.11\"}",
        "1c3aaecc54d6baac9b77471d863ae3c1\t{\"Browser_Bits\":\"32\",\"Platform\":\"WinXP\",\"Platform_Version\":\"5.2\",\"Win32\":true}",
        "1cc3094403b6159b08c38b5c175b18d2\t{\"Browser_Bits\":\"32\",\"Platform\":\"FreeBSD\"}",
        "1c3ad8d222c321657021355e843a0547\t{\"Browser_Bits\":\"32\",\"Platform\":\"OS\\\/2\"}",
        "1c2d4ace33039c35f06c1f5a4bd3217c\t{\"Browser_Bits\":\"32\",\"Platform\":\"WinXP\",\"Platform_Version\":\"5.1\",\"Win32\":true}",
        "1c4c1370a57f23b08262fc64fef5b834\t{\"Browser_Bits\":\"32\",\"Platform\":\"WinXP\",\"Platform_Version\":\"5.1\",\"Win32\":true}",
        "1c67238b3ec16c7d31eed39dd74f7e52\t{\"Browser_Bits\":\"32\",\"Platform\":\"Win7\",\"Platform_Version\":\"6.1\",\"Win32\":true}",
        "1c6f7c9a369e916fd0533d2fe852fa5c\t{\"Platform_Version\":\"9.3\"}",
        "1cbec1bf0826a8e22510b7d175c20812\t{\"Platform_Version\":\"10.2\"}",
        "1c237d14875f6683275d069a5d3c1c02\t{\"Platform_Version\":\"10.2\",\"isTablet\":true}",
        "1c9f902fe698f731fc584cb4977fc917\t{\"Browser_Bits\":\"32\",\"Platform\":\"WinVista\",\"Platform_Version\":\"6.0\",\"Win32\":true}",
        "1c8b4e3699e98cea275e82541bcfa657\t{\"Browser_Bits\":\"32\",\"Platform\":\"WinXP\",\"Platform_Version\":\"5.2\",\"Win32\":true}",
        "1ccfa534aef1037549a9a68894b22b8a\t{\"Browser_Bits\":\"32\",\"Platform\":\"WinXP\",\"Platform_Version\":\"5.1\",\"Win32\":true}",
        "1c61892a827b171bff8980c516b40b68\t{\"Platform_Version\":\"7.0\",\"isTablet\":true}",
        "1cc9b49f0f2eb4c07f54b0291b57f3b6\t{\"Platform_Version\":\"9.1\"}",
        "1c99460b4c055212d8901303f1022c9e\t{\"Browser_Bits\":\"32\",\"Platform\":\"Android\",\"isMobileDevice\":true}",
        "1cb34e3723a7d6c76b33aaecf235a1fc\t{\"Browser_Bits\":\"32\",\"Platform\":\"Maemo\"}",
        "1c51b013c6b8535521fb86804c31191b\t{\"Platform\":\"Win8.1\",\"Platform_Version\":\"6.3\"}",
        "1c95b8a22c54f8ca14fa7ba2cbf59a03\t{\"Browser_Bits\":\"32\",\"Platform\":\"WinXP\",\"Platform_Version\":\"5.2\",\"Win32\":true}",
        "1c60cac00af58f96d79f67e2997aff2c\t{\"Browser_Bits\":\"32\",\"Platform\":\"WinXP\",\"Platform_Version\":\"5.1\",\"Win32\":true}",
        "1c333a86d58c4e2339e98fd233744621\t{\"Browser_Bits\":\"32\",\"Platform\":\"Linux\"}",
        "1c6f579af8afd520a9f3816f2365bfc6\t{\"Platform_Version\":\"7.0\",\"isTablet\":true}",
        "1c0489779d52c4aa1c66d07d129f4b20\t[]",
        "1c50cec227aea0fc046e8b49acef3e1c\t{\"Browser_Bits\":\"32\",\"Platform\":\"Win8\",\"Platform_Version\":\"6.2\",\"Win32\":true}",
        "1c2651dd4887d7698238a3cd832fef75\t{\"Browser_Bits\":\"32\",\"Platform\":\"Win10\",\"Platform_Version\":\"10.0\",\"Win32\":true}",
        "1c01bcb90d2cef431afea4cec61e058b\t{\"Browser_Bits\":\"32\",\"Platform\":\"NetBSD\"}",
        "1c873d96ddd2dbc7f31bb380c4f665fb\t{\"Browser_Bits\":\"32\",\"Platform\":\"OpenBSD\"}",
        "1c28f064be6f7de32e2fc6918329700e\t{\"Browser_Bits\":\"32\",\"Platform\":\"MacOSX\",\"Platform_Version\":\"10.11\"}",
        "1c7c0d4d43847dfbf64a583bbab70773\t{\"Browser_Bits\":\"32\",\"Platform\":\"MacOSX\",\"Platform_Version\":\"10\"}",
        "1c0bbf4c8342b1d690d6aef91d13bf71\t{\"Browser_Bits\":\"32\",\"Platform\":\"NetBSD\"}",
        "1cb92694cbcc9cb46bc183c63ee0b9e7\t{\"Browser_Bits\":\"32\",\"Platform\":\"MacOSX\",\"Platform_Version\":\"10.9\"}",
        "1c572c51f9fb15b69a731e19c626a8be\t{\"Browser_Bits\":\"32\",\"Platform\":\"Linux\"}",
        "1cc01c8a34c789e39dc8e5c4b17fb755\t{\"Browser_Bits\":\"64\",\"Platform\":\"IRIX64\"}",
        "1c61a2cfafea31c566954e03c827b9db\t{\"Browser_Bits\":\"32\",\"Platform\":\"Win7\",\"Platform_Version\":\"6.1\",\"Win32\":true}",
        "1c54c27a504f136fc82a4166f28b0935\t{\"Browser_Bits\":\"32\",\"Platform\":\"macOS\",\"Platform_Version\":\"10.12\"}",
        "1c9cf2ba6f15c786a31aace2b5e6565f\t{\"Browser_Bits\":\"32\",\"Platform\":\"FreeBSD\"}",
        "1c94aea5939ab255cfd5e8d249daf105\t{\"Browser_Bits\":\"32\",\"Platform\":\"OpenBSD\"}",
        "1c0eade72e56ce68113c48c2f2db7d07\t{\"Browser_Bits\":\"32\",\"Platform\":\"FreeBSD\"}",
        "1cbae8e010f2c8f915eddc8d94ea5353\t{\"Platform\":\"WinXP\",\"Platform_Version\":\"5.1\"}",
        "1c38e8d42f711dbb292e5281a007bf33\t{\"Browser_Bits\":\"32\",\"Platform\":\"MacOSX\",\"Platform_Version\":\"10.10\"}",
        "1ce89562252bf3367f33c8455da80f05\t[]",
        "1c7c3c7c5245723ca9feaac87be604fa\t{\"Platform_Version\":\"9.0\"}",
        "1c5bb39aea5a7858a5ffea0f7d9c277b\t{\"Browser_Bits\":\"32\",\"Platform\":\"WinVista\",\"Platform_Version\":\"6.0\",\"Win32\":true}",
        "1c1253e406061aa06b457f81f314801c\t{\"Browser_Bits\":\"32\",\"Platform\":\"WinXP\",\"Platform_Version\":\"5.2\",\"Win32\":true}",
        "1ce02645b5b5e60e3398b0c754e529c3\t{\"Browser_Bits\":\"32\",\"Platform\":\"Win32\",\"Win32\":true}",
        "1cc24af6886194d69fa9ad07ca05eb7d\t[]",
        "1c0d3a1d601e83eed26f18087337c71c\t[]",
        "1cc1ff4543c159514496ee3d51f3b1de\t[]",
        "1c954682fc3670a42e9867a4f130378b\t[]"
    ]
}