{
    "content": [
        "3dfea716d61b9cb6ebe431c145f7603b\t[]",
        "3dbeb7dccb98340e65e12fc89edf04ad\t[]",
        "3d98d7b581dc54bff1e173d3ad63c565\t[]",
        "3d47ba17eb33c849c2994263c40a5521\t[]",
        "3dcdde7b5b6d53288bc55c60f442920a\t[]",
        "3daedae406ec5e6c6d43c601e9112fb3\t[]",
        "3da0b4492c743dd07a366360ecd7cfb2\t{\"Platform_Version\":\"7.0\"}",
        "3d6baeec77ab2e20d0b3ef1721b6f9cc\t{\"Browser_Bits\":\"32\",\"Platform\":\"WinXP\",\"Platform_Version\":\"5.1\",\"Win32\":true}",
        "3db944a4604c607b02fc1cdb677afaff\t{\"Browser_Bits\":\"32\",\"Platform\":\"MacOSX\",\"Platform_Version\":\"10.11\"}",
        "3d54ba79a19be96de469f99de63b2445\t{\"Browser_Bits\":\"32\",\"Platform\":\"MacOSX\",\"Platform_Version\":\"10.10\"}",
        "3db655499e42d1c5292d60353cc2da9e\t{\"Browser_Bits\":\"32\",\"Platform\":\"MacOSX\",\"Platform_Version\":\"10.10\"}",
        "3d441cbadd241f646a8cd595c2fd8166\t{\"Platform\":\"iOS\",\"Platform_Version\":\"10.1\",\"Win32\":false,\"isMobileDevice\":true,\"isTablet\":true}",
        "3df2556c39b51a7360ac0af2e6afa952\t{\"Platform\":\"Win10\",\"Platform_Version\":\"10.0\"}",
        "3dcd0e2a68b255ac7118b97d27326374\t{\"Platform\":\"iOS\",\"Platform_Version\":\"10.3\",\"Win32\":false,\"isMobileDevice\":true,\"isTablet\":true}",
        "3d914298c1e7db332430d5d3a671f13b\t{\"Platform\":\"Win10\",\"Platform_Version\":\"10.0\"}",
        "3d3bedeef9b8b644f9b69573052ffa2c\t{\"Platform\":\"iOS\",\"Platform_Version\":\"9.1\",\"Win32\":false,\"isMobileDevice\":true,\"isTablet\":true}",
        "3d5aa9aa96168da75bd9cb135589faa9\t{\"Platform\":\"Win10\",\"Platform_Version\":\"6.4\"}",
        "3d9978e589fc1a4e9dbebf7af8c9d752\t{\"Platform\":\"iOS\",\"Platform_Version\":\"9.2\",\"Win32\":false,\"isMobileDevice\":true,\"isTablet\":true}",
        "3d9ad18b8b6a319ab75b8b80e8b28df7\t{\"Platform\":\"iOS\",\"Platform_Version\":\"10.1\",\"Win32\":false,\"isMobileDevice\":true,\"isTablet\":true}",
        "3d8d5f53a7c03dbb79ea61fee9df0180\t{\"Platform\":\"iOS\",\"Platform_Version\":\"9.0\",\"Win32\":false,\"isMobileDevice\":true,\"isTablet\":true}",
        "3d8ff8cffbd85506817592fced5a3d4f\t{\"Platform\":\"iOS\",\"Platform_Version\":\"10.1\",\"Win32\":false,\"isMobileDevice\":true,\"isTablet\":true}",
        "3dc692650030e24887fce2f1031a61bf\t{\"Platform\":\"Win10\",\"Platform_Version\":\"6.4\"}",
        "3db1e0901aaf42e0cf39db2d750365cd\t{\"isTablet\":true}",
        "3deacbb286f529a08339a97776528825\t{\"Platform_Version\":\"9.2\",\"isTablet\":true}",
        "3d7ec540898b09ad054769c097bafb03\t{\"Platform_Version\":\"9.3\"}",
        "3decc468a00eee4bf3590ed8ea8edbd6\t{\"Browser_Bits\":\"32\",\"Platform\":\"Android\",\"isMobileDevice\":true}",
        "3de56e6bb2b60c1091d9a009ce97493b\t{\"Platform_Version\":\"5.0\"}",
        "3d8258d8f7f14cd65628157953bb8cab\t{\"Platform_Version\":\"4.4\"}",
        "3d731e586d0fc96ec664abcec9719560\t{\"isTablet\":true}",
        "3d6302f5bf3504e781f27bdfe6cdca30\t{\"Browser_Bits\":\"32\",\"Platform\":\"iOS\",\"Platform_Version\":\"10.1\",\"isTablet\":true}",
        "3d87671e3dfd748e136a15978e5aa211\t{\"Browser_Bits\":\"32\",\"Platform\":\"iOS\",\"Platform_Version\":\"10.0\"}",
        "3dbbcfc483282818d9452f540a24de21\t{\"Platform\":\"iOS\",\"Platform_Version\":\"10.3\",\"isTablet\":true}",
        "3d3359ba194c2c9fc68ddfee496aa3f1\t{\"Platform\":\"iOS\",\"isTablet\":true}",
        "3db2c947fd4a14b5d82e42c3cf8b1bae\t{\"Platform\":\"iOS\",\"Platform_Version\":\"8.3\"}",
        "3d177686f9a43459498b0b3e02115e54\t{\"Platform\":\"iOS\",\"Platform_Version\":\"8.1\",\"isTablet\":true}",
        "3d2cec59c1b3c4db81fbbbe0e166a8bc\t{\"Platform\":\"iOS\",\"Platform_Version\":\"8.1\"}",
        "3d7b6f6adea71bcba9784b95df0f2fe9\t{\"Platform\":\"iOS\",\"Platform_Version\":\"10.3\",\"isTablet\":true}",
        "3d6846c7fe8f74d30f4247c277edb661\t{\"Platform\":\"iOS\",\"Platform_Version\":\"8.1\"}",
        "3d765027901b70e67b80e3493e428d84\t{\"Platform_Version\":\"5.1\"}",
        "3d608ec9c75a21a5bc27454ade152789\t{\"Platform_Version\":\"4.2\",\"isTablet\":true}",
        "3d5aad1b3629ca0aa8afda46f5868b1b\t{\"Platform\":\"WinPhone8\",\"Platform_Version\":\"8.0\"}",
        "3dd6cfa904c7933d0c79585018c7b4e5\t{\"Platform\":\"iOS\",\"Platform_Version\":\"9.2\",\"isTablet\":true}",
        "3dd6476ad6b99e6274e601257d756dbc\t{\"Platform\":\"iOS\",\"Platform_Version\":\"7.1\"}",
        "3db8a5cd7cbaf3a81d2ba44adac7845d\t{\"Platform\":\"JAVA\"}",
        "3da18396c802dcbb01185e016244abd6\t{\"Platform_Version\":\"4.3\"}",
        "3d4b44cf81e8a2ff169df2b0e1e09956\t{\"Platform\":\"iOS\",\"Platform_Version\":\"7.1\"}",
        "3df11b8825ec3503796bc42e6f526108\t{\"Browser_Bits\":\"32\",\"Platform\":\"WinVista\",\"Platform_Version\":\"6.0\",\"Win32\":true}",
        "3d361704c9bdde6a582c3c13dad93455\t{\"Browser_Bits\":\"32\",\"Platform\":\"WinXP\",\"Platform_Version\":\"5.2\",\"Win32\":true}",
        "3df49241b1af3a7cc21f5bf4a6696bd2\t{\"Browser_Bits\":\"32\",\"Platform\":\"Android\"}",
        "3d5b17cb8410a6859962822e7b293526\t{\"Platform_Version\":\"4.2\"}",
        "3d7aac68fc5cea8570835f28e9efc45d\t{\"Platform\":\"JAVA\"}",
        "3d49e869873e17d2af0e877d9d73a552\t{\"Browser_Bits\":\"32\",\"Platform\":\"Android\",\"isMobileDevice\":true}",
        "3d041012ae0c5c0d572f507b04e5373f\t{\"Platform\":\"MacOSX\",\"Platform_Version\":\"10.10\",\"Win32\":false}",
        "3d33ada0a04ea542296442a87b1ec5a8\t{\"Platform\":\"Win10\",\"Platform_Version\":\"10.0\"}",
        "3d869593205f61dd549402be6bffe7f1\t{\"Platform\":\"WinVista\",\"Platform_Version\":\"6.0\",\"Win32\":true}",
        "3d7449828d68ccd2a70eb3dd9f940d3c\t{\"Platform\":\"Win8.1\",\"Platform_Version\":\"6.3\",\"Win32\":true}",
        "3d4ef2fe534fd8645a08f0dc84867560\t{\"Platform\":\"Win8.1\",\"Platform_Version\":\"6.3\",\"Win32\":true}",
        "3d2eaecb899cbe4371cb163268c55486\t{\"Browser_Bits\":\"32\",\"Platform\":\"Linux\"}",
        "3dc3562bfecf930ae0f55116faeeb4f5\t{\"Platform\":\"WinXP\",\"Platform_Version\":\"5.1\",\"Win32\":true}",
        "3d19deea9d8404add7b0ac3117cc1046\t{\"Platform\":\"WinXP\",\"Platform_Version\":\"5.2\",\"Win32\":true}",
        "3de3eb59e71864b9534018d437919a70\t{\"Platform\":\"WinXP\",\"Platform_Version\":\"5.1\",\"Win32\":true}",
        "3df43d02720b65c62e224290bfe7c879\t{\"Platform\":\"Win8\",\"Platform_Version\":\"6.2\",\"Win32\":true}",
        "3d2f655bf5bf664b32bb868e5cb9ab94\t{\"Platform\":\"Win10\",\"Platform_Version\":\"6.4\",\"Win32\":true}",
        "3d90c72953e354713be7723937147265\t{\"Platform_Version\":\"4.2\",\"isTablet\":true}",
        "3d7fdffff2dd03ecb12dc18541aa3be9\t{\"Platform_Version\":\"7.0\"}",
        "3d3fe6aa94d3af1c6d39facc52817b1c\t{\"Platform_Version\":\"5.1\"}",
        "3d9f38f9adabc71b6b96f638413f2c21\t{\"Platform_Version\":\"4.2\",\"isTablet\":true}",
        "3d33cfd55dbe2f4ba2edfb18d171876c\t{\"Platform_Version\":\"4.2\",\"isTablet\":true}",
        "3de2e9636d3ff20e36303550b20742d9\t{\"Platform_Version\":\"4.3\",\"isTablet\":true}",
        "3d48470064b0dddc357d592b4d6b939e\t{\"Platform_Version\":\"4.3\",\"isTablet\":true}",
        "3d5ef6c6e745a34c3fa76e0156ebeb84\t{\"Platform_Version\":\"4.3\",\"isTablet\":true}",
        "3dec787563451bf555d76c5e69869169\t{\"Platform_Version\":\"4.2\",\"isTablet\":true}",
        "3d808634b9730c62f90e0439008767ff\t{\"Platform_Version\":\"5.0\",\"isTablet\":true}",
        "3d8c3ae908895ea8402ecbd26b76aad1\t{\"Platform_Version\":\"4.2\",\"isTablet\":true}",
        "3d15da8b59302412b910a05021641c74\t{\"Browser_Bits\":\"32\",\"Platform\":\"Android\",\"Platform_Version\":\"5.1\"}",
        "3d86c74acc91abfae35181a3f6b842ca\t{\"Browser_Bits\":\"32\",\"Platform\":\"Android\",\"Platform_Version\":\"7.0\"}",
        "3d9cfeca32338f8781aa7e149e45e323\t{\"Browser_Bits\":\"32\",\"Platform\":\"Android\"}",
        "3dc210e336c7091effd0d1bc366bd7a2\t{\"Browser_Bits\":\"32\",\"Platform\":\"Android\",\"Platform_Version\":\"5.0\"}",
        "3df39273c06e2417d3f7fb296329335b\t{\"Platform_Version\":\"7.0\"}",
        "3d4e40df6c94231132da274b6dcdb64d\t{\"Browser_Bits\":\"32\",\"Platform\":\"Win7\",\"Platform_Version\":\"6.1\",\"Win32\":true}",
        "3d1d36d44ad6c10f50b934ccc2e23bc5\t{\"Platform_Version\":\"4.2\",\"isTablet\":true}",
        "3d328bb953354dee0360af8ff3ae798d\t{\"Browser_Bits\":\"32\",\"Platform\":\"WinXP\",\"Platform_Version\":\"5.2\",\"Win32\":true}",
        "3debe3802aa9a871cfa006b7dccd85fd\t{\"Platform_Version\":\"4.4\",\"isTablet\":true}",
        "3dcded44f9e82e7a0f72a5b866aff712\t{\"Platform_Version\":\"9.3\"}",
        "3db1071ad610e43971e765507f65ab27\t{\"Platform_Version\":\"7.0\"}",
        "3d82434900a3f2a0169f7e82553771de\t{\"Platform_Version\":\"10.2\"}",
        "3d468309563fb3264fb2803b61e69600\t{\"Platform_Version\":\"4.2\",\"isTablet\":true}",
        "3d8288275952a82b6001d1fe66770e0c\t{\"Browser_Bits\":\"32\",\"Platform\":\"Win8.1\",\"Platform_Version\":\"6.3\",\"Win32\":true}",
        "3d261e75277770052723498edf84ba64\t{\"Platform_Version\":\"8.3\"}",
        "3d35e125e2876ee89c04d3dc6c2aaf90\t{\"Platform_Version\":\"10.1\",\"isTablet\":true}",
        "3d81612ef575a8d13d70bf799daf4a2e\t{\"Platform_Version\":\"4.4\",\"isTablet\":true}",
        "3dc33a423d2f213af544d2dc2a0f28a7\t{\"Platform_Version\":\"4.4\"}",
        "3dd30fd508c89c086ec29d12008812d4\t{\"Platform_Version\":\"9.2\"}",
        "3d44f6e428213c36603fdde90a640618\t{\"Platform_Version\":\"9.3\"}",
        "3d9b9675a422e8e101e41179f1acb5a8\t{\"Platform_Version\":\"8.3\"}",
        "3d1067cb4977cfd6406768d5d1ef3faa\t{\"Platform_Version\":\"10.0\"}",
        "3d3fd4f04806ab025e4774ea4c5a93dc\t{\"Platform_Version\":\"4.4\",\"isTablet\":true}",
        "3dae456d5cafa1c8631eba5cd9621f69\t{\"Platform_Version\":\"4.2\",\"isTablet\":true}",
        "3dc5c83188f2dfd1e946d96f345c8df8\t{\"Platform_Version\":\"4.3\",\"isTablet\":true}",
        "3d3b4ff0298ef9ac7e23a2a35015b972\t{\"Platform_Version\":\"4.2\",\"isTablet\":true}",
        "3dfa4d33f24183a92ec7f633ec4a6112\t{\"Platform_Version\":\"6.1\"}",
        "3d3976cce5573576fd8cab025f7d2b54\t{\"Platform_Version\":\"4.2\",\"isTablet\":true}",
        "3de1cc9af62fdf776407ca79fce1d457\t{\"Platform_Version\":\"4.4\",\"isTablet\":true}",
        "3d90b7c5a562b6a245be43cffd66c6ab\t{\"Platform_Version\":\"4.4\",\"isTablet\":true}",
        "3d9a86e6cef152cabb24842290d65a04\t{\"Platform_Version\":\"4.4\",\"isTablet\":true}",
        "3d40995334be09dd6d3460234ae94f24\t{\"Browser_Bits\":\"32\",\"Platform\":\"Android\"}",
        "3daea92379acc21165f168e63580abc9\t{\"Browser_Bits\":\"32\",\"Platform\":\"Android\",\"isTablet\":true}",
        "3de82c0c6c7dc944d7551a040235fd32\t[]",
        "3d1eeb8d4f64f534ad8c82b6771e4f76\t{\"Browser_Bits\":\"32\",\"Platform\":\"Win8.1\",\"Platform_Version\":\"6.3\",\"Win32\":true}",
        "3d77bde541ecaf99097da71775222198\t{\"Browser_Bits\":\"32\",\"Platform\":\"WinVista\",\"Platform_Version\":\"6.0\",\"Win32\":true}",
        "3d54e187d88ced012ed86d11f99b33ec\t{\"Browser_Bits\":\"32\",\"Platform\":\"MacOSX\",\"Platform_Version\":\"10.9\"}",
        "3d4b78e36906b6b93b2b9e71d2875c63\t{\"Browser_Bits\":\"32\",\"Platform\":\"Win8.1\",\"Platform_Version\":\"6.3\",\"Win32\":true}",
        "3da849b035f9f504409b899fa40fb65c\t{\"Browser_Bits\":\"32\",\"Platform\":\"Win8\",\"Platform_Version\":\"6.2\",\"Win32\":true}",
        "3d3efd057e0a1589ada4d988b4929050\t{\"Browser_Bits\":\"32\",\"Platform\":\"Win8\",\"Platform_Version\":\"6.2\",\"Win32\":true}",
        "3dee0f2494f30404da12629491cc37a7\t{\"Browser_Bits\":\"32\",\"Platform\":\"WinXP\",\"Platform_Version\":\"5.1\",\"Win32\":true}",
        "3d87f0aced115bb84f38929d2cb1e14e\t{\"Browser_Bits\":\"32\",\"Platform\":\"Win8\",\"Platform_Version\":\"6.2\",\"Win32\":true}",
        "3d2f89fe8ff022819718935f281d7031\t{\"Browser_Bits\":\"32\",\"Platform\":\"Win32\",\"Win32\":true}",
        "3da492104ce3e7a6fcf1d2023965cf60\t{\"Browser_Bits\":\"32\",\"Platform\":\"Win32\",\"Win32\":true}",
        "3df6b1184cd406d39a21c45260b4050f\t{\"Browser_Bits\":\"32\",\"Platform\":\"WinXP\",\"Platform_Version\":\"5.1\",\"Win32\":true}",
        "3dbb6474137601c9149561acce9f875a\t{\"Browser_Bits\":\"32\",\"Platform\":\"Win8.1\",\"Platform_Version\":\"6.3\",\"Win32\":true}",
        "3d6050657f11a7718512c39b7c21d7ee\t[]",
        "3d77deedcfc9d72222af44b033629c11\t{\"Browser_Bits\":\"32\",\"Platform\":\"WinVista\",\"Platform_Version\":\"6.0\",\"Win32\":true}",
        "3df570259889ee15e02400271b51ded8\t{\"Browser_Bits\":\"32\",\"Platform\":\"WinVista\",\"Platform_Version\":\"6.0\",\"Win32\":true}",
        "3d485b0ad9639a3013cece960874cef1\t{\"Browser_Bits\":\"32\",\"Platform\":\"SunOS\"}",
        "3de8597a98c84407e1cd54d92fdb20b1\t{\"Browser_Bits\":\"32\",\"Platform\":\"Linux\"}",
        "3d72f9b3f02fd7478ee69f50c5a9cb4e\t{\"Browser_Bits\":\"32\",\"Platform\":\"Win8.1\",\"Platform_Version\":\"6.3\",\"Win32\":true}",
        "3d7f1fc8575a1502906bb9e299b7b74b\t{\"Browser_Bits\":\"32\",\"Platform\":\"Win8.1\",\"Platform_Version\":\"6.3\",\"Win32\":true}",
        "3d158e52ee0715d8b7d061bb2852ef2a\t{\"Browser_Bits\":\"32\",\"Platform\":\"Linux\"}",
        "3daaf0c3e991ce5ff69710c48ebd67ff\t{\"Browser_Bits\":\"32\",\"Platform\":\"Win8\",\"Platform_Version\":\"6.2\",\"Win32\":true}",
        "3d71a611e14860c2037d6b6e31e7b39d\t{\"Browser_Bits\":\"32\",\"Platform\":\"Linux\"}",
        "3d9b05ccebb2039a3c825a6b266182cf\t{\"Browser_Bits\":\"32\",\"Platform\":\"SunOS\"}",
        "3d171c8e71e1af230ef78761e9d5ea62\t{\"Browser_Bits\":\"32\",\"Platform\":\"MacOSX\",\"Platform_Version\":\"10.10\"}",
        "3dee5c62ecc3242513b58b3d3ec45697\t{\"Browser_Bits\":\"32\",\"Platform\":\"Win8\",\"Platform_Version\":\"6.2\",\"Win32\":true}",
        "3dde64cd73270454d3372b243b30b38c\t{\"Browser_Bits\":\"32\",\"Platform\":\"MacOSX\",\"Platform_Version\":\"10.9\"}",
        "3db52229c67fd0222f8761c1617c6150\t{\"Browser_Bits\":\"32\",\"Platform\":\"MacOSX\",\"Platform_Version\":\"10.10\"}",
        "3d5983933dbfd4e0917023d9e0de0e28\t{\"Browser_Bits\":\"32\",\"Platform\":\"Android\",\"Platform_Version\":\"4.2\",\"isTablet\":true}",
        "3d0a916e6b8231004a4a4941278aed3a\t{\"Browser_Bits\":\"32\",\"Platform\":\"iOS\",\"Platform_Version\":\"7.1\"}",
        "3de0c4d8f53c74bd79f36a9f95fecffc\t{\"Browser_Bits\":\"32\",\"Platform\":\"MacOSX\",\"Platform_Version\":\"10.10\"}",
        "3d69fced0c343ad57c7c327561b42ead\t{\"Browser_Bits\":\"32\",\"Platform\":\"Win8\",\"Platform_Version\":\"6.2\",\"Win32\":true}",
        "3d94f9dca064ad638d04170786a71e6e\t{\"Browser_Bits\":\"32\",\"Platform\":\"Win8\",\"Platform_Version\":\"6.2\",\"Win32\":true}",
        "3de0c3726b1f280f081bbd6cc1648b24\t[]",
        "3d9ea03adcdaf28ae1199e316cd2813b\t{\"Browser_Bits\":\"32\",\"Platform\":\"WinVista\",\"Platform_Version\":\"6.0\",\"Win32\":true}",
        "3dab96258f4e5b3cf5d682aaed6d1e9c\t{\"isTablet\":true}",
        "3d8ebb96e63e88ce94249d9bc3e2dd7f\t{\"Platform_Version\":\"5.1\"}",
        "3df09df606e6130df44df59a0426b516\t{\"Browser_Bits\":\"32\",\"Platform\":\"Android\",\"isMobileDevice\":true}",
        "3d95f5522ad40a314d309c4ed5fd6cb6\t{\"Platform_Version\":\"4.4\",\"isTablet\":true}",
        "3d262e7be3dafb6a41e727eed83b30df\t{\"isTablet\":true}",
        "3d6e9e7d2083617a1b0467ffae033ea6\t{\"Browser_Bits\":\"32\",\"Platform\":\"MacOSX\",\"Platform_Version\":\"10.10\"}",
        "3de9539089e59a1d6adeaa2d72aef666\t{\"Platform_Version\":\"4.2\"}",
        "3d87ca2cd2c76a2323ba78c06f1a7c54\t[]",
        "3d3ba052a6a88dca8c4fac90a37633ca\t{\"Platform_Version\":\"4.4\",\"isTablet\":true}",
        "3d01eedcf629595d37a08e8daddb5853\t{\"Platform_Version\":\"4.4\",\"isTablet\":true}",
        "3d103484c5873698d2e394243614feaa\t{\"Platform_Version\":\"4.2\",\"isTablet\":true}",
        "3d29ca682224b18868b9a41047aef6d6\t[]",
        "3d8782390b596d73de2bb2d4d69146a8\t{\"Platform_Version\":\"9.3\"}",
        "3d043785072ff0873b7995e819c28a68\t{\"Platform_Version\":\"4.4\",\"isTablet\":true}",
        "3d06b1ab41d32d2c1fc8dda48e5afdfb\t{\"Platform_Version\":\"9.3\"}",
        "3dbf167f2ad15ba0808e2f860d46648a\t{\"Platform_Version\":\"5.0\"}",
        "3db0266d4df97060edd24e7150b9fce6\t{\"Platform_Version\":\"9.1\"}",
        "3d593cb4465bb0478fb5a451d3384883\t{\"Platform_Version\":\"4.4\",\"isTablet\":true}",
        "3dee64402639cdcfc98152cef82c2a94\t{\"Platform_Version\":\"8.3\",\"isTablet\":true}",
        "3d12b707b36049bb7e7fb8c0f7d3d6bb\t{\"Platform_Version\":\"10.0\"}",
        "3dc2b17ef4567559c6db39142b472d55\t{\"Platform_Version\":\"7.0\",\"isTablet\":true}",
        "3ddf714747bc1edf58cc5e75f003218d\t{\"Platform_Version\":\"4.4\",\"isTablet\":true}",
        "3d1b63c4d4b352c5792b743a31026d5d\t{\"Platform_Version\":\"4.3\",\"isTablet\":true}",
        "3d97180a270bbb85ad0c66482ebb7b21\t{\"isTablet\":true}",
        "3d9d782e442a1009b9394cd196f92018\t{\"Platform_Version\":\"4.4\",\"isTablet\":true}",
        "3dd4cd69006b1a00a6f74baf96ade8c2\t{\"Platform_Version\":\"4.2\",\"isTablet\":true}",
        "3de6eb2bf75302cadd1fe86d97c680be\t{\"Platform_Version\":\"8.3\"}",
        "3dd50f3c8498da792a11bdda7edcaffd\t{\"Browser_Bits\":\"32\",\"Platform\":\"Win32\",\"Win32\":true}",
        "3da347c4ff6c246dcc066b0bdaa7ebda\t{\"Platform_Version\":\"4.2\",\"isTablet\":true}",
        "3d9deb22c0a1170a9bf101cab4aeeba2\t{\"Platform_Version\":\"4.2\",\"isTablet\":true}",
        "3d57f5a333cf6f9f04de2f37d6db2773\t{\"Platform_Version\":\"4.4\",\"isTablet\":true}",
        "3daac8dc829965f2dd1919ed6f4ade25\t{\"Platform_Version\":\"10.2\"}",
        "3d3616541fe5805c20a41d92712ad7f0\t{\"Platform_Version\":\"9.0\"}",
        "3d5dfea7908455d3d73b6d4d9234b2d0\t{\"Platform_Version\":\"4.2\",\"isTablet\":true}",
        "3de3cea5fde35c7caf578567661a7d2b\t{\"Platform_Version\":\"4.3\",\"isTablet\":true}",
        "3da736d19dd06cbba2181fa69f322c9a\t{\"Platform_Version\":\"4.3\",\"isTablet\":true}",
        "3d0219ea3ea04d8bcbf17b498fb2da88\t{\"Platform_Version\":\"4.2\",\"isTablet\":true}",
        "3d7adbe174debe2e1e1c5b035611a379\t{\"Platform_Version\":\"4.3\",\"isTablet\":true}",
        "3d4857e71344ea900bfdea00573e5eea\t{\"Platform_Version\":\"4.3\",\"isTablet\":true}",
        "3dd09203706816e9bcf72a48c87f1699\t{\"Platform_Version\":\"4.4\",\"isTablet\":true}",
        "3d1667d16fcee27e4e91036fcf7df5f9\t{\"Platform_Version\":\"4.3\",\"isTablet\":true}",
        "3d708495ddb87e34cdee0d392511ae55\t{\"Platform_Version\":\"4.4\"}",
        "3d115c52badbe87b1383fe1f948a6ea2\t{\"Platform_Version\":\"4.2\",\"isTablet\":true}",
        "3d651e71dc01c8230acf098ecb075d71\t{\"Platform_Version\":\"4.2\",\"isTablet\":true}",
        "3d86abd70b6873483bb5ac7ef354a8f6\t[]",
        "3d19ead26634348d27a5ae5ee4597848\t{\"Platform_Version\":\"4.2\",\"isTablet\":true}",
        "3d6b2877c5819ac728de4ec78a0ea4c3\t{\"Platform_Version\":\"4.3\",\"isTablet\":true}",
        "3d0f6ef71dd5a6c72cd2a5339737d38b\t{\"isTablet\":true}",
        "3d3053c3ff31e2721fcb855ba315ef2d\t{\"Platform_Version\":\"10.2\"}",
        "3d33d497e23380c02616b9234eb1cb5d\t{\"Platform_Version\":\"4.2\",\"isTablet\":true}",
        "3d8e197d226363dc247e338c95477a8d\t{\"Platform_Version\":\"4.3\",\"isTablet\":true}",
        "3d396b210456600e03f6602d7686f6ff\t{\"Platform_Version\":\"4.2\",\"isTablet\":true}",
        "3d106563d8ef0f2b5c4baf8a4ec706ae\t{\"Platform_Version\":\"4.3\",\"isTablet\":true}",
        "3d54571bb310fdf409f648fec1b6b0e4\t{\"Platform_Version\":\"10.2\"}",
        "3d6afe9fdca10c5d847190e85c24d154\t{\"Platform_Version\":\"4.2\",\"isTablet\":true}",
        "3d906a542848bff3ddbdc45a9a0bc3a5\t[]",
        "3dc9d3e0b3ac1475f853418e77ec756f\t{\"Platform_Version\":\"4.2\",\"isTablet\":true}",
        "3dafa089f6ae3ff82fa28dc4b5cf7f42\t{\"Browser_Bits\":\"32\",\"Platform\":\"webOS\",\"Platform_Version\":\"3.0\"}",
        "3d16f9fac32fe9bd880e67b2264f5008\t{\"Browser_Bits\":\"32\",\"Platform\":\"Android\",\"isMobileDevice\":true}",
        "3df519b8a3649490ef26c1324ee31b94\t{\"Platform_Version\":\"9.3\"}",
        "3d9cbac345b4f815dd1c9a6e49b76a1c\t{\"Platform_Version\":\"4.3\",\"isTablet\":true}",
        "3d3f2fc21b48e04e84dd4808430f6ab2\t{\"Platform_Version\":\"9.1\"}",
        "3de3dfc5fbc3db704c0097dddd638e0c\t{\"Platform_Version\":\"5.1\",\"isTablet\":true}",
        "3d36f270eaccb18fce3bd03a4140e57c\t{\"Platform_Version\":\"4.2\",\"isTablet\":true}",
        "3db1a54081d8b51c9aa78a1f49dcc210\t{\"Platform_Version\":\"10.2\",\"isTablet\":true}",
        "3dec42d2f63323dad06b6c3e71bf9ac0\t{\"Platform_Version\":\"4.4\",\"isTablet\":true}",
        "3d5785236748efe647253c22c326f350\t{\"Platform_Version\":\"4.3\",\"isTablet\":true}",
        "3d07ce37aaceb801a19d12498aac8eff\t{\"Platform_Version\":\"4.2\",\"isTablet\":true}",
        "3dfa690dc525542922e459d6935ac35d\t{\"Platform_Version\":\"4.2\",\"isTablet\":true}",
        "3d0ad3b34473f8b1bffad84b70ccc04c\t{\"Platform_Version\":\"10.3\"}",
        "3dedf9f814c022028d9d2d043783f349\t{\"Platform_Version\":\"4.3\",\"isTablet\":true}",
        "3d0680cd8e1a85e865395dd08b37018b\t{\"Browser_Bits\":\"32\",\"Platform\":\"Win7\",\"Platform_Version\":\"6.1\",\"Win32\":true}",
        "3dbad4233b89948952089eed4edfb602\t{\"Platform_Version\":\"7.1\"}",
        "3d1fcf48ce33ba4deb2c396ad6837ecd\t{\"Platform_Version\":\"8.0\"}",
        "3ddc0180ed21621d3df0d229cfb899e9\t{\"Platform_Version\":\"4.3\",\"isTablet\":true}",
        "3df7199c486e63141f48fe8a889e4e2f\t[]",
        "3da84dfb7ac9d43f7e0e74b016ae2964\t{\"Platform_Version\":\"4.2\",\"isTablet\":true}",
        "3dc164863d96ad29d15f7c8e3dab9221\t[]",
        "3d4ec8dce43b3fd7ec9c39a20e2651ae\t{\"Browser_Bits\":\"32\",\"Platform\":\"Win8.1\",\"Platform_Version\":\"6.3\",\"Win32\":true}",
        "3d611bd54d2634f49c759903a591d25d\t{\"Browser_Bits\":\"32\",\"Platform\":\"MacOSX\",\"Platform_Version\":\"10.10\"}",
        "3d84f1d950f6871f252f89def6b964f3\t{\"Platform_Version\":\"10.0\"}",
        "3da36e4d5d6b69d466fc8583c7f7b015\t{\"Platform_Version\":\"8.1\"}",
        "3d95f3a300f499f3600d9cc24a97c726\t{\"Platform_Version\":\"10.1\",\"isTablet\":true}",
        "3d0872025c2a9d8d0cd48f73e8a2d851\t{\"Browser_Bits\":\"32\",\"Platform\":\"iOS\",\"isMobileDevice\":true}",
        "3d2b4f3f23a4455d74e026c6023912bd\t{\"Platform_Version\":\"9.3\"}",
        "3d4c5f7a87f484d9452d147e4c62a0a5\t{\"Browser_Bits\":\"32\",\"Platform\":\"iOS\",\"isMobileDevice\":true}",
        "3d21716f26a887aadc9211229fc3c5ab\t{\"Browser_Bits\":\"32\",\"Platform\":\"Win32\",\"Win32\":true}",
        "3de9c84ea61c1fe01a7aa4862bbe0109\t[]",
        "3d5d65e79eac3e6373e30eb456109960\t{\"Browser_Bits\":\"32\",\"Platform\":\"Win7\",\"Platform_Version\":\"6.1\",\"Win32\":true}",
        "3d0148cfc3b424ea2644ee5b414b4661\t{\"Platform\":\"Win7\",\"Platform_Version\":\"6.1\"}",
        "3df7889e76f4a18e63e70366f44184da\t{\"Browser_Bits\":\"32\",\"Platform\":\"RIM OS\"}",
        "3d2bfb055cdaa5cb0a4209ea711ef5d4\t{\"isMobileDevice\":true}",
        "3dcefaf93ba1190ecdb7970c1dcbde56\t{\"Browser_Bits\":\"32\",\"Platform\":\"iOS\"}",
        "3d0f18818e33df5a6f88131183b603d9\t{\"Browser_Bits\":\"32\",\"Platform\":\"Android\"}",
        "3dfa4988529d15133806d7c8f21f3faf\t[]",
        "3d6de86891ac27226bbd4efe1da699f7\t[]",
        "3da228d52e7bcd0429aa8300fbf72409\t{\"Platform\":\"Win7\",\"Platform_Version\":\"6.1\",\"Win32\":true}",
        "3df9d85d9186d455103c9c105ded970c\t{\"Platform\":\"Win7\",\"Platform_Version\":\"6.1\",\"Win32\":true}",
        "3dc147de01b2a84bc9774104e4fe89bc\t{\"Browser_Bits\":\"32\",\"Platform\":\"Android\",\"isMobileDevice\":true}",
        "3dfd7e0d8ae63f2504547338672aba24\t{\"Platform_Version\":\"4.3\",\"isTablet\":true}",
        "3d2715d82f2333a20811ec2deaa4520e\t{\"Platform_Version\":\"4.3\",\"isTablet\":true}",
        "3d17b29bd3d1ff3ac9199ca0b6b8ab41\t{\"Browser_Bits\":\"32\",\"Platform\":\"iOS\",\"Platform_Version\":\"8.1\"}",
        "3db647b157ea52998f51e5f97beda306\t{\"Browser_Bits\":\"32\",\"Platform\":\"iOS\",\"Platform_Version\":\"7.1\"}",
        "3d43d455dcfe52418c7b2e3a8dcc40eb\t{\"Browser_Bits\":\"32\",\"Platform\":\"SymbianOS\"}",
        "3df6f0b1f74d0ee0538bf6e0f37aee10\t{\"Browser_Bits\":\"32\",\"Platform\":\"webOS\",\"Platform_Version\":\"2.2\"}",
        "3d9a218b3da58fc4bed2e31cfd091606\t{\"Browser_Bits\":\"32\",\"Platform\":\"FreeBSD\"}",
        "3df1216e8dbca391354f780a56bc6d6c\t{\"Platform_Version\":\"8.1\"}",
        "3dec78da63fb615620f8bf359ae0204c\t{\"Platform_Version\":\"9.2\",\"isTablet\":true}",
        "3d4743be30cd538d46debf066a169f93\t{\"Platform_Version\":\"10.0\",\"isTablet\":true}",
        "3d96e702fadfa6a2dbad2c805744bf5d\t{\"Platform_Version\":\"8.2\",\"isTablet\":true}",
        "3d38eb5c43626402c2e4bbb53af035a7\t{\"Platform_Version\":\"9.2\"}",
        "3d0aeaad0afff11e76e4963b5ca6b1bf\t{\"Platform_Version\":\"7.0\",\"isTablet\":true}",
        "3d63d889168f53af425bcdd4d072effe\t{\"Platform_Version\":\"8.2\",\"isTablet\":true}",
        "3d9e2a295acebd02114d51e003247c49\t{\"Platform_Version\":\"10.1\",\"isTablet\":true}",
        "3d8fba3737539e33a05cca268722b868\t{\"Platform_Version\":\"9.1\",\"isTablet\":true}",
        "3dcb71c7daacca582248f23d849fb6d3\t{\"Platform_Version\":\"9.3\"}",
        "3d83837f2bd1dbdc488ecfc70828549d\t{\"Platform_Version\":\"8.2\"}",
        "3d118d45a7e5de76eee49264cfdc5743\t{\"Platform_Version\":\"10.0\",\"isTablet\":true}",
        "3d00ac32dd4ab654ca8b0f1d63df18a9\t{\"Platform_Version\":\"10.3\"}",
        "3ddde2eded329025e4f369aa98465ca8\t{\"Platform_Version\":\"9.2\"}",
        "3dc610645d9bade4d929dd0c50c0b211\t{\"Platform_Version\":\"9.2\"}",
        "3d663568eed1f766b4e186e2801bd69b\t{\"Platform_Version\":\"9.1\",\"isTablet\":true}",
        "3db35b1f0a6c8b66d870b2ff946194ae\t{\"Platform_Version\":\"9.0\"}",
        "3dfaaf7d9c817b3459d76c1fe3093394\t{\"Platform_Version\":\"9.3\"}",
        "3db8653a3ae2b87631c5ab0443d8e741\t{\"Platform_Version\":\"8.4\"}",
        "3da8eacf86275baeb815802c9b0b340f\t{\"Browser_Bits\":\"32\",\"Platform\":\"MacOSX\",\"Platform_Version\":\"10.11\"}",
        "3d1838b9142eced4f94b7753a0ffb66d\t{\"Browser_Bits\":\"32\",\"Platform\":\"MacOSX\",\"Platform_Version\":\"10.9\"}",
        "3d6cf08ab5af278ceb3151f973a70e5a\t{\"Platform_Version\":\"8.0\"}",
        "3df2a6ca580160953ee19a5d7e35f0b8\t{\"Platform_Version\":\"9.3\",\"isTablet\":true}",
        "3d8a17e1c9b76d5a0de1ea09c7f2679e\t{\"isTablet\":true}",
        "3daeff65a56075e5a6694d13fe68a2c4\t[]",
        "3da5e3d3821e01eac6d0f374b7e4290e\t[]",
        "3d8a15782f282a08d58efc3a104cd22b\t{\"Platform_Version\":\"10.3\"}",
        "3d685c1451f70fefd0012c897aad2a4b\t{\"Platform_Version\":\"8.3\"}",
        "3debcc315f4b97aaa372fe968507c2e5\t{\"isTablet\":true}",
        "3d525694cad5e13b98d16426ac140473\t{\"isTablet\":true}",
        "3de76e6a020d19935744e731d95da77e\t{\"Platform_Version\":\"9.1\"}",
        "3d9ef774c8e4b4e7f550d74ba8169555\t{\"Platform_Version\":\"8.4\",\"isTablet\":true}",
        "3d41abfbb2ce2a26fe7cf440b85fed8a\t[]",
        "3d51629888d041be8ac8ffa1dff61aa8\t[]",
        "3da6f02f2bc368b19d6b08a79d728684\t{\"Platform_Version\":\"8.4\"}",
        "3da2bffbf6b7d75b0cb3979ce0810fae\t{\"Platform_Version\":\"9.0\"}",
        "3da0f6ae27d7d9a24fe8578ba224f950\t{\"Browser_Bits\":\"32\",\"Platform\":\"Darwin\"}",
        "3d16fa8b469a1ae6a8fdb787d3bb5b63\t{\"Platform\":\"macOS\",\"Platform_Version\":\"10.12\"}",
        "3db3b562f9e94d0c0edd3ebb92aef4f7\t[]",
        "3dcdd2c877792acd6d45b17fbc43e9b9\t{\"Browser_Bits\":\"32\",\"Platform\":\"MacOSX\",\"Platform_Version\":\"10\"}",
        "3d1fcdf2d2e7cdec90a35c5930a9a5db\t{\"Browser_Bits\":\"32\",\"Platform\":\"Win8.1\",\"Platform_Version\":\"6.3\",\"Win32\":true}",
        "3d5184ebffe1151d372dd4f41f83530f\t{\"Browser_Bits\":\"32\",\"Platform\":\"Win8\",\"Platform_Version\":\"6.2\",\"Win32\":true}",
        "3ddc29a0d950770973a96a94976c770c\t{\"Browser_Bits\":\"32\",\"Platform\":\"WinXP\",\"Platform_Version\":\"5.2\",\"Win32\":true}",
        "3d8c8c7bcc48d91ac90d6b27ab7f3467\t{\"Browser_Bits\":\"32\",\"Platform\":\"WinVista\",\"Platform_Version\":\"6.0\",\"Win32\":true}",
        "3d81708c1de3ab05d133120a0f62d781\t{\"Browser_Bits\":\"32\",\"Platform\":\"Win8.1\",\"Platform_Version\":\"6.3\",\"Win32\":true}",
        "3d49db625d2ee84b2281b6f46b5671f4\t{\"Browser_Bits\":\"32\",\"Platform\":\"Win8.1\",\"Platform_Version\":\"6.3\",\"Win32\":true}",
        "3d8a82cc6dbb2ca5efe6fd072bbf5b34\t{\"Browser_Bits\":\"32\",\"Platform\":\"Win7\",\"Platform_Version\":\"6.1\",\"Win32\":true}",
        "3d0bffd8a690dd21a5ba44c0eda52a5a\t{\"Browser_Bits\":\"32\",\"Platform\":\"MacOSX\",\"Platform_Version\":\"10.11\"}",
        "3d9e6cde45493f4ffb66e85067b95fd4\t{\"Browser_Bits\":\"32\",\"Platform\":\"WinXP\",\"Platform_Version\":\"5.1\",\"Win32\":true}",
        "3db4195a3a1167debe531198e15d9a77\t{\"Browser_Bits\":\"32\",\"Platform\":\"MacOSX\",\"Platform_Version\":\"10.9\"}",
        "3da19e15228b8138a849526ff38b7a56\t{\"Browser_Bits\":\"32\",\"Platform\":\"Linux\"}",
        "3dd76bef3ff1807503ae5fa004a910e4\t{\"Browser_Bits\":\"32\",\"Platform\":\"Win10\",\"Platform_Version\":\"10.0\",\"Win32\":true}",
        "3da924c8260b2343c6ce4c00a12f69a1\t{\"Platform\":\"WinXP\",\"Platform_Version\":\"5.1\"}",
        "3d9d647181b69c118eb341d0925da50b\t{\"Platform\":\"Win10\",\"Platform_Version\":\"6.4\"}",
        "3d44a47e75cd5d6d99cb7e13aaf82e37\t{\"Browser_Bits\":\"32\",\"Platform\":\"MacOSX\",\"Platform_Version\":\"10\"}",
        "3d8e95c55178f156aeb1e1e37a68b1ac\t{\"Browser_Bits\":\"32\",\"Platform\":\"Win32\",\"Win32\":true}",
        "3d658c25dd291c6500f489f7960d0635\t{\"Browser_Bits\":\"32\",\"Platform\":\"Win7\",\"Platform_Version\":\"6.1\",\"Win32\":true}",
        "3d79a17477cb58ce38035571cff0d1c1\t{\"Browser_Bits\":\"32\",\"Platform\":\"FreeBSD\"}",
        "3d76ecd2fc4592963f0d30138a458299\t{\"Browser_Bits\":\"32\",\"Platform\":\"Win8.1\",\"Platform_Version\":\"6.3\",\"Win32\":true}",
        "3dc417c108ce0bcba47e248a895cf5ad\t{\"Browser_Bits\":\"32\",\"Platform\":\"WinXP\",\"Platform_Version\":\"5.1\",\"Win32\":true}",
        "3d987eb34ec368d444ad8bdca6e1fced\t{\"Browser_Bits\":\"32\",\"Platform\":\"Linux\"}",
        "3db2edbdcf168058f8428836cca9b854\t{\"Browser_Bits\":\"32\",\"Platform\":\"Linux\"}",
        "3dd5a1d12985ed3b4b2d947d9e63e56f\t{\"Browser_Bits\":\"32\",\"Platform\":\"MacOSX\",\"Platform_Version\":\"10\"}",
        "3d0f5b8d68cf67d3f172343eb48681e3\t{\"Browser_Bits\":\"32\",\"Platform\":\"WinXP\",\"Platform_Version\":\"5.1\",\"Win32\":true}",
        "3d882e40cbaf7232727dc3b5d7439cd4\t{\"Browser_Bits\":\"32\",\"Platform\":\"Win8.1\",\"Platform_Version\":\"6.3\",\"Win32\":true}",
        "3d2081c0fe7d89a9c93f74ef16e4ab56\t{\"Browser_Bits\":\"32\",\"Platform\":\"MacOSX\",\"Platform_Version\":\"10.9\"}",
        "3d965fa6af2e9ce2c5d16d0a6f9f4158\t{\"Browser_Bits\":\"32\",\"Platform\":\"WinXP\",\"Platform_Version\":\"5.1\",\"Win32\":true}",
        "3d86637249ba86495693ce72e1f0d94c\t{\"Platform_Version\":\"9.2\",\"isTablet\":true}",
        "3d18450e64a5411d716d58f220352385\t{\"Platform_Version\":\"8.4\",\"isTablet\":true}",
        "3d6b609faa268cda0abc76e2caf47403\t{\"Platform_Version\":\"8.2\"}",
        "3dc3736cf1f5fe5d92a5c48a10c8b1e8\t{\"Platform_Version\":\"8.2\"}",
        "3d7e41a95ddd9b497902d468cca2106c\t{\"Browser_Bits\":\"32\",\"Platform\":\"Win8\",\"Platform_Version\":\"6.2\",\"Win32\":true}",
        "3db2cd8dd59f0ad1d54786268fdaab0c\t{\"Browser_Bits\":\"32\",\"Platform\":\"WinXP\",\"Platform_Version\":\"5.1\",\"Win32\":true}",
        "3d1f862b5233f597df18eb9dfda139ed\t{\"Platform\":\"Win8\",\"Platform_Version\":\"6.2\",\"Win32\":true}",
        "3d00d47bc7aaa619ef10805d7ea43d79\t{\"Platform_Version\":\"5.1\",\"isTablet\":true}",
        "3dbbcc71595334f3e1cb375d5ea632ca\t{\"Platform_Version\":\"4.3\",\"isTablet\":true}",
        "3d3ce9aeffbb16d7a995f42c42fe514c\t{\"Platform_Version\":\"4.3\",\"isTablet\":true}",
        "3d1f49a7c4fab019d25dd819170f52fe\t{\"Browser_Bits\":\"32\",\"Platform\":\"Android\",\"isMobileDevice\":true}",
        "3d72b59e85fc336d4d340679968fea6f\t{\"Browser_Bits\":\"32\",\"Platform\":\"OS\\\/2\"}",
        "3d45c1870d8b0424a349068e1d3b7881\t{\"Browser_Bits\":\"32\",\"Platform\":\"WinXP\",\"Platform_Version\":\"5.2\",\"Win32\":true}",
        "3dff9f150fdb1086cc4fc4926a4a814a\t{\"Browser_Bits\":\"32\",\"Platform\":\"FirefoxOS\",\"Platform_Version\":\"2.1\",\"isMobileDevice\":true}",
        "3d7accc4d91ab2f39bf990be7d970827\t{\"Browser_Bits\":\"32\",\"Platform\":\"MacOSX\",\"Platform_Version\":\"10.11\"}",
        "3de6538a44466853e7293e420954ea24\t{\"Browser_Bits\":\"32\",\"Platform\":\"Win10\",\"Platform_Version\":\"6.4\",\"Win32\":true}",
        "3dc0429912f3c2d61224a3b1308954c5\t{\"Browser_Bits\":\"32\",\"Platform\":\"MacOSX\",\"Platform_Version\":\"10.11\"}",
        "3d7139173b8a5ac44452bfd022ef2f5c\t{\"Browser_Bits\":\"32\",\"Platform\":\"macOS\",\"Platform_Version\":\"10.12\"}",
        "3d07b1e260551a7b138b5c0c60fd5eb4\t{\"Browser_Bits\":\"32\",\"Platform\":\"Win32\",\"Win32\":true}",
        "3dea8f8775de2e16c3c4b1a69813dc14\t{\"Browser_Bits\":\"32\",\"Platform\":\"Linux\"}",
        "3dd5fd2cf7abe9c99ffb6f5ea7da0cb2\t[]",
        "3d403d651e513a5f278bec766a99f64d\t{\"Browser_Bits\":\"32\",\"Platform\":\"MacOSX\",\"Platform_Version\":\"10\"}",
        "3d8d44977bea4f40c89674dfebc1529e\t{\"Browser_Bits\":\"32\",\"Platform\":\"Win7\",\"Platform_Version\":\"6.1\",\"Win32\":true}",
        "3df87028e184ac845d3b07a8f10635bd\t{\"Browser_Bits\":\"32\",\"Platform\":\"Win8.1\",\"Platform_Version\":\"6.3\",\"Win32\":true}",
        "3d3a10eaed78781eb8dba6dfe04f104f\t{\"Browser_Bits\":\"32\",\"Platform\":\"WinXP\",\"Platform_Version\":\"5.1\",\"Win32\":true}",
        "3d71e42bafe0e4ae438cb359c9994f67\t{\"Browser_Bits\":\"32\",\"Platform\":\"FreeBSD\"}",
        "3dfffb3c20ab10fb30714b8c04343a21\t{\"Browser_Bits\":\"32\",\"Platform\":\"Win8.1\",\"Platform_Version\":\"6.3\",\"Win32\":true}",
        "3d455bbc8f390167312847ee2109b1fa\t{\"Browser_Bits\":\"32\",\"Platform\":\"HP-UX\"}",
        "3dba43b79e5b9ddc84a6d156772d784d\t{\"Browser_Bits\":\"32\",\"Platform\":\"WinXP\",\"Platform_Version\":\"5.1\",\"Win32\":true}",
        "3de2c3abf1fb7bd1c76061152940141c\t{\"Browser_Bits\":\"32\",\"Platform\":\"WinVista\",\"Platform_Version\":\"6.0\",\"Win32\":true}",
        "3d7a0f7ffd5ff105690d609fa9ee0f63\t{\"Browser_Bits\":\"32\",\"Platform\":\"SunOS\"}",
        "3d7c54b16fbc3e2e01e08d4045a56f3a\t{\"Platform\":\"WinXP\",\"Platform_Version\":\"5.2\"}",
        "3da67998e5aaaa30d2c4efec473ba188\t[]",
        "3d75a2603ba582197095fe48dcbc3b0d\t[]",
        "3dfe135f461610fe986aef96468caaf7\t[]",
        "3d69d1207752a6ba05d07866c7619b85\t[]",
        "3d36f330f8dbd7f4e3d2704dfed6c8cc\t[]",
        "3df83d668a1fbedc1c08e6a0cf20cefc\t[]",
        "3de8a342beef42e0a7b3da3ac516f901\t{\"Platform_Version\":\"8.4\"}"
    ]
}