{
    "content": [
        "b0098cf36ab780c388ff41ac29fb2457\t23\tmot\\-v[\\d][\\d][\\d] up\\.browser\\\/[\\d]\\.[\\d].*",
        "b0152fd994dbbf79dd7cdff51b210808\t17\tapplesyndication\\\/.*",
        "b0504f43ba26e4e8b9f77db85c0b673f\t16\tcydralspider\\\/[\\d]\\.[\\d].*",
        "b05c603fadedb0374c74531054291de0\t30\tfgbrowserprivate\\\/[\\d]\\..* cfnetwork\\\/.*",
        "b05e27f2941ce4c01c54e82fb54a7e40\t31\tmot\\-v[\\d][\\d][\\d]\\\/[\\d]\\.[\\d]\\.[\\d]\\.[\\d] up\\.browser\\\/[\\d]\\.[\\d].*",
        "b05f1242a786639bedb37aaae6ef154c\t14\troccat generic",
        "b05f1242a786639bedb37aaae6ef154c\t10\troccat [\\d]\\.[\\d]",
        "b06e21a62e7ac74d449633efcd695aa5\t11\tipodder\\\/[\\d]\\.[\\d].*",
        "b075a77d6610ab0860d6edb1fbb90d6c\t15\ticc\\-crawler\\\/[\\d]\\.[\\d].*",
        "b087580b2a607b50ef5089988a8b6402\t14\tliebao browser",
        "b0e3f7195a4b77d4a4a26640e6a4c32c\t12\tivia project"
    ]
}