{
    "content": [
        "ff08eb33f67a3934b9521214d0695f5e\t7\tsyncmgr",
        "ff0bae7d43b5e8681beca9ded0e96f79\t10\tgrammarly\\\/.*",
        "ff1d25745ba59c35ef89564338da5bfa\t31\tsagem\\-myx\\-[\\d]m\\\/[\\d]\\.[\\d] up\\.browser\\\/[\\d]\\.[\\d].*",
        "ff2364a0be3d20e46cc69efb36afe9a5\t11\tspace.*bison\\\/.*",
        "ff3b271d59aaf52ac9aecba9dd829524\t19\ticab mobile generic",
        "ff3b271d59aaf52ac9aecba9dd829524\t15\ticab mobile [\\d]\\.[\\d]",
        "ff3b271d59aaf52ac9aecba9dd829524\t12\ticab generic",
        "ff3b271d59aaf52ac9aecba9dd829524\t8\ticab [\\d]\\.[\\d]",
        "ff629d12174378258bdfe4a1c4d33205\t15\telluminate live",
        "ff6a8e58bffda8f70423bc8ab8c1c65c\t12\tatomic_email",
        "ff70b67a466782367e87a3c109898948\t13\tfavorstarbot\\\/.*",
        "ff967a7c7a3af82e85d277cf80c3b8d9\t13\ty\\!j\\-brm\\\/yatsd.*",
        "ff9ef44a52c66f2c092834cdae411a39\t21\tdoris\\\/[\\d]\\.[\\d][\\d] .* \\(symbian\\)",
        "ffb3a472c1ca2c9a473f3b1aa55b4c49\t8\ttweetbot",
        "ffce276e76b92bd0e66b7b645b5311a6\t33\tnewgen\\-t[\\d]\\\/p[\\d]\\.n[\\d]\\.[\\d][\\d] up\\.browser\\\/[\\d]\\.[\\d].*",
        "ffe8560492ef96f860b965341d0c9698\t59\tinstagram [\\d]\\.[\\d].* \\(.*cpu iphone os [\\d].[\\d].* like mac os x.*\\) applewebkit.*",
        "ffe8560492ef96f860b965341d0c9698\t56\tinstagram [\\d]\\.[\\d].* \\(.*cpu iphone os .* like mac os x.*\\) applewebkit.*",
        "ffe8560492ef96f860b965341d0c9698\t55\tinstagram.* \\(.*cpu iphone os [\\d].[\\d].* like mac os x.*\\) applewebkit.*",
        "ffe8560492ef96f860b965341d0c9698\t52\tinstagram.* \\(.*cpu iphone os .* like mac os x.*\\) applewebkit.*",
        "ffe8560492ef96f860b965341d0c9698\t45\tinstagram [\\d]\\.[\\d].* \\(ipad.*iphone os.[\\d].[\\d].*\\) applewebkit.*",
        "ffe8560492ef96f860b965341d0c9698\t41\tinstagram [\\d]\\.[\\d].* \\(ipad.*iphone os.*\\) applewebkit.*\tinstagram [\\d]\\.[\\d].* \\(.*iphone os.[\\d].[\\d].*\\) applewebkit.*\tinstagram.* \\(ipad.*iphone os.[\\d].[\\d].*\\) applewebkit.*",
        "ffe8560492ef96f860b965341d0c9698\t38\tinstagram app webview [\\d][\\d]\\.[\\d] for android",
        "ffe8560492ef96f860b965341d0c9698\t37\tinstagram [\\d]\\.[\\d].* \\(.*iphone os.*\\) applewebkit.*\tinstagram.* \\(ipad.*iphone os.*\\) applewebkit.*\tinstagram.* \\(.*iphone os.[\\d].[\\d].*\\) applewebkit.*\tinstagram app webview [\\d]\\.[\\d] for android",
        "ffe8560492ef96f860b965341d0c9698\t36\tinstagram app [\\d][\\d]\\.[\\d] for windows phone",
        "ffe8560492ef96f860b965341d0c9698\t35\tinstagram app [\\d]\\.[\\d] for windows phone",
        "ffe8560492ef96f860b965341d0c9698\t34\tinstagram app webview [\\d][\\d]\\.[\\d] for ios",
        "ffe8560492ef96f860b965341d0c9698\t33\tinstagram.* \\(.*iphone os.*\\) applewebkit.*\tinstagram app webview [\\d]\\.[\\d] for ios",
        "ffe8560492ef96f860b965341d0c9698\t29\tinstagram app [\\d]\\.[\\d] for android",
        "ffe8560492ef96f860b965341d0c9698\t28\tinstagram app [\\d]\\.[\\d] for darwin",
        "ffe8560492ef96f860b965341d0c9698\t25\tinstagram app [\\d]\\.[\\d] for ios",
        "ffe8560492ef96f860b965341d0c9698\t21\tinstagram [\\d]\\.[\\d].* android.*\tinstagram app generic",
        "ffe8560492ef96f860b965341d0c9698\t17\tinstagram.* android.*",
        "ffeea3f5638d0da00217d7af58864838\t28\tmot\\-zn[\\d]\\\/[\\d][\\d]\\.[\\d][\\d] up\\.browser\\\/[\\d]\\.[\\d].*",
        "ffefcc36f3b12d8c6dd51178e5b247e8\t16\tnewsgatoronline\\\/.*",
        "fff440290b23e40302801dbe81f62600\t19\tpanasonic\\-x[\\d][\\d][\\d]\\\/r[\\d][\\d] .*"
    ]
}