{
    "content": [
        "5d15395ee9d3e81b2f0375ff6afaded2\t23\tqc\\-[\\d][\\d][\\d][\\d]\\\/.* up\\.browser\\\/[\\d]\\.[\\d].*",
        "5d225868fbeff844164f296bbe1b0723\t15\tmagpie\\-crawler\\\/.*",
        "5d3d435e8509de97cba7759ea1a40218\t56\tcallpod keeper for android [\\d]\\.[\\d].* dalvik\\\/.* \\(.*linux.*android.[\\d]\\.[\\d].*.*",
        "5d3d435e8509de97cba7759ea1a40218\t52\tcallpod keeper for android [\\d]\\.[\\d].* dalvik\\\/.* \\(.*linux.*android.*.*",
        "5d3e3819e894e724d2f8fd6c8c552650\t13\tgoldenpod\\\/[\\d]\\.[\\d].*",
        "5d47303ff77654f7a02a35b4dfe136a5\t17\tpuffin for darwin",
        "5d47303ff77654f7a02a35b4dfe136a5\t10\tpuffin [\\d]\\.[\\d]",
        "5d47303ff77654f7a02a35b4dfe136a5\t6\tpuffin",
        "5d62209871cf56815bf5ca67bf1cd7c2\t31\tcricket\\-a[\\d][\\d][\\d]\\\/[\\d]\\.[\\d] up\\.browser\\\/[\\d]\\.[\\d].*",
        "5d7b35b960890410955e7e1b107bb842\t16\tbingadsadinsight",
        "5d8094f4adfec8452b7a512ebbb58868\t41\tdmca\\.com page protection crawling service.*",
        "5d8d744124bac6182d0baa365ff2dcea\t18\tclementine\\-qt[\\d] [\\d]\\.[\\d].*",
        "5dac1b5914537a1bcd5ac55b181e8512\t20\tpanasonic tv browser",
        "5dac1b5914537a1bcd5ac55b181e8512\t9\tpanasonic",
        "5dac63b97cfe4505ff945adb18bd92fb\t18\thttp_requester\\\/[\\d]\\.[\\d].*",
        "5db1b795be962ae13566ee9535dedab0\t37\tperfect%[\\d][\\d]browser\\\/[\\d]\\.[\\d].* cfnetwork\\\/[\\d][\\d][\\d]\\.[\\d].*",
        "5db1b795be962ae13566ee9535dedab0\t35\tperfect%[\\d][\\d]browser\\\/[\\d]\\.[\\d].* cfnetwork\\\/[\\d][\\d][\\d].*",
        "5db1b795be962ae13566ee9535dedab0\t32\tperfect%[\\d][\\d]browser\\\/[\\d]\\.[\\d].* cfnetwork\\\/.*",
        "5df397ef09c3401a28f3024df84a1bf3\t8\tknbr [\\d][\\d][\\d]",
        "5dfe1258452247f69d8ac8a52c6cbec3\t9\tiframely\\\/.*"
    ]
}