{
    "content": [
        "a406c7ebf6dfaf16c5ce7453a71c1431\t10\tyahooysmcm.*",
        "a40a700d9cb4c81fe6e6b474f325e690\t25\trssradio\\\/.* cfnetwork\\\/[\\d][\\d][\\d]\\.[\\d].*",
        "a40a700d9cb4c81fe6e6b474f325e690\t23\trssradio\\\/.* cfnetwork\\\/[\\d][\\d][\\d].*",
        "a40a700d9cb4c81fe6e6b474f325e690\t20\trssradio\\\/.* cfnetwork\\\/.*",
        "a434f46aa79bfef92ecf227e9ee704a1\t84\tautomated browscap\\.ini updater\\. to report issues contact us at\\+http\\:\\\/\\\/www\\.skycomp\\.ca",
        "a434f46aa79bfef92ecf227e9ee704a1\t83\tautomated browscap\\.ini updater\\. to report issues contact us at.*http\\:\\\/\\\/www\\.skycomp\\.ca",
        "a434f46aa79bfef92ecf227e9ee704a1\t82\tautomated browscap\\.ini updater\\. gary contact me at serge@skycomp\\.ca with problems\\.",
        "a4584493eacb76728c457dd0804554c1\t17\thitpad.* cfnetwork\\\/.*",
        "a4584493eacb76728c457dd0804554c1\t6\thitpad",
        "a45a6947726def71a45694901d19649b\t19\tnode\\-superagent\\\/[\\d]\\.[\\d].*",
        "a46206a02f3465c2481ad71d600e3837\t48\tivo\\\/[\\d]\\.[\\d] android\\\/[\\d]\\.[\\d].* release\\\/.* browser\\\/applewebkit.*",
        "a4806630636db88483df2fa5edb412a7\t4\tyacy",
        "a4ba76e4ee9b4993ad9a1e6ce0ae16b4\t14\tjbrowser\\\/j[\\d]me .*",
        "a4d4b8da5f27c882ed2155dc406467a7\t14\tneuron browser",
        "a4f9b0453bfd719930aaf437a70c6e44\t5\tiball",
        "a4ff3f947d027be9ca5e1ddade9be50a\t27\tmotorola_v[\\d]c up\\.browser\\\/[\\d]\\.[\\d].*"
    ]
}