{
    "content": [
        "f20a698699ddd337ae993089c08cd0fb\t7\twada\\.vn.*",
        "f21c0d3e564c7db5ccf73c095a0b9371\t11\tjasmine [\\d]\\.[\\d]",
        "f23434bcda9bd5be9fdfd7e46baed5a2\t12\tfeedshow\\\/.* \\(.*\\)",
        "f242d5a1ea3b4f2b91ef91a134628e14\t28\tnec\\-e[\\d][\\d][\\d]\\\/[\\d]\\.[\\d] .* up\\.browser\\\/[\\d]\\.[\\d].*",
        "f267384672632d4f845e741d46b2b3a9\t31\tsagem\\-myc[\\d]\\-[\\d]\\\/[\\d]\\.[\\d] up\\.browser\\\/[\\d]\\.[\\d].*",
        "f2728f48ca49e03d67947be8a5033786\t10\tcrawllybot.*",
        "f284897e1b9f58f34ce7564c641997f7\t26\te[\\d][\\d]\\-mpg[\\d]\\\/a\\.[\\d]\\.[\\d]\\.[\\d]\\.[\\d]\\\/wap[\\d]\\.[\\d] .*",
        "f294e5e7b4255b069235a2c7f254ea2e\t61\tctl\\-rocket\\\/[\\d]\\.[\\d]\\\/wap[\\d]\\.[\\d] profile\\\/midp\\-[\\d]\\.[\\d] configuration\\\/cldc\\-[\\d]\\.[\\d]",
        "f2b64bafd7d13bfd304eb2b006773351\t8\txovibot\\\/.*"
    ]
}