{
    "content": [
        "a50a8f6f14872863d99086e1cc718bb2\t17\tpixray\\-seeker\\\/[\\d]\\.[\\d].*",
        "a5101e70e5a075abab1c08c7a6c39612\t18\tbattle\\.net overlay",
        "a557264a7d6c783f6fb57fb7d0b9d6b0\t5\tsharp",
        "a55857851fa3cb1f5ea3050622c7a9e4\t12\tunityplayer\\\/.*",
        "a55f4e587f397e38b6e3b62be0ad79fd\t23\tsie\\-a[\\d][\\d]\\\/.* up\\.browser\\\/[\\d]\\.[\\d].*",
        "a567fde59832b987fe6dea92f54ae68e\t32\tnec\\-a[\\d][\\d][\\d]_edge\\\/[\\d]\\.[\\d] up\\.browser\\\/[\\d]\\.[\\d].*",
        "a586da5622dfe401855b4aaead11e606\t6\tinno[\\d][\\d].*",
        "a5acac1b6a88f6285e95c36834052c1f\t17\tphantomjs general",
        "a5acac1b6a88f6285e95c36834052c1f\t13\tphantomjs [\\d]\\.[\\d]",
        "a5d1029dcc2803213e432ac2baed478a\t16\tutilmind httpget",
        "a5dba937837146b30b7f808472427ea5\t21\tavant generic tricore",
        "a5dba937837146b30b7f808472427ea5\t17\tavant browser\\\/[\\d]\\.[\\d].*",
        "a5dba937837146b30b7f808472427ea5\t10\tavant [\\d][\\d][\\d][\\d]",
        "a5dba937837146b30b7f808472427ea5\t9\tavant [\\d]\\.[\\d]",
        "a5de61cad5da85ea7ca7289ee6ab00e1\t30\tsagem\\-my[\\d][\\d][\\d]\\\/[\\d]\\.[\\d] up\\.browser\\\/[\\d]\\.[\\d].*",
        "a5f95875c116f10a39530375a7af29d5\t21\tcookiereports\\.com\\\/[\\d]\\.[\\d].*",
        "a5f95875c116f10a39530375a7af29d5\t18\tcookiereports\\.com\\\/.*"
    ]
}