{
    "content": [
        "9f3a3489eb5044521ffd05b454cbb9be\t[]",
        "9f429146b29fe77360c7b9182c750ce7\t[]",
        "9ff722b58e3017c8e4eddfc9faa988d6\t[]",
        "9f4fead18d41469f850a468c3b9a7676\t[]",
        "9f33f78dfcb6ba4981dcf7a681a569cf\t[]",
        "9f4c83c44e812fef4265c1f77462ef76\t[]",
        "9fc862a4e7272442def5cf7cfc50896e\t[]",
        "9f2e122a4f7decde8dfde1dc546c4512\t[]",
        "9fae8daac418455a3fe937495a85e478\t{\"Browser_Bits\":\"32\",\"Platform\":\"iOS\",\"Platform_Version\":\"7.1\"}",
        "9f8a17e603196c2f1d4d52bacecc6d90\t[]",
        "9ff8d4c05e34f9c9b147b25079fbf79e\t[]",
        "9f8d970c9f6bab1c494134d55636d443\t[]",
        "9f7f5968ee3a9000b3f0f3454f590a2b\t{\"Browser_Bits\":\"32\",\"Platform\":\"Linux\"}",
        "9fee8ea254bf8440a570c8cc42be0bf6\t{\"Browser_Bits\":\"32\",\"Platform\":\"Linux\"}",
        "9fcba6126c226772ca9814641a32d2ee\t{\"Browser_Bits\":\"32\",\"Platform\":\"WinXP\",\"Platform_Version\":\"5.2\",\"Win32\":true}",
        "9f17aac88c6dcb03a09dbef3e5849b01\t{\"Browser_Bits\":\"32\",\"Platform\":\"Win10\",\"Platform_Version\":\"6.4\",\"Win32\":true}",
        "9faf8ad06addb34d039566f3e7009882\t{\"Platform\":\"Win10\",\"Platform_Version\":\"10.0\"}",
        "9f648f4f8ee323e036351d9b9c38e541\t{\"Platform\":\"MacOSX\",\"Platform_Version\":\"10.11\",\"Win32\":false}",
        "9fa16e02d70c80e05072836ad4ab91f2\t{\"Platform\":\"iOS\",\"Win32\":false,\"isMobileDevice\":true,\"isTablet\":true}",
        "9f0b87f7283d24babc5adca2fac0644f\t{\"Platform\":\"MacOSX\",\"Platform_Version\":\"10.10\",\"Win32\":false}",
        "9f67d992ce932d8062d30c9d1c938565\t{\"Platform\":\"iOS\",\"Platform_Version\":\"9.3\",\"Win32\":false,\"isMobileDevice\":true,\"isTablet\":true}",
        "9faef34eb04510ebba515ae6d3bfef6c\t{\"isTablet\":true}",
        "9f29770b19949fb076818301312f35c2\t{\"isTablet\":true}",
        "9f6b070bb644ddc96ac22b17b806f97f\t{\"Platform\":\"Win8\",\"Platform_Version\":\"6.2\"}",
        "9f257964abf92ed0e070cd89f4e146fd\t{\"Platform_Version\":\"9.0\",\"isTablet\":true}",
        "9f620fad6af5ce24523b409535f5e246\t{\"Platform\":\"Linux\",\"Win32\":false}",
        "9fd5112fc4933622747572ee46f04391\t{\"Browser_Bits\":\"32\",\"Platform\":\"iOS\",\"Platform_Version\":\"10.0\",\"isTablet\":true}",
        "9fe38d7dc3ea6e5745fe2149973cb34b\t{\"Browser_Bits\":\"32\",\"Platform\":\"iOS\",\"Platform_Version\":\"9.0\"}",
        "9f44e9fae8a1b0c54682446ec39a0c53\t{\"Browser_Bits\":\"32\",\"Platform\":\"MacOSX\",\"Platform_Version\":\"10.10\"}",
        "9f581f8e7349c25a86263fa11748ca9e\t{\"Platform\":\"iOS\",\"Platform_Version\":\"7.1\"}",
        "9f91b9d7abc77ad2c04d642bd45b11fe\t{\"Browser_Bits\":\"32\",\"Platform\":\"WinVista\",\"Platform_Version\":\"6.0\",\"Win32\":true}",
        "9fb53b5c62ade8013cf746a125d2d469\t{\"Platform\":\"iOS\",\"Platform_Version\":\"10.2\"}",
        "9f89fcebc9f8aaa6a5e975a2882aaa1c\t{\"Platform\":\"WinPhone8\",\"Platform_Version\":\"8.0\"}",
        "9f3c5b8897a316d4ee19dad9048d6cef\t{\"Platform_Version\":\"4.2\"}",
        "9ff33673765bd5c7a043a1587d45f0c4\t{\"Platform_Version\":\"4.4\",\"isTablet\":true}",
        "9f721bfbb6364c0771cac9d0097ca574\t{\"Platform\":\"iOS\",\"Platform_Version\":\"9.0\",\"isTablet\":true}",
        "9f96f02e656758740876953eaaadb9a4\t{\"Platform\":\"iOS\",\"Platform_Version\":\"8.2\"}",
        "9f7f44577bf588211fa77d48a3c3132c\t{\"Platform_Version\":\"4.2\",\"isTablet\":true}",
        "9f047bc0ca5fecff707ccb1862f01e76\t{\"Platform_Version\":\"4.2\"}",
        "9f70fefc3b7159239d2ecc2cd827ddce\t{\"Platform_Version\":\"4.4\",\"isTablet\":true}",
        "9f60764227ca6443b158e7194091c60f\t{\"Platform_Version\":\"4.3\"}",
        "9f43d65c68960789eb8f9edfb78c4d20\t{\"Platform_Version\":\"4.2\"}",
        "9f66b89f87c632c9510b6432cd74cb44\t{\"Platform_Version\":\"4.3\"}",
        "9fa8e480c5c84ce94ad04e8165c45e01\t{\"Platform\":\"iOS\",\"Platform_Version\":\"9.1\"}",
        "9f3fccfabd3fda796f9d7d52d804fc59\t{\"Platform\":\"Win8.1\",\"Platform_Version\":\"6.3\",\"Win32\":true}",
        "9f3fbc4493a866b57ba2ed98b2f42b7e\t{\"Platform\":\"Win10\",\"Platform_Version\":\"6.4\",\"Win32\":true}",
        "9f8f98eb110b7c692625489151afaeba\t[]",
        "9f5d6b019b51eda5f05215eb94783e23\t{\"Platform\":\"Win8.1\",\"Platform_Version\":\"6.3\",\"Win32\":true}",
        "9fa9efae5e1fd950d8979139e6bf5a31\t{\"Platform\":\"WinXP\",\"Platform_Version\":\"5.1\",\"Win32\":true}",
        "9f6abe6031ffa6115db2351d69ef64da\t{\"Browser_Bits\":\"32\",\"Platform\":\"Linux\"}",
        "9fd08ba48dd57172ed8bf2fb4f094ae2\t{\"Browser_Bits\":\"32\",\"Platform\":\"Linux\"}",
        "9fa55354232290e521a41b8b7cb4a0a8\t{\"Browser_Bits\":\"32\",\"Platform\":\"Linux\"}",
        "9f86f689749c08e415fcb67af4a47b79\t{\"Browser_Bits\":\"32\",\"Platform\":\"Linux\"}",
        "9f2f167314f03238596183a3a94f00ff\t{\"Platform_Version\":\"4.4\",\"isTablet\":true}",
        "9f57311062b25a99b904119ade1be343\t{\"Platform_Version\":\"4.3\",\"isTablet\":true}",
        "9fb7bf3a483f08a060f865db3333b01c\t{\"Platform_Version\":\"4.3\"}",
        "9f1c4ae760be36a5f4e337825bb0366f\t{\"Platform_Version\":\"4.4\"}",
        "9f747b1dadd5e2dcdad852fd4e687801\t{\"Platform_Version\":\"6.1\"}",
        "9f7d02618f21fc494fa21b2c04239ffd\t{\"Platform_Version\":\"4.2\",\"isTablet\":true}",
        "9fac99979ced3ad9f983c7fa118f9c30\t{\"Platform_Version\":\"4.3\",\"isTablet\":true}",
        "9f05a2dc3139bbd8f21a0b01ba8a3674\t[]",
        "9f926c8577cf6bb65043fbba291c9b4c\t{\"Platform_Version\":\"4.2\",\"isTablet\":true}",
        "9f412efe13c273793cb0972a7b3db205\t{\"Browser_Bits\":\"32\",\"Platform\":\"Tizen\"}",
        "9fbaac8685d7ca4a629ca19c5149d20f\t{\"Browser_Bits\":\"32\",\"Platform\":\"Syllable\"}",
        "9ff827c2bbb37ebc12e11aa194a30d7e\t{\"Platform_Version\":\"4.3\",\"isTablet\":true}",
        "9f812f22fec69001637cb8f97f957817\t{\"Platform_Version\":\"4.2\",\"isTablet\":true}",
        "9ffd26c00025f101d2c9539698f2039a\t{\"Platform_Version\":\"4.2\",\"isTablet\":true}",
        "9f1ae33b789bd19a896b42339a8f6fb3\t{\"Platform_Version\":\"4.2\",\"isTablet\":true}",
        "9f490747f1affc430724ee5254bdc589\t{\"Platform_Version\":\"4.2\",\"isTablet\":true}",
        "9f3beac90c59db3637fe1b889fa9470c\t{\"Platform_Version\":\"4.2\",\"isTablet\":true}",
        "9f65cd577d6e8ae6f92c46b69eb4a5cc\t{\"Platform_Version\":\"4.4\",\"isTablet\":true}",
        "9f7e0cc6ca221fe05a692b421fd2ac00\t{\"Platform_Version\":\"4.2\"}",
        "9f1c6c1cdd84f005e5efdf6ec6089914\t{\"Platform_Version\":\"4.3\",\"isTablet\":true}",
        "9f9fbb44d06849c1cafc28007d92f46e\t{\"Platform_Version\":\"4.2\",\"isTablet\":true}",
        "9f4a0aceca6787d62346504531510541\t{\"Browser_Bits\":\"32\",\"Platform\":\"Android\"}",
        "9f56e6116269db6cbc43489f56fde455\t{\"Browser_Bits\":\"32\",\"Platform\":\"Android\",\"Platform_Version\":\"6.0\"}",
        "9fcb69f31e08fc169a8458d623fb8edb\t{\"Browser_Bits\":\"32\",\"Platform\":\"Android\"}",
        "9fde08f6292cfde09f6736c7d6dd966b\t{\"Browser_Bits\":\"32\",\"Platform\":\"Android\",\"Platform_Version\":\"4.4\"}",
        "9fa6a7c63507f677321e81c6e35115da\t{\"Platform_Version\":\"9.3\"}",
        "9f15cef5cbfcd85862425b44af3df4b6\t{\"Browser_Bits\":\"32\",\"Platform\":\"WinVista\",\"Platform_Version\":\"6.0\",\"Win32\":true}",
        "9fcfb8f5f5484ebb1b1cb4025adfa6e4\t{\"Platform_Version\":\"8.1\"}",
        "9f0bba66eff690191b472dd2b196132d\t[]",
        "9f291e8fcdb4f325472e7f41176f361a\t{\"Platform_Version\":\"8.2\",\"isTablet\":true}",
        "9f08c0d06b760b6355ec1e42212abfa9\t{\"Platform_Version\":\"4.2\",\"isTablet\":true}",
        "9f53a045d98d69e31fadf3484a4579e4\t{\"Platform_Version\":\"4.4\",\"isTablet\":true}",
        "9fea4b4fe51a755c83ed40649e26dfad\t{\"Browser_Bits\":\"32\",\"Platform\":\"MacOSX\",\"Platform_Version\":\"10.10\"}",
        "9f0577658bcb6355e9df26098e847ef3\t{\"Browser_Bits\":\"32\",\"Platform\":\"Win32\",\"Win32\":true}",
        "9facec531456e0b6fbfacd4f34fd2102\t{\"Platform_Version\":\"10.1\"}",
        "9f561c0d7a79694bc8478c7f1c606eec\t{\"Platform_Version\":\"9.0\",\"isTablet\":true}",
        "9f8b982e56db31fad7cee8b76020daeb\t{\"Platform_Version\":\"10.0\",\"isTablet\":true}",
        "9f35fb14b7b338f602566c27392bd040\t{\"Platform_Version\":\"4.3\"}",
        "9fd5dad22f9dd44175e36864f4e3ecb5\t{\"Browser_Bits\":\"32\",\"Platform\":\"WinVista\",\"Platform_Version\":\"6.0\",\"Win32\":true}",
        "9f209977f3a37020f307f6f6900dab79\t{\"Platform_Version\":\"4.2\",\"isTablet\":true}",
        "9f0ccd272844f5a87686feda5bf48920\t{\"Browser_Bits\":\"32\",\"Platform\":\"Win10\",\"Platform_Version\":\"10.0\",\"Win32\":true}",
        "9f01ed067a055916d7a048def9b756dc\t{\"Platform_Version\":\"9.3\"}",
        "9f297b97287a7c1e405918ef33d12c12\t{\"Browser_Bits\":\"32\",\"Platform\":\"iOS\",\"isMobileDevice\":true}",
        "9fa47cf8c239c33c53986f902035d253\t{\"Platform_Version\":\"4.2\",\"isTablet\":true}",
        "9fa03b0199c9c1c98932f0f8bc4f930a\t{\"Platform_Version\":\"4.3\",\"isTablet\":true}",
        "9f473fadbca1a6385973511c74916480\t{\"Platform_Version\":\"4.2\",\"isTablet\":true}",
        "9f68e969cc645e511dfe00ff14e7e1ee\t{\"Platform_Version\":\"4.4\",\"isTablet\":true}",
        "9f87d413e079f03940918383bc532c3c\t{\"Platform_Version\":\"4.2\",\"isTablet\":true}",
        "9f45d4a7535b1c70675c8cfa19ad6270\t{\"Browser_Bits\":\"32\",\"Platform\":\"MeeGo\"}",
        "9f478ed49e83bb8c23a16c7457562d8c\t{\"isMobileDevice\":true}",
        "9fec95e93cf3f964b1e6de8537ae3459\t{\"Browser_Bits\":\"32\",\"Platform\":\"SunOS\"}",
        "9f8b398685a1d0507cba4c928624c431\t{\"Browser_Bits\":\"32\",\"Platform\":\"Linux\"}",
        "9f423b161e05820827ef98ab68919853\t{\"Browser_Bits\":\"32\",\"Platform\":\"Win8.1\",\"Platform_Version\":\"6.3\",\"Win32\":true}",
        "9f423bd04e4a30e0f37935ade2e7bbd4\t{\"Browser_Bits\":\"32\",\"Platform\":\"Maemo\"}",
        "9fc60e9f9c572e0332c92f10f9370cc9\t{\"Browser_Bits\":\"32\",\"Platform\":\"WinVista\",\"Platform_Version\":\"6.0\",\"Win32\":true}",
        "9f856f029965157237c6b7122bec43b9\t{\"Browser_Bits\":\"32\",\"Platform\":\"WinXP\",\"Platform_Version\":\"5.1\",\"Win32\":true}",
        "9fd91d06400e57234b7538f6c07ce041\t{\"Browser_Bits\":\"32\",\"Platform\":\"Linux\"}",
        "9f591cb33c098d4f8eb08e0a9ad88db8\t{\"Browser_Bits\":\"32\",\"Platform\":\"Win7\",\"Platform_Version\":\"6.1\",\"Win32\":true}",
        "9fe8117a66c6ac831c1720cd413738b2\t{\"Browser_Bits\":\"32\",\"Platform\":\"Win7\",\"Platform_Version\":\"6.1\",\"Win32\":true}",
        "9f91dcacae838d11cb3bcdbb4006221a\t{\"Browser_Bits\":\"32\",\"Platform\":\"Linux\"}",
        "9f4dd352bda6abecef3e8b794067f9e6\t{\"Browser_Bits\":\"32\",\"Platform\":\"WinXP\",\"Platform_Version\":\"5.2\",\"Win32\":true}",
        "9f06c4d39f39098dcbb2aa8bf03b619b\t{\"Browser_Bits\":\"32\",\"Platform\":\"WinXP\",\"Platform_Version\":\"5.2\",\"Win32\":true}",
        "9fd322756686264581a1e553b2ed956e\t{\"Browser_Bits\":\"32\",\"Platform\":\"Win8\",\"Platform_Version\":\"6.2\",\"Win32\":true}",
        "9fc80ffdd8193dfd727ab9618fd5b191\t{\"Browser_Bits\":\"32\",\"Platform\":\"Win7\",\"Platform_Version\":\"6.1\",\"Win32\":true}",
        "9f28e9aaff0951cf7a5d6e643b9e34c5\t{\"Browser_Bits\":\"32\",\"Platform\":\"Win7\",\"Platform_Version\":\"6.1\",\"Win32\":true}",
        "9f8f0220c929455190dbd1e289d7bde4\t{\"Browser_Bits\":\"32\",\"Platform\":\"FreeBSD\"}",
        "9f860f147a9a5471f22187b21447dae0\t{\"Browser_Bits\":\"32\",\"Platform\":\"MacOSX\",\"Platform_Version\":\"10\"}",
        "9fb15703412d3ee81413099f865cba68\t{\"Browser_Bits\":\"32\",\"Platform\":\"WinVista\",\"Platform_Version\":\"6.0\",\"Win32\":true}",
        "9f784e27ca1657460cf1e62f3899212d\t{\"Browser_Bits\":\"32\",\"Platform\":\"WinVista\",\"Platform_Version\":\"6.0\",\"Win32\":true}",
        "9fb41538759e6408f10f8b042a09f082\t{\"Browser_Bits\":\"32\",\"Platform\":\"WinVista\",\"Platform_Version\":\"6.0\",\"Win32\":true}",
        "9fdf0e94bc2cf225139c11284743ed6d\t{\"Browser_Bits\":\"32\",\"Platform\":\"Win8.1\",\"Platform_Version\":\"6.3\",\"Win32\":true}",
        "9fc02776634a1fec0508e92f1d2d7e56\t{\"Browser_Bits\":\"32\",\"Platform\":\"MacOSX\",\"Platform_Version\":\"10\"}",
        "9fec3f934c73ec3ad8efe99beea958d5\t{\"Browser_Bits\":\"32\",\"Platform\":\"WinXP\",\"Platform_Version\":\"5.1\",\"Win32\":true}",
        "9f88092f605afcbecfa17a10e140a7c9\t{\"Browser_Bits\":\"32\",\"Platform\":\"WinXP\",\"Platform_Version\":\"5.2\",\"Win32\":true}",
        "9f6421bc273d2b784ba13fdae3cca66e\t{\"Browser_Bits\":\"32\",\"Platform\":\"WinXP\",\"Platform_Version\":\"5.2\",\"Win32\":true}",
        "9f1fefe82af053d22cfe3cb74f736b8a\t{\"Browser_Bits\":\"32\",\"Platform\":\"WinXP\",\"Platform_Version\":\"5.1\",\"Win32\":true}",
        "9fa389c991a1967de9ad524990702605\t{\"Browser_Bits\":\"32\",\"Platform\":\"Win8.1\",\"Platform_Version\":\"6.3\",\"Win32\":true}",
        "9f8847f741f62686a1f35a84894574e4\t{\"Browser_Bits\":\"32\",\"Platform\":\"WinVista\",\"Platform_Version\":\"6.0\",\"Win32\":true}",
        "9f412b2b55759658b515caed541a2834\t{\"Browser_Bits\":\"32\",\"Platform\":\"Win7\",\"Platform_Version\":\"6.1\",\"Win32\":true}",
        "9f5a2d352aab46d396a37dc28d499e92\t{\"Browser_Bits\":\"32\",\"Platform\":\"Linux\"}",
        "9f4bafad1ad53b363005240ca7cae8b2\t{\"Browser_Bits\":\"32\",\"Platform\":\"Win8\",\"Platform_Version\":\"6.2\",\"Win32\":true}",
        "9f8bde4c709efed830fa78bd0be613ad\t{\"Browser_Bits\":\"32\",\"Platform\":\"WinVista\",\"Platform_Version\":\"6.0\",\"Win32\":true}",
        "9f80f65e65884268a9f38ea694705d13\t{\"Browser_Bits\":\"32\",\"Platform\":\"FreeBSD\"}",
        "9f8185a4824b2f45059b456c9d4c283e\t{\"Browser_Bits\":\"32\",\"Platform\":\"WinVista\",\"Platform_Version\":\"6.0\",\"Win32\":true}",
        "9ff4c7b01a9930bab898f3124b9ebf31\t{\"Browser_Bits\":\"32\",\"Platform\":\"Win8\",\"Platform_Version\":\"6.2\",\"Win32\":true}",
        "9f48699da99dda2ce5c7e54a94bec815\t{\"Browser_Bits\":\"32\",\"Platform\":\"MacOSX\",\"Platform_Version\":\"10.10\"}",
        "9f1cac1a4d424752072f7d4c54b4c8b1\t{\"Browser_Bits\":\"32\",\"Platform\":\"WinXP\",\"Platform_Version\":\"5.2\",\"Win32\":true}",
        "9f4a6c4b34e1850beb67557963b07737\t{\"Browser_Bits\":\"32\",\"Platform\":\"Win7\",\"Platform_Version\":\"6.1\",\"Win32\":true}",
        "9f7bccba01d5488660a9bfe801cc44b5\t{\"Browser_Bits\":\"32\",\"Platform\":\"MacOSX\",\"Platform_Version\":\"10.9\"}",
        "9f1bc109ce91e96fa591c8b299a72c45\t{\"Browser_Bits\":\"32\",\"Platform\":\"Linux\"}",
        "9f20dc08b82fe7494264e8b3a5a2e0eb\t{\"Platform_Version\":\"9.1\"}",
        "9ff725c775b10068aa1ff6e3e94c64f4\t{\"Browser_Bits\":\"32\",\"Platform\":\"Android\",\"Platform_Version\":\"4.4\",\"isTablet\":true}",
        "9f02b6e4ad5f66759a42c86702099667\t{\"Browser_Bits\":\"32\",\"Platform\":\"iOS\",\"Platform_Version\":\"8.4\"}",
        "9ffd97bc1e2f35c90f26b83b7066ac15\t{\"Browser_Bits\":\"32\",\"Platform\":\"Android\",\"Platform_Version\":\"4.2\"}",
        "9fd88ecf3eba4808234df8e1c6641947\t{\"Browser_Bits\":\"32\",\"Platform\":\"WinXP\",\"Platform_Version\":\"5.1\",\"Win32\":true}",
        "9ff89d13340833a7a010a18ffeea6442\t{\"Browser_Bits\":\"32\",\"Platform\":\"MacOSX\",\"Platform_Version\":\"10\"}",
        "9fb81fd962db4c10e7ffb8e1853320b9\t{\"Browser_Bits\":\"32\",\"Platform\":\"WinXP\",\"Platform_Version\":\"5.2\",\"Win32\":true}",
        "9f44c49c0d5ffdc95ef6c38a9a0b67a0\t{\"Browser_Bits\":\"32\",\"Platform\":\"Win8\",\"Platform_Version\":\"6.2\",\"Win32\":true}",
        "9fd84daae79eff02a0bc1414352d8b19\t{\"Browser_Bits\":\"32\",\"Platform\":\"WinVista\",\"Platform_Version\":\"6.0\",\"Win32\":true}",
        "9f988013ec120e7494845c6bb0efed2e\t{\"Browser_Bits\":\"32\",\"Platform\":\"Win8.1\",\"Platform_Version\":\"6.3\",\"Win32\":true}",
        "9fcc2ef30616a492add6872016a670d7\t{\"Browser_Bits\":\"32\",\"Platform\":\"Linux\"}",
        "9f5ace375cefa8eafa4915b3044f8534\t{\"Browser_Bits\":\"32\",\"Platform\":\"WinXP\",\"Platform_Version\":\"5.2\",\"Win32\":true}",
        "9f95e8e1f7e33b880442b0652fba76d7\t{\"Browser_Bits\":\"32\",\"Platform\":\"WinXP\",\"Platform_Version\":\"5.1\",\"Win32\":true}",
        "9f6b5afe2736a25c6f615cea0d309079\t{\"isTablet\":true}",
        "9f406ad14678434c2b633aefa58a9c70\t{\"Platform_Version\":\"5.0\"}",
        "9f309016cd0647008f1c53d09c157f9c\t[]",
        "9fffc5cce7eaf186fdab96eee454d21c\t{\"Platform_Version\":\"4.2\",\"isTablet\":true}",
        "9fa53f223c438f9f67476afefaa266d1\t{\"Browser_Bits\":\"32\",\"Platform\":\"Win10\",\"Platform_Version\":\"10.0\",\"Win32\":true}",
        "9f10d78c34121fb6bae255f339755707\t{\"Browser_Bits\":\"64\",\"Platform\":\"Xbox OS 10 (Mobile View)\",\"Platform_Version\":\"unknown\",\"Win64\":true,\"isMobileDevice\":false}",
        "9fe192f81e326d924e30527adb855123\t{\"Browser_Bits\":\"32\",\"Platform\":\"MacOSX\",\"Platform_Version\":\"10.11\"}",
        "9f59ad8630050bd9fb1e444d2b10e764\t[]",
        "9f6d4f7b590ca33c34765f5a221c3417\t{\"Browser_Bits\":\"32\",\"Platform\":\"Linux\"}",
        "9f6e7b41dfd9be72d7ab113f2e9609ed\t{\"Platform_Version\":\"4.4\",\"isTablet\":true}",
        "9fdf52efeb010e7d8f70d332aa74b195\t{\"isTablet\":true}",
        "9fff620da45c590b2764a3dfa31404e7\t{\"Platform_Version\":\"5.1\",\"isTablet\":true}",
        "9f21c8c7b959027aedec3eb4941bbca5\t{\"Platform_Version\":\"10.2\"}",
        "9fb11c2cdf19fdba3dbb86873746abcd\t{\"Platform_Version\":\"4.3\",\"isTablet\":true}",
        "9fc7e7177b5549b39815ba53cbb57ce0\t{\"Platform_Version\":\"4.2\",\"isTablet\":true}",
        "9f18794353f68930a2a3fbc48ff8c815\t{\"Platform_Version\":\"4.4\",\"isTablet\":true}",
        "9feff4b0b8b5f271da6b330d28118a17\t{\"Platform_Version\":\"10.0\"}",
        "9f18e19054d8d0e1af3e372d45297fbc\t{\"Platform_Version\":\"9.0\",\"isTablet\":true}",
        "9fcd73eed2c6817ed20ce22f9a749702\t{\"Browser_Bits\":\"32\",\"Platform\":\"Win10\",\"Platform_Version\":\"10.0\",\"Win32\":true}",
        "9f27b5547bb73b80ec94fd70bd3addf6\t{\"Platform_Version\":\"4.4\",\"isTablet\":true}",
        "9f5d3b404b127b23b97096e8f39bbb78\t{\"Platform_Version\":\"8.3\"}",
        "9f20fe0e8df1d16ea519873a40efdf3c\t{\"Platform_Version\":\"4.3\",\"isTablet\":true}",
        "9f000c4364525d8cbe806cf2cea5ee92\t{\"Platform_Version\":\"8.4\"}",
        "9ff8422519a2346110a2303c04d7c7b6\t{\"Platform_Version\":\"4.2\",\"isTablet\":true}",
        "9fad9ac591934c49142ab0359d8be611\t{\"Platform_Version\":\"4.3\",\"isTablet\":true}",
        "9f35bb8b1deabad7e6401a19ae716cb5\t{\"Browser_Bits\":\"32\",\"Platform\":\"Win7\",\"Platform_Version\":\"6.1\",\"Win32\":true}",
        "9fcee7461ed6c626b5db6ac34790f8f0\t{\"Browser_Bits\":\"32\",\"Platform\":\"WinXP\",\"Platform_Version\":\"5.1\",\"Win32\":true}",
        "9f5ee5f07964ffc90f090366d7cad1d6\t{\"Platform_Version\":\"4.2\",\"isTablet\":true}",
        "9f07ec320dd9247acef6e7cc3cb2b403\t{\"Platform_Version\":\"4.2\",\"isTablet\":true}",
        "9f461ac79b683312675904782fcbc744\t[]",
        "9f53b288961907ec14341a9287ebf1a1\t{\"Platform_Version\":\"4.2\",\"isTablet\":true}",
        "9f6d629f13cc102217e464fa0893ea52\t{\"Platform_Version\":\"9.3\"}",
        "9f00820ca4b3815020668bef353ebabb\t{\"Browser_Bits\":\"32\",\"Platform\":\"Win10\",\"Platform_Version\":\"6.4\",\"Win32\":true}",
        "9fe93342056158c2340ac6ef85d65fc3\t{\"Platform_Version\":\"4.4\",\"isTablet\":true}",
        "9f04d336afbe098c8be1751aa1f01ba7\t{\"Platform_Version\":\"4.3\",\"isTablet\":true}",
        "9f9c363a9f03f0510de5f279f5980961\t{\"Platform_Version\":\"4.3\",\"isTablet\":true}",
        "9fffb52b742e7e83537a7aed3cc193fe\t{\"Platform_Version\":\"4.3\",\"isTablet\":true}",
        "9f8d23af41eafc39a112085c9c5322b8\t{\"Platform_Version\":\"4.2\",\"isTablet\":true}",
        "9ff116a9e1535c2fd9728790a03a8ef1\t{\"isTablet\":true}",
        "9f8f594485d259f526bee19ed8372ea9\t{\"Platform_Version\":\"4.3\",\"isTablet\":true}",
        "9f25a00a6ec1c2d63301f5774da9eca3\t{\"Browser_Bits\":\"32\",\"Platform\":\"MacOSX\",\"Platform_Version\":\"10.10\"}",
        "9fd94d5659dff44655ea1c898990eeea\t{\"Platform_Version\":\"4.4\",\"isTablet\":true}",
        "9f446797d3bd23be26301251b85c3cbd\t{\"Platform_Version\":\"4.2\",\"isTablet\":true}",
        "9f90716a56b2e1086283a965b541a02f\t{\"Platform_Version\":\"7.0\"}",
        "9fa238d8eef561607f3298a011f281d7\t{\"Platform_Version\":\"4.4\",\"isTablet\":true}",
        "9fa21663dcf0c2a0ede7d0b256e796cb\t{\"Platform_Version\":\"4.2\",\"isTablet\":true}",
        "9f9bef1abdcc3f688c4efbfe3eecbe5c\t{\"Platform_Version\":\"4.2\",\"isMobileDevice\":false}",
        "9fbc9b25d34e4deaa9ecc5a6ef66be4d\t{\"Platform_Version\":\"8.4\"}",
        "9fa745e9878199b4482e7cddd28717cd\t{\"Platform_Version\":\"4.4\",\"isTablet\":true}",
        "9fbe205aed357287285540206fa045ee\t{\"Platform_Version\":\"4.2\",\"isTablet\":true}",
        "9f995c923acf3de2c9f5341da41c45e7\t{\"Platform_Version\":\"4.4\"}",
        "9fb292dcc574746208a79d0e443f01b9\t{\"Platform_Version\":\"4.3\",\"isTablet\":true}",
        "9f4cb980b65354194be6aa27a955a4ac\t{\"Platform_Version\":\"4.3\",\"isTablet\":true}",
        "9fcc46bbfd2720c4217447c6319dc3d4\t{\"Browser_Bits\":\"32\",\"Platform\":\"iOS\",\"isMobileDevice\":true}",
        "9f71dcc05ed9ed4764d241b762bef88b\t{\"Platform_Version\":\"4.3\",\"isTablet\":true}",
        "9f89dd0854a381e8bb01ce2af944b0d0\t{\"Platform_Version\":\"4.3\",\"isTablet\":true}",
        "9f10ca87a2ab5086423a5a76d42688b6\t{\"Platform_Version\":\"4.2\",\"isTablet\":true}",
        "9f65b3fb302ecf428b971957682bf396\t{\"Browser_Bits\":\"32\",\"Platform\":\"MacOSX\",\"Platform_Version\":\"10.10\"}",
        "9f03371e9a941e9d0c4c92f57dbe516e\t{\"Platform_Version\":\"5.0\",\"isTablet\":true}",
        "9f5ea2ff88d7b5da79ddf71f49f6e31c\t{\"Platform_Version\":\"9.2\"}",
        "9fdac33d53c07c5cc9b53ca25e312cb5\t{\"Platform_Version\":\"4.3\",\"isTablet\":true}",
        "9f8a793753646db63396fefef256ec82\t{\"Browser_Bits\":\"32\",\"Platform\":\"ChromeOS\"}",
        "9fc28ea4be809e294b9f3dcd481661fb\t[]",
        "9ff5ca7f7dd05c6bbdbd22a8270fe754\t{\"Platform_Version\":\"8.0\",\"isTablet\":true}",
        "9fb771e958dac20b6079160d7536a855\t{\"Platform_Version\":\"7.1\"}",
        "9fb421f167a96e38326e78eaa030d791\t{\"Browser_Bits\":\"32\",\"Platform\":\"Win32\",\"Win32\":true}",
        "9fedaa1cd20ca832b7f482b498705451\t{\"Browser_Bits\":\"32\",\"Platform\":\"Win8\",\"Platform_Version\":\"6.2\",\"Win32\":true}",
        "9f112e6c2aa0939a80c10c8f7afc1b27\t{\"Browser_Bits\":\"32\",\"Platform\":\"WinXP\",\"Platform_Version\":\"5.2\",\"Win32\":true}",
        "9f570fc7e164dbde272f4a7761a62ec6\t{\"Browser_Bits\":\"32\",\"Platform\":\"OpenBSD\"}",
        "9ffd9526ca5f0212909c1341f4aa7e44\t{\"Platform_Version\":\"9.2\",\"isTablet\":true}",
        "9f8d8540776af8fd48b6e3d7ae781334\t{\"Platform_Version\":\"10.2\",\"isTablet\":true}",
        "9f0f79d468ad84922aa947892626e7fa\t{\"Platform_Version\":\"8.0\"}",
        "9fd10ba91965bbea794d430641247238\t[]",
        "9f235d8d558c849719a05a823b5ae819\t{\"Platform_Version\":\"8.0\"}",
        "9f219cd06a6e1301fc03f6200066064c\t{\"Platform_Version\":\"10.0\"}",
        "9f392cd4f6036c6da0dc0983489b187a\t{\"Platform_Version\":\"10.2\",\"isTablet\":true}",
        "9f17696163f9ee7a66f00549a59cf1de\t{\"Platform_Version\":\"10.2\"}",
        "9f1e72dd581c88a7af77075190617536\t{\"Platform_Version\":\"10.0\",\"isTablet\":true}",
        "9fc04413799f121a0affbb5ae4753091\t{\"Platform_Version\":\"9.0\"}",
        "9f5f4f8748b8c1b6853fb5f10e71ba7d\t{\"Platform_Version\":\"9.1\"}",
        "9f18b1527964b830a3b7db515aac2666\t{\"isTablet\":true}",
        "9f48f7aa7cbcdea9e5fd39edf5cff9ae\t{\"Platform_Version\":\"10.2\"}",
        "9ff8ba7953896717c6fece82eca22078\t{\"Platform_Version\":\"9.0\"}",
        "9faa60346cc88792f07bbbe62816617c\t{\"Platform_Version\":\"10.3\"}",
        "9f535c861e8be57202a2f41e622a3113\t{\"Browser_Bits\":\"32\",\"Platform\":\"Linux\"}",
        "9fef50969637f628392b168e8e75bd88\t{\"Platform_Version\":\"8.3\"}",
        "9f6798aa92a1087202ec608275cc0d29\t{\"Browser_Bits\":\"32\",\"Platform\":\"Win7\",\"Platform_Version\":\"6.1\",\"Win32\":true}",
        "9f8ac762ef3334d66972b6d464b301e0\t{\"Browser_Bits\":\"32\",\"Platform\":\"iOS\",\"Platform_Version\":\"7.0\"}",
        "9f6b30acd21399709d9603fba09bcbdf\t[]",
        "9f7dd7f05ff94b709fc3ccfc80fe41de\t{\"Platform_Version\":\"8.4\"}",
        "9f41bd5e99988cb9d6048b6f43ecb9e9\t[]",
        "9f81f1a8a6991a6bc3a4475f69a31fc9\t[]",
        "9f4fd7f29de423f19809ccfa0e52d27a\t[]",
        "9fe751bec450e74e192c7604632e80e8\t{\"Browser_Bits\":\"32\",\"Platform\":\"RIM OS\"}",
        "9ffa34a7a69ce0c7c5170a643b89fabf\t{\"Browser_Bits\":\"32\",\"Platform\":\"iOS\",\"Platform_Version\":\"8.0\"}",
        "9fa331f82a5637e7542b867b4faf1f59\t{\"Browser_Bits\":\"32\",\"Platform\":\"Android\",\"Platform_Version\":\"4.3\"}",
        "9f7fee9404da1bf3eedeaf3546ad3ee8\t[]",
        "9f28b9ad5213ab934191773b7a67fcac\t{\"Browser_Bits\":\"32\",\"Platform\":\"WinVista\",\"Platform_Version\":\"6.0\",\"Win32\":true}",
        "9ffb72e94e317826541ac0064f064e78\t{\"Browser_Bits\":\"32\",\"Platform\":\"Android\",\"isMobileDevice\":true}",
        "9fbd889eb0bcc9fd4b55548e45f9c46e\t{\"Platform_Version\":\"7.0\"}",
        "9ffc0ebd6aac17e6fba82e5ee5947254\t{\"isTablet\":true}",
        "9f8bdf955a17bc1b9a97d69485ec85fa\t{\"Browser_Bits\":\"32\",\"Platform\":\"iOS\",\"Platform_Version\":\"10.2\"}",
        "9ff55012cf2c448a5096bec97e1c1a85\t{\"Browser_Bits\":\"32\",\"Platform\":\"JAVA\"}",
        "9fac458ebe6689c0255c75588b746330\t{\"Browser_Bits\":\"32\",\"Platform\":\"Brew\",\"Platform_Version\":\"2.0\"}",
        "9f1de30058f856a2ff03bd66013e4697\t{\"Browser_Bits\":\"32\",\"Platform\":\"Android\"}",
        "9f66b8ec9a3ffc465223faf8b67ab8d0\t{\"Browser_Bits\":\"32\",\"Platform\":\"Linux\"}",
        "9fc65a92a0a9cbc050308b4af8b9bdd0\t{\"Platform_Version\":\"9.1\",\"isTablet\":true}",
        "9f6a3608143214df1e9be556691f3e54\t[]",
        "9fb1cf6980c1fa0779a419e0984c2c06\t[]",
        "9fcdc91af7da7de6d88172883f5acf3c\t{\"Platform_Version\":\"8.1\"}",
        "9f6508d25d1437b46a5e5eb6062db031\t{\"Platform_Version\":\"8.1\"}",
        "9f6a2a5e57fe4fbdde24d2a47e841146\t{\"Platform_Version\":\"9.1\"}",
        "9f43d10222530b8e08cc2d8d74fda808\t{\"Platform_Version\":\"10.0\",\"isTablet\":true}",
        "9f19e5dd8ce9b47b663c2cdf4ec79c3a\t{\"Platform_Version\":\"7.1\",\"isTablet\":true}",
        "9f887d5800bb8cbfd875d950e810d9a2\t{\"Platform_Version\":\"8.4\"}",
        "9f4de51cf9780da9b7e46491b1e443d4\t{\"Platform_Version\":\"9.2\",\"isTablet\":true}",
        "9fae1c515c725eaf3375e32b7fa45e3d\t{\"Platform_Version\":\"10.1\",\"isTablet\":true}",
        "9fa72d99e9d9210e3ca95c113a77f908\t{\"Platform_Version\":\"10.1\",\"isTablet\":true}",
        "9f9e0374a2c5e74ff2c5cab1e63e6cd0\t{\"Platform_Version\":\"10.3\"}",
        "9f43a8ac97fbcbb8ad9ad8681ea91024\t[]",
        "9f9317b430c87f8e4587198a0244b05c\t{\"Platform_Version\":\"8.0\"}",
        "9f1d1069d5e5646a84bcc0b2f04567c6\t{\"Platform_Version\":\"9.2\"}",
        "9fd0a8966e2777404a46449717827ab5\t{\"Platform_Version\":\"10.1\"}",
        "9f0f95248ef4d9d7f0dc7ca09f5f14ed\t[]",
        "9fe25fa01719c871f2520f4af02e1c58\t{\"Platform_Version\":\"8.3\"}",
        "9fda06222c8342b3a8876d63f22d1a8d\t{\"Platform_Version\":\"9.0\"}",
        "9fb054d1c80519a743fd51bef8c992db\t{\"Platform_Version\":\"8.4\"}",
        "9f460c1ee97a2a41cee4c61831884378\t{\"Platform_Version\":\"10.3\"}",
        "9f537d2c501275ff62e3a7d4e4827190\t{\"Platform_Version\":\"9.0\"}",
        "9fe0da9ea5b028cedcf1aceaa25336fc\t{\"isTablet\":true}",
        "9f689cc6a9ebbd1bbeba4f6c046af8e1\t{\"Browser_Bits\":\"32\",\"Platform\":\"macOS\",\"Platform_Version\":\"10.12\"}",
        "9f6f6cdc3c209def186241eda2e9b389\t{\"Platform_Version\":\"10.0\",\"isTablet\":true}",
        "9f7df6f9152be96265c7740e118be8cd\t{\"Platform_Version\":\"8.0\",\"isTablet\":true}",
        "9f30a3ddb65d50cf800f36ae06b61c76\t{\"Platform_Version\":\"9.2\"}",
        "9f4d7ec00cd3e0691bf4113062087cf2\t[]",
        "9f9acaa1f2ccceae9c6c7d367cbc2cad\t{\"Platform_Version\":\"9.0\"}",
        "9f100711ab3bf245aa8b95ee2950320c\t{\"Platform_Version\":\"8.0\"}",
        "9f4f89765e56abdee5e392c9ba8ee487\t{\"Platform_Version\":\"7.1\"}",
        "9fbffc3f865772f52740def8e47e71e9\t{\"Platform_Version\":\"8.1\"}",
        "9fd6bce051f3e07391d7b1f94bdb6d95\t{\"Platform_Version\":\"8.2\"}",
        "9fb73c37d7d248ed650d7b9c68ded41a\t{\"Platform_Version\":\"10.0\"}",
        "9fbf26e88c7f1667c25c2aadee88974a\t{\"Platform_Version\":\"9.3\",\"isTablet\":true}",
        "9f0ff8f2476a6252ff4cf310d26ccd70\t{\"Platform_Version\":\"8.4\"}",
        "9f7c34a4f2afe2967d75ffa0cbefe474\t{\"Browser_Bits\":\"32\",\"Platform\":\"MacOSX\",\"Platform_Version\":\"10\"}",
        "9fab303687b4641b9960ac16c4925b3b\t{\"Browser_Bits\":\"32\",\"Platform\":\"ATV OS X\",\"Platform_Version\":\"8.3\",\"isMobileDevice\":false}",
        "9f69538698bcdada66e7ea3dfccbaf22\t{\"Platform_Version\":\"8.3\"}",
        "9f5159d030475d81b7f6e12034ef4870\t{\"Platform_Version\":\"8.1\"}",
        "9fcf5de5b8f0575616fcfec8e658d2bf\t[]",
        "9f8281e63836346e610ce13b0e7880da\t{\"Browser_Bits\":\"32\",\"Platform\":\"Solaris\"}",
        "9fea3487d8b95c24eb5f49489bff3a48\t{\"Browser_Bits\":\"32\",\"Platform\":\"MacOSX\",\"Platform_Version\":\"10\"}",
        "9f516a955239f3da380a3e6e665ed96e\t{\"Browser_Bits\":\"32\",\"Platform\":\"OpenBSD\"}",
        "9fb7083b71d0d573c93747669b0df5f7\t{\"Browser_Bits\":\"32\",\"Platform\":\"Linux\"}",
        "9f57b5997dd03a854d2c057ed82e3928\t{\"Browser_Bits\":\"32\",\"Platform\":\"WinXP\",\"Platform_Version\":\"5.2\",\"Win32\":true}",
        "9f6fbabb49f26136d3820825a4c83056\t{\"Browser_Bits\":\"32\",\"Platform\":\"WinVista\",\"Platform_Version\":\"6.0\",\"Win32\":true}",
        "9f4c60b8f571b688b5a9b0e4d21ceaae\t{\"Browser_Bits\":\"32\",\"Platform\":\"WinXP\",\"Platform_Version\":\"5.1\",\"Win32\":true}",
        "9f8fcff448d715580f6afc211c043f9b\t{\"Browser_Bits\":\"32\",\"Platform\":\"Win8\",\"Platform_Version\":\"6.2\",\"Win32\":true}",
        "9f9cfb4e62e1609a8b6fb081ec70c2bf\t{\"Browser_Bits\":\"32\",\"Platform\":\"WinXP\",\"Platform_Version\":\"5.2\",\"Win32\":true}",
        "9f42e1d9cb19a6d2fe36344b6897dea2\t{\"Browser_Bits\":\"32\",\"Platform\":\"MacOSX\",\"Platform_Version\":\"10\"}",
        "9f203d3d36faf9d8e57cf5978e4d014d\t{\"Browser_Bits\":\"64\",\"Platform\":\"DragonFly BSD\"}",
        "9f96c59b30273efeca188391370c4d4e\t{\"Browser_Bits\":\"32\",\"Platform\":\"Win8.1\",\"Platform_Version\":\"6.3\",\"Win32\":true}",
        "9f9599eba1ac7f118aecc730ec780ff8\t{\"Browser_Bits\":\"32\",\"Platform\":\"FreeBSD\"}",
        "9f0606f51ebe02aef9629bbcc12ee4aa\t{\"Browser_Bits\":\"32\",\"Platform\":\"OS\\\/2\"}",
        "9f6e5643a24d4ca45916220b47a0fee9\t{\"Browser_Bits\":\"32\",\"Platform\":\"MacOSX\",\"Platform_Version\":\"10\"}",
        "9f5215e3b791c6441fc24c495599d371\t[]",
        "9ff22b6b9c63b3e677320e02746bc26b\t{\"Browser_Bits\":\"32\",\"Platform\":\"Win7\",\"Platform_Version\":\"6.1\",\"Win32\":true}",
        "9fc39645b35a4f242872d2af44fcf4c6\t{\"Platform_Version\":\"9.2\",\"isTablet\":true}",
        "9f47e0d28f9cdf0804787919c53c5074\t{\"Platform_Version\":\"8.1\"}",
        "9f31b32e92855a67801dabea107a284a\t{\"Platform_Version\":\"10.2\",\"isTablet\":true}",
        "9ffe4e31e9c1082a6f975a7504d3eeef\t{\"Platform_Version\":\"9.1\"}",
        "9f9133c5b127cd775045896b3f109283\t{\"Platform\":\"Win10\",\"Platform_Version\":\"10.0\"}",
        "9ff00a343d15ed5711d649c86d5ab4b9\t[]",
        "9f07cf4978e66cd961f59aca121963cf\t{\"Platform_Version\":\"5.1\"}",
        "9f8ee9edad8739a9accd1b98cd68ff6a\t{\"isTablet\":true}",
        "9f32df78bb3a8263df9739e48cb17294\t{\"Platform_Version\":\"4.4\"}",
        "9fe8d766e59ddbec0db5b02b28bee2bb\t{\"Browser_Bits\":\"32\",\"Platform\":\"Win32\",\"Win32\":true}",
        "9f092b34d7333d4cccdef2b76d810ce0\t{\"Browser_Bits\":\"32\",\"Platform\":\"MacOSX\",\"Platform_Version\":\"10.9\"}",
        "9f1d95bf00f50f8e8f9a7d8241f4b8c3\t{\"Browser_Bits\":\"32\",\"Platform\":\"FirefoxOS\",\"Platform_Version\":\"2.1\",\"isMobileDevice\":true}",
        "9f6b66d50a03ea527dbd17dd5894b49d\t{\"Browser_Bits\":\"32\",\"Platform\":\"MacOSX\",\"Platform_Version\":\"10\"}",
        "9f4c54c6ea547676b2854eb303857758\t{\"Browser_Bits\":\"32\",\"Platform\":\"Win8\",\"Platform_Version\":\"6.2\",\"Win32\":true}",
        "9f2c80774c4b6e12c63bc3631cf8f17a\t{\"Browser_Bits\":\"32\",\"Platform\":\"Win10\",\"Platform_Version\":\"10.0\",\"Win32\":true}",
        "9f2d1976adf88d11c3e2487c863adb7a\t{\"Browser_Bits\":\"32\",\"Platform\":\"WinVista\",\"Platform_Version\":\"6.0\",\"Win32\":true}",
        "9f826efb7c9326c3c9e6fc493f76edeb\t{\"Browser_Bits\":\"32\",\"Platform\":\"WinVista\",\"Platform_Version\":\"6.0\",\"Win32\":true}",
        "9faeb459e71ea8daf6f72d01d8628a23\t{\"Browser_Bits\":\"32\",\"Platform\":\"MacOSX\",\"Platform_Version\":\"10\"}",
        "9f719bbf4053a40c7d7bdb25b289fad8\t{\"Browser_Bits\":\"32\",\"Platform\":\"MacOSX\",\"Platform_Version\":\"10.10\"}",
        "9f3cd898b70009681573376486980604\t{\"Browser_Bits\":\"32\",\"Platform\":\"MacOSX\",\"Platform_Version\":\"10\"}",
        "9f50be76d31e9548178101f7eb909d70\t{\"Browser_Bits\":\"32\",\"Platform\":\"MacOSX\",\"Platform_Version\":\"10.11\"}",
        "9f51a8bd150231602beccab201edb33d\t{\"Browser_Bits\":\"32\",\"Platform\":\"MacOSX\",\"Platform_Version\":\"10.10\"}",
        "9fa04b9ded8a87d56af2e2a0da39aa63\t{\"Browser_Bits\":\"32\",\"Platform\":\"MacOSX\",\"Platform_Version\":\"10\"}",
        "9f0b79d85f72dbc7fc5f349e4555a3ba\t{\"Browser_Bits\":\"32\",\"Platform\":\"FreeBSD\"}",
        "9f71f0c036597a4513ed929e635e7d79\t{\"Browser_Bits\":\"32\",\"Platform\":\"MacOSX\",\"Platform_Version\":\"10\"}",
        "9fccbf09be45990ab3b5c6b68265b270\t[]",
        "9fb976704778b1e5dbf297538352395d\t{\"Platform_Version\":\"7.1\",\"isTablet\":true}",
        "9f8f88c9dfc403b2db5bdc46c6ea540a\t{\"Platform\":\"WinVista\",\"Platform_Version\":\"6.0\",\"Win32\":true}",
        "9f934a6a1b65c547ce30223d2069fc2f\t{\"Browser_Bits\":\"32\",\"Platform\":\"iOS\",\"isMobileDevice\":true}",
        "9f3ebf008ba4b4a8728c7a8b02d607a5\t[]",
        "9f3a1e411f37ad5b41b2b24d3d5fec73\t{\"Platform_Version\":\"8.0\"}",
        "9fccfd5648e5c70ed30ec624f2f20d65\t{\"Platform_Version\":\"4.4\"}",
        "9f4e293b2a9a28acd3d2f403a571fa1e\t{\"Browser_Bits\":\"32\",\"Platform\":\"WinVista\",\"Platform_Version\":\"6.0\",\"Win32\":true}",
        "9fbb0befbafcf2e70ac1abffce85ec4c\t[]",
        "9fabdacdad6d2a210ae8ff9090fba93e\t[]",
        "9f51d658265c2cc8bb6079392c614205\t{\"Platform_Version\":\"8.0\"}",
        "9fb6f618293ebb38984db23f59b79e3c\t[]",
        "9fe915bc8786331d948bed0ccb684d24\t[]",
        "9f244a31bb30e14725c5a0e5e5b24572\t{\"Platform_Version\":\"10.10\"}",
        "9f9a38dbb14f9ed0ce9e91568875e8f7\t{\"Browser_Bits\":\"32\",\"Platform\":\"WinXP\",\"Platform_Version\":\"5.1\",\"Win32\":true}",
        "9f116292b193a68097d02b96781dd177\t{\"Platform_Version\":\"8.4\"}"
    ]
}