{
    "content": [
        "43c07e153ab8fc119a91e08a61ddc65e\t[]",
        "439b989de9f7aac71b22ca10f71f1e6d\t[]",
        "437acca1b97e79afd12ef0f4aeb93d39\t[]",
        "43b00634126d9a665c88c621e8aaf801\t[]",
        "4333a0148eefddf29fd79b9367ae2ce7\t[]",
        "43c8cf2dc430e6384be1da281b40a967\t[]",
        "438a69727e36abc70ddde120b1afbec1\t[]",
        "43f3f0fa9e203bffdd5ca2fd41de9dc9\t[]",
        "43d12eef8906e215e1c0d01ca3698dce\t[]",
        "437fa64be896f94fbe2f1fd88af43106\t[]",
        "43adcd166fa2fa26e7a0e552396b2d29\t[]",
        "43678930bcb638018b8ad159c79c2a45\t[]",
        "4392d407b72b0d7eed5d60587cd72908\t{\"Platform\":\"iOS\",\"Platform_Version\":\"9.0\",\"Win32\":false,\"isMobileDevice\":true,\"isTablet\":true}",
        "43f6090c85a22d986c6b14c55bbd74e4\t{\"Platform\":\"iOS\",\"Platform_Version\":\"8.0\",\"Win32\":false,\"isMobileDevice\":true,\"isTablet\":true}",
        "43985a793a6261816af604db209d1dd0\t{\"Platform\":\"iOS\",\"Platform_Version\":\"9.0\",\"Win32\":false,\"isMobileDevice\":true,\"isTablet\":true}",
        "43c46e84a43084b63e0d8313dc320f03\t{\"Platform\":\"iOS\",\"Win32\":false,\"isMobileDevice\":true,\"isTablet\":true}",
        "43fbd1bb0ece5e3d0c15dbfcc9d8edbf\t{\"Platform\":\"iOS\",\"Platform_Version\":\"9.1\",\"Win32\":false,\"isMobileDevice\":true,\"isTablet\":true}",
        "43f0788af4e34ed16b62f5b65155a8a4\t{\"Platform\":\"Win8.1\",\"Platform_Version\":\"6.3\"}",
        "432dd7d03e04c34b11cee580594dcdf5\t{\"Platform\":\"iOS\",\"Win32\":false,\"isMobileDevice\":true,\"isTablet\":true}",
        "43dd353d3f7ad895ccd3e51a50912936\t{\"Platform\":\"iOS\",\"Platform_Version\":\"10.3\",\"Win32\":false,\"isMobileDevice\":true,\"isTablet\":true}",
        "43f2177c55fa9537a3d6e756b5543189\t{\"Platform\":\"MacOSX\",\"Platform_Version\":\"10\",\"Win32\":false}",
        "43c0aa0bc19d8c6605053dc50707b552\t{\"Platform_Version\":\"4.4\",\"isTablet\":true}",
        "43fb31b11dcc7bbdb5198f670973ce1d\t{\"Platform_Version\":\"10.1\",\"isTablet\":true}",
        "437658208ea490237425c1a7b45cf2eb\t{\"Platform_Version\":\"10.0\",\"isTablet\":true}",
        "43a19d01d6eaa9f778893be45003127a\t{\"Browser_Bits\":\"32\",\"Platform\":\"Win10\",\"Platform_Version\":\"10.0\",\"Win32\":true}",
        "43470dfe35fbda542a983a272fae6703\t{\"Platform\":\"iOS\"}",
        "433c502eee5590e3d22b00cb1fe12cee\t{\"Platform\":\"iOS\",\"Platform_Version\":\"8.2\"}",
        "4302ac98ab54044eb76c582bf62b009b\t{\"Platform_Version\":\"4.4\"}",
        "430e57d0fd917758959243b380e6b13a\t{\"Platform\":\"iOS\",\"Platform_Version\":\"10.0\",\"isTablet\":true}",
        "433ee76ac895c7c257c2ec33d6e8ce31\t{\"Platform\":\"iOS\",\"Platform_Version\":\"8.2\"}",
        "4383ce8cac3579d0f939eba53bda9884\t{\"Platform\":\"iOS\",\"Platform_Version\":\"9.2\",\"isTablet\":true}",
        "4328bd2d9fced27c05110e7b0dd088e1\t{\"Platform_Version\":\"4.4\"}",
        "4391939a0e035bf59e31a059c19babf0\t{\"Platform_Version\":\"4.3\"}",
        "431ce185d806e5294d9888a1590095cc\t{\"Platform\":\"SymbianOS\"}",
        "43d39f2a8e2845b9582a7add20fd6a15\t{\"Platform_Version\":\"4.2\"}",
        "43ae2ae01d20089036ee96c405e779a8\t[]",
        "43d42c9770c162936a889fb5b0efd1d2\t{\"isMobileDevice\":true}",
        "43d7bdebb8832019a05f7ddd7df7c253\t[]",
        "439d961d74e853e834541ca4e0093e86\t{\"Platform_Version\":\"4.2\"}",
        "439846aecb3ec62fe072a5c5e96e30ed\t{\"Browser_Bits\":\"32\",\"Platform\":\"Win7\",\"Platform_Version\":\"6.1\",\"Win32\":true}",
        "43aac34047c902182c3ed1d55c928dd0\t{\"Browser_Bits\":\"32\",\"Platform\":\"Win7\",\"Platform_Version\":\"6.1\",\"Win32\":true}",
        "4335429d7ce3e8c3406b90fb52601962\t[]",
        "437d1b709cd08785c7e017cc009147cf\t{\"Platform_Version\":\"4.4\",\"isTablet\":true}",
        "43b26a90ae9ccce7c41b80b11f042e20\t[]",
        "43ee611d36d8db393f9f73fa6c47a51b\t{\"Platform\":\"iOS\",\"Platform_Version\":\"8.0\",\"isTablet\":true}",
        "4375f29e4dca599708785919db1c1469\t[]",
        "430815eae9711fc0b109f18a316001b1\t{\"Platform_Version\":\"4.4\"}",
        "43aa26a5188285caf3322c1bc3fe6244\t{\"Platform_Version\":\"4.3\"}",
        "430715b56ba498dbd7f58f767b4e0886\t{\"Platform\":\"iOS\",\"Platform_Version\":\"8.3\"}",
        "4363432e1b4acf70ea7df81368302097\t{\"Platform_Version\":\"5.0\"}",
        "43654f24386d041d8bba0778166bf206\t{\"Platform\":\"WinXP\",\"Platform_Version\":\"5.1\"}",
        "4361b91c7746a4bd6086fff00e632b81\t{\"Platform\":\"Linux\",\"Win32\":false}",
        "439e474be142418269936f25b7e20904\t{\"Platform\":\"WinXP\",\"Platform_Version\":\"5.1\",\"Win32\":true}",
        "43820068a4cf2c0554b16e4bb3d179f2\t{\"Platform\":\"Win8\",\"Platform_Version\":\"6.2\",\"Win32\":true}",
        "4383a9fb41acd942daa8b676eff7db4a\t{\"Platform\":\"WinXP\",\"Platform_Version\":\"5.1\",\"Win32\":true}",
        "4324b474281a339b8ad345aa0688a9a3\t{\"Platform\":\"Win8.1\",\"Platform_Version\":\"6.3\",\"Win32\":true}",
        "4328ecac888ff3e01076bd97251a5566\t{\"Platform\":\"WinXP\",\"Platform_Version\":\"5.2\",\"Win32\":true}",
        "43b4ed8ac80aa329bd26ce23738245fa\t{\"Platform\":\"Win10\",\"Platform_Version\":\"10.0\",\"Win32\":true}",
        "43aab700515ddf323bb930e90b64b00d\t{\"Platform\":\"Win8\",\"Platform_Version\":\"6.2\",\"Win32\":true}",
        "4376b3fb5b6a379167a2fe6ac20235ef\t{\"Platform\":\"Win7\",\"Platform_Version\":\"6.1\",\"Win32\":true}",
        "4392a5622f16799e26d2c2f1302e3697\t{\"Platform_Version\":\"4.3\"}",
        "431d81a8def508cf1d7713ee46de10e7\t{\"Platform\":\"Win8\",\"Platform_Version\":\"6.2\",\"Win32\":true}",
        "4391217e219a9eb30dc84d893d91efd7\t{\"Platform_Version\":\"5.0\"}",
        "430e4a3e8e26485741473cb6903c20b7\t{\"Platform_Version\":\"6.1\"}",
        "43f7c73e89933ff6126b3a9d0a639b93\t{\"Platform_Version\":\"5.0\",\"isTablet\":true}",
        "43f19d278300f236c1bb2155fa1fe88f\t{\"Platform_Version\":\"5.0\",\"isTablet\":true}",
        "43d2575f9bf65eb08951a1b0ab1981ed\t{\"Platform_Version\":\"4.3\",\"isTablet\":true}",
        "43e377d736ecee2a3dd352f08b22acdf\t{\"Platform_Version\":\"4.2\",\"isTablet\":true}",
        "43c0c220f6d2ef2f09838090f557b95d\t{\"Platform_Version\":\"5.1\",\"isTablet\":true}",
        "431af70a8128587daf9375b4e3b505d8\t{\"Browser_Bits\":\"32\",\"Platform\":\"Android\",\"Platform_Version\":\"6.0\"}",
        "43167c7576a31eac18c9c07c8f9dd1cb\t{\"Browser_Bits\":\"32\",\"Platform\":\"Android\",\"Platform_Version\":\"5.1\"}",
        "43560b3b571abc3a2bb35fb850664ceb\t{\"Browser_Bits\":\"32\",\"Platform\":\"Android\",\"Platform_Version\":\"4.2\"}",
        "43a916ee7ffbb4985ee811d2f5700e39\t{\"Browser_Bits\":\"32\",\"Platform\":\"Android\",\"Platform_Version\":\"6.1\"}",
        "4369497c97db9f6a5a5872c83fcf939a\t{\"Browser_Bits\":\"32\",\"Platform\":\"Android\",\"Platform_Version\":\"4.3\"}",
        "43c1b90b4f989fb879fef969f295f55c\t{\"isTablet\":true}",
        "43c669b2bc924d86e3c9998487c8667f\t{\"Platform_Version\":\"4.3\",\"isTablet\":true}",
        "43dbac8425d53d6fb03e42590ddb6487\t{\"Platform_Version\":\"7.1\"}",
        "43f2118dbd54261da64dd1ac95358c76\t{\"Platform_Version\":\"9.2\"}",
        "43f712d3ea9a3844cfc4d7f2de2ac591\t{\"Platform_Version\":\"8.3\"}",
        "43b9014986889a557a0c6aaeebd44125\t{\"Platform_Version\":\"9.0\",\"isTablet\":true}",
        "436e3c14d94ea4a5e9041f49134a4271\t{\"Browser_Bits\":\"32\",\"Platform\":\"Win10\",\"Platform_Version\":\"6.4\",\"Win32\":true}",
        "4329e9266b489037cee4f801a60e9a95\t[]",
        "432d84794373cc0e29fb69cdcd087a04\t{\"Platform_Version\":\"9.3\"}",
        "43e123ce79f2f5ae86899fd68cf943ad\t{\"Browser_Bits\":\"32\",\"Platform\":\"Win10\",\"Platform_Version\":\"10.0\",\"Win32\":true}",
        "43b16604c13f865786c4751f92a109f5\t{\"Platform_Version\":\"7.0\",\"isTablet\":true}",
        "43b0f8552b2ada4cc261a89656538f27\t{\"Platform_Version\":\"4.2\",\"isTablet\":true}",
        "438655837e70d9b9cdb3ba33bfc61afd\t[]",
        "43c0a0ceccd4414927bf58ffb225b785\t{\"Platform_Version\":\"10.0\"}",
        "43c43f5e6db4e1e783212547645adced\t{\"Platform_Version\":\"10.1\"}",
        "436cecc304e58b4ad4aa65b8bf43b72a\t{\"Platform_Version\":\"4.2\",\"isTablet\":true}",
        "43388aacfea8eca34e9ea488e66a9e05\t{\"Browser_Bits\":\"32\",\"Platform\":\"WinXP\",\"Platform_Version\":\"5.1\",\"Win32\":true}",
        "43339a9e7ce231c27fa724fc1504be75\t{\"Platform_Version\":\"5.0\"}",
        "43071b1cfea1f52ce5e9ca1179cf2303\t{\"Platform_Version\":\"4.2\",\"isTablet\":true}",
        "434b12ee9181a27090009e126055b2f2\t{\"Browser_Bits\":\"32\",\"Platform\":\"WinVista\",\"Platform_Version\":\"6.0\",\"Win32\":true}",
        "437fa821bfcd39ec4aa2e9040b60b2b7\t{\"Platform_Version\":\"7.0\",\"isTablet\":true}",
        "4389eb0763a521cdd8898c3a81c95d72\t{\"Platform_Version\":\"8.4\",\"isTablet\":true}",
        "4338104e3f117894d9884e0e437f7a5d\t{\"Platform_Version\":\"4.2\",\"isTablet\":true}",
        "4363ad1f1a7cd4d1b058eb2e9d8d7ca3\t{\"Platform_Version\":\"4.4\",\"isTablet\":true}",
        "4337b45fefb2d1fe8e8af530b1b175ad\t{\"Platform_Version\":\"6.1\"}",
        "43fea405d2dee5a5418df28103789de9\t{\"Platform_Version\":\"4.4\",\"isTablet\":true}",
        "43d4987198e0ce4f49c2b4f21cb002c2\t{\"Platform_Version\":\"4.2\",\"isTablet\":true}",
        "437c11243d1f6455a64bafbf519e2df4\t{\"Browser_Bits\":\"32\",\"Platform\":\"Win8\",\"Platform_Version\":\"6.2\",\"Win32\":true}",
        "43b2c687ef1d0b92ca47236ac4a0c0b3\t{\"Browser_Bits\":\"32\",\"Platform\":\"Linux\"}",
        "43fb3535f27abf554d2e52a26e9af03a\t{\"Browser_Bits\":\"32\",\"Platform\":\"Win7\",\"Platform_Version\":\"6.1\",\"Win32\":true}",
        "43458f5f87a10d522984b7d2aea6eea0\t{\"Browser_Bits\":\"32\",\"Platform\":\"WinXP\",\"Platform_Version\":\"5.1\",\"Win32\":true}",
        "43a5ca0993b251fa0dfb1ee20e400bc9\t{\"Browser_Bits\":\"32\",\"Platform\":\"Win8\",\"Platform_Version\":\"6.2\",\"Win32\":true}",
        "43938b12ac83b3052fa38c7fb82c66b8\t{\"Browser_Bits\":\"32\",\"Platform\":\"MacOSX\",\"Platform_Version\":\"10\"}",
        "43c060933a2d7a9c20d826779c6c6746\t{\"Browser_Bits\":\"32\",\"Platform\":\"WinXP\",\"Platform_Version\":\"5.2\",\"Win32\":true}",
        "431af963ba31400818aa0442ccd48c4d\t{\"Browser_Bits\":\"32\",\"Platform\":\"FreeBSD\"}",
        "43783403934e39db8dd2c91aaffbb8b8\t{\"Browser_Bits\":\"32\",\"Platform\":\"Win7\",\"Platform_Version\":\"6.1\",\"Win32\":true}",
        "436bc4671d64f710c26c5aa661a71de7\t{\"Browser_Bits\":\"32\",\"Platform\":\"Win7\",\"Platform_Version\":\"6.1\",\"Win32\":true}",
        "4397f669ad8baa93a715b2c051e2c896\t{\"Browser_Bits\":\"32\",\"Platform\":\"Win7\",\"Platform_Version\":\"6.1\",\"Win32\":true}",
        "43a862865b4dbb6e83f7b3c641813096\t{\"Browser_Bits\":\"32\",\"Platform\":\"WinVista\",\"Platform_Version\":\"6.0\",\"Win32\":true}",
        "43f5d1d6acbcb1fd99e93478b4ade17d\t{\"Browser_Bits\":\"32\",\"Platform\":\"Win7\",\"Platform_Version\":\"6.1\",\"Win32\":true}",
        "43c000d0392c7918bd3c3f79ad524e0e\t{\"Browser_Bits\":\"32\",\"Platform\":\"Win8.1\",\"Platform_Version\":\"6.3\",\"Win32\":true}",
        "431987981a1bc29ee5a2d77224262e0b\t{\"Browser_Bits\":\"32\",\"Platform\":\"SunOS\"}",
        "436ba7a7ba0f788e85c3fd237d6ee9e2\t{\"Browser_Bits\":\"32\",\"Platform\":\"WinXP\",\"Platform_Version\":\"5.1\",\"Win32\":true}",
        "431f9dc25460ea53ff894352b7879380\t{\"Browser_Bits\":\"32\",\"Platform\":\"MacOSX\",\"Platform_Version\":\"10.9\"}",
        "43612800b4176b33c34d0df1d2b6d062\t{\"Browser_Bits\":\"32\",\"Platform\":\"MacOSX\",\"Platform_Version\":\"10.9\"}",
        "4348fec995c26a096c74405cd5c34e07\t{\"Browser_Bits\":\"32\",\"Platform\":\"SunOS\"}",
        "432709b035852e44c609e44f622cd618\t{\"Browser_Bits\":\"32\",\"Platform\":\"WinXP\",\"Platform_Version\":\"5.1\",\"Win32\":true}",
        "430e9c18766c4b6ad4c5ed9e3ca98493\t[]",
        "433dac6cafa7a91500877325484461e7\t{\"Browser_Bits\":\"32\",\"Platform\":\"MacOSX\",\"Platform_Version\":\"10.9\"}",
        "430cbbdf9624f920db842b6b6563b23e\t{\"Browser_Bits\":\"32\",\"Platform\":\"Win8\",\"Platform_Version\":\"6.2\",\"Win32\":true}",
        "43647e19937133da619fef9a93b13395\t{\"Browser_Bits\":\"32\",\"Platform\":\"Win8\",\"Platform_Version\":\"6.2\",\"Win32\":true}",
        "43c5151b60917fda81429315221255b1\t{\"Browser_Bits\":\"32\",\"Platform\":\"Linux\"}",
        "437d142eb936ed6a155a70d97069b47b\t{\"Browser_Bits\":\"32\",\"Platform\":\"SunOS\"}",
        "433e92441445ef4195540087ab4f21a7\t{\"Browser_Bits\":\"32\",\"Platform\":\"WinXP\",\"Platform_Version\":\"5.1\",\"Win32\":true}",
        "439fcad9d5958bd77d701574bf815ba1\t{\"Browser_Bits\":\"32\",\"Platform\":\"Win8\",\"Platform_Version\":\"6.2\",\"Win32\":true}",
        "438adbaf7de30ff668a7dffed4ac066e\t{\"Browser_Bits\":\"32\",\"Platform\":\"Win32\",\"Win32\":true}",
        "43d3dcbfb9e361ae1ff56c0c31bf96fa\t{\"Browser_Bits\":\"32\",\"Platform\":\"FreeBSD\"}",
        "43f1ff0cd97c93f237a41b63b6d1387f\t{\"Browser_Bits\":\"32\",\"Platform\":\"Linux\"}",
        "43f2b3c7586e96c0c6e663d14aa5f903\t{\"Browser_Bits\":\"32\",\"Platform\":\"MacOSX\",\"Platform_Version\":\"10\"}",
        "43017e650cf680002de811828ef16da9\t{\"Browser_Bits\":\"32\",\"Platform\":\"WinXP\",\"Platform_Version\":\"5.1\",\"Win32\":true}",
        "43d111e8d3bed17579bb68410f46f5c2\t{\"Browser_Bits\":\"32\",\"Platform\":\"WinXP\",\"Platform_Version\":\"5.1\",\"Win32\":true}",
        "43e28d5fba7bfcffe1fd2d31d272d26d\t{\"Browser_Bits\":\"32\",\"Platform\":\"Win8\",\"Platform_Version\":\"6.2\",\"Win32\":true}",
        "43222e084347f2f229bac0a6254fb2ca\t{\"Browser_Bits\":\"32\",\"Platform\":\"Win7\",\"Platform_Version\":\"6.1\",\"Win32\":true}",
        "43a73637d8f196d442cee5a05a572f26\t{\"Browser_Bits\":\"32\",\"Platform\":\"Win8\",\"Platform_Version\":\"6.2\",\"Win32\":true}",
        "4343619e82d232211ae3e194952ab458\t{\"Browser_Bits\":\"32\",\"Platform\":\"MacOSX\",\"Platform_Version\":\"10.10\"}",
        "43deb8fff7f8311fb8b274b6776566d8\t{\"Browser_Bits\":\"32\",\"Platform\":\"MacOSX\",\"Platform_Version\":\"10\"}",
        "435e75f536a0c9900a76e79d91c6f2fa\t{\"Browser_Bits\":\"32\",\"Platform\":\"iOS\",\"Platform_Version\":\"10.2\"}",
        "43729aacc755b1878f20f510a0fffaba\t{\"Browser_Bits\":\"32\",\"Platform\":\"Android\",\"Platform_Version\":\"4.3\"}",
        "431b91ea2f67b5b8b46fc1d2d82dbab4\t{\"Browser_Bits\":\"32\",\"Platform\":\"Linux\"}",
        "433aefefa55f22d1e647afc25f978a83\t{\"Browser_Bits\":\"32\",\"Platform\":\"WinXP\",\"Platform_Version\":\"5.1\",\"Win32\":true}",
        "43bc8a81aca4c0874beadad1d06d3685\t{\"Browser_Bits\":\"32\",\"Platform\":\"MacOSX\",\"Platform_Version\":\"10\"}",
        "43d41456fc2cb6e0239e52a724bee1ac\t{\"Browser_Bits\":\"32\",\"Platform\":\"Win8.1\",\"Platform_Version\":\"6.3\",\"Win32\":true}",
        "43f85ebe6370d7942507c7b27619a517\t{\"Browser_Bits\":\"32\",\"Platform\":\"MacOSX\",\"Platform_Version\":\"10.9\"}",
        "4302b9b4598e4d10e551986406164ba5\t{\"Browser_Bits\":\"32\",\"Platform\":\"WinVista\",\"Platform_Version\":\"6.0\",\"Win32\":true}",
        "4375341e9630097159be33806f4c5a2e\t{\"Platform_Version\":\"4.3\",\"isTablet\":true}",
        "43766fb0aafa9304f6c805eca5ce86bd\t{\"Platform_Version\":\"4.4\",\"isTablet\":true}",
        "438b47035c3012042dfa0aaa404e2628\t{\"Platform_Version\":\"4.3\",\"isTablet\":true}",
        "433fd5e09105e934e4deadc2262ad6a1\t{\"isTablet\":true}",
        "433c00ee0289a2093597e3329c88f99b\t{\"Platform_Version\":\"4.3\",\"isTablet\":true}",
        "43b844e53c4cc6d86c76a714fc538123\t{\"Platform_Version\":\"4.2\"}",
        "430d69e1f9efb0112cf0be4dd38548ef\t{\"Browser_Bits\":\"64\",\"Platform\":\"Xbox OS 10\",\"Win64\":true}",
        "43db086ad13f86d2bbce22f59534e1a7\t{\"Browser_Bits\":\"32\",\"Platform\":\"Android\",\"isMobileDevice\":true}",
        "431a653d311c7b7150a2ccf9ceea1615\t{\"Browser_Bits\":\"32\",\"Platform\":\"Win8\",\"Platform_Version\":\"6.2\",\"Win32\":true}",
        "43278f197e73758652dee185098042a1\t{\"Platform_Version\":\"6.0\",\"isTablet\":true}",
        "43298f2720066ca49cbe6132dee7d183\t{\"Platform_Version\":\"4.4\",\"isTablet\":true}",
        "43f7c104c54fb27845f779de162231f0\t{\"Platform_Version\":\"4.4\",\"isTablet\":true}",
        "43cd361f6dde8c8783c40a4bbca9802c\t{\"Platform_Version\":\"4.2\",\"isTablet\":true}",
        "4353447172bdee746202be64ab63cc49\t{\"Platform_Version\":\"4.3\",\"isTablet\":true}",
        "43915e0b5b00b46153cc450baa9d6391\t{\"Platform_Version\":\"4.3\",\"isTablet\":true}",
        "43a56e4f25fec2bc777051dfb53327a0\t{\"Platform_Version\":\"10.1\",\"isTablet\":true}",
        "438c49a4e6d2dd5778738f517e2b11c0\t{\"Browser_Bits\":\"32\",\"Platform\":\"Win8\",\"Platform_Version\":\"6.2\",\"Win32\":true}",
        "433831b7f9ff924a54d010cd048c8aec\t{\"Platform_Version\":\"4.2\",\"isTablet\":true}",
        "434a765b6391a21bb5f75f99177d2643\t{\"Platform_Version\":\"5.1\"}",
        "43119c29b31918dfa39d704a485d5adf\t{\"Platform_Version\":\"5.0\",\"isTablet\":true}",
        "437d21760ac682e7f4c6a408a42a3b6b\t{\"Platform_Version\":\"4.2\",\"isTablet\":true}",
        "43dd77a61d18ac5c86aed135c8121345\t{\"Platform_Version\":\"4.2\",\"isTablet\":true}",
        "43b277fa735a1e73dab739f6a2780bf5\t{\"Platform_Version\":\"4.4\",\"isTablet\":true}",
        "434998f177f0aa477f03afaacbdd9525\t{\"Platform_Version\":\"4.2\"}",
        "43faff88998cb5164ac51a5f9e04ab1d\t{\"Platform_Version\":\"4.3\",\"isTablet\":true}",
        "43a8f6290f52223e7348cf1016b147b8\t{\"Platform_Version\":\"4.4\",\"isTablet\":true}",
        "43e09ed33de5b0fa680abe1e19066009\t{\"Platform_Version\":\"4.4\",\"isTablet\":true}",
        "439469324be67be6d4cdfb1e7ab57b08\t{\"Platform_Version\":\"8.1\"}",
        "43b712b0ae83dd3e0df36620704b1b78\t{\"Platform_Version\":\"4.4\",\"isTablet\":true}",
        "43250a8d81808c0de377ac377963fbc3\t{\"Platform_Version\":\"4.4\"}",
        "436f7e2bcdfd0bb611c0d5e130bfea42\t{\"Platform_Version\":\"9.2\"}",
        "43cbffe515415bb1eb9d54a43b360598\t{\"Browser_Bits\":\"32\",\"Platform\":\"Win8\",\"Platform_Version\":\"6.2\",\"Win32\":true}",
        "43f28decda16f0e1a5830e92eae751d0\t{\"Platform_Version\":\"4.4\",\"isTablet\":true}",
        "43dab2de994a44e316dfc1148eae27f0\t{\"Platform_Version\":\"4.2\",\"isTablet\":true}",
        "43cd5c6250ee2022287b7304579cea2e\t{\"Platform_Version\":\"4.3\",\"isTablet\":true}",
        "43a5d0e913e6eaf3c64031037e4c5b91\t{\"Platform_Version\":\"4.2\",\"isTablet\":true}",
        "43da33516e8428406cb3b3a1e1b8ccfe\t{\"Platform_Version\":\"9.0\"}",
        "438580a8166432a57c1b9e8660d94bbf\t{\"Platform_Version\":\"4.3\",\"isTablet\":true}",
        "4312462beb059b59b22a78962d1a1d19\t{\"Platform_Version\":\"4.2\",\"isTablet\":true}",
        "43dbbbff26f64636d3a82a5fb57afb88\t{\"Browser_Bits\":\"32\",\"Platform\":\"WinXP\",\"Platform_Version\":\"5.1\",\"Win32\":true}",
        "435617091083c08d127efc99ca3d0146\t{\"Platform_Version\":\"4.2\",\"isTablet\":true}",
        "437bf9d1da1133b2f212c351ab0476bc\t{\"Platform_Version\":\"4.2\",\"isTablet\":true}",
        "431a8d4bbe87da3d49e36d9f016eed10\t{\"Platform_Version\":\"8.1\"}",
        "4379b7af2a88b6783d1fa9dd2d3aaedf\t{\"Platform_Version\":\"4.3\",\"isTablet\":true}",
        "43285a38c084fd8c33e9ba1d6432267b\t{\"Platform_Version\":\"4.2\",\"isTablet\":true}",
        "43f75dfdaf32051c7ed65cbcfea66d0d\t[]",
        "43f96496ca363948105ef8313d487589\t{\"Platform_Version\":\"4.2\",\"isTablet\":true}",
        "43e7a0aa1cfd428aa67bb971b27a460c\t{\"Platform_Version\":\"4.3\",\"isTablet\":true}",
        "43668b36981164d8193f8dd04c893be9\t{\"Platform_Version\":\"4.2\",\"isTablet\":true}",
        "43caf652a9ebcb4870b77821e706940b\t{\"Platform_Version\":\"4.3\",\"isTablet\":true}",
        "43581eeccbba43f667b505da1d2384ad\t{\"Platform_Version\":\"4.2\",\"isTablet\":true}",
        "43792994545425a76d86625635b3ccde\t{\"Platform_Version\":\"4.2\"}",
        "430ac1a49d76957718bf99a4a73a027f\t{\"Platform_Version\":\"9.2\",\"isTablet\":true}",
        "43b7bf7221cbacc57fd4ae8026eeccb5\t{\"Platform_Version\":\"4.2\",\"isTablet\":true}",
        "4318788d76efb0910ff927136ce79bb7\t{\"Platform_Version\":\"10.3\",\"isTablet\":true}",
        "43cc919e90a079df0bc39e842a032c53\t{\"Platform_Version\":\"4.2\",\"isTablet\":true}",
        "43f2309196e815e7d6b68bf42dbbb885\t{\"Platform_Version\":\"8.2\"}",
        "43ba465f28dfbdaa2f606c88159ac673\t{\"Platform_Version\":\"4.2\",\"isTablet\":true}",
        "43230661ab0592d4b6e15e0fe7404c0d\t{\"Platform_Version\":\"9.2\"}",
        "43544bbdd61251e69cd1f8989629b8d4\t{\"Platform_Version\":\"7.1\"}",
        "431267df0a290289c95fb91879b7ff53\t{\"Browser_Bits\":\"32\",\"Platform\":\"NetBSD\"}",
        "43ee8fc9fdcda131e99776a387bca26b\t{\"Platform_Version\":\"4.4\",\"isTablet\":true}",
        "4350057c1f5a84e97087cbd2b20b3b1d\t{\"Platform_Version\":\"4.3\",\"isTablet\":true}",
        "435c87e2bb86f6881df1e11452f390a4\t{\"Platform_Version\":\"4.4\",\"isTablet\":true}",
        "434d27cffd9914eb344a147e9debd1d5\t{\"Platform_Version\":\"8.3\"}",
        "438de31b3616fe1dd679b9b2c92dda1e\t{\"Platform_Version\":\"4.3\",\"isTablet\":true}",
        "43e602a61480de0249b426dfc75a4587\t{\"Browser_Bits\":\"32\",\"Platform\":\"Win10\",\"Platform_Version\":\"10.0\",\"Win32\":true}",
        "438ec7bee4751e3528f4a71a00951a8e\t{\"Platform_Version\":\"4.4\",\"isTablet\":true}",
        "43b6c81a2d71c87f86771185550bb7cb\t{\"Platform_Version\":\"4.4\",\"isTablet\":true}",
        "43cff81b23e2a79d674ac06812e181fa\t{\"Platform_Version\":\"4.3\",\"isTablet\":true}",
        "43100f6a75640bf2e6ab0d9796da586c\t{\"Platform_Version\":\"4.4\",\"isTablet\":true}",
        "43dea90267aaa0226a99698dbed2efdb\t{\"Platform_Version\":\"4.2\",\"isTablet\":true}",
        "43617e7c2b4fe9a7b46863c169a52f72\t[]",
        "43b1c2d9d9fee0fa3297d6b41379960c\t{\"Platform_Version\":\"4.4\",\"isTablet\":true}",
        "4306f27bca6369f3869c0477bdb53ff4\t{\"Platform_Version\":\"4.2\",\"isTablet\":true}",
        "438d95dc3a535430337f8d8831e7fe32\t{\"Platform_Version\":\"4.2\",\"isTablet\":true}",
        "439cdedef72ca5f44bdc9a1f54f82598\t{\"Browser_Bits\":\"32\",\"Platform\":\"Win32\",\"Win32\":true}",
        "430a33737bc23c8e0578704b917022fe\t{\"Browser_Bits\":\"32\",\"Platform\":\"MacOSX\",\"Platform_Version\":\"10\"}",
        "43243869fbcc861b2880a18f14e7af91\t{\"Browser_Bits\":\"32\",\"Platform\":\"WinVista\",\"Platform_Version\":\"6.0\",\"Win32\":true}",
        "431f15bca0da64b79a2888ff195215d1\t{\"Browser_Bits\":\"32\",\"Platform\":\"Linux\"}",
        "43f4095e1bc2f30c77ae7324097c63f5\t{\"Browser_Bits\":\"32\",\"Platform\":\"FreeBSD\"}",
        "43ae4ff21135364bc4f800629095b046\t{\"Browser_Bits\":\"32\",\"Platform\":\"WinXP\",\"Platform_Version\":\"5.1\",\"Win32\":true}",
        "43abfcdf41208fb453bb44bd3e56bf7b\t{\"Platform_Version\":\"9.0\"}",
        "43a83a882134ed4ad588ed8029523536\t{\"Platform_Version\":\"8.3\",\"isTablet\":true}",
        "43cb1fc973d962608716a50c9e7088aa\t{\"Platform_Version\":\"8.1\",\"isTablet\":true}",
        "436bfb7b1374051fcc764c12c44e45d7\t{\"Platform_Version\":\"8.3\"}",
        "4376617979343cfa1a8440198ff356c2\t{\"Browser_Bits\":\"32\",\"Platform\":\"MacOSX\",\"Platform_Version\":\"10\"}",
        "433386a6e282d39a1da37250d2ee4d5d\t{\"Browser_Bits\":\"32\",\"Platform\":\"WinVista\",\"Platform_Version\":\"6.0\",\"Win32\":true}",
        "43cef89d8dc663280322e8e4ef1a27d3\t{\"Browser_Bits\":\"32\",\"Platform\":\"WinXP\",\"Platform_Version\":\"5.2\",\"Win32\":true}",
        "43614964189482d48442c3937d02cd9d\t{\"Browser_Bits\":\"32\",\"Platform\":\"WinVista\",\"Platform_Version\":\"6.0\",\"Win32\":true}",
        "433f274b7d3cbe41380062de85f7f5ae\t{\"Platform_Version\":\"7.1\",\"isTablet\":true}",
        "43c839cc07963b055c4113f604685948\t{\"Platform_Version\":\"10.1\"}",
        "433e12e133b21b900cdf7fd1e9c61716\t{\"Browser_Bits\":\"32\",\"Platform\":\"Linux\"}",
        "439ebe8fc31434dee9da841e59b967c5\t{\"Platform\":\"WinVista\",\"Platform_Version\":\"6.0\"}",
        "433a6ccd03a6e00943713b5e7be8e8c5\t[]",
        "431525da031f9cbb92277c7b57a9f54c\t{\"Platform\":\"Win10\",\"Platform_Version\":\"10.0\"}",
        "432dadd8999a5d90c224fa3842e8df6b\t{\"Browser_Bits\":\"32\",\"Platform\":\"WinXP\",\"Platform_Version\":\"5.2\",\"Win32\":true}",
        "43ec2c0045a11c611f11876690bd3b46\t{\"Platform\":\"WinXP\",\"Platform_Version\":\"5.1\"}",
        "43b5fd2a55345edc65dc87f26e64c8e8\t{\"Browser_Bits\":\"32\",\"Platform\":\"iOS\"}",
        "43d7814a1fa558b8efb8ac9cb8e25bcf\t{\"Browser_Bits\":\"32\",\"Platform\":\"Android\",\"Platform_Version\":\"4.4\"}",
        "43df7a6a51d0b178d6345dc48be8b76f\t{\"Browser_Bits\":\"32\",\"Platform\":\"Android\",\"Platform_Version\":\"4.3\"}",
        "433f32b8cd6789787620fce3882403c0\t{\"Browser_Bits\":\"32\",\"Platform\":\"Android\"}",
        "43aa9067b3131eabcf437304d4a77512\t{\"Browser_Bits\":\"32\",\"Platform\":\"Linux\"}",
        "43a7eaeaaee6a9c0392054fbb2ea0230\t[]",
        "433bd82944db7810871d19e8cf17e23a\t{\"Platform_Version\":\"4.3\",\"isTablet\":true}",
        "43c25697fbba564fb101f587c6459a5d\t{\"Platform_Version\":\"4.2\",\"isTablet\":true}",
        "4316124960636cf88c72f1f2cedce65a\t{\"Browser_Bits\":\"32\",\"Platform\":\"iOS\",\"Platform_Version\":\"8.3\",\"isTablet\":true}",
        "43acebfdd1894eb0f7b66c3772cd4731\t{\"isMobileDevice\":true}",
        "436a5d7df261cf0653a7a997677b703a\t{\"Browser_Bits\":\"32\",\"Platform\":\"JAVA\"}",
        "43e0fbf2fc701f0dffe59e27bab3a409\t{\"Browser_Bits\":\"32\",\"Platform\":\"JAVA\"}",
        "436f8eea2fd5ee2a7c530638ff4f1c87\t{\"Browser_Bits\":\"32\",\"Platform\":\"OpenBSD\"}",
        "43e89050b65a6aac949d58015673a10e\t{\"Browser_Bits\":\"32\",\"Platform\":\"Linux\"}",
        "43d43d94d108fe68982c7ccb85bd02aa\t{\"Platform_Version\":\"8.4\"}",
        "43458f84729942122cef0defcf382e24\t{\"Platform_Version\":\"10.1\",\"isTablet\":true}",
        "43a9d3a6f0fe3c355d069df6e82bfbba\t{\"Platform_Version\":\"10.1\"}",
        "43017c4217695497b7324497bc543342\t{\"Browser_Bits\":\"32\",\"Platform\":\"iOS\",\"isMobileDevice\":true}",
        "4355e788d0170cd4545831a1947f2970\t{\"Platform_Version\":\"7.1\"}",
        "43def4f1ace94c5b769ee7c4c3757b6d\t{\"Platform_Version\":\"10.1\"}",
        "43ab20208d241844d47048b2643c24a5\t{\"Platform_Version\":\"8.1\"}",
        "438f5211dc53ad9d67f9c040a5563f3f\t{\"Platform_Version\":\"9.1\"}",
        "43afdbc78719a76ad315f04ce693d880\t{\"Platform_Version\":\"9.1\"}",
        "43e2e18d1651f4f5367d2301a0fcaa13\t{\"Platform_Version\":\"7.0\",\"isTablet\":true}",
        "43b4564d128a3378e2a645679e8850bd\t{\"Platform_Version\":\"7.0\",\"isTablet\":true}",
        "43972b0d1f9497c2af5d8c474074f210\t{\"Platform_Version\":\"8.4\",\"isTablet\":true}",
        "43f0b4defbc9e3ef9e584f3956bc1975\t{\"Platform_Version\":\"9.1\",\"isTablet\":true}",
        "43a68896c66c54fba9f4e518373e64d8\t{\"Platform_Version\":\"8.1\",\"isTablet\":true}",
        "4301503842fae944bfd9244e4f15e6ea\t{\"Platform_Version\":\"9.1\",\"isTablet\":true}",
        "4373f7c41a397a2ab692e8f408005599\t{\"Platform_Version\":\"9.0\"}",
        "43f14bcd083841f7b8336dbc44633d9c\t{\"Platform_Version\":\"10.0\",\"isTablet\":true}",
        "43c572fc78da7db1ad12c24c7fc686ba\t{\"Platform_Version\":\"7.0\"}",
        "43c776b3db00945a49d9443a2e1583a3\t[]",
        "43be396aa94d98c4306316654f4b04fa\t{\"Platform_Version\":\"10.3\",\"isTablet\":true}",
        "437487488946966a4380b993f3e4e5af\t{\"Platform_Version\":\"10.1\"}",
        "43b83484b9a83baf47046b6abdc2684f\t{\"Platform_Version\":\"9.0\"}",
        "43c6bcc13c644a3f165836a14ae9d6b6\t[]",
        "43667d3beabc4ceb52b990386fe51411\t{\"Platform_Version\":\"7.0\",\"isTablet\":true}",
        "4363e59d90e40f433668b84064e87a89\t{\"Platform_Version\":\"8.2\",\"isTablet\":true}",
        "430a04e5e5d077c7464231fb62092d2b\t{\"Platform_Version\":\"9.1\",\"isTablet\":true}",
        "43ea1b0e9ae1e8feb9f6860f92cab2ca\t{\"Platform_Version\":\"10.3\"}",
        "431c3beeae09a9cac30022bc5cc090d4\t{\"Platform_Version\":\"9.3\",\"isTablet\":true}",
        "435f6bf159680b97eaa62a20951491eb\t{\"Platform_Version\":\"7.0\"}",
        "4318ebc4091060b96139da280cbff25b\t{\"Browser_Bits\":\"32\",\"Platform\":\"iOS\",\"isMobileDevice\":true}",
        "430f275830c2333752f39448b39ec25a\t{\"Platform_Version\":\"9.1\"}",
        "437fd2f8c2604ac5608fdd72b53d2771\t{\"Platform_Version\":\"9.1\"}",
        "43a35ba647c2a51b76b206e90d4debcb\t{\"Platform_Version\":\"8.1\"}",
        "430d1b3dbc7289e3c5620da304fa13de\t{\"Platform_Version\":\"4.4\",\"isTablet\":true}",
        "437ade86bfeb482c968d0981f4de4367\t{\"Platform_Version\":\"5.1\"}",
        "438176aba423ce085563d8ef5f5074b2\t{\"Platform_Version\":\"8.1\"}",
        "43654ebed17fcea273bb7a06b08aba86\t[]",
        "43f6814e1741714553a89d326da6f5de\t{\"Platform_Version\":\"8.1\"}",
        "43edf8e94e867ddc2cf47cfd1f51e68d\t{\"Platform_Version\":\"9.0\"}",
        "430147d7b7aec73392c46fa1142b18a2\t[]",
        "43d1d6ee175d6ebc80d63fd3a1f8bf4d\t[]",
        "43d52cea5ff3ee035e53bc772a2a2062\t[]",
        "43ff3fdbb2722650a8b8519ab45e7e66\t[]",
        "4361befbee2f54dfbf3daef233f3f600\t[]",
        "43948bb0ea5741c9494ca5e128e89125\t[]",
        "4398020f93824dff6e6497c2bda97bad\t[]",
        "4387f6cee591a33cc67474f414acc9f1\t{\"Platform_Version\":\"10.9\"}",
        "43cfa9053c596a6f1a6981370e6f958c\t{\"Browser_Bits\":\"32\",\"Platform\":\"WinXP\",\"Platform_Version\":\"5.1\",\"Win32\":true}",
        "43a484d79c67d466ee978f16a6f8d8b7\t{\"Browser_Bits\":\"32\",\"Platform\":\"WinXP\",\"Platform_Version\":\"5.2\",\"Win32\":true}",
        "4391f5293daf06cc50f2654367a95776\t{\"Browser_Bits\":\"32\",\"Platform\":\"WinVista\",\"Platform_Version\":\"6.0\",\"Win32\":true}",
        "435d92c7e95d2aee1e46607a11f3bac1\t{\"Browser_Bits\":\"32\",\"Platform\":\"Win32\",\"Win32\":true}",
        "43c82858827e6f0fba5613e45de9398e\t{\"Browser_Bits\":\"32\",\"Platform\":\"WinXP\",\"Platform_Version\":\"5.2\",\"Win32\":true}",
        "433027685e3e4fe0803df2fa7a490d6b\t{\"Browser_Bits\":\"32\",\"Platform\":\"Win7\",\"Platform_Version\":\"6.1\",\"Win32\":true}",
        "435ca1e641e1a95df089562e9784dcdd\t{\"Browser_Bits\":\"32\",\"Platform\":\"Win7\",\"Platform_Version\":\"6.1\",\"Win32\":true}",
        "43f58b7ecb37c57c54658eb5ba09f715\t{\"Browser_Bits\":\"32\",\"Platform\":\"WinVista\",\"Platform_Version\":\"6.0\",\"Win32\":true}",
        "435a4ae7805dcd803e1dcf0c21c6aa62\t{\"Browser_Bits\":\"32\",\"Platform\":\"MacOSX\",\"Platform_Version\":\"10\"}",
        "43e428907b17b62e9ea7a37d502e4273\t{\"isTablet\":true}",
        "43a8d802d924f22da4532b8a8217ae9d\t{\"Platform\":\"Win7\",\"Platform_Version\":\"6.1\"}",
        "4335ad7dcff325e2a288ba2f398725fc\t{\"Browser_Bits\":\"32\",\"Platform\":\"Win32\",\"Win32\":true}",
        "43d3b0aebfd40359b962856803491155\t{\"Platform\":\"WinVista\",\"Platform_Version\":\"6.0\"}",
        "4394c3f7b8e7303a5900a5487c9e192e\t[]",
        "43eb3e90426fdb77edcd3bc0856d2a0a\t{\"Browser_Bits\":\"32\",\"Platform\":\"WinXP\",\"Platform_Version\":\"5.2\",\"Win32\":true}",
        "4318c877d103d4680ab6581dc486f25a\t{\"Browser_Bits\":\"32\",\"Platform\":\"MacOSX\",\"Platform_Version\":\"10.9\"}",
        "43a9872cae4c59c04641c409d88d603e\t{\"Browser_Bits\":\"32\",\"Platform\":\"Win7\",\"Platform_Version\":\"6.1\",\"Win32\":true}",
        "432e75483f7c15c1712b560183cfc772\t{\"Browser_Bits\":\"32\",\"Platform\":\"Win8.1\",\"Platform_Version\":\"6.3\",\"Win32\":true}",
        "43d02aff27c0b8297b17b1c6dc69bade\t{\"Browser_Bits\":\"32\",\"Platform\":\"OpenBSD\"}",
        "430f76fbf02dba4ff26feb270c4cc6e3\t{\"Browser_Bits\":\"32\",\"Platform\":\"Win8\",\"Platform_Version\":\"6.2\",\"Win32\":true}",
        "430b29d155534e854450a32c86a93a8c\t{\"Browser_Bits\":\"32\",\"Platform\":\"WinXP\",\"Platform_Version\":\"5.2\",\"Win32\":true}",
        "437e9e87100bfcea4fbb05b8d8d4291c\t[]",
        "4397713960f7c69e794d4a7fa84f2bbf\t[]",
        "43bfca736fb29cd9346b60447167423f\t{\"Browser_Bits\":\"32\",\"Platform\":\"MacOSX\",\"Platform_Version\":\"10\"}",
        "4370ea06f679518a6aea048cf1c5d372\t{\"Platform_Version\":\"7.1\"}",
        "43b6625b818eca340714128d169d27a7\t{\"Browser_Bits\":\"32\",\"Platform\":\"Win8\",\"Platform_Version\":\"6.2\",\"Win32\":true}",
        "43eadd4e3202e0ad5efb7fccd9690fcd\t{\"Browser_Bits\":\"32\",\"Platform\":\"WinXP\",\"Platform_Version\":\"5.1\",\"Win32\":true}",
        "43e3c2cdc187a41a60fd634190049d40\t{\"Browser_Bits\":\"32\",\"Platform\":\"Win7\",\"Platform_Version\":\"6.1\",\"Win32\":true}",
        "4366458776205d8d6851344c17230a98\t{\"Browser_Bits\":\"32\",\"Platform\":\"WinVista\",\"Platform_Version\":\"6.0\",\"Win32\":true}",
        "43849a50bdb23b964c1f38aac5b622eb\t{\"Platform_Version\":\"7.1\",\"isTablet\":true}",
        "4334e89f1f55071cb49140f09b342b98\t{\"Browser_Bits\":\"32\",\"Platform\":\"WinVista\",\"Platform_Version\":\"6.0\",\"Win32\":true}",
        "43971861c89e2abf5d4597fdd6bd9740\t{\"Browser_Bits\":\"32\",\"Platform\":\"iOS\",\"Platform_Version\":\"9.0\",\"isMobileDevice\":true,\"isTablet\":true}",
        "437056cdf5bcf34e54020c75104cd499\t{\"Platform\":\"FirefoxOS\"}",
        "4379b92a8aad688422367253468b1306\t[]",
        "43f9d0b5ed80ebd37fdb6f267ad2c4cc\t{\"Platform\":\"FirefoxOS\"}",
        "4349b3bfdb81e9f854df9291870b80b0\t[]",
        "43add846fd350ac0b1461aeb5f1c6643\t{\"Browser_Bits\":\"32\",\"Platform\":\"WinVista\",\"Platform_Version\":\"6.0\",\"Win32\":true}",
        "43e425f4abf953663e390e8148f0ec9c\t{\"Browser_Bits\":\"32\",\"Platform\":\"Win10\",\"Platform_Version\":\"10.0\",\"Win32\":true}",
        "439e95c3635cd38045410c61acbea959\t{\"Browser_Bits\":\"32\",\"Platform\":\"Win32\",\"Win32\":true}",
        "4358a827bc80181a9e1140208cc3349d\t{\"Browser_Bits\":\"32\",\"Platform\":\"Win7\",\"Platform_Version\":\"6.1\",\"Win32\":true,\"isMobileDevice\":false}",
        "43ef16f6f6f197bb375385dc264e1c38\t{\"Browser_Bits\":\"32\",\"Platform\":\"Win32\",\"Win32\":true}",
        "439596d17855677704ffc9ec626ca927\t{\"Platform\":\"Win8.1\",\"Platform_Version\":\"6.3\"}",
        "439b1c54ed6a3f490c1315164e683241\t[]",
        "43023cc070f2873aabd0467174f21ee2\t[]",
        "43b60d6802b995660ddd42bf9fc1f2b9\t{\"Browser_Bits\":\"32\",\"Platform\":\"Android\",\"isMobileDevice\":true}",
        "434fabea4ea834c95e708bb1908de82c\t[]",
        "4300121efb3256a2b042fdfed7247bbc\t{\"Browser_Bits\":\"32\",\"Platform\":\"Win8\",\"Platform_Version\":\"6.2\",\"Win32\":true}",
        "43ecceae4bb7557709798c84957ee703\t{\"Browser_Bits\":\"32\",\"Platform\":\"Win10\",\"Platform_Version\":\"10.0\",\"Win32\":true}",
        "4365116f73488a46cc0b007f17748ab9\t{\"Browser_Bits\":\"32\",\"Platform\":\"Win10\",\"Platform_Version\":\"10.0\",\"Win32\":true}",
        "43360f0cf9fd470cf00971aed0a0c146\t{\"Browser_Bits\":\"32\",\"Platform\":\"Win10\",\"Platform_Version\":\"10.0\",\"Win32\":true}",
        "43d6b5703e5d218fcceab01c89c6f4f6\t{\"Browser_Bits\":\"32\",\"Platform\":\"Linux\"}",
        "43d15d6376baa21f3ff69ec7a90b3cd7\t{\"Browser_Bits\":\"32\",\"Platform\":\"MacOSX\",\"Platform_Version\":\"10.10\"}",
        "43a5ad5fdb42624b9719412b04300341\t{\"Browser_Bits\":\"32\",\"Platform\":\"WinXP\",\"Platform_Version\":\"5.1\",\"Win32\":true}",
        "43323a275bb5ac8bc7484fe34a1a3dde\t{\"Browser_Bits\":\"32\",\"Platform\":\"Linux\"}",
        "437d5deac4880b8377c9c8f2498d46c0\t{\"Browser_Bits\":\"32\",\"Platform\":\"Win8\",\"Platform_Version\":\"6.2\",\"Win32\":true}",
        "434e710f3476e79f21553290efca3b79\t{\"Browser_Bits\":\"32\",\"Platform\":\"MacOSX\",\"Platform_Version\":\"10\"}",
        "43afe54854f9c746b1cd98099a990949\t{\"Browser_Bits\":\"32\",\"Platform\":\"WinXP\",\"Platform_Version\":\"5.2\",\"Win32\":true}",
        "43d9b58edd4762e3d3b326bd03e15a13\t[]",
        "43a90855b346ae19559639df4ac31675\t[]",
        "43343bc893168d0b9bb5d0ffb51a2b9c\t{\"Platform_Version\":\"8.1\"}",
        "435da20312b7dd04b56e8336d43b65cf\t[]",
        "4315814e62a338d230904ef93fd6b96c\t{\"Platform\":\"WinXP\",\"Platform_Version\":\"5.2\",\"Win32\":true}",
        "439800042ab9cc2ebece3134b258852b\t{\"Platform\":\"Win8\",\"Platform_Version\":\"6.2\",\"Win32\":true}",
        "43ba8a121eec667352b2835a4480b80b\t{\"Browser_Bits\":\"32\",\"Platform\":\"MacOSX\",\"Platform_Version\":\"10\"}",
        "4320769265f69bc1a55977547f2a2e7f\t{\"Platform_Version\":\"7.1\"}",
        "43c91dc68e97ec58cec8457c4e4c8887\t{\"Platform_Version\":\"7.0\"}",
        "435a2da4d6a78f609a5849fcb2adabe6\t{\"Platform_Version\":\"9.2\"}",
        "43dfdc40f5e6e599e3a30988728f8e66\t{\"Platform_Version\":\"8.0\"}",
        "438c2f85bffd74feec279b8e5a7383a7\t{\"Platform_Version\":\"7.0\"}",
        "4376fee92400ae6d1d7b2ba02cd5099d\t{\"Browser_Bits\":\"32\",\"Platform\":\"MacOSX\",\"Platform_Version\":\"10\"}",
        "43ac248a8ba85e979e86a8c0e9e2119f\t{\"Browser_Bits\":\"32\",\"Platform\":\"WinXP\",\"Platform_Version\":\"5.1\",\"Win32\":true}"
    ]
}