{
    "content": [
        "fa1c064fc5109b3d54ff20b3f8a59009\t11\tlivelapbot\\\/.*",
        "fa3abba67e5371bb2ee0b20e50176057\t12\tovercast\\\/[\\d]\\.[\\d].*",
        "fa4ef757a228c59dbd95902bb577baa6\t47\twindows\\-rss\\-platform\\\/[\\d]\\.[\\d] \\(msie .*; .*windows nt [\\d]\\.[\\d].*",
        "fa4ef757a228c59dbd95902bb577baa6\t43\twindows\\-rss\\-platform\\\/[\\d]\\.[\\d] \\(msie .*; windows nt.*",
        "fa4ef757a228c59dbd95902bb577baa6\t24\twindows\\-rss\\-platform\\\/[\\d]\\.[\\d].*",
        "fab7f658d1432eda6b729f304b1ea995\t17\tsuperbird general",
        "fab7f658d1432eda6b729f304b1ea995\t14\tsuperbird [\\d][\\d]\\.[\\d]",
        "fab82d99eb454fe21931674f91d5001b\t11\tantispambot",
        "fabcaa97871555b68aa095335975e613\t17\tbot\\.araturka\\.com\\\/.*",
        "fabcaa97871555b68aa095335975e613\t15\tbot\\.ara\\.com\\.tr\\\/.*",
        "fabcaa97871555b68aa095335975e613\t3\tbot.*",
        "fac0266802be9b5ed2e5c570fe130ab5\t11\tmeanpathbot",
        "fad2e0dfda50e94c30d84919ea592f0b\t5\twesee",
        "fad9383ed4698856ed467fd49ecf4820\t28\tbookmark renewal check agent.*",
        "fad9383ed4698856ed467fd49ecf4820\t20\tbookmark search tool.*",
        "fad9383ed4698856ed467fd49ecf4820\t14\tbookmark buddy.*",
        "faf6c926b151743f155efb3bfe0f80a0\t14\tlinkwalker\\\/[\\d]\\.[\\d].*"
    ]
}