{
    "content": [
        "fbde5fe8c69a3bf6ec324cbc9f1e4ee9\t[]",
        "fb105009b0ed9bce8262aa82001ab2c7\t[]",
        "fb7b9a4920f14b8d47729e5ff6b54ff9\t[]",
        "fb753e34ec1032af99b47921350bce85\t{\"Browser_Bits\":\"32\",\"Platform\":\"Win8.1\",\"Platform_Version\":\"6.3\",\"Win32\":true}",
        "fbb22f0507d13fe1aa71bf060b78674c\t{\"Browser_Bits\":\"32\",\"Platform\":\"Linux\"}",
        "fb2ecca63e1d60cd44465cff0127775d\t[]",
        "fb72adef3b3614bd60a96c607a506156\t[]",
        "fb00dca9f82ecccc559605456c770ead\t[]",
        "fbf5dd8c524290f828c7b673deb42a43\t{\"Browser_Bits\":\"32\",\"Platform\":\"WinXP\",\"Platform_Version\":\"5.1\",\"Win32\":true}",
        "fb055eda2b387bcb7d334c1cab802b7d\t{\"Browser_Bits\":\"32\",\"Platform\":\"Win10\",\"Platform_Version\":\"6.4\",\"Win32\":true}",
        "fbdbf8f3f955cdc6721f87359a2fc5e2\t{\"Browser_Bits\":\"32\",\"Platform\":\"Win8.1\",\"Platform_Version\":\"6.3\",\"Win32\":true}",
        "fb443abaeef743853ac22c82507b387a\t{\"Browser_Bits\":\"32\",\"Platform\":\"MacOSX\",\"Platform_Version\":\"10\"}",
        "fb2ca9521da6827608c56808923f8536\t{\"Platform\":\"iOS\",\"Platform_Version\":\"8.3\",\"Win32\":false,\"isMobileDevice\":true,\"isTablet\":true}",
        "fbf01075d94bbebfe7349e413bc63ad1\t{\"Platform\":\"iOS\",\"Platform_Version\":\"10.2\",\"Win32\":false,\"isMobileDevice\":true,\"isTablet\":true}",
        "fb1420b4a0a6a0fbb1f6af0fad74fc70\t{\"Platform\":\"iOS\",\"Platform_Version\":\"10.1\",\"Win32\":false,\"isMobileDevice\":true,\"isTablet\":true}",
        "fbd0e8778d14d0c20dfee84d5aa83724\t{\"Platform\":\"WinXP\",\"Platform_Version\":\"5.1\"}",
        "fb87b97e06d55a288f6f6894228f5223\t{\"Platform\":\"iOS\",\"Platform_Version\":\"8.2\",\"Win32\":false,\"isMobileDevice\":true,\"isTablet\":true}",
        "fbf3e7563cda3cd27b33f248f1a53cdc\t{\"Platform\":\"iOS\",\"Platform_Version\":\"8.1\",\"Win32\":false,\"isMobileDevice\":true,\"isTablet\":true}",
        "fba5938a1b0e1444b860456fc6c6e586\t{\"Platform_Version\":\"4.2\",\"isTablet\":true}",
        "fbf014c155cd8a5f0f6bc7695e8884bc\t{\"Platform_Version\":\"10.1\",\"isTablet\":true}",
        "fb38eba5447dc56e7656426f0f446af1\t{\"Browser_Bits\":\"32\",\"Platform\":\"iOS\",\"Platform_Version\":\"8.2\"}",
        "fb52d94ca4bd93c8166bb6c53ab17711\t{\"Browser_Bits\":\"32\",\"Platform\":\"WinXP\",\"Platform_Version\":\"5.2\",\"Win32\":true}",
        "fbaa2775504cf3f5fbcd321fa447f84f\t{\"Platform_Version\":\"5.1\"}",
        "fbe89eb9e834a720b19e2ee1165d54d2\t{\"Platform_Version\":\"7.1\"}",
        "fb5426f2ee39ee764133ae0338d21745\t{\"Platform_Version\":\"4.2\"}",
        "fbe2895ab07c68dd91e7f517292c982c\t{\"Platform\":\"iOS\",\"Platform_Version\":\"9.1\",\"isTablet\":true}",
        "fb26e4d394a04fa3b47706f647302659\t{\"Platform_Version\":\"4.2\"}",
        "fbf3c31506553d99703ba8d8ac9db61f\t{\"Platform_Version\":\"4.3\"}",
        "fbcab0996e6e96a3137da85cd7b27f1e\t[]",
        "fb768be85e33045aed3651f7a3313073\t{\"Browser_Bits\":\"32\",\"Platform\":\"iOS\",\"Platform_Version\":\"8.0\"}",
        "fbee66526a14aad2761f12957efd1fbd\t{\"Browser_Bits\":\"32\",\"Platform\":\"Win8.1\",\"Platform_Version\":\"6.3\",\"Win32\":true}",
        "fbd66eb5a150c1fb568a5f7b5a42c5bc\t{\"Browser_Bits\":\"32\",\"Platform\":\"WinVista\",\"Platform_Version\":\"6.0\",\"Win32\":true}",
        "fbcebb3ddd6a370ad3073ae86a461b73\t{\"Platform_Version\":\"8.4\"}",
        "fb9d05447ad335dcf78ce215469e4b04\t{\"Browser_Bits\":\"32\",\"Platform\":\"Win7\",\"Platform_Version\":\"6.1\",\"Win32\":true}",
        "fb4a2009b090753a22e3712d91a14a72\t{\"Browser_Bits\":\"32\",\"Platform\":\"WinVista\",\"Platform_Version\":\"6.0\",\"Win32\":true}",
        "fbf9c2c16c91b88e8c974507d7de53d0\t{\"Browser_Bits\":\"32\",\"Platform\":\"Android\",\"isMobileDevice\":true}",
        "fb2f24e96077d91d4bf2e00edc6c2871\t{\"Platform\":\"SymbianOS\"}",
        "fb6f3349bf1924c21d16a873c126805c\t{\"Browser_Bits\":\"32\",\"Platform\":\"Win32\",\"Win32\":true}",
        "fb5304238bd48870b723debf438ae31b\t[]",
        "fb1652aa6e19a0d037299438a69447c1\t[]",
        "fbc2eb095db98af2b8a20cbfac9a2fb7\t{\"Platform\":\"Win8\",\"Platform_Version\":\"6.2\",\"Win32\":true}",
        "fbcb204769f35e4d35c1441332f8e1c7\t{\"Platform\":\"WinXP\",\"Platform_Version\":\"5.1\",\"Win32\":true}",
        "fb30ccadf2e33767a133c07bab8c1299\t{\"Platform\":\"Win8\",\"Platform_Version\":\"6.2\",\"Win32\":true}",
        "fb860d70dd37372cfa8f2a6217239e91\t{\"Platform\":\"Win8.1\",\"Platform_Version\":\"6.3\",\"Win32\":true}",
        "fb692df9612ab314dcd0a347686e5fe6\t{\"Platform\":\"WinXP\",\"Platform_Version\":\"5.2\",\"Win32\":true}",
        "fb6ded2e68db5be94541aa6ded184257\t[]",
        "fb95f032d1e1dae405e6107a7c642d94\t{\"Platform_Version\":\"8.4\"}",
        "fbc6db5873c1d803452da08ebbf45fe4\t{\"Platform_Version\":\"8.4\"}",
        "fbf838299952e7c91775ad041eee6ed1\t{\"Platform_Version\":\"4.2\",\"isTablet\":true}",
        "fb4527e120afc8fb352307301f03fd04\t{\"Browser_Bits\":\"32\",\"Platform\":\"iOS\",\"Platform_Version\":\"7.1\"}",
        "fb8773f70182cb9cba3e9506e93dd298\t{\"Platform_Version\":\"4.3\",\"isTablet\":true}",
        "fbeae2827ea3b0473dc4dc091989194e\t{\"Platform_Version\":\"4.3\",\"isTablet\":true}",
        "fbbf0042fecdb15877db82c597981f33\t{\"Platform_Version\":\"4.3\"}",
        "fb65f0a9ce6aa272c61fac228ab5ac0c\t{\"Platform_Version\":\"5.0\",\"isTablet\":true}",
        "fb5e24772d6a3cd6808d97ca814a08de\t{\"Platform_Version\":\"4.2\",\"isTablet\":true}",
        "fb0db5bea9d9b0b3f2fa292106693944\t{\"Browser_Bits\":\"32\",\"Platform\":\"Android\"}",
        "fb5247a6d864d4627420443d5eebc603\t{\"Platform_Version\":\"5.0\"}",
        "fb5b4a7463a1e671b714ffe072223343\t{\"Platform_Version\":\"9.1\"}",
        "fb52a81bf8c24b4b31b66420d398a1a0\t{\"Platform_Version\":\"9.2\"}",
        "fbd3465537e525ba7ca8e6c126788fc9\t{\"Platform_Version\":\"8.4\"}",
        "fbe72926c12db370d8b1fdb4d2ea650d\t{\"Platform_Version\":\"10.3\"}",
        "fbcf358019a9184fe938e84ecf84d5f2\t{\"Platform_Version\":\"4.4\",\"isTablet\":true}",
        "fbae3fc01b964954601cc55979ae557d\t{\"Platform_Version\":\"8.0\"}",
        "fbc14e5a942f713e06c92227ad160235\t{\"Platform_Version\":\"7.0\",\"isTablet\":true}",
        "fb4677300007def272864ce75554a2e0\t{\"Platform_Version\":\"8.3\"}",
        "fbc4bb0a96d47e10920254273fe5cb2e\t[]",
        "fb8bfebe162a2c9204652a4a4a90b702\t{\"Platform_Version\":\"8.4\"}",
        "fb88f9e9957585f71a29547a00b4b7bc\t{\"Platform_Version\":\"10.1\"}",
        "fb9151ec3835f6f89677b3e4d9ef0cdc\t{\"Platform_Version\":\"10.2\"}",
        "fb2727b34430dc70b780fa2ad5df057f\t{\"Browser_Bits\":\"32\",\"Platform\":\"Win10\",\"Platform_Version\":\"10.0\",\"Win32\":true}",
        "fb2ec1abf48aed56b8c30f2fe08ff1b5\t{\"Browser_Bits\":\"32\",\"Platform\":\"MacOSX\",\"Platform_Version\":\"10\"}",
        "fb8dd37b3e859414eed6bbeb3c796d19\t{\"Browser_Bits\":\"32\",\"Platform\":\"Win10\",\"Platform_Version\":\"6.4\",\"Win32\":true}",
        "fb6d45055252e094a0002300390d4917\t{\"Platform_Version\":\"4.2\",\"isTablet\":true}",
        "fba2df164fb3f858d89b6883ca9e9651\t{\"Browser_Bits\":\"32\",\"Platform\":\"WinVista\",\"Platform_Version\":\"6.0\",\"Win32\":true}",
        "fbf367e420ccd6f201da70be496f0046\t{\"Browser_Bits\":\"32\",\"Platform\":\"MacOSX\",\"Platform_Version\":\"10.10\"}",
        "fb2389d49401ed146da37c0d6bf75f48\t{\"Browser_Bits\":\"32\",\"Platform\":\"MacOSX\",\"Platform_Version\":\"10.9\"}",
        "fb97ab41ed0d48b216a9137285872d03\t{\"Platform_Version\":\"4.3\",\"isTablet\":true}",
        "fb399cdfec6125154aa0041bd6a77e67\t{\"Platform_Version\":\"4.2\",\"isTablet\":true}",
        "fb33197f2db5c281cf8d9544e1fe5294\t{\"Browser_Bits\":\"32\",\"Platform\":\"MacOSX\",\"Platform_Version\":\"10\"}",
        "fb751932d92de62f675c245dcc08539e\t{\"Platform_Version\":\"8.4\",\"isTablet\":true}",
        "fb97e2b80ca84b3eb89a95a2112a10a5\t{\"Browser_Bits\":\"32\",\"Platform\":\"Win7\",\"Platform_Version\":\"6.1\",\"Win32\":true}",
        "fb6f4fcb139c08ce3bd3c7ff4af328b7\t{\"Platform_Version\":\"4.4\",\"isTablet\":true}",
        "fb4f1497cdff551573a34183d9ef933e\t{\"Platform_Version\":\"4.4\",\"isTablet\":true}",
        "fb191de7ede92554ba5c90b99ca7cc2f\t{\"Platform_Version\":\"4.2\",\"isTablet\":true}",
        "fbbb8ebec26e97c0e53e0161d5971264\t{\"Platform_Version\":\"4.3\",\"isTablet\":true}",
        "fbb8a40e5f812b0c5e2f6852522cb0b2\t{\"Platform_Version\":\"4.2\",\"isTablet\":true}",
        "fb102a4ec95eee5e69555e88c910c5c8\t{\"Platform_Version\":\"4.2\",\"isTablet\":true}",
        "fbbd108b0c61e8002f97b4be60dfcc78\t{\"Browser_Bits\":\"32\",\"Platform\":\"FreeBSD\"}",
        "fb116c24267cce0ef5f8dbfdd0be9e57\t{\"Platform_Version\":\"7.1\"}",
        "fb3811872679a0c3c9e0ee9ed8fe7114\t{\"Browser_Bits\":\"32\",\"Platform\":\"WinXP\",\"Platform_Version\":\"5.2\",\"Win32\":true}",
        "fb17a402b660540f7112bc908489822f\t{\"Browser_Bits\":\"32\",\"Platform\":\"Win7\",\"Platform_Version\":\"6.1\",\"Win32\":true}",
        "fb8badfdf23d02af361d65562d8dabae\t{\"Browser_Bits\":\"32\",\"Platform\":\"WinXP\",\"Platform_Version\":\"5.1\",\"Win32\":true}",
        "fb62ca0f3684f54b8c1130a1e0682255\t{\"Browser_Bits\":\"32\",\"Platform\":\"Win8\",\"Platform_Version\":\"6.2\",\"Win32\":true}",
        "fb454eac60b31fbb8d8890d2f5d43311\t{\"Browser_Bits\":\"32\",\"Platform\":\"Win8\",\"Platform_Version\":\"6.2\",\"Win32\":true}",
        "fb3d7dc0e7c0a00faf4d79def8a7caf3\t{\"Browser_Bits\":\"32\",\"Platform\":\"MacOSX\",\"Platform_Version\":\"10.10\"}",
        "fb8a20b065a61179e50a6c6c06aa5f2f\t{\"Browser_Bits\":\"32\",\"Platform\":\"WinVista\",\"Platform_Version\":\"6.0\",\"Win32\":true}",
        "fb15c4d3e51518bff53d1c2111beb0e9\t{\"Browser_Bits\":\"32\",\"Platform\":\"Win7\",\"Platform_Version\":\"6.1\",\"Win32\":true}",
        "fb3cc90c96ee2fbe34131155822f5aeb\t{\"Browser_Bits\":\"32\",\"Platform\":\"Win8.1\",\"Platform_Version\":\"6.3\",\"Win32\":true}",
        "fb02afdf3763a91986c93bc98b1ff6d8\t{\"Browser_Bits\":\"32\",\"Platform\":\"Linux\"}",
        "fbf3813765728c4ec4e8f91dfc3ed214\t{\"Browser_Bits\":\"32\",\"Platform\":\"WinVista\",\"Platform_Version\":\"6.0\",\"Win32\":true}",
        "fb100353fab55f38c32468822f6d706f\t{\"Browser_Bits\":\"32\",\"Platform\":\"Linux\"}",
        "fb40c838b3c2490d1a60282cae55c094\t{\"Browser_Bits\":\"32\",\"Platform\":\"WinXP\",\"Platform_Version\":\"5.2\",\"Win32\":true}",
        "fb66df82e14ffdf0093342b7731d266e\t{\"Browser_Bits\":\"32\",\"Platform\":\"MacOSX\",\"Platform_Version\":\"10\"}",
        "fbe1f2c9f3a2ccc08338004dbac6ec57\t{\"Browser_Bits\":\"32\",\"Platform\":\"WinVista\",\"Platform_Version\":\"6.0\",\"Win32\":true}",
        "fb3b718d5b915bcf469744d7cf225454\t{\"Browser_Bits\":\"32\",\"Platform\":\"Win8.1\",\"Platform_Version\":\"6.3\",\"Win32\":true}",
        "fb53940c3e2c17874e2cb5ff82f994c4\t{\"Browser_Bits\":\"32\",\"Platform\":\"SunOS\"}",
        "fb7aa0a6897a8b9f6701557512026921\t{\"Browser_Bits\":\"32\",\"Platform\":\"WinXP\",\"Platform_Version\":\"5.2\",\"Win32\":true}",
        "fbd40b14b2465436cf3769641dae0ff9\t{\"Browser_Bits\":\"32\",\"Platform\":\"Win7\",\"Platform_Version\":\"6.1\",\"Win32\":true}",
        "fb9f1d9e63bae3ad3cf95ff8adc9d715\t{\"Browser_Bits\":\"32\",\"Platform\":\"WinXP\",\"Platform_Version\":\"5.2\",\"Win32\":true}",
        "fbc251b1590cd22657bcd6d78dad4646\t{\"Browser_Bits\":\"32\",\"Platform\":\"FreeBSD\"}",
        "fbfdfda44d684ee16b3885d362324ebe\t{\"Browser_Bits\":\"32\",\"Platform\":\"WinXP\",\"Platform_Version\":\"5.2\",\"Win32\":true}",
        "fbb90387b5d6eeb8d738c754b31dae87\t{\"Browser_Bits\":\"32\",\"Platform\":\"SunOS\"}",
        "fb099a90f6a9b16447185d2f89438d5f\t{\"Browser_Bits\":\"32\",\"Platform\":\"MacOSX\",\"Platform_Version\":\"10\"}",
        "fb8d3c0376db0751ada16782de79f0e0\t{\"Browser_Bits\":\"32\",\"Platform\":\"FreeBSD\"}",
        "fb5528c652f93aa11ac17fe99f1e0a2d\t{\"Browser_Bits\":\"32\",\"Platform\":\"Win8.1\",\"Platform_Version\":\"6.3\",\"Win32\":true}",
        "fbaa5e2426e26c69e1680c48eb84ad08\t{\"Browser_Bits\":\"32\",\"Platform\":\"WinXP\",\"Platform_Version\":\"5.2\",\"Win32\":true}",
        "fbc69596e9f7a151f3eb650828b7f8f2\t{\"Browser_Bits\":\"32\",\"Platform\":\"Win8.1\",\"Platform_Version\":\"6.3\",\"Win32\":true}",
        "fbd39c7d009afe20d9aee666225013a0\t{\"Browser_Bits\":\"32\",\"Platform\":\"WinXP\",\"Platform_Version\":\"5.1\",\"Win32\":true}",
        "fbbec2a3b5a0e83b7e4bbac01bff083e\t{\"Browser_Bits\":\"32\",\"Platform\":\"Win8\",\"Platform_Version\":\"6.2\",\"Win32\":true}",
        "fbfc95820368f009fd03e4889add5a43\t{\"Browser_Bits\":\"32\",\"Platform\":\"WinVista\",\"Platform_Version\":\"6.0\",\"Win32\":true}",
        "fb305f363ef1df583860a094f386973d\t{\"Browser_Bits\":\"32\",\"Platform\":\"iOS\",\"Platform_Version\":\"9.0\"}",
        "fb1a66f496421b51a4576d1f4a38ecfc\t{\"Browser_Bits\":\"32\",\"Platform\":\"WinXP\",\"Platform_Version\":\"5.2\",\"Win32\":true}",
        "fb0cbdb66e55f364b43038bf8372cdb1\t{\"Browser_Bits\":\"32\",\"Platform\":\"Linux\"}",
        "fb8be1ec62f1607012fee70882b78e84\t{\"Browser_Bits\":\"32\",\"Platform\":\"MacOSX\",\"Platform_Version\":\"10.9\"}",
        "fb797db643be8268f61a97ff732205b8\t{\"Browser_Bits\":\"32\",\"Platform\":\"WinVista\",\"Platform_Version\":\"6.0\",\"Win32\":true}",
        "fb5a5219eeb665dd9ed993457659cd13\t{\"Browser_Bits\":\"32\",\"Platform\":\"WinVista\",\"Platform_Version\":\"6.0\",\"Win32\":true}",
        "fbd9cb6cc0cac5a2a951553674efc95f\t{\"Browser_Bits\":\"32\",\"Platform\":\"WinXP\",\"Platform_Version\":\"5.1\",\"Win32\":true}",
        "fb0d69289fad2c6e0ad253eacc985be2\t{\"Platform_Version\":\"6.1\"}",
        "fbaf3d1c705381ea2e78c6baedac61e6\t{\"Browser_Bits\":\"32\",\"Platform\":\"ChromeOS\"}",
        "fbed588917591d96e053d3e09b305d7b\t{\"Browser_Bits\":\"32\",\"Platform\":\"Win7\",\"Platform_Version\":\"6.1\",\"Win32\":true}",
        "fbb024ba39cd6ba5065a4bbfe101bd94\t[]",
        "fb91a189821e5d73de157714162cd896\t{\"isTablet\":true}",
        "fbb5180a559e3dd2e25595d19d37b003\t{\"Platform_Version\":\"4.4\",\"isTablet\":true}",
        "fb380aad8c25552f8061c0c3d338bf99\t{\"Platform_Version\":\"4.4\",\"isTablet\":true}",
        "fb7b2dac29ccbd4544e80ce62c092cf7\t{\"Platform_Version\":\"4.4\"}",
        "fb831ee52bf093b0a3c30e676d53bc97\t{\"isTablet\":true}",
        "fb98dc4ceff40dd63683d49aa54cd87a\t{\"Platform_Version\":\"4.3\",\"isTablet\":true}",
        "fb7675f473cabe956e70839e549cb956\t{\"Platform_Version\":\"4.3\",\"isTablet\":true}",
        "fb376f7ba7041a90ffa2a33ca727844d\t{\"Platform_Version\":\"4.2\",\"isTablet\":true}",
        "fb50df8ea739b11ce4b03d9ff291b02a\t{\"Platform_Version\":\"4.2\",\"isTablet\":true}",
        "fbe66638b582aa3750347882856caa82\t{\"Platform_Version\":\"4.2\",\"isTablet\":true}",
        "fba6ccdc4215b6bde30ef090ce87f0d8\t{\"Platform_Version\":\"4.4\"}",
        "fbfcd5e52feb138642ca75c7f8e69a0c\t{\"isTablet\":true}",
        "fb7e08cbdca6382147684d45b5b3197a\t{\"Platform_Version\":\"4.4\",\"isTablet\":true}",
        "fb76a82654c83e193b5fb68f5bbbd57d\t{\"Platform_Version\":\"4.3\",\"isTablet\":true}",
        "fb7248ad66907e00e8433bff2fe32b96\t{\"Platform_Version\":\"4.2\",\"isTablet\":true}",
        "fb40835d2d1714cb2bd4a2a8567df647\t{\"Platform_Version\":\"7.1\"}",
        "fbda23a253d296ffa3ac43085fe39e53\t{\"Platform_Version\":\"6.0\"}",
        "fbddd985283d644c7f87e46c5328943e\t{\"Platform_Version\":\"10.1\",\"isTablet\":true}",
        "fb1351d8a3779ed841257f6a7f476cf3\t{\"Platform_Version\":\"4.2\",\"isTablet\":true}",
        "fb91084567b5fd20e5dbe72ddeefcb5c\t{\"Platform_Version\":\"4.2\",\"isTablet\":true}",
        "fb3ef7eda4b409ec8d65156504688dd2\t{\"Platform_Version\":\"4.3\",\"isTablet\":true}",
        "fbeb318c7f69c7601558856391f746a6\t{\"Platform_Version\":\"8.0\"}",
        "fb10534f4c14c711a04fbcc824ef51f2\t{\"Platform_Version\":\"4.2\",\"isTablet\":true}",
        "fb04d63338e6f16424e73f9cd77bac17\t{\"Platform_Version\":\"10.1\",\"isTablet\":true}",
        "fb0451cd2f3cc79c43a2e73415ee2a2f\t{\"Platform_Version\":\"9.1\"}",
        "fb4d1cacdba1e9a82fef82f0ce798ebc\t{\"Platform_Version\":\"8.2\"}",
        "fbb9b5eb7f0474c10083c8a9f2b70c14\t{\"Platform_Version\":\"4.4\",\"isTablet\":true}",
        "fb093451a0b538e6eb879ab824f7a1e3\t{\"Platform_Version\":\"4.2\",\"isTablet\":true}",
        "fb96db3fd918b493aae84e79582c2ceb\t{\"Browser_Bits\":\"32\",\"Platform\":\"Win7\",\"Platform_Version\":\"6.1\",\"Win32\":true}",
        "fb54f43668ce8dbefb736c9a5350a663\t{\"Platform_Version\":\"4.2\",\"isTablet\":true}",
        "fbb49ebdfd5c1dfe9539747c6d6fbf29\t{\"Platform_Version\":\"9.2\",\"isTablet\":true}",
        "fb3f7b1ee4e55753d5d9f0e5618197c7\t{\"Platform_Version\":\"4.3\",\"isTablet\":true}",
        "fb16e7f96d7bd56fafea5716a97cbcd4\t{\"Browser_Bits\":\"32\",\"Platform\":\"ChromeOS\"}",
        "fb969eb60383f7df2e2876b8521f26ab\t{\"Browser_Bits\":\"32\",\"Platform\":\"Win7\",\"Platform_Version\":\"6.1\",\"Win32\":true}",
        "fb266be2885c30ed5cf24e039158ceb3\t{\"Platform_Version\":\"4.4\",\"isTablet\":true}",
        "fb2b2c895512118fe73b4806b8a47044\t{\"Platform_Version\":\"4.2\",\"isTablet\":true}",
        "fb802e1d3905cd50c8fb646400f35036\t{\"Platform_Version\":\"4.2\",\"isTablet\":true}",
        "fb84098e2c8a8371582e183fdbd82d5e\t{\"Platform_Version\":\"4.2\",\"isTablet\":true}",
        "fb21cec8b0dd3da181a216868bcb04f4\t{\"Platform_Version\":\"8.3\",\"isTablet\":true}",
        "fb0cb784f578dc177c4ec24e3f55a433\t{\"Platform_Version\":\"4.4\",\"isTablet\":true}",
        "fb48de6d0c7699d0c2c20af68144bf2e\t{\"Platform_Version\":\"4.2\",\"isTablet\":true}",
        "fbbc8943bd726729b02dfd337d7a3040\t{\"Platform_Version\":\"4.3\",\"isTablet\":true}",
        "fb845354eb39b03ba817e7b7569c5f08\t{\"Platform_Version\":\"4.2\",\"isTablet\":true}",
        "fb5f8d66b91590c23e7f4fd9089f1b1e\t{\"Platform_Version\":\"5.0\",\"isTablet\":true}",
        "fbebe63a6cd1f186300d8042b5c2f025\t{\"Platform_Version\":\"4.3\",\"isTablet\":true}",
        "fb1e316c6d73c46a9e3472c2f9110dce\t{\"Platform_Version\":\"10.3\"}",
        "fb1840d7643add1b99abc8fa27fafe08\t{\"Platform_Version\":\"5.0\",\"isTablet\":true}",
        "fbd9cea478def8dccb72edb41c8cb5cc\t{\"Platform_Version\":\"4.2\",\"isTablet\":true}",
        "fb3c52db7f88f6ef3f63a326d51eb6ee\t{\"Browser_Bits\":\"32\",\"Platform\":\"Win8.1\",\"Platform_Version\":\"6.3\",\"Win32\":true}",
        "fb9f014a919d41c2e86c09007068f2c8\t{\"Browser_Bits\":\"32\",\"Platform\":\"WinVista\",\"Platform_Version\":\"6.0\",\"Win32\":true}",
        "fb82612e29f592d4d2e326fe1925dddd\t{\"Platform_Version\":\"4.2\",\"isTablet\":true}",
        "fb408ae7b0358b2007a99570b7a71694\t{\"Platform_Version\":\"8.4\"}",
        "fb1486c2d227e98b6d49c6d11738329a\t{\"Platform_Version\":\"4.3\",\"isTablet\":true}",
        "fb8f42101a3f30d61776019d781cb9cf\t{\"Platform_Version\":\"8.4\",\"isTablet\":true}",
        "fb2ce11941e8f7de1b8a0f14ca215d6e\t{\"Platform_Version\":\"4.4\",\"isTablet\":true}",
        "fb6bd8eed6223d111c0c5357ad175d50\t{\"Platform_Version\":\"4.2\",\"isTablet\":true}",
        "fba10e7e41fbe0925fcb36c7f2230134\t[]",
        "fb412a58365db7a22bc4ab9dec432cbe\t{\"Browser_Bits\":\"32\",\"Platform\":\"WinXP\",\"Platform_Version\":\"5.1\",\"Win32\":true}",
        "fbda3be366be0da5989d94bbe314bc16\t{\"Browser_Bits\":\"32\",\"Platform\":\"OpenBSD\"}",
        "fbaea7bd0adf5e7e50a7e09ee8e2b83e\t{\"Browser_Bits\":\"32\",\"Platform\":\"Win7\",\"Platform_Version\":\"6.1\",\"Win32\":true}",
        "fb1e4a3a884bca83a13dcc94f7e4081c\t{\"Browser_Bits\":\"32\",\"Platform\":\"Win7\",\"Platform_Version\":\"6.1\",\"Win32\":true}",
        "fb1604af9cc8fd0bdba378f64194963b\t{\"Browser_Bits\":\"32\",\"Platform\":\"WinXP\",\"Platform_Version\":\"5.2\",\"Win32\":true}",
        "fb309e4647447de908265ff41fecd305\t{\"Browser_Bits\":\"32\",\"Platform\":\"WinXP\",\"Platform_Version\":\"5.1\",\"Win32\":true}",
        "fb5ca0497cd9e9862c75a4ddd50fda71\t{\"Platform_Version\":\"9.2\"}",
        "fb1ad3b9ac7cafc0e963871a0a1fdb83\t{\"Platform_Version\":\"8.4\"}",
        "fbfb7ab6edd1e8cfdea01fbf16e24d17\t{\"Platform_Version\":\"10.3\"}",
        "fb795745f25d957fe4e974ec8a5f7dbc\t{\"Platform_Version\":\"10.2\",\"isTablet\":true}",
        "fb002827754a57e5eba50be2dfabfe4d\t{\"Platform_Version\":\"9.3\",\"isTablet\":true}",
        "fb199886d58d55355c1c3dc5d76e6332\t{\"Platform_Version\":\"10.1\"}",
        "fb845339b99fb2db684303e1d7ee9921\t{\"Platform_Version\":\"8.4\"}",
        "fb14d6bd30cafb0624d3465575e2fc30\t[]",
        "fb09c18939c1da1a918f613b8aa87a1d\t{\"Platform_Version\":\"10.0\",\"isTablet\":true}",
        "fb7fdd10e9835a7d20d9c9fd2360bedd\t[]",
        "fb3f5bb36f5f4fbe83892dfe35c98475\t[]",
        "fb7edbbcc3df772bc240d05f93a796c3\t{\"Browser_Bits\":\"32\",\"Platform\":\"Win10\",\"Platform_Version\":\"6.4\",\"Win32\":true}",
        "fb1e1880e311bb4f1c8fd67a5ad04e8f\t{\"Browser_Bits\":\"32\",\"Platform\":\"WinVista\",\"Platform_Version\":\"6.0\",\"Win32\":true}",
        "fbf0ed2502025e6ea6f5f60ea2ff0515\t{\"isMobileDevice\":true}",
        "fbd3dc9bb030674487453552f9815494\t{\"Browser_Bits\":\"32\",\"Platform\":\"Android\",\"Platform_Version\":\"4.2\"}",
        "fbee2f7f1024d16f8f70c7926f35de52\t{\"Browser_Bits\":\"32\",\"Platform\":\"Android\",\"Platform_Version\":\"4.4\"}",
        "fb485137e21907597f94655f3c9212f2\t{\"Browser_Bits\":\"32\",\"Platform\":\"iOS\",\"Platform_Version\":\"7.0\"}",
        "fbdff3cf4006427d675bda4197135182\t{\"Browser_Bits\":\"32\",\"Platform\":\"Android\",\"Platform_Version\":\"4.4\"}",
        "fb8dcc45fca9a6676ca4f5ef0d3fb599\t{\"Platform_Version\":\"4.2\"}",
        "fbae76c51012697b226e30f40f8c6e19\t[]",
        "fbe6bdaecdd7f6dd0646d898f4d5de1c\t{\"Platform\":\"Win7\",\"Platform_Version\":\"6.1\",\"Win32\":true}",
        "fb091870a41861b793730441fa17a097\t{\"Platform_Version\":\"7.1\"}",
        "fb9c48510fedb2ecf78438042631a530\t{\"Platform_Version\":\"5.1\"}",
        "fbe16c9721ac456928d61e94e51626c5\t{\"Browser_Bits\":\"32\",\"Platform\":\"iOS\",\"Platform_Version\":\"10.1\",\"isTablet\":true}",
        "fb5f5065d9287e445b7ace851b7891ca\t{\"Browser_Bits\":\"32\",\"Platform\":\"iOS\",\"Platform_Version\":\"9.0\"}",
        "fb3d883a875dd6b625842edfddad4bb3\t{\"Browser_Bits\":\"32\",\"Platform\":\"iOS\",\"Platform_Version\":\"10.3\"}",
        "fbdfa7702d46e0342976faad6a72f3dc\t{\"Browser_Bits\":\"32\",\"Platform\":\"iOS\",\"Platform_Version\":\"7.1\"}",
        "fbdc3e5cf0bbe908b7d93b1dc8ca1067\t{\"Browser_Bits\":\"32\",\"Platform\":\"JAVA\"}",
        "fb025181b6dee657957d9804281932cb\t{\"Browser_Bits\":\"32\",\"Platform\":\"Tizen\"}",
        "fbce585211eb6e81ec6ce953da7f3d91\t{\"Browser_Bits\":\"32\",\"Platform\":\"Linux\"}",
        "fb13afa7888928f4da78fffbea78d21f\t[]",
        "fba1c9c4f2d66abcbd2923ed83a51660\t{\"Platform_Version\":\"10.1\",\"isTablet\":true}",
        "fb8ba0e12fbd3a16bf8c8172301d2427\t{\"Platform_Version\":\"10.0\",\"isTablet\":true}",
        "fb586fbafa3aa6542685b67de28829b8\t{\"Platform_Version\":\"9.1\"}",
        "fbc4a8cdf35982119e336ccc0afd69be\t{\"Platform_Version\":\"9.1\",\"isTablet\":true}",
        "fb47f44cd09d4719d8e124d5d9fd6c63\t{\"Platform_Version\":\"7.1\",\"isTablet\":true}",
        "fba692a1c249bfd05de5def3ecdd26ed\t{\"Platform_Version\":\"9.2\",\"isTablet\":true}",
        "fb0f06537cca75b1a7dbe21557740a36\t{\"Platform_Version\":\"10.0\",\"isTablet\":true}",
        "fb939ab5f04a5027ca6df82bb49e089f\t[]",
        "fb6c77be0436648409179e4c97713408\t{\"Platform_Version\":\"8.0\",\"isTablet\":true}",
        "fb8e3f01061b21321fa7c9b041ed6a2b\t{\"Platform_Version\":\"10.3\"}",
        "fbbc668e73737b53f8ddd23f54ada03b\t{\"Platform_Version\":\"8.3\",\"isTablet\":true}",
        "fb36141597f598806fb2b3c3e5bc7b59\t{\"Platform_Version\":\"9.3\"}",
        "fb80148ee77b354713ea1f567ac24f42\t[]",
        "fbc77073a09dfaee7495784bf5c5cdb0\t{\"Platform_Version\":\"8.0\"}",
        "fb7f3af722a25ebd1ffc1f7a8f76b5d2\t{\"Platform_Version\":\"8.0\",\"isTablet\":true}",
        "fb0d2e70134cca23eef53ec9bf07e11b\t{\"Platform_Version\":\"8.0\"}",
        "fbe40956d2addc7ca6ec3e72f78f4891\t{\"Platform_Version\":\"7.1\"}",
        "fb1593b465ae7acd463cc66280f40dcb\t{\"Platform_Version\":\"7.0\",\"isTablet\":true}",
        "fb65a8bc468034f878227b5707f75c41\t{\"Platform_Version\":\"9.0\",\"isTablet\":true}",
        "fb0d378e87fa054e1776eeb4ca4f2efd\t{\"Platform_Version\":\"9.0\",\"isTablet\":true}",
        "fb2f0b4ae4f914999f9cd9ff1f8d6d23\t[]",
        "fbbe9dbe51499f1b93bce86501a5c832\t{\"Platform_Version\":\"9.3\",\"isTablet\":true}",
        "fbd8a0cdd94669140fef4bbe528d0be2\t[]",
        "fb5d09083176fb4d528bdf01eda0f8fd\t{\"Platform_Version\":\"8.1\",\"isTablet\":true}",
        "fbf3746d052acc8ff05d930016cb9260\t{\"Platform_Version\":\"7.0\"}",
        "fbfe329f28bde81623a5162789e980d3\t{\"Platform_Version\":\"10.2\"}",
        "fb50b19461cc82eef96c36a66ed36c6b\t{\"Platform_Version\":\"4.4\"}",
        "fb387bddc38470256ecd155c0185f7c8\t{\"isTablet\":true}",
        "fb00771e776490317640bc8f1eadc7fc\t{\"Platform_Version\":\"10.1\"}",
        "fb03e27b7c3187a773e71f8da248e2dc\t{\"Platform_Version\":\"5.0\"}",
        "fb97abccd604eb81ab5e193e62c8d63f\t{\"Platform_Version\":\"8.1\"}",
        "fb761d1de6ea1621c30fc8e86b15e1ea\t{\"Platform_Version\":\"8.4\"}",
        "fb6facd618fafc7361c6517881551c21\t{\"Platform_Version\":\"9.3\"}",
        "fb7a787a8232ff9186e43df93943e18b\t{\"Platform_Version\":\"8.2\",\"isTablet\":true}",
        "fb5faaa1481b9c2256c56dd64e151dac\t{\"isTablet\":true}",
        "fb050b486a60c2cb656387264a3eaeaa\t{\"Platform_Version\":\"8.4\"}",
        "fbb8d7e7161b55b33a9aedd6f3c150eb\t{\"Browser_Bits\":\"32\",\"Platform\":\"Linux\"}",
        "fb0e9779eb9b630ad1281c3a1dc03061\t[]",
        "fb876855c2c245722dcaf3a7e9f5e818\t{\"Browser_Bits\":\"32\",\"Platform\":\"FreeBSD\"}",
        "fbd1e4b4ea786f0ccbf07ddcaae54cfc\t{\"Platform_Version\":\"10.9\"}",
        "fbf4831c4edb5b4ecc45eb7abe3380b0\t{\"Browser_Bits\":\"32\",\"Platform\":\"Win32\",\"Win32\":true}",
        "fb77f3809522517d46696ea694e8dde4\t{\"Browser_Bits\":\"32\",\"Platform\":\"Win32\",\"Win32\":true}",
        "fb5e4739df31266295cdc7fd0189cfbc\t{\"Browser_Bits\":\"32\",\"Platform\":\"Win8\",\"Platform_Version\":\"6.2\",\"Win32\":true}",
        "fba135aba271f4f6d77dfbb6d2bc6887\t{\"Browser_Bits\":\"32\",\"Platform\":\"Win7\",\"Platform_Version\":\"6.1\",\"Win32\":true}",
        "fb5e8df0fd0bb4763786f13f14b4ad30\t{\"Browser_Bits\":\"32\",\"Platform\":\"Win32\",\"Win32\":true}",
        "fb08fca23ea7ee9f39d5d9c47b2e6491\t{\"Browser_Bits\":\"32\",\"Platform\":\"WinXP\",\"Platform_Version\":\"5.1\",\"Win32\":true}",
        "fbd430096d151f10f844b7455d992ff6\t{\"Browser_Bits\":\"32\",\"Platform\":\"Win7\",\"Platform_Version\":\"6.1\",\"Win32\":true}",
        "fb3c50873a6c9fe26abb15c3aca8e9b7\t{\"Browser_Bits\":\"32\",\"Platform\":\"Win8\",\"Platform_Version\":\"6.2\",\"Win32\":true}",
        "fb8c354bb11460343b24f62b4e689cbb\t{\"Browser_Bits\":\"32\",\"Platform\":\"Win32\",\"Win32\":true}",
        "fb1a7f893b0f29e7db2f4681e07ff856\t{\"Browser_Bits\":\"32\",\"Platform\":\"WinXP\",\"Platform_Version\":\"5.1\",\"Win32\":true}",
        "fb824f9a8d795a2a0e62287d9a30b3d8\t{\"Browser_Bits\":\"32\",\"Platform\":\"Linux\"}",
        "fb3e0c2c3876e794eabbc5a4ca62d129\t{\"isTablet\":true}",
        "fb519e1f4f9324317ffe7a5676304ad1\t{\"Platform\":\"WinXP\",\"Platform_Version\":\"5.1\"}",
        "fb88015631701d920d4f155cd3f0cd21\t{\"Platform\":\"Darwin\",\"Platform_Version\":\"unknown\"}",
        "fb92dddfcb9acb0cc9a9446d562d8edc\t{\"Platform\":\"WinXP\",\"Platform_Version\":\"5.1\"}",
        "fb97a0d7fd001c5d8e51aa6e91b57749\t{\"Browser_Bits\":\"32\",\"Platform\":\"Win32\",\"Win32\":true}",
        "fb72c0632e0298613cf423ba09198cbd\t{\"Browser_Bits\":\"32\",\"Platform\":\"Win8\",\"Platform_Version\":\"6.2\",\"Win32\":true}",
        "fb6be45ea8eff5f41ed7799221958b65\t{\"Browser_Bits\":\"32\",\"Platform\":\"Win32\",\"Win32\":true}",
        "fbd451bd1712d7b7a0cfab777180957e\t{\"Browser_Bits\":\"32\",\"Platform\":\"MacOSX\",\"Platform_Version\":\"10\"}",
        "fbd1766cb1906409c6fd09e3b62ec761\t{\"Browser_Bits\":\"32\",\"Platform\":\"SunOS\"}",
        "fbf7c2cafa65eee3693aa5ae1a7f266d\t{\"Browser_Bits\":\"32\",\"Platform\":\"FreeBSD\"}",
        "fbe29d626d4d0d375f2ed09989639f08\t{\"Browser_Bits\":\"32\",\"Platform\":\"MacOSX\",\"Platform_Version\":\"10\"}",
        "fb2d4085603221ba726fc76ad54794de\t[]",
        "fb4c114374e2b60fc137bac7daab7c2e\t{\"Browser_Bits\":\"32\",\"Platform\":\"Win8\",\"Platform_Version\":\"6.2\",\"Win32\":true}",
        "fbe350095f08332c06e1b69fac002a3a\t{\"Browser_Bits\":\"32\",\"Platform\":\"Win8\",\"Platform_Version\":\"6.2\",\"Win32\":true}",
        "fbda0edfabbc1a2f02fddffe673b7470\t{\"Browser_Bits\":\"32\",\"Platform\":\"WinXP\",\"Platform_Version\":\"5.1\",\"Win32\":true}",
        "fb1575155a532a0d0d913413a046c264\t{\"Platform_Version\":\"9.0\"}",
        "fbf0353bcb93efbd0b22cbb6f7cb72ce\t{\"Platform_Version\":\"10.1\",\"isTablet\":true}",
        "fbac62c675b1369cf1b94e861aa9542a\t{\"isTablet\":true}",
        "fbb7343ec3d14bce7f4068edf21ed3af\t{\"Browser_Bits\":\"32\",\"Platform\":\"Win8.1\",\"Platform_Version\":\"6.3\",\"Win32\":true}",
        "fbe436b03f8ff0b598cc80f9344124b7\t{\"Browser_Bits\":\"32\",\"Platform\":\"Android\"}",
        "fbf1e2adfa6c4308d4d325cd846a1153\t{\"Platform\":\"WinVista\",\"Platform_Version\":\"6.0\"}",
        "fbed75fb05eaefac889f06491d651645\t[]",
        "fb79b739ae515c317f4109580deefd2e\t{\"Browser_Bits\":\"32\",\"Platform\":\"Win32\",\"Win32\":true}",
        "fbe3d605f6a9659f6d50a74228752339\t{\"Platform_Version\":\"7.0\",\"isTablet\":true}",
        "fb08cc1d90f1f2c556cae0527f211997\t{\"Browser_Bits\":\"32\",\"Platform\":\"MacOSX\",\"Platform_Version\":\"10.10\"}",
        "fbe28ce665311350658d5620f031bcec\t{\"Browser_Bits\":\"32\",\"Platform\":\"MacOSX\",\"Platform_Version\":\"10.10\"}",
        "fb2b3aaf3ace57b6835ff5de0a05dfeb\t{\"Browser_Bits\":\"32\",\"Platform\":\"Win7\",\"Platform_Version\":\"6.1\",\"Win32\":true}",
        "fb9f92786e3865f0b98acddfb171eaf1\t{\"Browser_Bits\":\"32\",\"Platform\":\"FreeBSD\"}",
        "fb3a55b366262d0a98f0c59d04501491\t{\"Browser_Bits\":\"32\",\"Platform\":\"Win8\",\"Platform_Version\":\"6.2\",\"Win32\":true}",
        "fb806d863419e48faa532ff7aa3bc3b3\t{\"Browser_Bits\":\"32\",\"Platform\":\"Linux\"}",
        "fb9f24349c6882e231136ec45c566505\t{\"Browser_Bits\":\"32\",\"Platform\":\"Win10\",\"Platform_Version\":\"6.4\",\"Win32\":true}",
        "fb98a39e13292943598367ee52a437fa\t{\"Browser_Bits\":\"32\",\"Platform\":\"MacOSX\",\"Platform_Version\":\"10.11\"}",
        "fbb312aa3dd2f693a52884ae07bfad4b\t{\"Browser_Bits\":\"64\",\"Platform\":\"IRIX64\"}",
        "fbd6a5113ab0cde75e62661f2978b88d\t{\"Browser_Bits\":\"32\",\"Platform\":\"WinXP\",\"Platform_Version\":\"5.1\",\"Win32\":true}",
        "fbf5a74a61e3665e1588c274e1f9444f\t{\"Browser_Bits\":\"32\",\"Platform\":\"MacOSX\",\"Platform_Version\":\"10.10\"}",
        "fb1d426aa576e59994be2ed3db9fc7a7\t{\"Browser_Bits\":\"32\",\"Platform\":\"NetBSD\"}",
        "fbe09156ea14297dd8d60525019b1471\t{\"Browser_Bits\":\"32\",\"Platform\":\"SunOS\"}",
        "fb5e0db14b602706fe41e49baaf0e25f\t{\"Browser_Bits\":\"64\",\"Platform\":\"IRIX64\"}",
        "fba51bb16d9f63418057d0179b2956a3\t{\"Browser_Bits\":\"32\",\"Platform\":\"HP-UX\"}",
        "fb8e08aa4a353bd9d92fee01aa00f08b\t{\"Browser_Bits\":\"32\",\"Platform\":\"NetBSD\"}",
        "fb2bee81ff6c91f832adb12a57a5110f\t{\"Browser_Bits\":\"32\",\"Platform\":\"FreeBSD\"}",
        "fb048862ea0f1ee96a577e298716849a\t{\"Browser_Bits\":\"32\",\"Platform\":\"WinVista\",\"Platform_Version\":\"6.0\",\"Win32\":true}",
        "fb003e1a80cada5e602e78eb8b497565\t{\"isMobileDevice\":true}",
        "fbb80d8952d883c63ab15a3bfe8303a6\t[]",
        "fba665040187d5c781fb7d99fb0b7370\t[]",
        "fb40a9ef9cb1721cdb10b895fe30028c\t{\"Platform_Version\":\"8.4\"}",
        "fbf5d75c76f961b895c89ed41b5b43dc\t[]",
        "fb7321680a6f6c123ffc38344b27b8a4\t{\"Browser_Bits\":\"32\",\"Platform\":\"WinXP\",\"Platform_Version\":\"5.2\",\"Win32\":true}",
        "fbfcf4a3fa6efd7feea33c548115d74f\t{\"Browser_Bits\":\"32\",\"Platform\":\"MacOSX\",\"Platform_Version\":\"10\"}",
        "fbac80cfe4fae4f09def90b8578217d6\t[]",
        "fbea131985ee37dedb65521fc7cd830b\t[]",
        "fb1c1be3f6b6879135570211abf0d915\t[]",
        "fbd44da66a4c4ebdd54da35f65acf3e7\t[]",
        "fb07cd962560be9d0a26811d207c0fc7\t{\"Platform_Version\":\"9.0\"}"
    ]
}