{
    "content": [
        "121b042c1b0e3bb182cea1d791158161\t34\tphilips\\-sysol[\\d]\\\/[\\d]\\.[\\d][\\d] up\\.browser\\\/[\\d]\\.[\\d].*",
        "123d50ce202de58dfff80efbcd649e1e\t8\tprozilla.*",
        "12482b48f7a33ef622b3964fa1e45eed\t8\troku dvp",
        "1250ae5dbbdb634275f2cc932100a9cd\t8\talexabot",
        "125b262ec4529ccf9b90e76dd6299541\t16\tlibwww\\-perl\\\/[\\d]\\.[\\d][\\d].*",
        "127b8e0b1c8def9c42edc85bafbe187e\t8\tshopwiki",
        "128a2f36943a400fc6f2056d57290c1f\t50\tmobitype .* \\(compatible; mozilla\\\/.*; msie .*\\..*; windows .*\\)",
        "129135696f30ebcba1e326cc0807f215\t39\tamoi\\-h[\\d]\\\/plat\\-emp\\\/wap[\\d]\\.[\\d]\\\/midp[\\d]\\.[\\d]\\\/cldc[\\d]\\.[\\d]",
        "12ad8e6079aadff016d8968894b88fc4\t12\tmsnbot\\-news\\\/.*",
        "12bbd9846d51a4f3239e5f72c150eb07\t9\tbleu [\\d][\\d][\\d]x",
        "12ce0791a17e30f6582b63c65aebfe8e\t16\tsffeedreader\\\/[\\d]\\.[\\d].*",
        "12d057d46dadac3f8d766bec19795ae7\t27\tcowbot\\-.* \\(nhn corp.*naver\\.com\\)",
        "12e93455e54b2a17fd11c8d01e093fb1\t94\trunnk online rss reader \\: http\\:\\\/\\\/www\\.runnk\\.com\\\/ \\: rss favorites \\: rss ranking \\: rss aggregator.*"
    ]
}