{
    "content": [
        "6d2f77c9b3481912848a03b04514ca5d\t28\tyoow\\!\\\/.* \\(.http\\:\\\/\\\/www\\.yoow\\.eu\\)",
        "6d55dbc52c51f7f82fe727360d353aba\t9\tgvfs\\\/[\\d]\\.[\\d][\\d].*",
        "6d644e2193494434857d8751a0ab4869\t54\tnon\\-browser; microsoft office\\\/[\\d][\\d]\\..* \\(.*windows nt [\\d]\\.[\\d].* [\\d][\\d]\\..*\\)",
        "6d66fc91e8c98692b18aa1228939c452\t15\tddg\\-android\\-[\\d]\\.[\\d].*",
        "6da2542c501ce8e467566ae267d66225\t9\tkurio\\\/[\\d]\\.[\\d].*",
        "6dd8709e921878f3948a7137c6288db5\t32\tsagem\\-myc[\\d]\\-[\\d]\\\/[\\d]\\.[\\d] .* up\\.browser\\\/[\\d]\\.[\\d].*",
        "6df7e339ddad49c11a5fb67165d71bc7\t12\twesee\\:search",
        "6dfda3ca6e238fd61623748006a0d8a6\t7\ty\\!j\\-rie.*"
    ]
}