{
    "content": [
        "067dffb2863b803d0fcd006d5d09e1c0\t[]",
        "06f754e1a6bef71949995b887cbf3f7a\t[]",
        "06bb574344ad4670e50ac903ded54829\t[]",
        "06af098b2a6ba5e85feab8ed5b627eb8\t[]",
        "0609f65a9d9e88b8bee8c358f83551fc\t[]",
        "0677d18c1821abe71c819f4b11b0e0f7\t[]",
        "069b0255416d409bbd2481d6ad87551d\t{\"Platform\":\"iOS\",\"Platform_Version\":\"9.3\",\"Win32\":false,\"isMobileDevice\":true,\"isTablet\":true}",
        "0612f22f7be4c60cfa82f74cb85c0e6e\t{\"Platform\":\"Linux\",\"Win32\":false}",
        "06ae026e18a0789b9d4c519878d56017\t{\"Platform\":\"iOS\",\"Platform_Version\":\"10.2\",\"Win32\":false,\"isMobileDevice\":true,\"isTablet\":true}",
        "06cc9aa80392eacb6e5bd92488ce18fd\t{\"Platform_Version\":\"4.3\"}",
        "06116f0b1360e0a8292dcc10a3d39366\t{\"Platform_Version\":\"8.3\",\"isTablet\":true}",
        "06a8a2e84238acdd3a5534e91619a4a4\t{\"Platform_Version\":\"8.1\",\"isTablet\":true}",
        "0624f75eb1fc6ef02709ca3c1060e57f\t{\"Platform\":\"MacOSX\",\"Platform_Version\":\"10\",\"Win32\":false}",
        "06b9d7f440a74d7d98ded5d0124ea1a5\t{\"Browser_Bits\":\"32\",\"Platform\":\"iOS\",\"Platform_Version\":\"9.0\",\"isTablet\":true}",
        "06aae41795f1f5c5204786aae0992384\t{\"Platform_Version\":\"4.4\",\"isTablet\":true}",
        "0659d1fa4d54ec5a0c00c527d42a86ac\t{\"Platform_Version\":\"5.0\"}",
        "066a4773c373be1becfd2d59c2d1c395\t{\"Platform\":\"iOS\",\"Platform_Version\":\"10.2\",\"isTablet\":true}",
        "066e82cd3f7b58f35ce348c35a950fcb\t{\"Platform\":\"iOS\",\"Platform_Version\":\"8.1\"}",
        "06a7ebc3f949786adcb638044ddbdaad\t{\"Browser_Bits\":\"32\",\"Platform\":\"WinXP\",\"Platform_Version\":\"5.2\",\"Win32\":true}",
        "06e210b1b713bd59b063bba50327288e\t{\"Platform_Version\":\"4.3\"}",
        "06d5da0edde10d46fc1d12309c3fa660\t{\"Platform_Version\":\"4.3\"}",
        "0672a7e401d4068d71eb9da6d3061b63\t{\"Platform_Version\":\"4.2\"}",
        "06e7fa23c0b6dc3263ed7e3970d10a9a\t{\"Browser_Bits\":\"32\",\"Platform\":\"Android\",\"isMobileDevice\":true}",
        "06f72e1dc427363cd0b1b3a60034fe1b\t{\"Platform_Version\":\"8.0\"}",
        "062e33cbcfb9e719c65b4da0c9bc004e\t{\"Browser_Bits\":\"32\",\"Platform\":\"Win32\",\"Win32\":true}",
        "068b80003a5172cc77e64e669450218e\t[]",
        "069ecf8cf4b97ba82407cce4cd555d8d\t[]",
        "069c51a50bca7f50bfc0157fd2f4e2ba\t{\"Platform\":\"Win8\",\"Platform_Version\":\"6.2\",\"Win32\":true}",
        "0609742cc467826206125ed72d4ffb80\t{\"Platform\":\"Win7\",\"Platform_Version\":\"6.1\",\"Win32\":true}",
        "0695741d484986d287a79c28547d9c17\t{\"Platform\":\"Win10\",\"Platform_Version\":\"6.4\",\"Win32\":true}",
        "06f3dff9f6f3025e069eadd84d5b0b17\t{\"Platform\":\"WinXP\",\"Platform_Version\":\"5.1\",\"Win32\":true}",
        "067c3cbb9a6b3db52a91825931061e23\t{\"Platform\":\"Win10\",\"Platform_Version\":\"10.0\",\"Win32\":true}",
        "067c42de20d6f1b65c7b4785569631bd\t{\"Platform\":\"Win8\",\"Platform_Version\":\"6.2\",\"Win32\":true}",
        "06f761d233b4c69e2d0e0431d4b43772\t{\"Platform\":\"Win8.1\",\"Platform_Version\":\"6.3\",\"Win32\":true}",
        "06260247489ab9eed51f36b7d3a1ea6f\t{\"Platform\":\"WinVista\",\"Platform_Version\":\"6.0\",\"Win32\":true}",
        "0661285f117b3c801593db9359d468c6\t[]",
        "06d6b51d580587f83f3c18662a10d82e\t{\"Platform\":\"Win10\",\"Platform_Version\":\"10.0\",\"Win32\":true}",
        "060b1c0cbb58dd5c4f252a630f6a8388\t{\"Platform\":\"Win8\",\"Platform_Version\":\"6.2\",\"Win32\":true}",
        "0676afa5742b78a66dab55a8ed75769c\t{\"Platform\":\"WinVista\",\"Platform_Version\":\"6.0\",\"Win32\":true}",
        "06a7f263cdee35af58cd2fe5beb55a9b\t{\"Platform\":\"WinVista\",\"Platform_Version\":\"6.0\",\"Win32\":true}",
        "061bc9e9839f95b5711e2e5aa6cf58c1\t{\"Platform_Version\":\"4.2\",\"isTablet\":true}",
        "06640e79186ec526519edacb06b457e0\t{\"Platform_Version\":\"4.3\",\"isTablet\":true}",
        "066b457e7bfd0e5992f0c8bd04f6b2d2\t{\"Platform_Version\":\"4.2\"}",
        "060f6dddd4c086007d9a82ff6c0c9222\t{\"Platform_Version\":\"4.4\",\"isTablet\":true}",
        "06631581a89205affdead24602fa1765\t{\"Platform_Version\":\"7.0\"}",
        "062eab9e37d5be618bdade26277b6650\t{\"Platform_Version\":\"4.4\",\"isTablet\":true}",
        "06e959021b9478977af318cc810ebc36\t{\"isMobileDevice\":true}",
        "0672b063d91afdc7c687545e4f4aa28a\t{\"Platform_Version\":\"2.4\"}",
        "06f2de1ed3c6df0dcc61e7499fd99c48\t{\"Platform_Version\":\"4.2\",\"isTablet\":true}",
        "0610fbc6ffa03a825d634bc024e31ffe\t{\"Platform_Version\":\"7.0\"}",
        "0690fda75fe548ecb0558b7416e09dde\t{\"Platform_Version\":\"4.4\"}",
        "0689d3e5021bd381a9702eb4232c784c\t{\"Platform_Version\":\"2.2\"}",
        "06bfdcd7d9b45fdf4a792c9f7fce8c92\t{\"Platform_Version\":\"4.2\",\"isTablet\":true}",
        "06b920f9aa3463a731ce6f8d81bcce8c\t{\"Platform_Version\":\"4.2\",\"isTablet\":true}",
        "064f4e174609f3ae274198510fc4a0a8\t{\"Browser_Bits\":\"32\",\"Platform\":\"Android\",\"Platform_Version\":\"7.1\"}",
        "06035586ed3661f0948f4daff257cb94\t{\"Browser_Bits\":\"32\",\"Platform\":\"Android\",\"Platform_Version\":\"4.2\"}",
        "06cd06ecb33de2f6d5445e7a0a71f0ab\t{\"Browser_Bits\":\"32\",\"Platform\":\"Android\",\"Platform_Version\":\"4.4\"}",
        "06668dbbeb99d85aacfb861ed7c56bd7\t{\"Browser_Bits\":\"32\",\"Platform\":\"Android\",\"Platform_Version\":\"5.1\"}",
        "065c1de091e858511fdaaeff3d9bb2e1\t{\"Browser_Bits\":\"32\",\"Platform\":\"Android\",\"Platform_Version\":\"4.3\"}",
        "067f3e2c2a6f2428f201b9d97dc9ce3b\t{\"Platform_Version\":\"6.1\"}",
        "060e0d99c36a804a63f463ba4eb940cd\t{\"Platform_Version\":\"7.1\"}",
        "06622a5571e47f9d757f2a565f2d9d5e\t{\"Platform_Version\":\"10.1\"}",
        "06108533ee8b81e46bf403cca98ccaa3\t{\"Platform_Version\":\"4.4\"}",
        "068ca44a66d89a7076019d892b220704\t{\"Platform_Version\":\"6.1\"}",
        "06e222f6d1d0d795abf5115164ef1623\t{\"Browser_Bits\":\"32\",\"Platform\":\"Win7\",\"Platform_Version\":\"6.1\",\"Win32\":true}",
        "06e30ba33b2010d64d7f113ebf3b4b00\t{\"Platform_Version\":\"8.4\"}",
        "061935c337eb4308adea4ace2ecf7fa8\t{\"Browser_Bits\":\"32\",\"Platform\":\"MacOSX\",\"Platform_Version\":\"10.10\"}",
        "0677e137aac43ad498b32761e1362413\t{\"Platform_Version\":\"4.4\",\"isTablet\":true}",
        "0613ff0003d5f609ff4899affaf3111d\t{\"Platform_Version\":\"10.3\",\"isTablet\":true}",
        "064b37b36f7288a92eeef5cf8f46b8d7\t[]",
        "068dc15055d786106343deceb0ef49c4\t{\"Platform_Version\":\"4.2\",\"isTablet\":true}",
        "061a401a887bd61ddb9466a0dff926d8\t[]",
        "06235bdba38410a04112862400c69eb2\t{\"Browser_Bits\":\"32\",\"Platform\":\"WinXP\",\"Platform_Version\":\"5.2\",\"Win32\":true}",
        "06bd4e3f308fa0ee0f525fd5eef4db27\t{\"Browser_Bits\":\"32\",\"Platform\":\"WinXP\",\"Platform_Version\":\"5.2\",\"Win32\":true}",
        "060ab1347190ba3dc3cb7d60b6c056f2\t{\"Platform_Version\":\"10.0\"}",
        "064f9a77f8e91f9fc6fda6cadb9387a1\t{\"Platform_Version\":\"7.0\",\"isTablet\":true}",
        "068c13dc08a5734525fd7d1b56fdd2e7\t{\"Platform_Version\":\"10.3\"}",
        "06e7675bf5576035079a6f1a63a1b7a7\t{\"Platform_Version\":\"9.0\"}",
        "069de9e0c9ff286e53121e8973388cea\t{\"Platform_Version\":\"4.2\",\"isTablet\":true}",
        "06e4f06e0b0c8ee955931f819c8f796d\t{\"Platform_Version\":\"4.2\",\"isTablet\":true}",
        "0676c388211cc43a38bf01d3e23c99ea\t{\"Platform_Version\":\"4.4\",\"isTablet\":true}",
        "0620dc8ba8cc3d978c6f393c00fdb1d5\t[]",
        "06a00e22ee57306b8b94e3c1054a8219\t{\"Platform_Version\":\"8.4\"}",
        "06f61b7da11a51044984d6c62aafe265\t{\"Platform_Version\":\"7.0\"}",
        "06349050e74386718cbb41660bc14f75\t{\"Platform_Version\":\"4.3\",\"isTablet\":true}",
        "069395c7c65480690f1fca4e6d09bdf2\t{\"Platform_Version\":\"5.0\"}",
        "062a08ae5cc955356f8d35d441e00a4f\t{\"Platform_Version\":\"4.4\",\"isTablet\":true}",
        "0600da39744322b89a10730cc29460fc\t{\"Platform_Version\":\"4.2\",\"isTablet\":true}",
        "0658974b1c738d39e8b39136ded5961b\t{\"Platform_Version\":\"4.2\",\"isTablet\":true}",
        "0686aaa26bc82e2a2d393844db2d66c6\t{\"Platform_Version\":\"6.1\"}",
        "062f4899feafff956e37448428f383ee\t{\"Browser_Bits\":\"32\",\"Platform\":\"SymbianOS\"}",
        "061e03894e089b6208cdb6f8614aea44\t{\"isMobileDevice\":true}",
        "06e2b50666a6edcd101ef04397bf7e8a\t{\"Browser_Bits\":\"32\",\"Platform\":\"FreeBSD\"}",
        "062f61562f62a835384b59fb3e9d4045\t{\"Browser_Bits\":\"32\",\"Platform\":\"Win8.1\",\"Platform_Version\":\"6.3\",\"Win32\":true}",
        "068b551cbd74af8b524af427860b2b90\t{\"Browser_Bits\":\"32\",\"Platform\":\"WinXP\",\"Platform_Version\":\"5.2\",\"Win32\":true}",
        "06be75bbb1ef8d7a5f8d735b6c760406\t{\"Browser_Bits\":\"32\",\"Platform\":\"Win7\",\"Platform_Version\":\"6.1\",\"Win32\":true}",
        "06e401107d0c9ac7501ddefeb278b7ec\t{\"Browser_Bits\":\"32\",\"Platform\":\"Linux\"}",
        "062aace0a50774f5c61cdd046bbf62d2\t{\"Browser_Bits\":\"32\",\"Platform\":\"WinXP\",\"Platform_Version\":\"5.2\",\"Win32\":true}",
        "06119aa056f834b52656888c6a5afcbf\t{\"Browser_Bits\":\"32\",\"Platform\":\"Win8.1\",\"Platform_Version\":\"6.3\",\"Win32\":true}",
        "061ae9d4382653b9bdc39389958f5e7f\t{\"Browser_Bits\":\"32\",\"Platform\":\"MacOSX\",\"Platform_Version\":\"10.9\"}",
        "06c67b66fe0490e2d9e3eba8d4cb899d\t{\"Browser_Bits\":\"32\",\"Platform\":\"MacOSX\",\"Platform_Version\":\"10\"}",
        "0653e22e7e89345660c9ad17155bae10\t{\"Browser_Bits\":\"32\",\"Platform\":\"Win8\",\"Platform_Version\":\"6.2\",\"Win32\":true}",
        "06b66be0b4a8f2d2b4e8da210a690417\t{\"Browser_Bits\":\"32\",\"Platform\":\"WinXP\",\"Platform_Version\":\"5.1\",\"Win32\":true}",
        "066f7f127a78f42ed35e16295bbabf99\t{\"Browser_Bits\":\"32\",\"Platform\":\"WinVista\",\"Platform_Version\":\"6.0\",\"Win32\":true}",
        "0661c9d6d13977c7cb67340a6ee41bea\t{\"Browser_Bits\":\"32\",\"Platform\":\"Linux\"}",
        "0650d657d4d1623fa3f059e95459a1d3\t{\"Browser_Bits\":\"32\",\"Platform\":\"Win8\",\"Platform_Version\":\"6.2\",\"Win32\":true}",
        "06d8e5babbe5adf68a2e8ea3d59a7c86\t{\"Browser_Bits\":\"32\",\"Platform\":\"Linux\"}",
        "0652a2ad9fee631c5cdfc55de339fff6\t[]",
        "0601c47abfb4064c547932456ac132f0\t{\"Browser_Bits\":\"32\",\"Platform\":\"WinVista\",\"Platform_Version\":\"6.0\",\"Win32\":true}",
        "0649cef1343f34cc0c4a820f92e42dda\t{\"Browser_Bits\":\"32\",\"Platform\":\"Win7\",\"Platform_Version\":\"6.1\",\"Win32\":true}",
        "06c68ff02625efcd9dbc4c413d40ab74\t{\"Browser_Bits\":\"32\",\"Platform\":\"Linux\"}",
        "06150ac2600998a0df33d9aa1f364c3e\t{\"Browser_Bits\":\"32\",\"Platform\":\"Win8.1\",\"Platform_Version\":\"6.3\",\"Win32\":true}",
        "061df2878c891891d885d80de55d791b\t{\"Browser_Bits\":\"32\",\"Platform\":\"Win8\",\"Platform_Version\":\"6.2\",\"Win32\":true}",
        "0636b0e21de035fd40e077f9721c3779\t{\"Browser_Bits\":\"32\",\"Platform\":\"WinVista\",\"Platform_Version\":\"6.0\",\"Win32\":true}",
        "06ff22a7474572fe899c15dc026e553a\t{\"Browser_Bits\":\"32\",\"Platform\":\"Win8\",\"Platform_Version\":\"6.2\",\"Win32\":true}",
        "061010a81f4b836a90355a8bda339ea1\t{\"Browser_Bits\":\"32\",\"Platform\":\"Win7\",\"Platform_Version\":\"6.1\",\"Win32\":true}",
        "06c02aa4c70538686d5bd7448f2491ae\t{\"Browser_Bits\":\"32\",\"Platform\":\"MacOSX\",\"Platform_Version\":\"10.10\"}",
        "066560eadd1c394f410fbf81b3483f73\t{\"Browser_Bits\":\"32\",\"Platform\":\"SunOS\"}",
        "068b732f2f65f6698a454ff878fadb21\t{\"Browser_Bits\":\"32\",\"Platform\":\"WinXP\",\"Platform_Version\":\"5.2\",\"Win32\":true}",
        "06dc2007e5c01607d7d9a3846ed5077e\t{\"Browser_Bits\":\"32\",\"Platform\":\"Win8.1\",\"Platform_Version\":\"6.3\",\"Win32\":true}",
        "06f4c7730671e6e11a87754212c48851\t{\"Browser_Bits\":\"32\",\"Platform\":\"WinVista\",\"Platform_Version\":\"6.0\",\"Win32\":true}",
        "061d0eeab7bcb7d4772302ec2ff2f8ec\t{\"Browser_Bits\":\"32\",\"Platform\":\"WinXP\",\"Platform_Version\":\"5.1\",\"Win32\":true}",
        "06bc509df142131b477b8d058dcb32fa\t{\"Browser_Bits\":\"32\",\"Platform\":\"SunOS\"}",
        "06f62b7625f13b630e0444074a44c9ab\t{\"Browser_Bits\":\"32\",\"Platform\":\"SunOS\"}",
        "06f105e1815c20cf2cd174caf68d59c8\t{\"Browser_Bits\":\"32\",\"Platform\":\"MacOSX\",\"Platform_Version\":\"10.10\"}",
        "066e474ec5df22a80c257c1d628f089f\t{\"Browser_Bits\":\"32\",\"Platform\":\"Linux\"}",
        "06c456864d97c897b57e21d229beafe6\t{\"Browser_Bits\":\"32\",\"Platform\":\"Linux\"}",
        "06094906c8335f721cf81e2317f6f84c\t{\"Browser_Bits\":\"32\",\"Platform\":\"iOS\",\"Platform_Version\":\"9.2\"}",
        "062dc2a9847fe387dc118b3f0bbf642e\t{\"Browser_Bits\":\"32\",\"Platform\":\"WinVista\",\"Platform_Version\":\"6.0\",\"Win32\":true}",
        "06318eb8f3367fb24ec81b41cbe0eb47\t{\"Browser_Bits\":\"32\",\"Platform\":\"MacOSX\",\"Platform_Version\":\"10\"}",
        "06a4f90e32cc799f9fd88f588f951b73\t{\"Browser_Bits\":\"32\",\"Platform\":\"MacOSX\",\"Platform_Version\":\"10\"}",
        "06d880753b89bdba83185181ccd6604d\t{\"Browser_Bits\":\"32\",\"Platform\":\"WinXP\",\"Platform_Version\":\"5.1\",\"Win32\":true}",
        "069fc86cd4d72d59649b7b10f10b9614\t{\"Browser_Bits\":\"32\",\"Platform\":\"WinXP\",\"Platform_Version\":\"5.2\",\"Win32\":true}",
        "06c9f6152a32a833df0c8741311de497\t{\"Browser_Bits\":\"32\",\"Platform\":\"MacOSX\",\"Platform_Version\":\"10.9\"}",
        "068c78f0bad233cd74057d886e5b676b\t{\"Browser_Bits\":\"32\",\"Platform\":\"Win8.1\",\"Platform_Version\":\"6.3\",\"Win32\":true}",
        "0686c979bd1ae0bc3f25e8d518fa023b\t{\"Platform_Version\":\"8.4\"}",
        "060408161259affefe5eac4f54e39dba\t{\"Browser_Bits\":\"32\",\"Platform\":\"ChromeOS\"}",
        "063c0fe1f65a1465f50be87eeeacf10a\t{\"Browser_Bits\":\"32\",\"Platform\":\"MacOSX\",\"Platform_Version\":\"10.9\"}",
        "06cacc92b49a4e7d2a2eef1b3c72e35f\t{\"isTablet\":true}",
        "06c0aab81d72f3c3ee395b115fe47439\t{\"Platform_Version\":\"4.4\",\"isTablet\":true}",
        "06219880a3656e4cb99b7d91d40e442c\t{\"isTablet\":true}",
        "060d1c96928d636525202248f1823b21\t{\"isTablet\":true}",
        "06e22aa78835db9170eaf03138a9bddc\t{\"isTablet\":true}",
        "06839a9182da5b48aa34026f2e57d8e5\t{\"isTablet\":true}",
        "06fe15c9a3a6333dee44a7cdf6bc454b\t{\"Browser_Bits\":\"32\",\"Platform\":\"Win32\",\"Win32\":true}",
        "06f177fea5a738e40eb4d069c4a1382d\t{\"Platform_Version\":\"4.2\",\"isTablet\":true}",
        "06d845c7f82bf1ca053a0cf478c61035\t{\"Platform_Version\":\"4.4\",\"isTablet\":true}",
        "061c18610a2ec8f0f25a2d2c6745a568\t{\"Platform_Version\":\"4.3\",\"isTablet\":true}",
        "069913741d24ec64265ff8c90f7f0280\t{\"Platform_Version\":\"4.2\",\"isTablet\":true}",
        "06c7b843c257917249ef4165a2999e8a\t[]",
        "0676c3ea4cd595bb78b77bf959cc3922\t{\"Browser_Bits\":\"32\",\"Platform\":\"Linux\"}",
        "0614182d44dfe70c4b322040aae55958\t{\"Platform_Version\":\"4.4\",\"isTablet\":true}",
        "066ecd18fb55cd379c72f517fa89f1dd\t{\"Platform_Version\":\"4.4\",\"isTablet\":true}",
        "062904b5237402e0cdee8a72cbb414f4\t{\"Platform_Version\":\"4.4\",\"isTablet\":true}",
        "06692bd3d97749f870c375f85352e0c0\t{\"Platform_Version\":\"4.3\",\"isTablet\":true}",
        "069b01eb618c1a915f8e90f04c3cfeb5\t{\"Platform_Version\":\"4.2\",\"isTablet\":true}",
        "06391528f7f314dd704263b14bd7a453\t{\"Platform_Version\":\"10.2\"}",
        "06ab6d87fcc68f4165ff03621d1e977c\t{\"Platform_Version\":\"4.2\",\"isTablet\":true}",
        "06bd6329bb9d02423efdc3e9c93daf74\t{\"Platform_Version\":\"4.4\",\"isTablet\":true}",
        "06b0adc685ed3b2ab749c09589daddec\t{\"Platform_Version\":\"6.0\"}",
        "0672cc528d1cf752d5567b023e79817f\t{\"Platform_Version\":\"4.2\",\"isTablet\":true}",
        "06d316626ac0c60037d2e07cd34a0495\t{\"Platform_Version\":\"4.4\",\"isTablet\":true}",
        "06b2f50b13aaa237706d7d64f97d2990\t{\"Platform_Version\":\"4.4\",\"isTablet\":true}",
        "06fe75b5122de524c488efac8e9aa7a8\t{\"Platform_Version\":\"4.4\",\"isTablet\":true}",
        "062aff2f68282a5a949f7c41e91edba0\t{\"Platform_Version\":\"4.2\",\"isTablet\":true}",
        "063b33fd82eb02e3964667df65ff12fd\t{\"Platform_Version\":\"4.2\",\"isTablet\":true}",
        "06e5937e690fb1bf57cb410afdfd5f51\t{\"Platform_Version\":\"4.2\",\"isTablet\":true}",
        "06596f8dd76435c6c2e6b9df037571d0\t{\"Platform_Version\":\"4.3\",\"isTablet\":true}",
        "06ee36e84dfa3ba3193511b204e070ba\t{\"Platform_Version\":\"4.2\",\"isTablet\":true}",
        "067b23f8907bbe04334383710ce8f375\t{\"Platform_Version\":\"5.0\",\"isTablet\":true}",
        "0632c1be8d16526af68dc259d5cd9119\t{\"Platform_Version\":\"8.2\",\"isTablet\":true}",
        "06f2035915e9ca696dfcf167b05dce0f\t{\"Platform_Version\":\"4.2\",\"isTablet\":true}",
        "06e2422268edff181bb594e37e442234\t{\"Platform_Version\":\"4.4\",\"isTablet\":true}",
        "066a53b0e6b7591765c0b8ff36671f8a\t{\"Browser_Bits\":\"32\",\"Platform\":\"MacOSX\",\"Platform_Version\":\"10.11\"}",
        "06caf948f843ff998fbc9e47c065fd4b\t{\"Platform_Version\":\"4.2\",\"isTablet\":true}",
        "069562f3e1982d85d8491464566cd0d7\t{\"Platform_Version\":\"8.2\"}",
        "06570e9b894955b089cb7dd3f89605da\t{\"Platform_Version\":\"4.2\",\"isTablet\":true}",
        "068ed8e7fd7c7ca2234a10ca5a7e50ad\t{\"Platform_Version\":\"4.3\",\"isTablet\":true}",
        "06af20ff6650c84c12959dc6c5c610b4\t{\"Platform_Version\":\"10.0\",\"isTablet\":true}",
        "066ea3821a63f8b18ae16e2809b152ce\t{\"Platform_Version\":\"9.0\"}",
        "06a212c441f60399e87435f0612ad624\t{\"Platform_Version\":\"4.4\",\"isTablet\":true}",
        "06bbec2b64dad2ac7a3888fa05446b80\t{\"Platform_Version\":\"4.3\",\"isTablet\":true}",
        "062b5c36c7b8482166f431e0784eff98\t{\"Platform_Version\":\"4.3\",\"isTablet\":true}",
        "0627b63f1cfc3a7b6c2caeff73d673cf\t{\"Platform_Version\":\"4.2\",\"isTablet\":true}",
        "065b0a5f57d3b12a94901220a50a33cd\t{\"Browser_Bits\":\"32\",\"Platform\":\"Win8.1\",\"Platform_Version\":\"6.3\",\"Win32\":true}",
        "0661953d296688612816bf3973e76457\t{\"Platform_Version\":\"4.4\",\"isTablet\":true}",
        "06a7afe69de1f4e54267aa3e800131fa\t{\"Platform_Version\":\"4.2\",\"isTablet\":true}",
        "065b8cde9db6d8317feccb044ab8d27a\t{\"Platform_Version\":\"9.3\"}",
        "0639d2769f97ed83fe434be42a6955ec\t{\"Platform_Version\":\"4.4\",\"isTablet\":true}",
        "068ce4ed18e7e76f8da794b7bd6a79f0\t{\"Platform_Version\":\"4.3\",\"isTablet\":true}",
        "06ce7a15894cfbb89d72c6838a4097ad\t{\"Platform_Version\":\"4.3\",\"isTablet\":true}",
        "06893220201b3945a48139d657668b17\t{\"Platform_Version\":\"4.3\",\"isTablet\":true}",
        "06a196322dbd401016e017c50f356bf8\t{\"Platform_Version\":\"4.2\",\"isTablet\":true}",
        "06538dc0d0dbefc778d543300e1ae9e6\t[]",
        "06e649fc5fc170cdab910ab76d91dc7f\t{\"Platform_Version\":\"4.3\",\"isTablet\":true}",
        "066a8cdbc4b731fe962ec62bd7da3c5f\t{\"Platform_Version\":\"4.3\",\"isTablet\":true}",
        "064d6daaeee8042f8b1bd8fed19d5dba\t{\"Platform_Version\":\"4.2\",\"isTablet\":true}",
        "06a3467978ffd590a2a49146727a4ef7\t{\"Platform_Version\":\"5.1\"}",
        "067825d840476412bb172cc6fe138c95\t{\"Platform_Version\":\"10.1\"}",
        "0617ebb8b168cd8f2fdf8381014eb0d6\t{\"Platform_Version\":\"4.4\",\"isTablet\":true}",
        "06e6902f95e105aad78d47eba7f477e2\t{\"Platform_Version\":\"4.2\",\"isTablet\":true}",
        "066c7a9d648371d7f4c4081ffa6bd097\t{\"Browser_Bits\":\"32\",\"Platform\":\"Win32\",\"Win32\":true}",
        "0688f21e79df46d956e122978df753fd\t{\"Platform_Version\":\"8.0\"}",
        "062dbae200545fc29d815e68bfb4a30f\t{\"Browser_Bits\":\"32\",\"Platform\":\"Win7\",\"Platform_Version\":\"6.1\",\"Win32\":true}",
        "06f3ac441b31d3865fd80bd76ed330a8\t{\"Browser_Bits\":\"32\",\"Platform\":\"WinVista\",\"Platform_Version\":\"6.0\",\"Win32\":true}",
        "066247246d8ead432189dc5d8e514746\t{\"Platform_Version\":\"8.1\"}",
        "0640c322e098724cd9c90add34046aa0\t{\"Browser_Bits\":\"32\",\"Platform\":\"iOS\",\"isMobileDevice\":true}",
        "06c8687121974ea8cc4bcb3541f405ed\t{\"Platform_Version\":\"8.4\"}",
        "06ff0955459358ff7b7d78f233134467\t{\"Platform_Version\":\"10.1\"}",
        "06f1793e62c8eca756715963138a2427\t{\"Browser_Bits\":\"32\",\"Platform\":\"MeeGo\"}",
        "0653bc7b37650eed2a38b562728906e5\t{\"Browser_Bits\":\"32\",\"Platform\":\"MeeGo\",\"isMobileDevice\":false}",
        "068614511be627d0c74b83f1ca307d50\t{\"Browser_Bits\":\"32\",\"Platform\":\"Linux\"}",
        "065d7e5fadc8c06b71731afe68f4de70\t[]",
        "0665aec587d273572dc969689cec85a0\t{\"Browser_Bits\":\"32\",\"Platform\":\"Win32\",\"Win32\":true}",
        "0697a9a6b21ee0b294cb9e57cdebd7bc\t[]",
        "068fd9b24844f00576bcaf39e2d3953b\t[]",
        "0610f56e6c47a8ff0cb392a8c4eaaaf2\t[]",
        "06d0254f22bb0baba4f8276bb863aa64\t[]",
        "06929c37c68565e10349e946cecbcc38\t[]",
        "06c8dd735125fce027b16a91a4a92f87\t[]",
        "0648c1ef8f674c8421e997c650f7765f\t{\"Browser_Bits\":\"32\",\"Platform\":\"iOS\"}",
        "0693ca8fa2f3aeb1531f068a9178872d\t{\"Browser_Bits\":\"32\",\"Platform\":\"iOS\",\"Platform_Version\":\"7.1\"}",
        "06438f36c4f8c2367bd999ce0617adf9\t{\"Platform\":\"Win7\",\"Platform_Version\":\"6.1\",\"Win32\":true}",
        "065fcbe0215222823dd588b3ec261c7a\t{\"Browser_Bits\":\"32\",\"Platform\":\"MacOSX\",\"Platform_Version\":\"10\"}",
        "067709b7c77946ad2196360ca8caf209\t{\"Browser_Bits\":\"32\",\"Platform\":\"Linux\"}",
        "06cce70733cf2a5ae564721fc5d63e0e\t{\"Platform_Version\":\"4.2\",\"isTablet\":true}",
        "06067c1cf2f8b3df2f236cdbf7e9626f\t{\"Browser_Bits\":\"32\",\"Platform\":\"iOS\",\"Platform_Version\":\"10.2\",\"isTablet\":true}",
        "0672fc5fefae19b15b538b8c9229bf8c\t{\"Browser_Bits\":\"32\",\"Platform\":\"SunOS\"}",
        "06115645cad0f76826b1ed080f3ed28f\t{\"Platform_Version\":\"10.0\"}",
        "06a3ad764e2a6e9760ea2f233942d0e8\t{\"Platform_Version\":\"7.1\"}",
        "0693b3b9f0b45e78e1a34c89fd1e2468\t{\"Platform_Version\":\"9.1\"}",
        "063c294b9261698bdb69de822361762e\t{\"Platform_Version\":\"9.0\"}",
        "062ee84c48e2e6b2fb87f23a0fa67149\t{\"Platform_Version\":\"8.2\"}",
        "064f6977117afe5f8c7da76e4d0ff4a2\t{\"Platform_Version\":\"9.3\",\"isTablet\":true}",
        "0663a9afdc5b062fd9bd5e06a1ebbcef\t{\"Platform_Version\":\"10.2\",\"isTablet\":true}",
        "06d6bb7194b2c9a48b0ceef8856678ec\t{\"Platform_Version\":\"8.1\"}",
        "0608002060c5faf3aff9fce505f346d5\t{\"Platform_Version\":\"10.1\"}",
        "060f8e9e0903351bd372267c788ac242\t{\"Platform_Version\":\"10.0\"}",
        "06476cc7a2b867f5ba275df6865c64d8\t{\"Platform_Version\":\"8.4\",\"isTablet\":true}",
        "06cc782e6a20d0d79da28e4918eefdf6\t{\"Platform_Version\":\"9.0\"}",
        "06e3dad783a98494f494f4b5d8222bb2\t{\"Platform_Version\":\"7.0\"}",
        "06a215492d626f0cdb0e0c7d63e04e58\t{\"Platform_Version\":\"8.1\",\"isTablet\":true}",
        "0602bf3afdff543a6870dcf223e20d55\t{\"Platform_Version\":\"7.1\",\"isTablet\":true}",
        "061a3d88a7ec1853fca632fdf11d8daf\t{\"Platform_Version\":\"7.1\"}",
        "061961540233772a5f03227af79437e9\t{\"isTablet\":true}",
        "062178928271cfe5f687416d2980a487\t{\"Platform_Version\":\"10.1\"}",
        "0635200aa408732ace3b64b6b8a2565a\t{\"Platform_Version\":\"8.1\",\"isTablet\":true}",
        "0628ab422c0e1407eb62905ba95e0bfb\t{\"Platform_Version\":\"9.0\"}",
        "0693dde69617ae5b63cc02cdf1a6eded\t{\"Platform_Version\":\"9.0\"}",
        "0696ae4fd64a2d998499bb3733f41644\t{\"Platform_Version\":\"8.2\",\"isTablet\":true}",
        "06d1aef1df5471d7d256cd238c6c04f1\t{\"Platform_Version\":\"10.0\"}",
        "063d3d75a7e1e2b52d4b1981a218f036\t{\"Browser_Bits\":\"32\",\"Platform\":\"iOS\",\"isMobileDevice\":true}",
        "06fd0defd34e378e2d20cb050e8371d5\t{\"Platform_Version\":\"7.1\",\"isTablet\":true}",
        "06a43433ec8a90e2978b9dd530f52f30\t[]",
        "06da2492a31571e0bc98899bc77af6b3\t{\"Browser_Bits\":\"32\",\"Platform\":\"MacOSX\",\"Platform_Version\":\"10.9\"}",
        "067a56e28d17107d3a63a1fdfd2a9947\t{\"Browser_Bits\":\"32\",\"Platform\":\"MacOSX\",\"Platform_Version\":\"10.10\"}",
        "06416e6f4408f6c47b80b43b1bc8ff3f\t{\"Browser_Bits\":\"32\",\"Platform\":\"MacOSX\",\"Platform_Version\":\"10\"}",
        "0629052ec375e3115df7e17bfe03649f\t{\"Platform_Version\":\"9.0\"}",
        "068e563d9f79be83114fcfc197667163\t{\"Platform_Version\":\"9.2\"}",
        "0618f44b9402a550d65f82e0d4081dcf\t{\"Platform_Version\":\"9.3\"}",
        "06c2b1767e661f1c921735890432e258\t{\"Platform_Version\":\"7.0\"}",
        "067cd5d0b4e7bd251d0e296eaf5a9d3e\t{\"Platform_Version\":\"8.0\"}",
        "06a813af72ff0c06557c5f493f2999d3\t{\"Platform_Version\":\"9.1\"}",
        "06654ee062dc153848ba232d49ab46fe\t{\"isTablet\":true}",
        "0657d52b135b1f576214f35281653d41\t{\"Platform_Version\":\"8.2\",\"isTablet\":true}",
        "06a29934bd8421b8c2980165de6dad74\t{\"Platform_Version\":\"8.3\"}",
        "06c49f354b54c69fc79ecd2b8a55e637\t{\"Platform_Version\":\"8.0\"}",
        "06bbe4994638be7a6c0fc37ec4518ee9\t[]",
        "06f9552878a3a0f3788dc28eaba2e067\t{\"Platform_Version\":\"10.1\"}",
        "0630712715c9aeaa0466b02ff9b979ae\t{\"isTablet\":true}",
        "06aeabeac574869cf109947cbf45d6eb\t{\"Platform_Version\":\"7.1\"}",
        "06a2489af67759ca42f041f0347cb039\t{\"Platform_Version\":\"8.1\"}",
        "06eb025afdcf9bd66138abb0cb207fe7\t{\"Platform_Version\":\"7.0\"}",
        "0655bc7eae405c6000e64a5d32047c15\t{\"Browser_Bits\":\"32\",\"Platform\":\"HP-UX\"}",
        "062c2b98bbbbbed4dcd0dcb12a8b92bd\t{\"Browser_Bits\":\"32\",\"Platform\":\"NetBSD\"}",
        "06fbb4bddd3bd6ca83709edff7246f06\t[]",
        "0667b208c933146cdac2dc16a65986ec\t{\"Platform\":\"Win8\",\"Platform_Version\":\"6.2\",\"Win32\":true}",
        "062a6e06e7c6fdf8b8b9f5f3f8bf53cf\t{\"Browser_Bits\":\"32\",\"Platform\":\"FreeBSD\"}",
        "06a711cfa73926a58699fd902996ba5d\t{\"Browser_Bits\":\"32\",\"Platform\":\"Win8\",\"Platform_Version\":\"6.2\",\"Win32\":true}",
        "06f709fd2d280eec3085144720d40afe\t{\"Browser_Bits\":\"32\",\"Platform\":\"Win32\",\"Win32\":true}",
        "06808e35956d7c96e71cea13c07d7320\t{\"Browser_Bits\":\"32\",\"Platform\":\"Win8\",\"Platform_Version\":\"6.2\",\"Win32\":true}",
        "0665328088ff0d03d67af30083aadf75\t{\"Browser_Bits\":\"32\",\"Platform\":\"Win7\",\"Platform_Version\":\"6.1\",\"Win32\":true}",
        "068bbbe7f6e2665825c7253aa0637abd\t{\"Browser_Bits\":\"32\",\"Platform\":\"WinXP\",\"Platform_Version\":\"5.1\",\"Win32\":true}",
        "0666eca1f886fd260d0731142b907ef3\t{\"Browser_Bits\":\"32\",\"Platform\":\"Win32\",\"Win32\":true}",
        "0637dcbcf47185d9dad70d377cbc95e6\t{\"Browser_Bits\":\"32\",\"Platform\":\"Win7\",\"Platform_Version\":\"6.1\",\"Win32\":true}",
        "063f9e9daa99b969b75f97824ace2148\t{\"Browser_Bits\":\"32\",\"Platform\":\"Win7\",\"Platform_Version\":\"6.1\",\"Win32\":true}",
        "06b0369ec31b1b65c9416c13085c2644\t{\"Browser_Bits\":\"32\",\"Platform\":\"MacOSX\",\"Platform_Version\":\"10.10\"}",
        "0637841459df6be8a1debd4312423fee\t[]",
        "0665cb6f9e2bc9dd03ea1dd0722da0cd\t{\"Platform\":\"WinVista\",\"Platform_Version\":\"6.0\"}",
        "067dfaacd2953aa16c928d3a1a5273fb\t{\"Platform\":\"Win7\",\"Platform_Version\":\"6.1\"}",
        "0643a7abdac35dc3c1835389109c3093\t{\"Browser_Bits\":\"32\",\"Platform\":\"Win8.1\",\"Platform_Version\":\"6.3\",\"Win32\":true}",
        "064fd73bc37b80e8af8f1d76078e7717\t{\"Browser_Bits\":\"32\",\"Platform\":\"WinXP\",\"Platform_Version\":\"5.1\",\"Win32\":true}",
        "06425c52815b25b32e3305e0ccfca22d\t{\"Browser_Bits\":\"32\",\"Platform\":\"Win10\",\"Platform_Version\":\"10.0\",\"Win32\":true}",
        "061f9b53e18ecb280ecf86a0c443c693\t{\"Browser_Bits\":\"32\",\"Platform\":\"WinXP\",\"Platform_Version\":\"5.2\",\"Win32\":true}",
        "0648dc72e1b083ad9fc8c9e4c20396d2\t{\"Browser_Bits\":\"32\",\"Platform\":\"Win10\",\"Platform_Version\":\"10.0\",\"Win32\":true}",
        "069a229a95b7e90af630d7b70551e76a\t{\"Browser_Bits\":\"32\",\"Platform\":\"WinXP\",\"Platform_Version\":\"5.1\",\"Win32\":true}",
        "06762da232374232b89c605e633994ce\t{\"Browser_Bits\":\"32\",\"Platform\":\"Win7\",\"Platform_Version\":\"6.1\",\"Win32\":true}",
        "0628091d55274b7968d696b2b7b869aa\t[]",
        "0694cb5f828c93a52ed2d3b75e9a207f\t{\"Browser_Bits\":\"32\",\"Platform\":\"MacOSX\",\"Platform_Version\":\"10\"}",
        "065792a6f79408afaac4cd2a133fd058\t{\"Browser_Bits\":\"32\",\"Platform\":\"Win7\",\"Platform_Version\":\"6.1\",\"Win32\":true}",
        "069345b8b3d6aaf32e14dcc72e32301b\t{\"Browser_Bits\":\"32\",\"Platform\":\"Linux\"}",
        "06b3582915c243bc38dd6c607b98403b\t{\"Browser_Bits\":\"32\",\"Platform\":\"WinVista\",\"Platform_Version\":\"6.0\",\"Win32\":true}",
        "06ea332220d7e27d837123e3660841c6\t{\"Platform_Version\":\"10.2\",\"isTablet\":true}",
        "06c15673d0736c6a1d0e46c0e6ff5965\t{\"Platform_Version\":\"9.1\",\"isTablet\":true}",
        "068673187e171020d3a2f662cd1f2a54\t{\"Platform_Version\":\"9.0\"}",
        "069bf43cc64cdde7579f54aa819d6ada\t{\"Browser_Bits\":\"32\",\"Platform\":\"WinVista\",\"Platform_Version\":\"6.0\",\"Win32\":true}",
        "06ff03c28e862540f32af3b62a0d8050\t{\"Browser_Bits\":\"32\",\"Platform\":\"WinVista\",\"Platform_Version\":\"6.0\",\"Win32\":true}",
        "06d02d7310487debfed9e85f274c87fa\t{\"Browser_Bits\":\"32\",\"Platform\":\"WinXP\",\"Platform_Version\":\"5.1\",\"Win32\":true}",
        "06a428de992fb8f9acdce07335563392\t{\"Browser_Bits\":\"32\",\"Platform\":\"Android\",\"isTablet\":true}",
        "06e499fd4d483593707c769122ce8f6b\t{\"Browser_Bits\":\"32\",\"Platform\":\"Linux\"}",
        "060538d37c5e9223f5beb3a01802c599\t{\"Browser_Bits\":\"32\",\"Platform\":\"WinVista\",\"Platform_Version\":\"6.0\",\"Win32\":true}",
        "069d31d470d4a40bfa585e04ed8d3e65\t[]",
        "065c82c7ef492a870670b223ac27a7f3\t{\"Browser_Bits\":\"32\",\"Platform\":\"Linux\"}",
        "0671ed0184d90b88f40742425faa56f2\t{\"Browser_Bits\":\"32\",\"Platform\":\"MacOSX\",\"Platform_Version\":\"10\"}",
        "060c4e5be3d696a62037f5e58afb1645\t{\"Browser_Bits\":\"32\",\"Platform\":\"SunOS\"}",
        "06f621ce62d098a5882086cfca002bba\t{\"Browser_Bits\":\"32\",\"Platform\":\"Win8\",\"Platform_Version\":\"6.2\",\"Win32\":true}",
        "06287b178b794337e39aa6e8e98aac6b\t{\"Browser_Bits\":\"32\",\"Platform\":\"WinXP\",\"Platform_Version\":\"5.1\",\"Win32\":true}",
        "065f90b8dc567ea52c35dd09f3001da5\t{\"Platform_Version\":\"4.3\",\"isTablet\":true}",
        "06455f1c20389aeacd11882cb5bbddf1\t[]",
        "067b8759c9be2f4f48619cf0ffab75ec\t{\"Platform_Version\":\"4.3\"}",
        "0646e45d77c68bafcd10913e39f2448c\t[]",
        "068578b86a9ddd9bf0607488afe005db\t{\"Platform_Version\":\"4.3\",\"isTablet\":true}",
        "06cca0f0518c7d4e36b9a600ecaad00a\t{\"Browser_Bits\":\"32\",\"Platform\":\"NetBSD\"}",
        "066905c2fb48066f1527e9c5aef1d750\t{\"Browser_Bits\":\"32\",\"Platform\":\"Linux\"}",
        "0625599d7cc9464a6acbbfedd3bfaf20\t{\"Browser_Bits\":\"32\",\"Platform\":\"MacOSX\",\"Platform_Version\":\"10.11\"}",
        "060c387084ae15435971099b749f0b5f\t{\"Browser_Bits\":\"32\",\"Platform\":\"HP-UX\"}",
        "06626c28e15d924d43b29f5722f623c8\t{\"Browser_Bits\":\"64\",\"Platform\":\"IRIX64\"}",
        "069fc8a2d2b881ed27e63fb155c5661c\t{\"Browser_Bits\":\"32\",\"Platform\":\"Linux\"}",
        "0606dedee180be904729e5bbd1b3bb3e\t{\"Browser_Bits\":\"32\",\"Platform\":\"Win10\",\"Platform_Version\":\"6.4\",\"Win32\":true}",
        "06fb9e84fa761765f227f328f7aa1c86\t{\"Browser_Bits\":\"32\",\"Platform\":\"Win10\",\"Platform_Version\":\"10.0\",\"Win32\":true}",
        "063f20ecb533df52310234fa7e7f6509\t{\"Browser_Bits\":\"32\",\"Platform\":\"macOS\",\"Platform_Version\":\"10.12\"}",
        "06335c6ffed48a25be285dad006ea30c\t{\"Browser_Bits\":\"32\",\"Platform\":\"MacOSX\",\"Platform_Version\":\"10.9\"}",
        "06c2664e2be8adbd5b441a0cd0e9fc95\t{\"Browser_Bits\":\"32\",\"Platform\":\"WinVista\",\"Platform_Version\":\"6.0\",\"Win32\":true}",
        "066b004eb3631cdc3e1ec30ed7303298\t{\"Browser_Bits\":\"32\",\"Platform\":\"FreeBSD\"}",
        "068c3ed3b8edc3d26737973e02b158d7\t{\"Browser_Bits\":\"32\",\"Platform\":\"Win8\",\"Platform_Version\":\"6.2\",\"Win32\":true}",
        "06dc66954edf9d232c0f307847bbb74c\t{\"Browser_Bits\":\"32\",\"Platform\":\"Win10\",\"Platform_Version\":\"6.4\",\"Win32\":true}",
        "0694d2dfe958da8b27a5fa468fc868f1\t{\"Browser_Bits\":\"32\",\"Platform\":\"WinVista\",\"Platform_Version\":\"6.0\",\"Win32\":true}",
        "06c14682e78256d6370877659511b12e\t{\"Browser_Bits\":\"32\",\"Platform\":\"WinVista\",\"Platform_Version\":\"6.0\",\"Win32\":true}",
        "06c1711bb0263a8888574dcfe060e37b\t{\"Browser_Bits\":\"32\",\"Platform\":\"MacOSX\",\"Platform_Version\":\"10\"}",
        "065aea129f50b1aa9233c3ac5a9ec2f0\t{\"Browser_Bits\":\"32\",\"Platform\":\"FreeBSD\"}",
        "06ed4929b05665c6e5f09ad4d285f683\t{\"Browser_Bits\":\"32\",\"Platform\":\"FreeBSD\"}",
        "06bf93b46c0d7f13fd28dad79a3b15e1\t{\"Browser_Bits\":\"32\",\"Platform\":\"WinVista\",\"Platform_Version\":\"6.0\",\"Win32\":true}",
        "064e465e696cb6ffc80161f615924533\t{\"Browser_Bits\":\"32\",\"Platform\":\"MacOSX\",\"Platform_Version\":\"10.9\"}",
        "06eaeec2a6dcbf3cba87c9f532910916\t[]",
        "069b0113e66543aa406e240051089edb\t{\"Browser_Bits\":\"32\",\"Platform\":\"NetBSD\"}",
        "06a6092244488c4d47e511878248573d\t[]",
        "06f9cf14c917a576cfdb1e5a7b223211\t{\"Browser_Bits\":\"32\",\"Platform\":\"Darwin\"}",
        "0613dd84232fb3dbb032217adfb54b93\t{\"Browser_Bits\":\"32\",\"Platform\":\"Win10\",\"Platform_Version\":\"6.4\",\"Win32\":true}",
        "067780aec3b017e48679fa3ebb315ae3\t{\"Platform\":\"Win8.1\",\"Platform_Version\":\"6.3\",\"Win32\":true}",
        "06c3dfc647a5150e031e06de7062af2d\t{\"Browser_Bits\":\"32\",\"Platform\":\"MacOSX\",\"Platform_Version\":\"10.9\"}",
        "06a2b5abdfb36d75f09def2484c4505e\t{\"Browser_Bits\":\"32\",\"Platform\":\"iOS\",\"isMobileDevice\":true}",
        "06a610e1a049248b8cc1226faff9d9fe\t{\"Platform_Version\":\"4.4\"}",
        "06e861cb5aa161a7a7fd3ad91f77968f\t{\"Platform_Version\":\"7.1\"}",
        "06d3a465668aa9fa48a868e89823bde0\t{\"Platform_Version\":\"8.0\"}",
        "06a912a2c402e637bc208ffb288b0fb6\t[]",
        "067eb142aadc1806a74f7a618ec2975c\t[]",
        "0673951d9a765eb5fbcfebf9198baa52\t[]",
        "062eafb5f84fc8f7402dd272653b1986\t{\"Browser_Bits\":\"32\",\"Platform\":\"iOS\",\"isMobileDevice\":true}",
        "06d94b15b609e32365a60245f53cae1b\t[]",
        "06e4a91ed16037c63f5eb88e90df9a14\t{\"Browser_Bits\":\"32\",\"Platform\":\"MacOSX\",\"Platform_Version\":\"10\"}"
    ]
}