{
    "content": [
        "c07ca6fc0ac913314747867eda508b5c\t{\"Browser_Bits\":\"32\",\"Platform\":\"WinXP\",\"Platform_Version\":\"5.2\",\"Win32\":true}",
        "c0d161c3faa83a27e332fad73ed0df83\t{\"Browser_Bits\":\"32\",\"Platform\":\"Win8.1\",\"Platform_Version\":\"6.3\",\"Win32\":true}",
        "c0a011332bdd4288c18aaa949cffdaf6\t[]",
        "c0ba0a0f2114aa828548a0d623e1f530\t[]",
        "c05c4223ea768ef87fc276e4033cfd27\t[]",
        "c09417058dd2859308776c27948c619a\t[]",
        "c037e2e7f8dea1d8cc11a06477b6b985\t[]",
        "c05ef8c2a3940e08b83d59c065dec02d\t[]",
        "c044b1aac21e747cd580022a770fe2dd\t{\"Browser_Bits\":\"32\",\"Platform\":\"MacOSX\",\"Platform_Version\":\"10\"}",
        "c0442db85c6c4d672ffe3cd07204c809\t[]",
        "c053eaa3468818977b3be29103d585b3\t[]",
        "c0efed2b7790fc76fc3d3e2ee0663f56\t[]",
        "c0022268df6c1dd4ad8f01afb8f4d88f\t[]",
        "c006345a2a3e8160370a76f744d6e753\t[]",
        "c011f00f89be43fbedcebc0a8f170679\t[]",
        "c087ba7ae344ebbfb37ce075116be172\t[]",
        "c03f0f094de258db3a0743ff920e3a34\t{\"Platform\":\"iOS\",\"Platform_Version\":\"9.1\",\"Win32\":false,\"isMobileDevice\":true,\"isTablet\":true}",
        "c086c34ebe152effd46268fadc54f5ac\t{\"Platform\":\"iOS\",\"Win32\":false,\"isMobileDevice\":true,\"isTablet\":true}",
        "c09f49b1c0ebd0bdec0b89416d4d3e96\t{\"Platform\":\"Win10\",\"Platform_Version\":\"10.0\"}",
        "c01e21444ab8a633451b5d96e04568c1\t{\"Platform\":\"MacOSX\",\"Platform_Version\":\"10\",\"Win32\":false}",
        "c00dbc697b95509002098d863322c13e\t{\"Platform\":\"iOS\",\"Platform_Version\":\"10.0\",\"Win32\":false,\"isMobileDevice\":true,\"isTablet\":true}",
        "c000bfea87391be04146286bee099b39\t{\"Platform\":\"iOS\",\"Win32\":false,\"isMobileDevice\":true,\"isTablet\":true}",
        "c07eee3595fc8960de45a9e5cc15c0aa\t{\"Platform\":\"Win8\",\"Platform_Version\":\"6.2\"}",
        "c038ea9607ec43ccf5959751bd6b8bdd\t{\"Platform\":\"iOS\",\"Platform_Version\":\"8.0\",\"Win32\":false,\"isMobileDevice\":true,\"isTablet\":true}",
        "c08f5e95912a042f953bd46b2cfe70f4\t{\"Platform\":\"iOS\",\"Platform_Version\":\"10.1\",\"Win32\":false,\"isMobileDevice\":true,\"isTablet\":true}",
        "c063113cfe653dc2a14dc08921e74285\t{\"Platform\":\"iOS\",\"Platform_Version\":\"10.0\",\"Win32\":false,\"isMobileDevice\":true,\"isTablet\":true}",
        "c05aae61667df15999f13d06ce783b1b\t{\"Platform\":\"iOS\",\"Win32\":false,\"isMobileDevice\":true,\"isTablet\":true}",
        "c06fbcd0b393472276ff460cf8e40b00\t{\"Browser_Bits\":\"32\",\"Platform\":\"Win10\",\"Platform_Version\":\"6.4\",\"Win32\":true}",
        "c058ce5dcd9c85ce03e9d1d4096fd0e7\t{\"Platform_Version\":\"4.2\"}",
        "c047380c3d763b03491957f0441a45d9\t{\"Platform_Version\":\"9.3\"}",
        "c0c026811b62564d2075135e1526727b\t{\"Browser_Bits\":\"32\",\"Platform\":\"Android\",\"Platform_Version\":\"4.3\",\"isTablet\":true}",
        "c017622144f51049d9d047ca421f3298\t{\"Browser_Bits\":\"32\",\"Platform\":\"iOS\",\"Platform_Version\":\"8.1\"}",
        "c0df7cef3bc35f41be7ea08fbdb39947\t{\"Platform\":\"iOS\",\"Platform_Version\":\"10.1\"}",
        "c0c954672d2fe828dd6e2170a90f5577\t{\"Browser_Bits\":\"32\",\"Platform\":\"Win7\",\"Platform_Version\":\"6.1\",\"Win32\":true}",
        "c08be4bf8c23dd7c82e15ba8d7eae568\t{\"Platform\":\"iOS\",\"Platform_Version\":\"9.3\",\"isTablet\":true}",
        "c002ae4d2cc469b3eb716903ce56d2dd\t{\"Platform\":\"iOS\",\"Platform_Version\":\"10.1\"}",
        "c015f43bc7f1166cc496cc07e7a4ace7\t{\"Platform\":\"iOS\",\"Platform_Version\":\"10.2\",\"isTablet\":true}",
        "c0d5d74fc21c938f7e826413f15c9a87\t{\"Platform\":\"iOS\",\"Platform_Version\":\"10.1\"}",
        "c0a8832d6d21a8318163219faddd33f6\t{\"Platform\":\"iOS\",\"Platform_Version\":\"10.3\"}",
        "c087f9d264afd991538ecf69da214a12\t{\"Platform\":\"iOS\",\"Platform_Version\":\"9.3\",\"isTablet\":true}",
        "c0f3ac22d0352d3246b3970872d420d7\t{\"Platform\":\"iOS\",\"Platform_Version\":\"9.3\"}",
        "c020ae9f476d704566f1cc8d1074f4ec\t{\"Platform_Version\":\"4.2\"}",
        "c05cb8e2e6875501b56d05ae84861236\t{\"Platform_Version\":\"4.3\"}",
        "c0767597bf8574ad312f52c61a57bd89\t{\"Platform_Version\":\"4.3\"}",
        "c0f678eba47220177c758480b14d14e4\t[]",
        "c05698582c4b9261d7b14eba8ee70307\t{\"Platform_Version\":\"4.3\"}",
        "c0db852636ba444470246a4addfb4b26\t{\"Platform_Version\":\"8.2\",\"isTablet\":true}",
        "c085d23cdca0147c599eb8c8bed0474a\t{\"Browser_Bits\":\"32\",\"Platform\":\"Android\",\"isMobileDevice\":true}",
        "c048e28264605876860ffcdd7f494514\t{\"Platform_Version\":\"5.1\"}",
        "c0da590cba10a6a95a64b225159924bf\t{\"Platform_Version\":\"4.4\"}",
        "c0169f3a3712089bd041f06d209a6b47\t{\"Browser_Bits\":\"32\",\"Platform\":\"Win32\",\"Win32\":true}",
        "c0c8505d9dfe951adcac2891768c32b2\t{\"Platform\":\"WinVista\",\"Platform_Version\":\"6.0\"}",
        "c0c3f5a6d81f0cf7b47c0c6c2a43071b\t{\"Platform\":\"WinXP\",\"Platform_Version\":\"5.2\",\"Win32\":true}",
        "c0285880f225f451d01bc85e06789f5b\t{\"Platform\":\"Win10\",\"Platform_Version\":\"10.0\",\"Win32\":true}",
        "c0b9eef147877c9e4c0c7faa76b1d0fa\t{\"Platform\":\"WinXP\",\"Platform_Version\":\"5.1\",\"Win32\":true}",
        "c0e2f9b77d5ba1a8a1e97c64a971fdff\t{\"Platform\":\"Win10\",\"Platform_Version\":\"10.0\",\"Win32\":true}",
        "c088754620149e32d96a5ed760f565d8\t{\"Platform\":\"Win8\",\"Platform_Version\":\"6.2\",\"Win32\":true}",
        "c088edc82e7c1a1320cb6e10cfb82a47\t{\"Platform\":\"Win8.1\",\"Platform_Version\":\"6.3\",\"Win32\":true}",
        "c0352cf16e91dd63af0a74d20cbf7227\t[]",
        "c05e7451b92206b4283e45fb2d0945cb\t{\"Platform_Version\":\"4.4\",\"isTablet\":true}",
        "c06c35537e0be9a74845187d6b088cd1\t{\"Platform_Version\":\"4.2\",\"isTablet\":true}",
        "c01757321005ec6ecec5ce6e7670d4d8\t{\"Platform_Version\":\"7.0\"}",
        "c0500daa23eac2d129be287d7642299f\t{\"Platform_Version\":\"4.2\",\"isTablet\":true}",
        "c08bcc5e469b3f3d46dc6bfdc5176e15\t[]",
        "c0686f7c57bbe9ab4517258da6b5d7b5\t{\"Platform_Version\":\"4.2\",\"isTablet\":true}",
        "c00eff66da1735c8076b26477addb474\t{\"Platform_Version\":\"7.0\",\"isTablet\":true}",
        "c0379dff353e426ca4a5f432587501fc\t{\"Platform_Version\":\"5.1\",\"isTablet\":true}",
        "c031017b22a86cb868c5e2b64c5cf77b\t{\"Platform_Version\":\"4.3\",\"isTablet\":true}",
        "c03403e38fdc1bd49c45d28df4477168\t{\"Platform_Version\":\"4.4\",\"isTablet\":true}",
        "c09a7ca6600abecda49b95efd776dac8\t{\"Platform_Version\":\"4.2\",\"isTablet\":true}",
        "c0dd122fe064b2c3880ff335d5d1cdc7\t{\"Platform_Version\":\"4.2\",\"isTablet\":true}",
        "c0ef6c9e0e1b84060c56a341df92f64e\t{\"Browser_Bits\":\"32\",\"Platform\":\"iOS\",\"isMobileDevice\":true}",
        "c0e5d2908a6a66d233329981e6ac2ad6\t{\"Browser_Bits\":\"32\",\"Platform\":\"Android\",\"Platform_Version\":\"4.2\"}",
        "c066098182f3f7f0190755999f10c39e\t{\"Browser_Bits\":\"32\",\"Platform\":\"Android\"}",
        "c09785b2df7e2ef7af281331cc4360ba\t{\"isMobileDevice\":true}",
        "c00637bbba9b0c37889664557e143d62\t{\"Platform_Version\":\"7.1\",\"isTablet\":true}",
        "c0bf07e8e2a89d5bde2ba3be67abba3f\t{\"Platform_Version\":\"4.2\",\"isTablet\":true}",
        "c08cc914921bbbf6aeb55bda442dc90c\t{\"isTablet\":true}",
        "c02eabf21abb80a9e6d75c86a5bdabfb\t{\"Platform_Version\":\"4.4\",\"isTablet\":true}",
        "c0aff5406ea79affe1a4214063b516c7\t{\"Platform_Version\":\"7.0\",\"isTablet\":true}",
        "c0e9ddf777b5e22ed42e335ce1aebced\t{\"Platform_Version\":\"4.2\",\"isTablet\":true}",
        "c06e6d9a7745724859f912204eb5e1af\t{\"Platform_Version\":\"10.2\"}",
        "c04b0d0a8620c25c3c30c3039c540222\t{\"Platform_Version\":\"8.3\"}",
        "c04a1eab882fb892be114f5743d658bc\t{\"Platform_Version\":\"4.4\",\"isTablet\":true}",
        "c05af0d9588087e729f871e785083fbf\t{\"Platform_Version\":\"4.3\"}",
        "c0b049966a8ffbc1a87bdc722035c359\t{\"Platform_Version\":\"5.1\"}",
        "c019c113bc6eab5c14e1e92a52e4416f\t{\"Platform_Version\":\"6.0\"}",
        "c057af31851e02475601adb6a0b64a47\t{\"Platform_Version\":\"4.2\",\"isTablet\":true}",
        "c0b9c8c4c4f8d027942b8fa98efd41d3\t{\"Platform_Version\":\"9.3\"}",
        "c0401072f032cce74beb59dcee345fdf\t{\"Platform_Version\":\"4.3\"}",
        "c09e7c92d34b93f6877bceed3c6dc5fa\t{\"Platform_Version\":\"4.2\",\"isTablet\":true}",
        "c0d42b0b2eb52bd58ebbc8d12bcb2ad5\t{\"Browser_Bits\":\"32\",\"Platform\":\"Android\",\"isMobileDevice\":true}",
        "c05929d997e4f096720b73cedab2ffe5\t{\"Platform_Version\":\"5.0\",\"isTablet\":true}",
        "c035982b6f23074099d4d5acbb25c0ff\t{\"Platform_Version\":\"4.4\",\"isTablet\":true}",
        "c034e7407ddfc1aac51fa3de755b6239\t{\"Browser_Bits\":\"32\",\"Platform\":\"WinVista\",\"Platform_Version\":\"6.0\",\"Win32\":true}",
        "c09d2572fb63cf07d22bd25ed40ba852\t{\"Platform_Version\":\"9.2\"}",
        "c07244f519fddc9abe137f0e6eae0833\t{\"Platform_Version\":\"8.4\"}",
        "c0ee02f0e4455634c2d96a166e64612c\t{\"Platform_Version\":\"4.2\",\"isTablet\":true}",
        "c060364ecf46c65db62a8a774f548421\t{\"Platform_Version\":\"4.2\",\"isTablet\":true}",
        "c087a4cb1340efdf3fa6dbb5be6e73b2\t{\"Platform_Version\":\"4.3\",\"isTablet\":true}",
        "c036f201f94d5645aea60c24a74ae736\t{\"Platform_Version\":\"6.0\"}",
        "c0b36447e78464d367a4fa9408b61472\t{\"Platform_Version\":\"4.4\",\"isTablet\":true}",
        "c0095f3c96c335cc871e2ce5d5321ccd\t{\"Platform_Version\":\"4.4\",\"isTablet\":true}",
        "c010bb6b5f82119facffd8a86ade22b6\t{\"Platform_Version\":\"4.2\"}",
        "c06ba4d04b847df485d8ce13c904cb2c\t{\"Platform_Version\":\"4.4\",\"isTablet\":true}",
        "c0fa7a2ef88e09d3c1c5c2af790ca172\t{\"Platform_Version\":\"4.2\",\"isTablet\":true}",
        "c087ba8a3745eac1205a50a96db1afbb\t{\"Browser_Bits\":\"32\",\"Platform\":\"Win8.1\",\"Platform_Version\":\"6.3\",\"Win32\":true}",
        "c088d95bd6d3d5bda55f3389a3fb0db0\t{\"Browser_Bits\":\"32\",\"Platform\":\"Linux\"}",
        "c0499224b24bd22e0097c38ee24d92b5\t{\"Browser_Bits\":\"32\",\"Platform\":\"FreeBSD\"}",
        "c0929351a486c7cf809aadc9c58c169e\t{\"Browser_Bits\":\"32\",\"Platform\":\"MacOSX\",\"Platform_Version\":\"10\"}",
        "c08ce6c37df10a7f6556a5009b48553c\t{\"Browser_Bits\":\"32\",\"Platform\":\"WinVista\",\"Platform_Version\":\"6.0\",\"Win32\":true}",
        "c02823d69859bcda19c8dc7f05ffbc98\t{\"Browser_Bits\":\"32\",\"Platform\":\"Win8.1\",\"Platform_Version\":\"6.3\",\"Win32\":true}",
        "c0c7ac95b0dc07bfa629d0acad59ab41\t{\"Browser_Bits\":\"32\",\"Platform\":\"FreeBSD\"}",
        "c0b94ef9cc99278218ad3f875b19d4bb\t{\"Browser_Bits\":\"32\",\"Platform\":\"Win8\",\"Platform_Version\":\"6.2\",\"Win32\":true}",
        "c01094fa6fd2846cfcd04d87cc29f291\t{\"Browser_Bits\":\"32\",\"Platform\":\"FreeBSD\"}",
        "c07e307669caada8f72969be9cd9ab09\t{\"Browser_Bits\":\"32\",\"Platform\":\"Win7\",\"Platform_Version\":\"6.1\",\"Win32\":true}",
        "c0188738eb1104aa07d433e6b6ca10b3\t{\"Browser_Bits\":\"32\",\"Platform\":\"Win8.1\",\"Platform_Version\":\"6.3\",\"Win32\":true}",
        "c0a8244ddb066ca0f95702e8fbe4b75e\t{\"Browser_Bits\":\"32\",\"Platform\":\"MacOSX\",\"Platform_Version\":\"10.10\"}",
        "c0bb1ac5067578678cf24f3114ba7f4d\t{\"Browser_Bits\":\"32\",\"Platform\":\"MacOSX\",\"Platform_Version\":\"10.10\"}",
        "c0aed6ec9967a3ec6ff532d86e34effc\t{\"Browser_Bits\":\"32\",\"Platform\":\"Win7\",\"Platform_Version\":\"6.1\",\"Win32\":true}",
        "c05b68cbfb121489a247b8d520d24318\t{\"Browser_Bits\":\"32\",\"Platform\":\"MacOSX\",\"Platform_Version\":\"10\"}",
        "c0643f642e0de741ca18e66ed2f2fbb7\t{\"Browser_Bits\":\"32\",\"Platform\":\"Win7\",\"Platform_Version\":\"6.1\",\"Win32\":true}",
        "c007f10a2d5d0b2cca8121223e5db8c6\t{\"Browser_Bits\":\"32\",\"Platform\":\"MacOSX\",\"Platform_Version\":\"10.10\"}",
        "c0eec864e4958b6cfa5a6bd15cda740b\t{\"Browser_Bits\":\"32\",\"Platform\":\"Win8.1\",\"Platform_Version\":\"6.3\",\"Win32\":true}",
        "c05613916e2e1a64618581b8797e1209\t{\"Browser_Bits\":\"32\",\"Platform\":\"SunOS\"}",
        "c09aba4707529426422fd607adea465d\t{\"Browser_Bits\":\"32\",\"Platform\":\"Win7\",\"Platform_Version\":\"6.1\",\"Win32\":true}",
        "c04761d04507ce32414d6dd3989b46d0\t{\"Browser_Bits\":\"32\",\"Platform\":\"Win7\",\"Platform_Version\":\"6.1\",\"Win32\":true}",
        "c00862bf75073358f77b479193634213\t{\"Browser_Bits\":\"32\",\"Platform\":\"Linux\"}",
        "c0c47968267f19fdaab84f948699e69e\t{\"Browser_Bits\":\"32\",\"Platform\":\"WinXP\",\"Platform_Version\":\"5.1\",\"Win32\":true}",
        "c003fd71bc04de8c359b1bc376d36c2b\t{\"Browser_Bits\":\"32\",\"Platform\":\"FreeBSD\"}",
        "c0cde97bc1e6bf40198afa27d96e2678\t{\"Browser_Bits\":\"32\",\"Platform\":\"Win7\",\"Platform_Version\":\"6.1\",\"Win32\":true}",
        "c0ec3e77feca5dd22c0856e104f33a94\t{\"Browser_Bits\":\"32\",\"Platform\":\"MacOSX\",\"Platform_Version\":\"10\"}",
        "c0992e26617df23f45e9f8a8dd57b96e\t{\"Browser_Bits\":\"32\",\"Platform\":\"WinXP\",\"Platform_Version\":\"5.2\",\"Win32\":true}",
        "c0ac127a9ab42e840cc2790f8b9b518b\t{\"Browser_Bits\":\"32\",\"Platform\":\"SunOS\"}",
        "c03575c24d7a5a46fe41e3cb82c687d2\t{\"Browser_Bits\":\"32\",\"Platform\":\"Win8.1\",\"Platform_Version\":\"6.3\",\"Win32\":true}",
        "c0403a65568eec04a7f1ad35d0b46e74\t{\"Browser_Bits\":\"32\",\"Platform\":\"WinXP\",\"Platform_Version\":\"5.1\",\"Win32\":true}",
        "c0896344bd95d34b382e1b8db2df2285\t{\"Browser_Bits\":\"32\",\"Platform\":\"MacOSX\",\"Platform_Version\":\"10.9\"}",
        "c06addab67ca89e6f6af1aa1cd8741dd\t{\"Browser_Bits\":\"32\",\"Platform\":\"WinXP\",\"Platform_Version\":\"5.2\",\"Win32\":true}",
        "c0f1a7d6ba9060c314f2e5d62b082da2\t{\"Browser_Bits\":\"32\",\"Platform\":\"FreeBSD\"}",
        "c09cf5957ff48f4b9972a447d1ac8eb9\t{\"Browser_Bits\":\"32\",\"Platform\":\"Android\"}",
        "c086ff8707d731c68faf40df84c0ac40\t{\"Browser_Bits\":\"32\",\"Platform\":\"iOS\",\"Platform_Version\":\"9.1\",\"isTablet\":true}",
        "c0b6fb21b387eb8110cfae9014804f0c\t{\"Browser_Bits\":\"32\",\"Platform\":\"Android\",\"Platform_Version\":\"4.3\"}",
        "c0166d30a523d8287c310b02334f2c8a\t{\"Browser_Bits\":\"32\",\"Platform\":\"WinVista\",\"Platform_Version\":\"6.0\",\"Win32\":true}",
        "c0ec509c5fbca5b37a04b5646c9cb3b0\t{\"Browser_Bits\":\"32\",\"Platform\":\"Linux\"}",
        "c037a9d5f10960253706be15acda6b50\t{\"Browser_Bits\":\"32\",\"Platform\":\"Win7\",\"Platform_Version\":\"6.1\",\"Win32\":true}",
        "c061cd7ef03f97f5ec42067de15003a5\t{\"Browser_Bits\":\"32\",\"Platform\":\"Win7\",\"Platform_Version\":\"6.1\",\"Win32\":true}",
        "c00805e158973e4af8c1a79a89385d52\t{\"Browser_Bits\":\"32\",\"Platform\":\"Linux\"}",
        "c0c0a2aa09dc8bcec80cf356860a82de\t{\"Browser_Bits\":\"32\",\"Platform\":\"Win8.1\",\"Platform_Version\":\"6.3\",\"Win32\":true}",
        "c00307e5aa6a1561fd8a092ed0e83ef0\t{\"Browser_Bits\":\"32\",\"Platform\":\"WinXP\",\"Platform_Version\":\"5.2\",\"Win32\":true}",
        "c060784a46c7dc9f7e93d2dba8736514\t{\"Browser_Bits\":\"32\",\"Platform\":\"iOS\",\"isMobileDevice\":true}",
        "c009f79083b759edf1162280a692efd3\t{\"isTablet\":true}",
        "c027063f3a766ab010410f9674cc7e8f\t{\"Platform_Version\":\"4.2\",\"isTablet\":true}",
        "c05baaf81a0e0b9a425af0a96f40d6c7\t{\"Platform_Version\":\"4.2\"}",
        "c0a44bee326fbb317e989d1ad7c7ffaf\t{\"isTablet\":true}",
        "c02f667c571191a843e51a2883fe942a\t{\"isTablet\":true}",
        "c0b377ba99961405ddf5c49f6bbbd30c\t[]",
        "c059733379bd12bc190ddc1c36ad702b\t{\"Platform_Version\":\"4.2\",\"isTablet\":true}",
        "c03f1accb3b85c7d9dc0fb1fc279757c\t{\"Platform_Version\":\"4.4\",\"isTablet\":true}",
        "c0bb5bd6b3402c12c6865bc4a56954c9\t{\"Platform_Version\":\"4.4\",\"isTablet\":true}",
        "c020a59da3bddf0c2ea2a634110f026c\t{\"Platform_Version\":\"4.2\",\"isTablet\":true}",
        "c0c17e2a7e8b353769728e8db1463f99\t{\"Platform_Version\":\"9.2\"}",
        "c088d5be7633fc1cd1dda523d74e3bbf\t{\"Browser_Bits\":\"32\",\"Platform\":\"MacOSX\",\"Platform_Version\":\"10.9\"}",
        "c0bcfd2cb6a161187ac7dd8ffda12770\t{\"Browser_Bits\":\"32\",\"Platform\":\"MacOSX\",\"Platform_Version\":\"10.11\"}",
        "c0277b3ad3fa9542475005ec8b3b4021\t{\"Platform_Version\":\"4.2\",\"isTablet\":true}",
        "c0b3197152468a58f331e73149a3ea5c\t{\"Platform_Version\":\"5.1\"}",
        "c08a7bc4f37a88f287bdb5ceb66ce28f\t{\"Platform_Version\":\"4.4\",\"isTablet\":true}",
        "c098857d3463cfa7973917d1728c6ecb\t{\"Platform_Version\":\"4.2\",\"isTablet\":true}",
        "c0c51bf1b9a187c58e609d5f5cca637c\t{\"Platform_Version\":\"4.4\",\"isTablet\":true}",
        "c06c52da4838b13b6c4bfcf92a0b5960\t{\"Platform_Version\":\"4.4\",\"isTablet\":true}",
        "c027b6744d1a3f6d6ccb796c030b6f6a\t{\"Platform_Version\":\"8.2\",\"isTablet\":true}",
        "c00736f6763e3cfb26b68ae987a4548d\t{\"Platform_Version\":\"4.3\",\"isTablet\":true}",
        "c064bd076ae19be5c6fb21a281307bd8\t{\"Browser_Bits\":\"32\",\"Platform\":\"OpenBSD\"}",
        "c0dc2c09faa2f60d4654bbba7b90c3fe\t{\"Platform_Version\":\"4.3\",\"isTablet\":true}",
        "c0e39734f8a20a5b4ae30f13fae0fec8\t{\"Platform_Version\":\"4.3\",\"isTablet\":true}",
        "c0b69936e6c4c8f593a222a6059546aa\t{\"Platform_Version\":\"7.1\"}",
        "c05877015b89b5a44169981984328edb\t{\"Platform_Version\":\"5.0\",\"isTablet\":true}",
        "c0d73b7e81b16caa65b154e1600a55c7\t{\"Browser_Bits\":\"32\",\"Platform\":\"Win7\",\"Platform_Version\":\"6.1\",\"Win32\":true}",
        "c006e44dd80fc049841418520ba09b8c\t{\"Platform_Version\":\"4.3\",\"isTablet\":true}",
        "c0268f913c9cbf0567674921f83d613b\t{\"Platform_Version\":\"4.2\",\"isTablet\":true}",
        "c08ea26b2eff2c619399ce7d4cace6e1\t{\"Platform_Version\":\"4.4\",\"isTablet\":true}",
        "c0b53784401641c3aec0b53063f06597\t{\"Platform_Version\":\"4.4\",\"isTablet\":true}",
        "c0c9818167e58c59a379f4dc674b6148\t{\"Platform_Version\":\"4.4\",\"isTablet\":true}",
        "c0e5a7722049966cc195866180bc3390\t{\"Platform_Version\":\"7.0\"}",
        "c03b8cc9e3369898f98ed35d6fe4f423\t{\"Platform_Version\":\"4.2\",\"isTablet\":true}",
        "c0d89f3b286f246014a6d1701eaefacb\t{\"Platform_Version\":\"4.3\",\"isTablet\":true}",
        "c05ca95334a0b339841419de5281f1ba\t{\"Platform_Version\":\"4.3\",\"isTablet\":true}",
        "c09cada587d8512bbd1d786da98b8693\t{\"Platform_Version\":\"5.1\",\"isTablet\":true}",
        "c06b3b67fc814a934732909ab97ef22e\t{\"Platform_Version\":\"4.2\",\"isTablet\":true}",
        "c052949d000210f63a2bbdfc1ac9d531\t{\"Platform_Version\":\"7.0\",\"isTablet\":true}",
        "c02d5c4eeb5a91153632bdb915625d4e\t{\"Platform_Version\":\"10.1\"}",
        "c0ae1a912010f5755bbf66f1fc1d8194\t{\"Browser_Bits\":\"32\",\"Platform\":\"Linux\"}",
        "c0d757a341517a29c9650920cd0424d9\t{\"Platform_Version\":\"4.4\",\"isTablet\":true}",
        "c0af5d7d0d5e6416b5f59f9c92ba5fa7\t{\"Platform_Version\":\"4.3\",\"isTablet\":true}",
        "c06121754bdc6ebf57dc929ed26bfd33\t{\"Platform_Version\":\"4.2\",\"isTablet\":true}",
        "c01923bb186259164eabb3f315616779\t{\"Platform_Version\":\"4.3\",\"isTablet\":true}",
        "c0022fe454cb8864d2d87ed0b9e8e3a7\t{\"Platform_Version\":\"4.2\",\"isTablet\":true}",
        "c07551684611466a750a4d3970058edd\t{\"Platform_Version\":\"4.4\",\"isTablet\":true}",
        "c0040b59b7890ac4410074f6503699a9\t{\"Platform_Version\":\"4.4\"}",
        "c00a8896570c034e4b1f4248d505a617\t{\"Platform_Version\":\"5.1\"}",
        "c0cafe407186e534d1edaef794a5681d\t{\"Platform_Version\":\"4.2\",\"isTablet\":true}",
        "c09a61c4700a351c47cd904fc373973e\t{\"Platform_Version\":\"4.3\",\"isTablet\":true}",
        "c0dcc787f49187beebdab8abf29f35ad\t{\"Platform_Version\":\"10.3\"}",
        "c035a2d6cb1b9af9a3f674d43642544c\t{\"Browser_Bits\":\"32\",\"Platform\":\"Linux\"}",
        "c06ebb241c2c317e0be281c373f4ea45\t{\"Platform_Version\":\"4.3\",\"isTablet\":true}",
        "c06b1e4a57a69add8086fa334079f01f\t{\"Platform_Version\":\"4.2\",\"isTablet\":true}",
        "c0812d06d3427ca8c3b7b59bf2f65b88\t{\"Platform_Version\":\"4.4\",\"isTablet\":true}",
        "c02736fac57ecd9e6e104e0a4bcc072f\t{\"Platform_Version\":\"4.2\",\"isTablet\":true}",
        "c0ec9f0201a3617beafbcace01dca2ea\t{\"Platform_Version\":\"9.1\",\"isTablet\":true}",
        "c05e97b06ddf0cb419b2f40d05478267\t[]",
        "c0168bc09274fffedf8bf422b0b15e08\t{\"Platform_Version\":\"8.0\"}",
        "c03a1ae5e43cf804722b782b8156a6e3\t{\"Platform_Version\":\"8.2\"}",
        "c059338ed28286a4a25e1ba72355517d\t{\"Platform_Version\":\"4.2\",\"isTablet\":true}",
        "c06f6182e18f64f737a3c4a462824e8b\t{\"Platform_Version\":\"4.4\"}",
        "c0fc146f01ce4f7f6a855999649129c2\t{\"Platform_Version\":\"4.2\",\"isTablet\":true}",
        "c0767f9a5c11ac13932f5b753f8b38e4\t{\"Platform_Version\":\"7.1\"}",
        "c0b0aac9ae7be28c3b118a873fd55d56\t{\"Browser_Bits\":\"32\",\"Platform\":\"WinXP\",\"Platform_Version\":\"5.1\",\"Win32\":true}",
        "c0032aab57c88fce3cf173b1de1215c7\t{\"Platform_Version\":\"4.2\",\"isTablet\":true}",
        "c08fc732cedb4e0559d7f752f01f3592\t{\"Browser_Bits\":\"32\",\"Platform\":\"WinXP\",\"Platform_Version\":\"5.1\",\"Win32\":true}",
        "c012b333d36301fad69ef4c5dfe3f5d9\t{\"isTablet\":true}",
        "c038411c0ebc72f89c53f917929629fa\t{\"Browser_Bits\":\"32\",\"Platform\":\"Win7\",\"Platform_Version\":\"6.1\",\"Win32\":true}",
        "c0b9590ac58decec7a8ccaf1fc1cdb8d\t[]",
        "c0e570ea0ec316cb62c7ecd37328c702\t{\"Browser_Bits\":\"32\",\"Platform\":\"Win7\",\"Platform_Version\":\"6.1\",\"Win32\":true}",
        "c062a55e900cc7354a9afc0a6051c38b\t{\"Browser_Bits\":\"32\",\"Platform\":\"WinXP\",\"Platform_Version\":\"5.2\",\"Win32\":true}",
        "c05180767fd27bd000f3837f2e327550\t{\"Browser_Bits\":\"32\",\"Platform\":\"OpenBSD\"}",
        "c0880faccc24a738ada3518d38f406f8\t{\"Platform_Version\":\"8.3\"}",
        "c0cb4eacafd7b4f8a66d3cf029ab638a\t{\"Platform_Version\":\"9.3\"}",
        "c095ceaec66469a62c20314146e456fb\t{\"Platform_Version\":\"10.3\",\"isTablet\":true}",
        "c0503935d4f4b7408570acb300111bb0\t{\"Platform_Version\":\"10.2\",\"isTablet\":true}",
        "c0fac11cdef5400f7c2f03372499ea65\t{\"Platform_Version\":\"8.0\"}",
        "c05d07846dd808c203bc07415470b133\t{\"Platform_Version\":\"9.2\",\"isTablet\":true}",
        "c0961bda8b4e168a71d085341e5ef390\t{\"Platform_Version\":\"9.0\",\"isTablet\":true}",
        "c0faea0913c6552485581ade9689e456\t{\"Platform_Version\":\"9.2\"}",
        "c05ef1bc9db1954db9da45e6af60471f\t{\"Platform_Version\":\"8.1\"}",
        "c06b9c662bf6eb3367e79589e94c99c4\t{\"Platform_Version\":\"9.0\",\"isTablet\":true}",
        "c0ae3e5a0bea8a79780ac826a6f89730\t{\"Platform_Version\":\"4.4\"}",
        "c0c5017d421e3192383975ff14710de3\t{\"Platform_Version\":\"10.1\"}",
        "c07e62c32aae388959297a59243ed874\t[]",
        "c08ac3bd85a618df753be9377403853c\t{\"Browser_Bits\":\"32\",\"Platform\":\"Win10\",\"Platform_Version\":\"6.4\",\"Win32\":true}",
        "c0036a94b04106ece60eaeb451ada737\t[]",
        "c03fb66e161d4cef55054285c220329b\t{\"Browser_Bits\":\"32\",\"Platform\":\"Android\",\"isMobileDevice\":true}",
        "c074d39ef2451488c324cedb8775240c\t{\"Browser_Bits\":\"32\",\"Platform\":\"Brew\",\"Platform_Version\":\"2.0\"}",
        "c091badba0335c6f5b2451765bc1f546\t{\"isMobileDevice\":false}",
        "c0a83f89eae3e383d15b57d18e693b51\t[]",
        "c058c04e3eebd3c8bdf4b880fd6b7353\t{\"Platform_Version\":\"9.3\"}",
        "c0d361a7ba54db53df11305f83af1f0b\t{\"Browser_Bits\":\"32\",\"Platform\":\"WinXP\",\"Platform_Version\":\"5.2\",\"Win32\":true}",
        "c06e4b47859e08b5c3287a837ff6f69a\t{\"Platform\":\"Win8.1\",\"Platform_Version\":\"6.3\"}",
        "c00d96978962f45ce419c32a74c53d72\t{\"Browser_Bits\":\"32\",\"Platform\":\"iOS\",\"Platform_Version\":\"8.0\"}",
        "c0dedb670064b434781237117450eecd\t[]",
        "c0ba4ae110c59844b25c9c7863bcc19a\t{\"Platform\":\"Win7\",\"Platform_Version\":\"6.1\",\"Win32\":true}",
        "c06cf2ea3c1e11bcd6250e06954f06e3\t{\"Browser_Bits\":\"32\",\"Platform\":\"Win8\",\"Platform_Version\":\"6.2\",\"Win32\":true}",
        "c0a82678edd4c35d63903bc852f048fb\t{\"Browser_Bits\":\"32\",\"Platform\":\"Win10\",\"Platform_Version\":\"10.0\",\"Win32\":true}",
        "c0c8ddae993947ef7ca6639f38e0966e\t{\"Browser_Bits\":\"32\",\"Platform\":\"Android\",\"isMobileDevice\":true}",
        "c0b6604817201891f36436e5ebfaa0d8\t{\"Browser_Bits\":\"32\",\"Platform\":\"iOS\",\"Platform_Version\":\"9.0\",\"isTablet\":true}",
        "c0263a159df0c152317e9c955afa9b2d\t{\"Browser_Bits\":\"32\",\"Platform\":\"iOS\",\"Platform_Version\":\"10.3\",\"isTablet\":true}",
        "c02a90862b9895b943f7eabb689f102c\t{\"Browser_Bits\":\"32\",\"Platform\":\"iOS\",\"Platform_Version\":\"10.2\"}",
        "c0b4fff6b40d562ea3859c1a0df73d69\t{\"Browser_Bits\":\"32\",\"Platform\":\"JAVA\"}",
        "c0af66bc618f146beca87650b63e6b64\t{\"Browser_Bits\":\"32\",\"Platform\":\"Android\"}",
        "c07cb51142790250bd328cf72d8a8623\t{\"Browser_Bits\":\"32\",\"Platform\":\"JAVA\"}",
        "c02cc9f0792cbfa12bac3ee0fe2dda82\t{\"Platform_Version\":\"8.0\"}",
        "c0becd54e1d9a6074d9ee251ea5cefd1\t{\"Platform_Version\":\"7.1\"}",
        "c061a022c7b79f96360ae6db27d8c446\t{\"Platform_Version\":\"10.0\",\"isTablet\":true}",
        "c044f2cb7c9c7fe89549d14f428953f9\t{\"Platform_Version\":\"9.2\"}",
        "c0bec928b2b4ae09b8a1c8cab87f3068\t{\"Platform_Version\":\"8.0\"}",
        "c0a757ffeb0900d164c04346d8772b31\t{\"Platform_Version\":\"8.0\",\"isTablet\":true}",
        "c0efa69a03c8a74d2b9ef1dc8896e1b3\t{\"Platform_Version\":\"10.1\"}",
        "c0dc8e93c131d9811bf8ace51877a7fc\t{\"Platform_Version\":\"10.1\",\"isTablet\":true}",
        "c074e1893ed67d8639baa88710d681b1\t{\"Platform_Version\":\"8.2\"}",
        "c0cc90ff5e706c4c4b7e53f564c06712\t{\"Browser_Bits\":\"32\",\"Platform\":\"iOS\",\"isMobileDevice\":true}",
        "c039f8452fbfc427dd8ff7e9084040df\t{\"Platform_Version\":\"8.0\",\"isTablet\":true}",
        "c0433b30da2507163e7f9fb31e4c31d3\t{\"Platform_Version\":\"8.4\"}",
        "c099499b8f7eb180012556c88a4c721c\t{\"Platform_Version\":\"8.3\"}",
        "c0b76ddac2da880743de17467539704b\t{\"Platform_Version\":\"8.0\",\"isTablet\":true}",
        "c00ef527ccc8831f65418587c41ebc83\t{\"Platform_Version\":\"8.1\"}",
        "c091585d9c7d81ed58199070f5398e38\t{\"Platform_Version\":\"10.2\"}",
        "c047834f649f650e5c1db4b129626e70\t{\"Platform_Version\":\"8.4\"}",
        "c08bca0ce9a306e3be8ca2a2e4c3849d\t[]",
        "c0447966685aa5e59ad37c66d41f51f8\t{\"Platform_Version\":\"7.1\"}",
        "c0abafc319b17bcb29f31c0f52a73c3f\t{\"Platform_Version\":\"8.4\",\"isTablet\":true}",
        "c03ee1963c62f7613834d027e1436379\t{\"Platform_Version\":\"7.1\",\"isTablet\":true}",
        "c0d47fd06cab344ed82e878d105466bd\t{\"Platform_Version\":\"10.3\",\"isTablet\":true}",
        "c0e3eacd59c1fd192248feca28add42a\t{\"Platform_Version\":\"9.2\"}",
        "c025a3d05635da51f791a9e0021f3872\t{\"Platform_Version\":\"9.2\"}",
        "c0cb802a43248df6535da6b8fdaa7f6a\t{\"Platform_Version\":\"7.0\"}",
        "c0f04c7f16d9416986a7591047896c9c\t{\"Platform_Version\":\"8.3\"}",
        "c0cf142c8319dab190402b7f13f20628\t[]",
        "c0c396d9b640bc19c21d6d6101619c5e\t{\"Platform_Version\":\"10.1\"}",
        "c02ba4c2b15b8d94ea9cd02e467c0538\t{\"Platform_Version\":\"10.0\",\"isTablet\":true}",
        "c0e48d67115982d835f35a20941af9ce\t{\"Platform_Version\":\"8.4\"}",
        "c071039da29e9b86cfd5bf11d22261c3\t{\"Platform_Version\":\"8.0\",\"isTablet\":true}",
        "c0e11e7463117af7ea5b4d29e299a395\t{\"Platform_Version\":\"7.0\",\"isTablet\":true}",
        "c0a189fd385ccd107dcfbd95342f54c5\t{\"Browser_Bits\":\"32\",\"Platform\":\"SymbianOS\"}",
        "c0f5994bf91adf2eecec9c4eceff116b\t{\"Platform_Version\":\"8.1\",\"isTablet\":true}",
        "c054d4f64c8a76e86dedc928795dd853\t[]",
        "c0b7aebe278bda6e83a22d2bb1ef6a0a\t{\"Platform_Version\":\"9.1\",\"isTablet\":true}",
        "c00337b81e1b1f4cc4ae777a3d8a3e49\t{\"Platform_Version\":\"9.0\"}",
        "c02c36be5d24f81083152bb3ce147dc1\t{\"Platform_Version\":\"10.0\"}",
        "c05adcb212e0f7bb1acbe3cfd3a32da0\t{\"Browser_Bits\":\"32\",\"Platform\":\"iOS\",\"isMobileDevice\":true}",
        "c030c9602616017deb085f4b6b4b4673\t{\"Platform_Version\":\"7.0\"}",
        "c04acf7248891c3ca90a45afbeb73884\t{\"Browser_Bits\":\"32\",\"Platform\":\"iOS\",\"Platform_Version\":\"10.2\"}",
        "c0545bb1b23bea7423aaee3c42c607d2\t{\"Platform_Version\":\"9.0\",\"isTablet\":true}",
        "c0c229440dde946b694ca6f6c7e65f4f\t{\"Platform_Version\":\"9.2\",\"isTablet\":true}",
        "c0f83475aae722d13e123c10cb1606a1\t{\"Platform_Version\":\"10.0\",\"isTablet\":true}",
        "c0d10147e48e67525c996d5c9e00cb9e\t{\"Browser_Bits\":\"32\",\"Platform\":\"Linux\"}",
        "c0a772cd5fc295b9b06b603552221239\t{\"Browser_Bits\":\"32\",\"Platform\":\"Android\",\"isMobileDevice\":true}",
        "c06d6c0e4211f4d3c2dc3501026d0a10\t{\"Platform_Version\":\"9.2\"}",
        "c05db3d5aeee1c0c8d3e484f15f33101\t[]",
        "c09513688c73fcb38f8f19ee23aa55d9\t{\"Platform_Version\":\"8.1\"}",
        "c09ef4332683426617c5f077e8be1784\t{\"Platform_Version\":\"7.1\"}",
        "c0a65a3008d35f17f76a4168df938f32\t{\"Browser_Bits\":\"32\",\"Platform\":\"Linux\"}",
        "c083498a8dc32485c6ede7cbc19ec904\t{\"Platform\":\"WinVista\",\"Platform_Version\":\"6.0\",\"Win32\":true}",
        "c0e0fa37ba5c56c4bab49c39e2d01c5a\t{\"Browser_Bits\":\"32\",\"Platform\":\"FreeBSD\"}",
        "c064315414e26f6f2e3bc683fdab5cde\t[]",
        "c099d727b4a3decb6b0dd0881f1a04b1\t{\"Browser_Bits\":\"32\",\"Platform\":\"Win32\",\"Win32\":true}",
        "c0a3108ad311021e5aabe2889f9ecfae\t{\"Browser_Bits\":\"32\",\"Platform\":\"WinVista\",\"Platform_Version\":\"6.0\",\"Win32\":true}",
        "c0126eb3806503e6e85482d244fe1525\t{\"Browser_Bits\":\"32\",\"Platform\":\"Win7\",\"Platform_Version\":\"6.1\",\"Win32\":true}",
        "c03b742ae994c45157b8a1d8e3f09db7\t{\"Browser_Bits\":\"32\",\"Platform\":\"WinXP\",\"Platform_Version\":\"5.1\",\"Win32\":true}",
        "c0c6a0aa092b086ad5b1cec7d360a47b\t{\"Browser_Bits\":\"32\",\"Platform\":\"WinXP\",\"Platform_Version\":\"5.1\",\"Win32\":true}",
        "c0250b85a8006e357eeefaea8a20e623\t{\"Browser_Bits\":\"32\",\"Platform\":\"Linux\"}",
        "c052110db148e16e472a5aa61b6da056\t{\"Browser_Bits\":\"32\",\"Platform\":\"Win8\",\"Platform_Version\":\"6.2\",\"Win32\":true}",
        "c02e8b301410be6ac7b2a6c5116f1907\t{\"Platform\":\"Win7\",\"Platform_Version\":\"6.1\"}",
        "c091e390cee05ccc631e19142f1ff025\t{\"Platform\":\"Win7\",\"Platform_Version\":\"6.1\"}",
        "c0272d73626ceb473b75418978a37012\t{\"Browser_Bits\":\"32\",\"Platform\":\"SunOS\"}",
        "c065dd977e7cb4d62e53d0d1e56dad4c\t{\"Browser_Bits\":\"32\",\"Platform\":\"DragonFly BSD\"}",
        "c0a741c6d288d28868d989a7597f453e\t{\"Browser_Bits\":\"32\",\"Platform\":\"WinVista\",\"Platform_Version\":\"6.0\",\"Win32\":true}",
        "c0b392d5c190838fd3aaa47cf40deaa8\t{\"Browser_Bits\":\"32\",\"Platform\":\"Linux\"}",
        "c057fede6d0e873641f16b3f3860de71\t{\"Browser_Bits\":\"32\",\"Platform\":\"OpenBSD\"}",
        "c070fbfd8eac53a3cb262e8d6b8e9b50\t{\"Browser_Bits\":\"32\",\"Platform\":\"FreeBSD\"}",
        "c0b4f5e7a93f143c979e53d0f5802d25\t{\"Browser_Bits\":\"32\",\"Platform\":\"Win8.1\",\"Platform_Version\":\"6.3\",\"Win32\":true}",
        "c063a33822463fbb426185caea67d5c3\t{\"Browser_Bits\":\"32\",\"Platform\":\"Win8.1\",\"Platform_Version\":\"6.3\",\"Win32\":true}",
        "c0f287ef6d3d6e770c4613abbf17043c\t{\"Browser_Bits\":\"32\",\"Platform\":\"Win7\",\"Platform_Version\":\"6.1\",\"Win32\":true}",
        "c08bf4e9d59f50c1287851ac435b2fe7\t{\"Platform_Version\":\"8.2\"}",
        "c04ca96895c49f190b8eb88392e225b2\t{\"Browser_Bits\":\"32\",\"Platform\":\"Win8\",\"Platform_Version\":\"6.2\",\"Win32\":true}",
        "c028a13bf231fa23829e97c1f8ea5911\t{\"Platform\":\"Maemo\"}",
        "c0d13bc543bb20941dac9b63fef0ef70\t{\"Browser_Bits\":\"32\",\"Platform\":\"Linux\"}",
        "c0cfa02128f0be88b143f1d01762958d\t{\"Browser_Bits\":\"32\",\"Platform\":\"Android\",\"isMobileDevice\":true}",
        "c03894e2ecf0b027654e44def6515fe9\t{\"Browser_Bits\":\"32\",\"Platform\":\"HP-UX\"}",
        "c095a29b5081e23ad0674219cc17fa94\t{\"Browser_Bits\":\"32\",\"Platform\":\"WinXP\",\"Platform_Version\":\"5.1\",\"Win32\":true}",
        "c0f4a78bbad72d778ae54f5c45f316d0\t{\"Browser_Bits\":\"32\",\"Platform\":\"WinVista\",\"Platform_Version\":\"6.0\",\"Win32\":true}",
        "c09ad860afc8717fb4c761020c67c670\t{\"Browser_Bits\":\"32\",\"Platform\":\"MacOSX\",\"Platform_Version\":\"10.11\"}",
        "c0a23d2d72107aaf91be5af16901f0da\t{\"Browser_Bits\":\"32\",\"Platform\":\"Win8.1\",\"Platform_Version\":\"6.3\",\"Win32\":true}",
        "c0e0bcb8adbc47eda4c2d61c1a6fb49d\t{\"Browser_Bits\":\"32\",\"Platform\":\"Win8\",\"Platform_Version\":\"6.2\",\"Win32\":true}",
        "c0ff9cd2b3a47876f3ca6a91d391c266\t{\"Browser_Bits\":\"32\",\"Platform\":\"NetBSD\"}",
        "c0989ca73acdf12597d8dfc04a23cb73\t{\"Browser_Bits\":\"32\",\"Platform\":\"Win8.1\",\"Platform_Version\":\"6.3\",\"Win32\":true}",
        "c0f081004a48c89739d34cda47831471\t{\"Browser_Bits\":\"32\",\"Platform\":\"WinXP\",\"Platform_Version\":\"5.1\",\"Win32\":true}",
        "c03bacef8cb8645fcfe7d0d1d9f4ea3a\t{\"Browser_Bits\":\"32\",\"Platform\":\"WinXP\",\"Platform_Version\":\"5.2\",\"Win32\":true}",
        "c0f7c2b7dde8c7ec8213c08506818580\t{\"Browser_Bits\":\"32\",\"Platform\":\"Win32\",\"Win32\":true}",
        "c02ed96d48db3de4f9dd577e46726c55\t{\"Browser_Bits\":\"32\",\"Platform\":\"Linux\"}",
        "c04e436743f1f8e2c44c35cad74a1f5f\t{\"Browser_Bits\":\"32\",\"Platform\":\"Win32\",\"Win32\":true}",
        "c04b3f9cbc0ddacc5b7336d87d2a3323\t{\"Platform_Version\":\"5.1\",\"isTablet\":true}",
        "c03ea7cb2e4f24b06089a0a0f45ef6e0\t{\"Browser_Bits\":\"32\",\"Platform\":\"Win32\",\"Win32\":true}",
        "c0436b00c253c2a7007f910510cf344b\t{\"Platform\":\"Win7\",\"Platform_Version\":\"6.1\"}",
        "c0af7ba59f4fdbcf9c54fd140d24ecba\t{\"Platform_Version\":\"8.3\"}",
        "c0f96ee5312a4571e9e9f276870ed30e\t{\"Browser_Bits\":\"32\",\"Platform\":\"Win8\",\"Platform_Version\":\"6.2\",\"Win32\":true}",
        "c0456da3f51c9110b27116f1e46e90cb\t{\"Platform\":\"WinVista\",\"Platform_Version\":\"6.0\",\"Win32\":true}",
        "c010cd8eca62caa52ee2187410898955\t{\"Browser_Bits\":\"32\",\"Platform\":\"Linux\"}",
        "c0e8a127fbc2165ba8c2875effd0e81a\t{\"Browser_Bits\":\"32\",\"Platform\":\"iOS\",\"Platform_Version\":\"9.1\"}",
        "c0421ca2f5c7d5773d0075e62898cf06\t{\"Platform_Version\":\"9.0\"}",
        "c0d2f3dccc9a3d23e36c268504940bdf\t{\"Platform_Version\":\"9.0\"}",
        "c0777f7d638d79555c0c57b48aad152a\t{\"Browser_Bits\":\"32\",\"Platform\":\"Win7\",\"Platform_Version\":\"6.1\",\"Win32\":true}",
        "c0977995aa80cb5167ff1a631778652e\t[]",
        "c08e2feec8fac395bef4beb3a18d6aff\t[]",
        "c0b1cba544a84bc9a1e67b3f1d2ea65c\t[]"
    ]
}