{
    "content": [
        "551ee30e826d1946c8a84227ba7bb429\t[]",
        "55587a76053f961d14a0c9cef3e55981\t[]",
        "55cc8ca4f47ecc578e5aeb200f23e86f\t{\"Browser_Bits\":\"32\",\"Platform\":\"Win32\",\"Win32\":true}",
        "55ee23c2d43c5e1d05f5bc26b074e42d\t[]",
        "557504eec9ce023eb9d52d027f9993d8\t{\"Browser_Bits\":\"32\",\"Platform\":\"Win8\",\"Platform_Version\":\"6.2\",\"Win32\":true}",
        "551a5d3c64f87f23f9e113a2e5c843fc\t[]",
        "55f5f6215e15573e6c694f25542b754a\t[]",
        "55261e8ae2f80b618d65ea9f8bf9f8ed\t[]",
        "555920b03b5a3092fbcaf6a2acf41fa1\t{\"Platform\":\"iOS\",\"Platform_Version\":\"8.0\",\"Win32\":false,\"isMobileDevice\":true,\"isTablet\":true}",
        "55af89e379117ae19caac5d5d141aa00\t{\"Platform\":\"WinXP\",\"Platform_Version\":\"5.2\"}",
        "55877459cafd6090f949e15abc5df323\t{\"Platform\":\"Win10\",\"Platform_Version\":\"10.0\"}",
        "55db10ac8211f4d0c5d696b1f621bc09\t{\"Platform\":\"MacOSX\",\"Platform_Version\":\"10.9\",\"Win32\":false}",
        "556a1b9981963977fee745837aee8e5c\t{\"Platform\":\"Win8\",\"Platform_Version\":\"6.2\"}",
        "554cdb4ff792344ecf18ceabaf15bf11\t{\"Platform\":\"iOS\",\"Platform_Version\":\"8.3\",\"Win32\":false,\"isMobileDevice\":true,\"isTablet\":true}",
        "55486039c5572e85a071739da9cc97a3\t{\"Platform\":\"iOS\",\"Win32\":false,\"isMobileDevice\":true,\"isTablet\":true}",
        "5588aafb46e436f44f4c81a9f7356ecb\t{\"Platform_Version\":\"10.3\"}",
        "55c02d45753db4a7be8d0aa917c86c40\t{\"Platform_Version\":\"5.0\"}",
        "556c921657b218b84b0a57516fc46dc8\t{\"Platform_Version\":\"9.2\",\"isTablet\":true}",
        "557788cdd80400424cb12f58333ef704\t{\"Platform_Version\":\"8.1\",\"isTablet\":true}",
        "55fa83c2023a93bbadc587269fcdfc74\t{\"Platform_Version\":\"8.4\",\"isTablet\":true}",
        "558afc44c22f68335583c8ea7a7361d4\t{\"Browser_Bits\":\"32\",\"Platform\":\"iOS\",\"Platform_Version\":\"9.0\"}",
        "551e402e299f45109f450588b9adaaa1\t{\"Browser_Bits\":\"32\",\"Platform\":\"WinVista\",\"Platform_Version\":\"6.0\",\"Win32\":true}",
        "556a299b1ea737f40484fe08d44dfa74\t{\"Browser_Bits\":\"32\",\"Platform\":\"Win7\",\"Platform_Version\":\"6.1\",\"Win32\":true}",
        "55cee2acf9bb5d1f937d9a719f84368f\t{\"Browser_Bits\":\"32\",\"Platform\":\"Win10\",\"Platform_Version\":\"6.4\",\"Win32\":true}",
        "55df8e449f55ef308d538fcaa630df12\t{\"Platform_Version\":\"4.2\",\"isTablet\":true}",
        "55cd086e7ace28eb1c55e22d200053f4\t{\"Platform\":\"iOS\",\"Platform_Version\":\"10.0\",\"isTablet\":true}",
        "55e2fabfe4bade2de6684fe036ce5a78\t{\"Platform_Version\":\"5.0\"}",
        "556176070846b6e23ee3e10d91dd2983\t{\"Platform\":\"iOS\",\"Platform_Version\":\"8.0\"}",
        "55856f527e29eac0c45c9b2f950dc07e\t{\"Platform\":\"iOS\",\"Platform_Version\":\"8.3\"}",
        "5556acfb2c944ff239b65475fd08501a\t{\"Platform_Version\":\"4.4\",\"isTablet\":true}",
        "553b977305002fff5b7dc75966e34399\t{\"Platform\":\"iOS\",\"Platform_Version\":\"7.0\"}",
        "551e781c36ec683fab3d05ef9c1a4710\t{\"Platform_Version\":\"4.3\"}",
        "55be7f4d659df90042998fe45893a661\t{\"Platform\":\"Series40\"}",
        "550b3b293aae3f2c4d1aaf1a6bb96032\t[]",
        "5592c2f890796ffcb3ad26cff2865d1d\t{\"Platform_Version\":\"5.0\"}",
        "554514403d34b0f37b37e2554d20ebbe\t{\"Platform_Version\":\"8.2\"}",
        "55e583a843ce8102912fb512e86f5d74\t{\"Browser_Bits\":\"32\",\"Platform\":\"WinXP\",\"Platform_Version\":\"5.1\",\"Win32\":true}",
        "55065199c7adb2d087fd08b73cc5c4f3\t{\"Platform\":\"WinPhone8\",\"Platform_Version\":\"8.0\"}",
        "55addb9f8198fe937a5c0839fbbfdeb0\t{\"Browser_Bits\":\"32\",\"Platform\":\"Win7\",\"Platform_Version\":\"6.1\",\"Win32\":true}",
        "55a8267ffa55f5f05423c1fa14510b55\t{\"Platform_Version\":\"5.0\"}",
        "554a2745fc5157c55e13d2ffd5ac3036\t{\"Platform_Version\":\"4.3\"}",
        "556f3262cd5ccccb5f8c508593b0e13c\t{\"Platform\":\"Win7\",\"Platform_Version\":\"6.1\",\"Win32\":true}",
        "5515d521cdc982f920f8a35e5af38cf7\t{\"Platform\":\"Win7\",\"Platform_Version\":\"6.1\",\"Win32\":true}",
        "5535a48846dd3ceb85847daa7e889498\t{\"Platform\":\"Win8\",\"Platform_Version\":\"6.2\",\"Win32\":true}",
        "55e6b73d9a2c2cd11d0f6fb78a4f515f\t{\"Platform\":\"Win8.1\",\"Platform_Version\":\"6.3\",\"Win32\":true}",
        "5585ba989692cf185e3c8748f3c17675\t{\"Platform\":\"Win10\",\"Platform_Version\":\"6.4\",\"Win32\":true}",
        "55d7f26dd430560fd12b1edc97ef4ff4\t{\"Platform\":\"Win8\",\"Platform_Version\":\"6.2\",\"Win32\":true}",
        "55c87affdd0980d3f473c686691561bf\t{\"Platform_Version\":\"4.3\",\"isTablet\":true}",
        "556d37f874ed4c64bedf04c06dbfb0f9\t{\"Platform_Version\":\"4.3\",\"isTablet\":true}",
        "5549c9f43dc8a765731a36e2eafdce66\t{\"Platform_Version\":\"4.2\",\"isTablet\":true}",
        "55fa2bbafc2d8528fa3a1992d0669e0b\t{\"Platform_Version\":\"4.2\",\"isTablet\":true}",
        "552089ef7fbfa6a71e5f16b8f4d7eee1\t{\"Browser_Bits\":\"32\",\"Platform\":\"iOS\",\"Platform_Version\":\"7.1\"}",
        "55873afdbdc42f83863e0b29682c663e\t{\"Platform_Version\":\"4.2\",\"isTablet\":true}",
        "558c82b94a17428ffd4f63f0e39fc16d\t{\"Platform_Version\":\"4.3\",\"isTablet\":true}",
        "554fd2808e58ea99a30eedaed2b5f42a\t{\"Platform_Version\":\"5.0\",\"isTablet\":true}",
        "551ae7f2a66ed85b977449375975b590\t{\"Platform\":\"Win8.1\",\"Platform_Version\":\"6.3\"}",
        "55c7c2c98384acee6f31be54fc9957d0\t{\"Platform_Version\":\"4.3\",\"isTablet\":true}",
        "55127644b0c7d786a069cb607284dd13\t[]",
        "556031dcd2a264d9b5912c8afb597d23\t{\"Platform_Version\":\"4.2\",\"isTablet\":true}",
        "5539f0f6606303967a11a19ca2228246\t{\"Browser_Bits\":\"32\",\"Platform\":\"Android\",\"Platform_Version\":\"6.1\"}",
        "553e2d5e2bc26ba6238f5a25bd14cfce\t[]",
        "55f01cf10f24763ec26a4ad0a3263746\t{\"Browser_Bits\":\"32\",\"Platform\":\"Win7\",\"Platform_Version\":\"6.1\",\"Win32\":true}",
        "554cdff21baf89558be7d09024c8cd8f\t{\"Platform_Version\":\"9.1\",\"isTablet\":true}",
        "55b656b67e1086414fb04c562631e9dd\t{\"Platform_Version\":\"4.4\",\"isTablet\":true}",
        "559ee5c6044ce6579d23c2d6fa4325dc\t{\"Platform_Version\":\"9.3\",\"isTablet\":true}",
        "5550b918e6b46f2102bf50c974a39bfe\t{\"Platform_Version\":\"7.1\"}",
        "55603e12bf0fb4ae80299fa77e6e68ff\t{\"Platform_Version\":\"4.4\"}",
        "551fdcb1b8a92919018edca56b7a49e3\t{\"Platform_Version\":\"8.3\"}",
        "55aa3c539f16b605034988bbf1589b5e\t{\"Browser_Bits\":\"32\",\"Platform\":\"Win10\",\"Platform_Version\":\"6.4\",\"Win32\":true}",
        "55613e6a89e7cb39566290e11bb806fe\t{\"Platform_Version\":\"10.1\",\"isTablet\":true}",
        "55e38cf6492d1a081f50bd076c38ac35\t{\"Browser_Bits\":\"32\",\"Platform\":\"Android\",\"isMobileDevice\":true}",
        "55b566e1fad506ba6b8aa11884867245\t{\"Platform_Version\":\"8.0\"}",
        "554de68478cd20bad51151af0a6a0e4c\t{\"Browser_Bits\":\"32\",\"Platform\":\"WinXP\",\"Platform_Version\":\"5.2\",\"Win32\":true}",
        "55e258177aa82149aa75a7de61c45050\t{\"Platform_Version\":\"9.2\"}",
        "5525d07147403ee66c22eb0650730ae1\t{\"Platform_Version\":\"4.4\",\"isTablet\":true}",
        "5521fea45d6b28e0b75697a5950fe7fc\t{\"Platform_Version\":\"4.2\",\"isTablet\":true}",
        "5560e4d0a2115af78184d84ef0de8003\t{\"Platform_Version\":\"5.0\"}",
        "5557c7c7bed3be53438dbbdc4472c060\t{\"Platform_Version\":\"4.2\",\"isTablet\":true}",
        "55c78a22eafe589d2377b04b81e24be0\t{\"Browser_Bits\":\"32\",\"Platform\":\"Win7\",\"Platform_Version\":\"6.1\",\"Win32\":true}",
        "5514158f9af8a45df5b0566cfb07d81b\t{\"Platform_Version\":\"8.2\",\"isTablet\":true}",
        "5527a22a643e8d4a099ec503db5e09a5\t{\"Platform_Version\":\"8.1\",\"isTablet\":true}",
        "5534750c87198e282c232ae13d09f7bb\t{\"Platform_Version\":\"4.2\",\"isTablet\":true}",
        "55d1b2643befa8c0e7b3a4c59d172022\t{\"Platform_Version\":\"4.2\",\"isTablet\":true}",
        "557864177eff6c981a894a0407060bb8\t{\"Platform_Version\":\"4.2\",\"isTablet\":true}",
        "5545e0f79ec49e2b9da5c79384a84a5c\t{\"Platform_Version\":\"4.2\",\"isTablet\":true}",
        "55dc19dc3d2e0ac0c77cdb1473611792\t{\"Platform_Version\":\"4.4\",\"isTablet\":true}",
        "558d33c31457d3a32b6bacb5bfb2b31c\t{\"Platform_Version\":\"5.0\"}",
        "55adfde7164b29538b60bd697904afd6\t{\"Platform_Version\":\"4.4\",\"isTablet\":true}",
        "5554557c14014ee834d187d23968cc8b\t{\"Platform_Version\":\"4.2\",\"isTablet\":true}",
        "55422a8beb7416df0e07cf7be2bc8dc3\t{\"Platform_Version\":\"4.4\",\"isTablet\":true}",
        "5531e333af93a5fee7711bde3a7292a9\t{\"Browser_Bits\":\"32\",\"Platform\":\"Android\"}",
        "55a72e28e1b79ec121321a7a2c8b5a28\t[]",
        "55b2dde23e881c066e411b690a001713\t{\"Browser_Bits\":\"32\",\"Platform\":\"Win8\",\"Platform_Version\":\"6.2\",\"Win32\":true}",
        "55ef164628ec27688a01731ff4668a6f\t{\"Browser_Bits\":\"32\",\"Platform\":\"WinXP\",\"Platform_Version\":\"5.2\",\"Win32\":true}",
        "55252dd955413db37e1a1ba58c738ac5\t{\"Browser_Bits\":\"32\",\"Platform\":\"Win7\",\"Platform_Version\":\"6.1\",\"Win32\":true}",
        "55db2b4e815a1d13d6905a57e4c35bfd\t{\"Browser_Bits\":\"32\",\"Platform\":\"MacOSX\",\"Platform_Version\":\"10\"}",
        "5567ec58685c6ed0651ae6620627f22b\t{\"Browser_Bits\":\"32\",\"Platform\":\"Win8\",\"Platform_Version\":\"6.2\",\"Win32\":true}",
        "55a695c6c3e40c1d967ac06e23ca3abf\t{\"Browser_Bits\":\"32\",\"Platform\":\"Linux\"}",
        "554793b7cf9083f81a0690f6496c97af\t{\"Browser_Bits\":\"32\",\"Platform\":\"WinXP\",\"Platform_Version\":\"5.1\",\"Win32\":true}",
        "55c336d996d478fc365d363f667ac816\t{\"Browser_Bits\":\"32\",\"Platform\":\"WinXP\",\"Platform_Version\":\"5.1\",\"Win32\":true}",
        "5550e0008b4e535406a9a76336c3e6f4\t{\"Browser_Bits\":\"32\",\"Platform\":\"Win8.1\",\"Platform_Version\":\"6.3\",\"Win32\":true}",
        "5547ae429cbacbc63609437d7480f785\t{\"Browser_Bits\":\"32\",\"Platform\":\"Linux\"}",
        "554f995b1bb5efea7f0babaf2c538082\t{\"Browser_Bits\":\"32\",\"Platform\":\"Win8\",\"Platform_Version\":\"6.2\",\"Win32\":true}",
        "55991bca927397234f6cd0415aa1d811\t{\"Browser_Bits\":\"32\",\"Platform\":\"WinXP\",\"Platform_Version\":\"5.1\",\"Win32\":true}",
        "5531703fa706b7a3ab11418bcc499942\t{\"Browser_Bits\":\"32\",\"Platform\":\"Win8\",\"Platform_Version\":\"6.2\",\"Win32\":true}",
        "55cfb3a6f5fe81ed135d3fbdb54da4d3\t{\"Browser_Bits\":\"32\",\"Platform\":\"Linux\"}",
        "552d629297b0f47efb6cce6f7df1ca68\t{\"Browser_Bits\":\"32\",\"Platform\":\"Win8\",\"Platform_Version\":\"6.2\",\"Win32\":true}",
        "55025c117b9ca91f2ea922a250b48a3e\t{\"Browser_Bits\":\"32\",\"Platform\":\"MacOSX\",\"Platform_Version\":\"10.10\"}",
        "55e089b3a49d37a72a629f77fe2a03df\t{\"Browser_Bits\":\"32\",\"Platform\":\"WinXP\",\"Platform_Version\":\"5.2\",\"Win32\":true}",
        "553f814af85de9c806f5f277fcda1591\t{\"Browser_Bits\":\"32\",\"Platform\":\"WinXP\",\"Platform_Version\":\"5.1\",\"Win32\":true}",
        "559be95e16316a0d34336e5b92228ddd\t{\"Browser_Bits\":\"32\",\"Platform\":\"Win8\",\"Platform_Version\":\"6.2\",\"Win32\":true}",
        "55a26f0867b9bef53dd9fb9d130c4366\t{\"Browser_Bits\":\"32\",\"Platform\":\"Win8.1\",\"Platform_Version\":\"6.3\",\"Win32\":true}",
        "55b32d079a6f5973fed474d706d079b6\t{\"Browser_Bits\":\"32\",\"Platform\":\"WinXP\",\"Platform_Version\":\"5.1\",\"Win32\":true}",
        "55505a98edf652790dcae9c0979c673c\t{\"Browser_Bits\":\"32\",\"Platform\":\"WinXP\",\"Platform_Version\":\"5.2\",\"Win32\":true}",
        "55c8bf5deefedc934db08301b6793d34\t{\"Browser_Bits\":\"32\",\"Platform\":\"WinXP\",\"Platform_Version\":\"5.1\",\"Win32\":true}",
        "55a14b65e7e81ce1c559ecd791c9a583\t{\"Browser_Bits\":\"32\",\"Platform\":\"Win8.1\",\"Platform_Version\":\"6.3\",\"Win32\":true}",
        "5506f102243cea5b5eca0e0b9e088c44\t{\"Browser_Bits\":\"32\",\"Platform\":\"FreeBSD\"}",
        "55f5a80287d96513275e85b69d4e1bca\t{\"Browser_Bits\":\"32\",\"Platform\":\"Win8.1\",\"Platform_Version\":\"6.3\",\"Win32\":true}",
        "55e4af841005d34c239a40b3abd1dca4\t{\"Browser_Bits\":\"32\",\"Platform\":\"MacOSX\",\"Platform_Version\":\"10.9\"}",
        "557572a6743e6248495397ad81457fc3\t{\"Browser_Bits\":\"32\",\"Platform\":\"Linux\"}",
        "55da88d7cbfe33d739845238c15e4017\t{\"Browser_Bits\":\"32\",\"Platform\":\"Win8.1\",\"Platform_Version\":\"6.3\",\"Win32\":true}",
        "55961eaa322948504f670537ca801e7f\t{\"Browser_Bits\":\"32\",\"Platform\":\"Win8\",\"Platform_Version\":\"6.2\",\"Win32\":true}",
        "555538d22e330ce1f0973a29d0096131\t{\"Browser_Bits\":\"32\",\"Platform\":\"Win7\",\"Platform_Version\":\"6.1\",\"Win32\":true}",
        "558795bb37a8a01be487ecb3e803bd31\t{\"Browser_Bits\":\"32\",\"Platform\":\"Win7\",\"Platform_Version\":\"6.1\",\"Win32\":true}",
        "559395eef863a57f3b2bc2c22faf18f8\t{\"Browser_Bits\":\"32\",\"Platform\":\"MacOSX\",\"Platform_Version\":\"10.9\"}",
        "559d1940815977876009e5602eddf2eb\t{\"Browser_Bits\":\"32\",\"Platform\":\"WinXP\",\"Platform_Version\":\"5.2\",\"Win32\":true}",
        "55cb33d643e6c1d62dbd8bd2923ae52e\t{\"Browser_Bits\":\"32\",\"Platform\":\"Win8\",\"Platform_Version\":\"6.2\",\"Win32\":true}",
        "55c14ba89f9fcb65e6253135d2a9b095\t{\"Browser_Bits\":\"32\",\"Platform\":\"WinXP\",\"Platform_Version\":\"5.1\",\"Win32\":true}",
        "55b14919672cdbbb59ca9cea4bd3a829\t{\"Browser_Bits\":\"32\",\"Platform\":\"Win7\",\"Platform_Version\":\"6.1\",\"Win32\":true}",
        "557a9c8e29e728db084ce56a44beb9df\t{\"Browser_Bits\":\"32\",\"Platform\":\"Linux\"}",
        "5596dc9f9ebafbeaac694ba950a5a644\t{\"Browser_Bits\":\"32\",\"Platform\":\"MacOSX\",\"Platform_Version\":\"10.9\"}",
        "55707588be5da5f7cc9831cf5aa041f0\t{\"Platform_Version\":\"9.0\"}",
        "555de31024401fa4b08d4a8cebe2ab79\t{\"Browser_Bits\":\"32\",\"Platform\":\"Android\",\"Platform_Version\":\"4.3\",\"isTablet\":true}",
        "55926cae0816a00772658bf34e348897\t{\"Browser_Bits\":\"32\",\"Platform\":\"Android\",\"Platform_Version\":\"4.2\",\"isTablet\":true}",
        "55fc40e68adf3d70044f618a0ce46d64\t{\"Browser_Bits\":\"32\",\"Platform\":\"MacOSX\",\"Platform_Version\":\"10.10\"}",
        "55fba4baf4bf7df7e72315ded776d551\t{\"Browser_Bits\":\"32\",\"Platform\":\"MacOSX\",\"Platform_Version\":\"10.10\"}",
        "554a6bde4a740e6db7779e827348b9f5\t{\"Browser_Bits\":\"32\",\"Platform\":\"WinXP\",\"Platform_Version\":\"5.1\",\"Win32\":true}",
        "55a4103dc428ce39b342e28c93da6ba8\t{\"Browser_Bits\":\"32\",\"Platform\":\"Linux\"}",
        "55dec79a0c87ca979ad5dfb696fed023\t{\"Browser_Bits\":\"32\",\"Platform\":\"Win7\",\"Platform_Version\":\"6.1\",\"Win32\":true}",
        "556d4c9f03df75bc18e33282926fa65f\t{\"Browser_Bits\":\"32\",\"Platform\":\"WinXP\",\"Platform_Version\":\"5.2\",\"Win32\":true}",
        "556d8c2c44d26308a0937602ea6070ac\t{\"Browser_Bits\":\"32\",\"Platform\":\"Win8\",\"Platform_Version\":\"6.2\",\"Win32\":true}",
        "55ed02164aa15db5f4996aaf18b74483\t{\"isTablet\":true}",
        "55f6096fe572d24e20d16e9658883274\t[]",
        "556660ced6c2af64e1fa418a88f62bf3\t{\"Platform_Version\":\"4.3\",\"isTablet\":true}",
        "5585a323809cfc6cd65253134fe8bed2\t{\"Platform_Version\":\"4.2\",\"isTablet\":true}",
        "55da37efa4d1d18d1363f910b60d3c6c\t{\"Platform_Version\":\"4.4\",\"isTablet\":true}",
        "55f102db236edd86ddba458de39e7aec\t{\"Browser_Bits\":\"32\",\"Platform\":\"Win10\",\"Platform_Version\":\"10.0\",\"Win32\":true}",
        "5563840e5ae5b983f5f1af0efc8041f2\t{\"Browser_Bits\":\"32\",\"Platform\":\"MacOSX\",\"Platform_Version\":\"10.9\"}",
        "55e92d8213652b5f1ff4b107fa70e9fc\t{\"Platform_Version\":\"10.1\"}",
        "55bb3816bac75827e31177c23020f188\t{\"Platform_Version\":\"4.4\",\"isTablet\":true}",
        "550b8930d1cf84c187941fffadf65a7c\t{\"Platform_Version\":\"4.3\",\"isTablet\":true}",
        "5572dda676a9920194ff79f44c3f6a18\t{\"Platform_Version\":\"4.4\",\"isTablet\":true}",
        "558de0bc4155f76995b29ae8dcac62b9\t{\"Platform_Version\":\"4.2\",\"isTablet\":true}",
        "5549d06e0388ea307832abde3c78b37b\t{\"Platform_Version\":\"4.4\"}",
        "55f4df495280cdb49b8ec632a523491f\t{\"Platform_Version\":\"10.0\"}",
        "55dde2a8ce841267c757f29fb2d90a05\t{\"Platform_Version\":\"4.2\",\"isTablet\":true}",
        "55330c4e53dec0452ede349797c30dd3\t{\"Platform_Version\":\"4.2\",\"isTablet\":true}",
        "55645655c9ad55ad135a33ca6e0cc4c6\t{\"Platform_Version\":\"8.1\",\"isTablet\":true}",
        "552ee8f6695ee410f07573e1deacd6d1\t{\"Browser_Bits\":\"32\",\"Platform\":\"MacOSX\",\"Platform_Version\":\"10.9\"}",
        "555554c39adb53635929219a77558724\t{\"Platform_Version\":\"4.4\",\"isTablet\":true}",
        "551a94b0b893aece3b4c1ecb07568cd6\t{\"Platform_Version\":\"4.3\",\"isTablet\":true}",
        "55c1fdc7d36a6c55c200c413be287800\t{\"Platform_Version\":\"4.4\",\"isTablet\":true}",
        "55d12f62df4bd3e6c50467b0254a6c61\t{\"Platform_Version\":\"4.2\",\"isTablet\":true}",
        "55e7fe83c270c5b9917d24fcfb9878dc\t{\"Platform_Version\":\"8.2\"}",
        "5596af51d5d9f42c9036284d9c47880a\t{\"Platform_Version\":\"9.2\"}",
        "5560b8551abf95737c69e787f4bd63d9\t{\"Browser_Bits\":\"32\",\"Platform\":\"iOS\",\"isMobileDevice\":true}",
        "553843bb2d1c64e39e7fab15ef71001d\t{\"Platform_Version\":\"4.3\",\"isTablet\":true}",
        "55961bf021d8691a810410f974dd6418\t{\"Platform_Version\":\"4.2\",\"isTablet\":true}",
        "555d2f5e19f67cd592a4515b142d5ee6\t{\"Platform_Version\":\"7.0\",\"isTablet\":true}",
        "558425c9ec1d77f0e06a316122a42e0e\t{\"Platform_Version\":\"4.4\",\"isTablet\":true}",
        "55f28b5b16a5fafeb70f24b064c4842d\t{\"Platform_Version\":\"9.3\"}",
        "55da6685af9463fc35c4d8c033fdf732\t{\"Platform_Version\":\"7.1\"}",
        "55c33b5cc2e20a38de4aaf8724f25f19\t{\"Platform_Version\":\"8.2\",\"isTablet\":true}",
        "55881b6424e6273f90e0a3e53ba1ab1f\t{\"Browser_Bits\":\"32\",\"Platform\":\"MacOSX\",\"Platform_Version\":\"10\"}",
        "55edd5731205c94ab7354887b9d30ad2\t{\"Browser_Bits\":\"32\",\"Platform\":\"Linux\"}",
        "55c0a267b850111ed4c80eb612a45e20\t{\"Platform_Version\":\"4.2\",\"isTablet\":true}",
        "555a19e995b9cd6d3972074807f424ff\t{\"Platform_Version\":\"4.3\",\"isTablet\":true}",
        "5511a77e7fb79ee4ef77a7c775c5e16d\t{\"Platform_Version\":\"4.2\",\"isTablet\":true}",
        "551c79e9ba24b8bc1aca4103fd427a4f\t{\"Platform_Version\":\"4.2\",\"isTablet\":true}",
        "55bb9a9585fe9a3b3f06a2481e5d6381\t{\"Browser_Bits\":\"32\",\"Platform\":\"Win7\",\"Platform_Version\":\"6.1\",\"Win32\":true}",
        "55882b10b57368e06cc1b571de2dcb75\t{\"Platform_Version\":\"5.1\",\"isTablet\":true}",
        "557cf216e128a832702e391cc4174db4\t{\"Platform_Version\":\"4.3\",\"isTablet\":true}",
        "55c015fe48ed42491efb6e4b9273b7e2\t{\"Platform_Version\":\"4.2\",\"isTablet\":true}",
        "55e2cba1f9dda0ae195e934ec09e2583\t[]",
        "55662c106d96dc57a5473f872fec4cd7\t{\"Browser_Bits\":\"32\",\"Platform\":\"iOS\",\"isMobileDevice\":true}",
        "55aa3e71cee4a4c0ec34f6df3d115e42\t{\"Platform_Version\":\"7.1\"}",
        "55c9b25934966b532a4d15fd13e53369\t{\"Platform_Version\":\"5.0\",\"isTablet\":true}",
        "55d54cdd683769c375803aed64cbb212\t{\"Platform_Version\":\"5.0\",\"isTablet\":true}",
        "55abfa09510187dcf0523531b3bb404d\t{\"Platform_Version\":\"4.2\",\"isTablet\":true}",
        "5534a3d676f767ce0a13bba15e5e042e\t[]",
        "5505468f43db5df6579085391c64387e\t{\"isTablet\":true}",
        "55c583b6129e11d164b4e77ec4459433\t{\"Platform_Version\":\"7.0\"}",
        "55f059d2630c05623737dc7c6b336d7f\t{\"Browser_Bits\":\"32\",\"Platform\":\"Win10\",\"Platform_Version\":\"10.0\",\"Win32\":true}",
        "55dc505c50292b79d6e82dfd96732e9c\t{\"Platform_Version\":\"4.4\",\"isTablet\":true}",
        "55873a8009a54486f22df8145a8e0adf\t{\"Platform_Version\":\"4.2\",\"isTablet\":true}",
        "55ad5082084971822abb85c7f140eb13\t{\"Platform_Version\":\"4.2\",\"isTablet\":true}",
        "55432c42dd3fb6f26226ef4e4e055b78\t{\"Platform_Version\":\"10.0\"}",
        "55fd2d91eb583abbafae85d4f0f67f97\t{\"Platform_Version\":\"4.2\",\"isTablet\":true}",
        "55aea75c4ac9c399f417dbf066e5c8f9\t{\"Platform_Version\":\"4.2\",\"isTablet\":true}",
        "5501eee04c778a413890ec829127e052\t{\"Platform_Version\":\"4.3\",\"isTablet\":true}",
        "55c2bb52e2d5c5ac4234a23feb17d7d6\t{\"Platform_Version\":\"4.3\",\"isTablet\":true}",
        "5588cc8f02f139ae5520184b5098dc59\t{\"Platform_Version\":\"4.2\",\"isTablet\":true}",
        "553d89d10a9e955ef1bad53a0fbd4e8e\t{\"Browser_Bits\":\"32\",\"Platform\":\"MacOSX\",\"Platform_Version\":\"10.9\"}",
        "555fb5e4840c03bde7e5cf4a01ccfc07\t{\"Platform_Version\":\"4.4\",\"isTablet\":true}",
        "55731346941fd4ad486fd4ec41150849\t{\"Platform_Version\":\"4.2\",\"isTablet\":true}",
        "55c6b41a323c9e10f77af5bb9e68416f\t{\"isTablet\":true}",
        "55527e5c5a97065622111b5aa7c04523\t{\"Platform_Version\":\"10.0\"}",
        "55a8afdad59f3f28af9b70b65ac1f4a8\t{\"Platform_Version\":\"10.1\"}",
        "55eb9ef4de4ef6f6a5fdfea184b8a373\t{\"Platform_Version\":\"4.2\",\"isTablet\":true}",
        "5529eaebf82d43144afe97b7471aa90f\t{\"Platform_Version\":\"9.1\"}",
        "55b25cff9606734b1618ac743a25b104\t{\"Browser_Bits\":\"32\",\"Platform\":\"WinVista\",\"Platform_Version\":\"6.0\",\"Win32\":true}",
        "553629b39f2c4e5c4ac1780bb184f94c\t{\"Platform_Version\":\"4.2\",\"isTablet\":true}",
        "55b20b85c5c0fd4bd68cffd015156213\t{\"Platform_Version\":\"4.2\",\"isTablet\":true}",
        "55351c8ee08aa770e5fc389eae3a80e3\t{\"Platform_Version\":\"4.2\",\"isTablet\":true}",
        "55172f9272dc2169c02b5a4675f555b9\t{\"Platform_Version\":\"4.2\",\"isTablet\":true}",
        "5599be6ee496fae9855c51bce7d07c21\t{\"Browser_Bits\":\"32\",\"Platform\":\"MacOSX\",\"Platform_Version\":\"10\"}",
        "55d840c6a854a98227933579777dce7e\t{\"Platform_Version\":\"4.2\",\"isTablet\":true}",
        "552a5ea2b3f0676fdffb5a77900df84d\t{\"Platform_Version\":\"4.4\",\"isTablet\":true}",
        "55b8c8db70be79912d4f8bd33477c9b3\t{\"Platform_Version\":\"4.2\",\"isTablet\":true}",
        "55ceb566b5eb19f691af0a886f42bfa5\t{\"Browser_Bits\":\"32\",\"Platform\":\"MacOSX\",\"Platform_Version\":\"10.9\"}",
        "55c1da3de0488efc1ab2b5bb716dc335\t{\"Browser_Bits\":\"32\",\"Platform\":\"Win7\",\"Platform_Version\":\"6.1\",\"Win32\":true}",
        "55af71a8d8a8e0879388e9685b828a14\t{\"Platform_Version\":\"4.2\",\"isTablet\":true}",
        "550413dcf83bc420818b8db9e6414e8a\t{\"Browser_Bits\":\"32\",\"Platform\":\"WinVista\",\"Platform_Version\":\"6.0\",\"Win32\":true}",
        "55511f9144850c5fed507160bc4334df\t{\"Platform_Version\":\"4.3\",\"isTablet\":true}",
        "55a8591d1c83898b34d1f72c8c672a9b\t{\"Platform_Version\":\"4.2\",\"isTablet\":true}",
        "558b813196549e4652338d4449728c08\t{\"Platform_Version\":\"4.2\",\"isTablet\":true}",
        "55180ecdc6d15ff9043bed35d5e39163\t{\"Browser_Bits\":\"32\",\"Platform\":\"Win7\",\"Platform_Version\":\"6.1\",\"Win32\":true}",
        "55ff42a4e30e622900bf56c853d5a82d\t{\"Browser_Bits\":\"32\",\"Platform\":\"Win8.1\",\"Platform_Version\":\"6.3\",\"Win32\":true}",
        "55d636118e2fefad485f31a887b5bcc6\t{\"Browser_Bits\":\"32\",\"Platform\":\"WinXP\",\"Platform_Version\":\"5.2\",\"Win32\":true}",
        "55e2406903b035db259f57c51f1cbe35\t{\"Platform_Version\":\"8.1\"}",
        "555e12f361849448987b452539eabe89\t{\"Platform_Version\":\"9.0\"}",
        "558f52fcd2efd121b25450ca9b28e2a1\t{\"Platform_Version\":\"8.1\",\"isTablet\":true}",
        "55440685216af160f911dd81ad9e06a7\t{\"Platform_Version\":\"8.1\",\"isTablet\":true}",
        "55c3abb8d22440bdbb4dffcc0e7d06cd\t{\"Platform_Version\":\"10.1\"}",
        "55cb0dc80b2f6546fc2017cee0dc90b5\t{\"Browser_Bits\":\"32\",\"Platform\":\"iOS\",\"isMobileDevice\":true}",
        "55be9c5d86f1de2ef067eb5a19a4a9a6\t{\"Platform_Version\":\"10.2\"}",
        "55b49e89e23af43da1eabcf15e46918b\t{\"Platform_Version\":\"8.2\",\"isTablet\":true}",
        "55a2738ee8c849610b3b451e0cdab9e0\t{\"Platform_Version\":\"3.1\"}",
        "55a16d385771c5415003cbb0a242ae14\t{\"Platform\":\"Win7\",\"Platform_Version\":\"6.1\"}",
        "55a988d261d3c0d40d9704e2c9fc3434\t{\"Browser_Bits\":\"32\",\"Platform\":\"iOS\",\"Platform_Version\":\"7.0\",\"isMobileDevice\":true,\"isTablet\":true}",
        "55c853c3e98d7b12c7b971c4a4efcddc\t{\"Browser_Bits\":\"32\",\"Platform\":\"Win7\",\"Platform_Version\":\"6.1\",\"Win32\":true}",
        "554dd29e341296b079ec4bc49ef5f36b\t[]",
        "554712fcdc8e84dba7e843146b28278d\t{\"Platform_Version\":\"4.2\"}",
        "5572abce9574516091545e78fc82e8f7\t{\"Browser_Bits\":\"32\",\"Platform\":\"Win10\",\"Platform_Version\":\"6.4\",\"Win32\":true}",
        "55b50490a8604a1b104515505e52a4a0\t{\"Browser_Bits\":\"32\",\"Platform\":\"MacOSX\",\"Platform_Version\":\"10\"}",
        "557ac14f42bb12d69fedb98e2512deba\t{\"Platform_Version\":\"7.0\"}",
        "55af64fe1ad49f1bec2d97fbeaa06dd3\t[]",
        "5557a57667c4bdbf46767b022492c8ac\t{\"Platform_Version\":\"9.0\"}",
        "55aad2be20f2e7aa930b44b45923019e\t{\"Platform_Version\":\"4.3\",\"isTablet\":true}",
        "5540bd7a8d7230ad31b60df90ac10638\t{\"Browser_Bits\":\"32\",\"Platform\":\"iOS\",\"Platform_Version\":\"8.2\"}",
        "55099cc51498f24bd0d1eb6075ec23ca\t{\"Browser_Bits\":\"32\",\"Platform\":\"iOS\",\"Platform_Version\":\"8.0\"}",
        "559e49daf67429effbce409461e2dbf4\t{\"Browser_Bits\":\"32\",\"Platform\":\"iOS\",\"Platform_Version\":\"8.0\"}",
        "55190e593a6b86df4e03a58dec7de1f5\t{\"Browser_Bits\":\"32\",\"Platform\":\"iOS\",\"Platform_Version\":\"9.3\"}",
        "550986d77f9514fd2974367a8dbda93f\t{\"Browser_Bits\":\"32\",\"Platform\":\"iOS\",\"Platform_Version\":\"10.2\",\"isTablet\":true}",
        "55d02830f8517bdc919074e222a8dfe7\t{\"isMobileDevice\":true}",
        "55bd3bd920df85c3a7c19f11c293530f\t{\"Browser_Bits\":\"32\",\"Platform\":\"Android\"}",
        "559567f080df724a5d9c987afdfb2ce9\t[]",
        "559a851effa14110db2a9ce8531371ce\t{\"Platform_Version\":\"9.2\"}",
        "55e063f14c78624a0351c404b89c6e55\t{\"Platform_Version\":\"7.1\"}",
        "55363ce8135c0e296a0d9597dcf6ef33\t{\"Platform_Version\":\"9.3\",\"isTablet\":true}",
        "5542ff13993fb448d6076c90e884e081\t{\"Platform_Version\":\"10.1\"}",
        "5549961796347d967f2bf0f3c7a071ad\t{\"Platform_Version\":\"8.0\"}",
        "55ea77b79f12558bd00287c4a71872c7\t{\"Platform_Version\":\"9.2\"}",
        "55a388b6a717d056353a39514c23c733\t{\"Platform_Version\":\"8.1\",\"isTablet\":true}",
        "552995dd9b26e4af9fcd3f7f6784b430\t{\"Platform_Version\":\"8.4\"}",
        "55cee2ec397102e02eed4da2d2e7562b\t{\"Platform_Version\":\"9.2\"}",
        "55b8c303e95dbfe40568156cd9b53c69\t{\"Platform_Version\":\"9.1\"}",
        "550521dbefde35e868b47a27e96be033\t{\"Platform_Version\":\"10.0\"}",
        "55acf017af4edc2ceb56cb81dd98af81\t{\"Platform_Version\":\"8.0\"}",
        "5528296b44ecdf928df2ac20b241adce\t{\"Platform_Version\":\"8.3\"}",
        "550afd88e4235ff4e37319c05d737984\t{\"Platform_Version\":\"10.2\",\"isTablet\":true}",
        "55ff771b3bf1e0c0bb8128e74798525c\t{\"Platform_Version\":\"8.2\"}",
        "55d99b7012ba094f9cd72311c69a7aa7\t{\"Platform_Version\":\"8.4\"}",
        "55be7ef39af41354ff489bfc2a134577\t[]",
        "5595774e17b84651a9d31bb3d5e90728\t{\"Platform_Version\":\"8.2\",\"isTablet\":true}",
        "55733eed5959686dc18f5c16a70efdff\t{\"Platform_Version\":\"9.3\"}",
        "558c02663cddea2cab285a2b3a4e9a89\t{\"Platform_Version\":\"9.0\",\"isTablet\":true}",
        "55837f3bd2936810c9aaff8c81ae3484\t{\"Browser_Bits\":\"32\",\"Platform\":\"MacOSX\",\"Platform_Version\":\"10.11\"}",
        "5571121a71761334c61c1a54423e3336\t{\"Browser_Bits\":\"32\",\"Platform\":\"MacOSX\",\"Platform_Version\":\"10\"}",
        "55c7cdbdb9d537ad036a01d5312a34b4\t{\"Browser_Bits\":\"32\",\"Platform\":\"Win8\",\"Platform_Version\":\"6.2\",\"Win32\":true}",
        "556b0ccad205c39654b29e90f921954c\t{\"Platform_Version\":\"9.3\"}",
        "55b2644d3e55929274b0a437d99b4f3d\t{\"isTablet\":true}",
        "55de35518ae1caad2b155bc6bf342f4b\t{\"Platform_Version\":\"10.0\"}",
        "5535979d1726f50bafcac9d82efa627f\t{\"Platform_Version\":\"8.1\",\"isTablet\":true}",
        "5556a34d3c45144ef331f52fd60aea43\t{\"Platform_Version\":\"9.2\",\"isTablet\":true}",
        "5521d489d14e73e6b9e4a09e05c327a2\t{\"Platform_Version\":\"8.0\",\"isTablet\":true}",
        "558b94e1ad5d7c873b603d087b1f2057\t{\"Platform_Version\":\"10.2\"}",
        "559d22962579cf79e1d65b5469083adf\t{\"Browser_Bits\":\"32\",\"Platform\":\"Win32\",\"Win32\":true}",
        "558b215aac0b02e1bf787c43b2e4c6c6\t{\"Browser_Bits\":\"32\",\"Platform\":\"iOS\",\"isMobileDevice\":true}",
        "55981fc982d85dbfc7252613e5e83f73\t{\"Browser_Bits\":\"32\",\"Platform\":\"BeOS\"}",
        "556d3b34e0aac208f7419f0679f58239\t{\"Browser_Bits\":\"32\",\"Platform\":\"CygWin\"}",
        "55ad7639310c98ea531978fbc243b360\t{\"Platform\":\"WinXP\",\"Platform_Version\":\"5.1\",\"Win32\":true}",
        "55afb9c668b4996f11c6e08e2d43a644\t{\"Platform\":\"WinXP\",\"Platform_Version\":\"5.1\"}",
        "557d4bca22aa18d3f1cb6f7e576c0af6\t{\"Browser_Bits\":\"32\",\"Platform\":\"FreeBSD\"}",
        "55edca2fb2dd1bf21b329f20751da4b4\t[]",
        "55461fe2d0f70c6066c79714b95a31f3\t{\"Browser_Bits\":\"32\",\"Platform\":\"Win8\",\"Platform_Version\":\"6.2\",\"Win32\":true}",
        "55b061ae35c406e47e3f0954d73f9186\t{\"Browser_Bits\":\"32\",\"Platform\":\"Win8\",\"Platform_Version\":\"6.2\",\"Win32\":true}",
        "55e4e369316b8a5a582d4773121b53af\t{\"Browser_Bits\":\"32\",\"Platform\":\"Win8\",\"Platform_Version\":\"6.2\",\"Win32\":true}",
        "552b9ca1871a9a3556f36dd56a72b5b4\t{\"Browser_Bits\":\"32\",\"Platform\":\"Linux\"}",
        "552d1c2f8a4054bcf5c393219376856e\t{\"Browser_Bits\":\"32\",\"Platform\":\"WinXP\",\"Platform_Version\":\"5.1\",\"Win32\":true}",
        "55772e9670583ef3c8ccd4eafb5f35c8\t{\"Browser_Bits\":\"32\",\"Platform\":\"Win8\",\"Platform_Version\":\"6.2\",\"Win32\":true}",
        "55feeb21c8153817866aeb2c3be1af79\t{\"Browser_Bits\":\"32\",\"Platform\":\"MacOSX\",\"Platform_Version\":\"10.9\"}",
        "558e3fb54ff272d5baef7d855b728f2e\t{\"Browser_Bits\":\"32\",\"Platform\":\"Win8\",\"Platform_Version\":\"6.2\",\"Win32\":true}",
        "5567a79f8aae12b70ffa656cafd3525e\t{\"Browser_Bits\":\"32\",\"Platform\":\"WinVista\",\"Platform_Version\":\"6.0\",\"Win32\":true}",
        "55121eb657dcbdcb0512c40f9175c8ee\t{\"Browser_Bits\":\"32\",\"Platform\":\"WinXP\",\"Platform_Version\":\"5.2\",\"Win32\":true}",
        "556e8999a753bcbd73b28d2311403a64\t{\"Platform\":\"Win7\",\"Platform_Version\":\"6.1\"}",
        "553e45a090bf147ac71e65904c91452b\t{\"Platform\":\"Win8\",\"Platform_Version\":\"6.2\"}",
        "55926bc7524e93e7bf1969bf18f950ac\t{\"Browser_Bits\":\"32\",\"Platform\":\"WinVista\",\"Platform_Version\":\"6.0\",\"Win32\":true}",
        "55bb2471e1f5c61a383ac6e38681ff17\t{\"Browser_Bits\":\"32\",\"Platform\":\"Win7\",\"Platform_Version\":\"6.1\",\"Win32\":true}",
        "5548d9d57cd8909e416f1a8ef7fe2a3c\t{\"Browser_Bits\":\"32\",\"Platform\":\"Win8.1\",\"Platform_Version\":\"6.3\",\"Win32\":true}",
        "55b235021c6174a2b226b1eefbeac5df\t{\"Browser_Bits\":\"32\",\"Platform\":\"WinXP\",\"Platform_Version\":\"5.1\",\"Win32\":true}",
        "55865a21cefff9bd16a1fcc82af3b582\t{\"Browser_Bits\":\"32\",\"Platform\":\"MacOSX\",\"Platform_Version\":\"10\"}",
        "552aabc4aa31a2704b4b067f10ddf4d4\t{\"Browser_Bits\":\"32\",\"Platform\":\"MacOSX\",\"Platform_Version\":\"10.9\"}",
        "55ef06cddd38878987963ed27a483cc4\t{\"Browser_Bits\":\"32\",\"Platform\":\"MacOSX\",\"Platform_Version\":\"10.10\"}",
        "556d6bf0743220f25d15834ed5572781\t{\"Platform_Version\":\"9.0\"}",
        "55d8bdb9f4f4321df2794bf701debf8f\t{\"Platform_Version\":\"8.3\",\"isTablet\":true}",
        "5593122259f613659effd8291a400b33\t{\"Platform_Version\":\"9.2\"}",
        "55632e6d9e7f81bff3b311cee3c69847\t{\"Platform_Version\":\"9.3\",\"isTablet\":true}",
        "557f0aa064aa600e9396dc1604d8e12a\t{\"Browser_Bits\":\"32\",\"Platform\":\"WinVista\",\"Platform_Version\":\"6.0\",\"Win32\":true}",
        "555acdbc1bd4dd6876ed6caceb36dbd2\t{\"Platform_Version\":\"8.4\",\"isTablet\":true}",
        "554aa12d543eae05eab81190a41412fb\t{\"Browser_Bits\":\"32\",\"Platform\":\"WinVista\",\"Platform_Version\":\"6.0\",\"Win32\":true}",
        "55dd7f75e4bc38b8ff0c194ae6e73c9f\t{\"Browser_Bits\":\"32\",\"Platform\":\"Android\",\"isMobileDevice\":true}",
        "558f6a9441e3b5b5802a8e3cc8e4bff0\t{\"Browser_Bits\":\"32\",\"Platform\":\"WinXP\",\"Platform_Version\":\"5.2\",\"Win32\":true,\"isMobileDevice\":false}",
        "5567e97fea7c352337f087bdc20df7c6\t{\"Browser_Bits\":\"32\",\"Platform\":\"MacOSX\",\"Platform_Version\":\"10\",\"isMobileDevice\":false}",
        "55d6987a4e3e8df9ff852721becaf9aa\t{\"Browser_Bits\":\"32\",\"Platform\":\"Linux\"}",
        "55a3696a36a227500ce8eb5c79ed5b6c\t{\"Browser_Bits\":\"32\",\"Platform\":\"WinVista\",\"Platform_Version\":\"6.0\",\"Win32\":true}",
        "559a475012ae348e3b79408a7c03e9a4\t{\"Browser_Bits\":\"32\",\"Platform\":\"WinXP\",\"Platform_Version\":\"5.2\",\"Win32\":true}",
        "55f1423357c09a8a6625db37bfb5d474\t{\"Browser_Bits\":\"32\",\"Platform\":\"Win8.1\",\"Platform_Version\":\"6.3\",\"Win32\":true}",
        "552ae765240daaabce9f696c65e094bd\t{\"Platform_Version\":\"5.1\",\"isTablet\":true}",
        "55f029d35c4fbf026fb97080c4922e16\t[]",
        "553343cba86fbb7e69e372a96f2a884d\t{\"Browser_Bits\":\"32\",\"Platform\":\"OpenBSD\"}",
        "55920d794fc5ba3fcd72331d00f6df1f\t{\"Browser_Bits\":\"32\",\"Platform\":\"WinXP\",\"Platform_Version\":\"5.2\",\"Win32\":true}",
        "559296658737c63f71edbf8e6c0d5d75\t{\"Browser_Bits\":\"32\",\"Platform\":\"NetBSD\"}",
        "554ed26ad792d48811d7b879355940e4\t{\"Browser_Bits\":\"32\",\"Platform\":\"WinVista\",\"Platform_Version\":\"6.0\",\"Win32\":true}",
        "55802ab8b2e9be59cc50ffe1d1e83eaf\t{\"Browser_Bits\":\"32\",\"Platform\":\"MacOSX\",\"Platform_Version\":\"10.9\"}",
        "550c87069a9901787e6306a044e657c9\t{\"Browser_Bits\":\"32\",\"Platform\":\"MacOSX\",\"Platform_Version\":\"10.10\"}",
        "55dbf25fce9b144533a737809c1c9441\t{\"Browser_Bits\":\"32\",\"Platform\":\"NetBSD\"}",
        "55501e684b22a72af636f3366fea20ae\t{\"Browser_Bits\":\"32\",\"Platform\":\"DragonFly BSD\"}",
        "55fbdddff43960926be105a880e4f144\t{\"Browser_Bits\":\"32\",\"Platform\":\"OpenBSD\"}",
        "55effe636719bf632b2572e5eab07250\t{\"Browser_Bits\":\"32\",\"Platform\":\"WinXP\",\"Platform_Version\":\"5.1\",\"Win32\":true}",
        "55cefb23f4ce86cd5c646380677e975c\t{\"Browser_Bits\":\"32\",\"Platform\":\"Win7\",\"Platform_Version\":\"6.1\",\"Win32\":true}",
        "557b7569a7261f68d69234221eb1ee1f\t{\"Browser_Bits\":\"32\",\"Platform\":\"FreeBSD\"}",
        "55cf11a3df57bf47f42f4e291552a95d\t{\"Browser_Bits\":\"32\",\"Platform\":\"Linux\"}",
        "5593c2a6a7dc1504d849bf50b6e9eb2c\t{\"Platform\":\"WinXP\",\"Platform_Version\":\"5.1\",\"Win32\":true}",
        "554ad499bb92fec0952ca789c0e2c107\t{\"Browser_Bits\":\"32\",\"Platform\":\"Linux\"}",
        "55cd1d189e4d220405dd742038fa46d7\t{\"Browser_Bits\":\"32\",\"Platform\":\"MacOSX\",\"Platform_Version\":\"10.11\"}",
        "550a148aec9861fc3e769e2fd0b7cb6a\t[]",
        "55da776f365173d2748bf1e56da39ff1\t[]",
        "5518437d2a367a3c10b5bd5623ba4725\t{\"Platform_Version\":\"8.0\"}",
        "55a506e6f5a219d5c399368ecb06366f\t{\"Platform_Version\":\"8.3\"}",
        "55c5c33c1d2f27cac4f3ad6340974c4c\t{\"Browser_Bits\":\"32\",\"Platform\":\"WinVista\",\"Platform_Version\":\"6.0\",\"Win32\":true}",
        "559f632d47687a552b31a13107a25f24\t[]",
        "55e7b01bca5f0844c23c92d8e9267f7f\t[]",
        "5523938a0865412441bac9e10e98d4fc\t[]",
        "5534fd2692ee9ad8be1998025ee92966\t[]",
        "55c7c1b7573f2b2e0d62ea4ec79fb218\t[]",
        "5527e812cf6573ebad0048f5a646618b\t{\"Platform_Version\":\"7.0\"}",
        "5557e80450bb834f43ab769b4fe8ad29\t[]"
    ]
}