{
    "content": [
        "58afdaae40c5724f253e284ca7bf24e9\t[]",
        "582aa97374712e713b0342cfcdcf9b87\t[]",
        "5869e519fb4337f03fbb85647ba4e0b0\t[]",
        "58e847ab8072582a3cce227edd04b66e\t[]",
        "58828554254a633fe37ffd1656c85069\t[]",
        "58420970f43d4a62e9707b1301fe9453\t[]",
        "580298d74c259c5b08ff077196838305\t[]",
        "58c70a38f19ed0c54c18168868dfa246\t[]",
        "58e53d1324eef6265fdb97b08ed9aadf\t[]",
        "58c8a947f4784c3fc290823ed11c505a\t[]",
        "58dc8f410b3dbe04a4cb4f0996783369\t[]",
        "58f9dcff4bac339bc3773793b8a9fcfc\t[]",
        "58ba541a431dc45244bff28f5b5ae140\t{\"Browser_Bits\":\"32\",\"Platform\":\"Linux\"}",
        "5861407caa7da5ef3ae271a4ec3c4719\t{\"Platform_Version\":\"7.1\"}",
        "583fdfbbf8a940b24a120c888ae85589\t{\"Platform\":\"iOS\",\"Platform_Version\":\"10.1\",\"Win32\":false,\"isMobileDevice\":true,\"isTablet\":true}",
        "5831001497818523be61979eaa4f2aea\t{\"Platform\":\"iOS\",\"Platform_Version\":\"8.1\",\"Win32\":false,\"isMobileDevice\":true,\"isTablet\":true}",
        "5836b99fd040afe32b038921b44714c4\t{\"Platform\":\"MacOSX\",\"Platform_Version\":\"10.11\",\"Win32\":false}",
        "5854c70229a0f67d3cda6cb0b8fbb03c\t{\"Platform\":\"iOS\",\"Platform_Version\":\"9.1\",\"Win32\":false,\"isMobileDevice\":true,\"isTablet\":true}",
        "58a8a002287fb11f624ca521be214e95\t{\"Platform\":\"iOS\",\"Platform_Version\":\"9.1\",\"Win32\":false,\"isMobileDevice\":true,\"isTablet\":true}",
        "58d015b509ecf2d33a33c9abab751c23\t{\"Platform_Version\":\"4.2\",\"isTablet\":true}",
        "58e7231f3f902b1c73eaaa37aaa2351d\t{\"Platform_Version\":\"9.2\"}",
        "58c96cd0efaccf10d1d18a0cc59f4479\t{\"Platform_Version\":\"7.1\",\"isTablet\":true}",
        "5806900a89d6f38b2b8184d3f564c7c2\t{\"Platform_Version\":\"4.4\",\"isTablet\":true}",
        "58ae286c65c8cb2ed652e848a508e4bf\t{\"Browser_Bits\":\"32\",\"Platform\":\"Win8.1\",\"Platform_Version\":\"6.3\",\"Win32\":true}",
        "586e279e85548c375bec38bb6dcabbf5\t{\"Platform\":\"iOS\",\"Platform_Version\":\"9.1\"}",
        "5819fec3a0c6717baa3dcc3d966c5c9a\t{\"Browser_Bits\":\"32\",\"Platform\":\"Android\",\"isMobileDevice\":true}",
        "5885ee88cc46701f51d1e901594282d3\t{\"Platform\":\"iOS\"}",
        "58190322e04f5078ff211c7c3645a9ad\t{\"Platform\":\"iOS\",\"Platform_Version\":\"9.2\"}",
        "58f7af4b9086fb378c6cfb698ba297fc\t{\"Platform_Version\":\"4.3\"}",
        "58099ff34638afadb4ac27d0a83143e4\t[]",
        "5824b349100f744d7aba39ef85c76a6a\t{\"Platform_Version\":\"6.1\"}",
        "584dd41704fc3df8e16ed733bf818fcf\t{\"Platform_Version\":\"4.3\"}",
        "580669c04946b81fdfa93bf0f6e51bf3\t{\"Platform_Version\":\"4.3\"}",
        "581a295f9de1a5b2b5d8a379261910b5\t{\"Platform\":\"SymbianOS\"}",
        "5833c7b169775fb662630aa26953b5c8\t{\"Browser_Bits\":\"32\",\"Platform\":\"Android\",\"Platform_Version\":\"4.2\"}",
        "58af957c4070174004696e4960f29331\t{\"Browser_Bits\":\"32\",\"Platform\":\"Android\",\"isMobileDevice\":true}",
        "58417205b544c20af0f18a6fa0c299c8\t{\"Platform\":\"iOS\",\"Platform_Version\":\"8.1\"}",
        "58a70eddd4764419ce006856e4b527b3\t{\"Platform_Version\":\"4.2\"}",
        "58a831f69469ce2aec93fcc95b4b82dc\t{\"Platform\":\"iOS\",\"Platform_Version\":\"10.2\"}",
        "58af4a90319e16c5979e78003bb333d2\t{\"Platform\":\"Win10\",\"Platform_Version\":\"10.0\"}",
        "58cb065b231fef6e0c8f3925d95e37b8\t{\"Platform\":\"Win10\",\"Platform_Version\":\"6.4\"}",
        "588499decfe71ba3140aecabc496353c\t{\"Platform\":\"WinXP\",\"Platform_Version\":\"5.2\"}",
        "58c072a4a65379d96dc23b548588ea4c\t{\"Platform\":\"Win7\",\"Platform_Version\":\"6.1\",\"Win32\":true}",
        "581cf88a082b63a09e48778e89bed08e\t{\"Platform\":\"WinXP\",\"Platform_Version\":\"5.2\",\"Win32\":true}",
        "58b4f57d7c167aa4f2b9161604ed3a95\t{\"Platform\":\"Win8\",\"Platform_Version\":\"6.2\",\"Win32\":true}",
        "586ecf2565790bb624f7257b0ee1adb8\t{\"Platform\":\"Win10\",\"Platform_Version\":\"10.0\",\"Win32\":true}",
        "586b83999bbff656d1daac5753e213b4\t{\"Platform\":\"WinXP\",\"Platform_Version\":\"5.1\",\"Win32\":true}",
        "58965b83878a0d5bd4af1f86dedbaf15\t{\"Platform\":\"WinVista\",\"Platform_Version\":\"6.0\",\"Win32\":true}",
        "58453884418623135e279fef85de8cd2\t{\"Platform_Version\":\"10.2\",\"isTablet\":true}",
        "58c30c5a08cf10b47299dc3ebf03ea9a\t{\"Platform_Version\":\"8.2\"}",
        "58183e85a7ff475a462cac945c6ed6bf\t{\"Platform_Version\":\"9.0\"}",
        "58c1915e90ac4da986ef699e3ad95db7\t{\"Platform\":\"Win8\",\"Platform_Version\":\"6.2\",\"Win32\":true}",
        "58528e0007bbd4bd7c9803e9632a49cd\t{\"Platform\":\"Win8\",\"Platform_Version\":\"6.2\",\"Win32\":true}",
        "58af450fc2209abb68f93f29eac9a7f2\t{\"Platform_Version\":\"4.4\"}",
        "58a5d5391017c4f46ac420fff20d0fde\t{\"Platform_Version\":\"4.3\",\"isTablet\":true}",
        "583c4341d6756d81b3d25d935b303677\t{\"Platform_Version\":\"4.4\",\"isTablet\":true}",
        "58eeb7028411345410ab91c8fbd89b3e\t{\"Platform_Version\":\"4.2\",\"isTablet\":true}",
        "581f374caa62dc79d43e0c0bc11da922\t{\"Platform_Version\":\"4.2\"}",
        "5868391ca4fa65ea56d76e615ce46c8c\t{\"Platform_Version\":\"5.1\",\"isTablet\":true}",
        "58e4e60f3abc6b9af9a737f5058eea3e\t{\"Platform_Version\":\"4.3\",\"isTablet\":true}",
        "58b3883507d4ea3549d2e38b601cb390\t{\"Platform_Version\":\"4.3\",\"isTablet\":true}",
        "58681d70680bcd07d1eb808be976440f\t{\"Platform_Version\":\"4.2\",\"isTablet\":true}",
        "5882226adb6ce3b0d5858f60fcd03310\t{\"Platform_Version\":\"5.1\",\"isTablet\":true}",
        "589c82057bc0feff27076a560f7de703\t{\"Platform_Version\":\"5.0\",\"isTablet\":true}",
        "587c9872c922e4dda1c871c3bd909a5a\t{\"Platform_Version\":\"5.0\",\"isTablet\":true}",
        "58e3121715acd88e965bcdb7d799f9af\t{\"Platform_Version\":\"4.4\",\"isTablet\":true}",
        "58eaa64cf564d026169a89e84cc62d09\t{\"Platform_Version\":\"4.2\",\"isTablet\":true}",
        "5898341dabad6180e564fa33d18020bf\t{\"Platform_Version\":\"6.0\"}",
        "58ee64b70a68fb6796aec7c3f5e7420d\t{\"Browser_Bits\":\"32\",\"Platform\":\"Android\",\"Platform_Version\":\"7.0\"}",
        "5832a0441f7081aa4f9d140cb487abf1\t{\"Browser_Bits\":\"32\",\"Platform\":\"Android\"}",
        "58d1097fd602a9199166f81b4f29a60c\t{\"Browser_Bits\":\"32\",\"Platform\":\"Android\"}",
        "58c98124b783fc06ab9992cecebcf156\t{\"Browser_Bits\":\"32\",\"Platform\":\"iOS\"}",
        "58a4bd1a5d44ffc5fd5beeff71c12d22\t{\"Platform_Version\":\"10.1\",\"isTablet\":true}",
        "58201f0aae21962cc7f2978e7f0290c0\t{\"Platform_Version\":\"8.1\"}",
        "5831e42de382d4006e42b2a1c1f40083\t{\"Platform_Version\":\"9.2\"}",
        "587dafbee6fc9d4ed2d27ab3f3c73cb6\t{\"Platform_Version\":\"10.2\",\"isTablet\":true}",
        "582b04c55dbeffdace788b754fc55c2c\t{\"Platform_Version\":\"10.2\"}",
        "58970e0406d5b8ca9cd32d5d70957376\t{\"Platform_Version\":\"8.3\",\"isTablet\":true}",
        "58ba084f28188be80575bf8316826707\t{\"Platform_Version\":\"8.3\"}",
        "5807b050ba9031de925a0fd0fb07a6d1\t[]",
        "5849a74b2ad03f84e8baeb063b38e52d\t{\"Browser_Bits\":\"32\",\"Platform\":\"Win10\",\"Platform_Version\":\"6.4\",\"Win32\":true}",
        "5888c02f7a7fbf83634db9b78f02f319\t{\"Browser_Bits\":\"32\",\"Platform\":\"macOS\",\"Platform_Version\":\"10.12\"}",
        "58abd3bebb6c1ad24ad662f63991df5c\t{\"Platform_Version\":\"10.2\"}",
        "584ffdaf60940304ab046582d1d610bd\t{\"Platform_Version\":\"9.1\",\"isTablet\":true}",
        "58946d63ad8c51b781124c681bbdda9f\t{\"Platform_Version\":\"4.2\",\"isTablet\":true}",
        "58d6e5fc27829f27a447a366257ddc4b\t{\"Browser_Bits\":\"32\",\"Platform\":\"WinXP\",\"Platform_Version\":\"5.1\",\"Win32\":true}",
        "58ecb3f7f4d60df6d9fcf95d13f96ff8\t{\"Platform_Version\":\"8.4\",\"isTablet\":true}",
        "58e92a09a1072e576d266a6184ea4457\t{\"Platform_Version\":\"4.4\"}",
        "58ae350adc5e9257b94e264d31be3cc1\t{\"Platform_Version\":\"4.4\"}",
        "583f73b4170ce9ecc162f90a9a055b94\t{\"Platform_Version\":\"4.2\",\"isTablet\":true}",
        "584072c830641081229dedb7c0bb61ef\t{\"Platform_Version\":\"6.0\"}",
        "58208eabe04db7c076fdf8ca27f41611\t{\"Platform_Version\":\"5.1\"}",
        "58289a366c602f8337ee476daba2a06e\t{\"Platform_Version\":\"4.2\",\"isTablet\":true}",
        "58e00e8b6729d6ac1917e1fdca259fad\t{\"Browser_Bits\":\"32\",\"Platform\":\"Android\",\"isMobileDevice\":true}",
        "582b83843ddbd5efeddfb97989167f9f\t{\"Platform_Version\":\"4.2\",\"isTablet\":true}",
        "58b3f2563fdfd46fb2f1a426c7f26cd7\t{\"Platform_Version\":\"4.4\",\"isTablet\":true}",
        "58159d160512472cec9cd49edc7ffa18\t{\"Platform_Version\":\"4.2\",\"isTablet\":true}",
        "58f0957e80eb532050190e785dc005ba\t{\"Platform_Version\":\"4.2\",\"isTablet\":true}",
        "588af816c5c8d01e9e1870b49e7aee19\t{\"Platform_Version\":\"7.0\"}",
        "58546ee55f2dfd6f1edc128f97e26a3a\t{\"Platform_Version\":\"7.1\"}",
        "58285bd362df94ccc53739e9efbb1d68\t{\"Platform_Version\":\"4.2\"}",
        "5889359071b5a68723bb29402efc0f69\t{\"Platform_Version\":\"4.2\",\"isTablet\":true}",
        "5841be2dccea5aa8e4d65448d3b49e90\t{\"isMobileDevice\":true}",
        "581fb9ff57773b541f167c4ae5653f35\t{\"Browser_Bits\":\"32\",\"Platform\":\"WinXP\",\"Platform_Version\":\"5.2\",\"Win32\":true}",
        "58d593682bb617223f83a929661e17e0\t{\"Browser_Bits\":\"32\",\"Platform\":\"Win10\",\"Platform_Version\":\"6.4\",\"Win32\":true}",
        "5827b41bafdec4d92373808347dcd8f6\t{\"Browser_Bits\":\"32\",\"Platform\":\"WinXP\",\"Platform_Version\":\"5.2\",\"Win32\":true}",
        "587c5f5800bc4ba66d6774e429003d10\t{\"Browser_Bits\":\"32\",\"Platform\":\"Win8\",\"Platform_Version\":\"6.2\",\"Win32\":true}",
        "58601bad79e5bbc5ce680d9080b9d7bc\t{\"Browser_Bits\":\"32\",\"Platform\":\"FreeBSD\"}",
        "5805adeb74af101c293a2cd58f4b42a5\t{\"Browser_Bits\":\"32\",\"Platform\":\"MacOSX\",\"Platform_Version\":\"10.10\"}",
        "58a8d5a281d537f3d4d6d777ebf884e7\t{\"Browser_Bits\":\"32\",\"Platform\":\"WinXP\",\"Platform_Version\":\"5.2\",\"Win32\":true}",
        "58ad88fa65090d2f72cf81d9881ecc9d\t{\"Browser_Bits\":\"32\",\"Platform\":\"WinXP\",\"Platform_Version\":\"5.1\",\"Win32\":true}",
        "581ea747c5780f29805f5fe5e41ab9bd\t{\"Browser_Bits\":\"32\",\"Platform\":\"MacOSX\",\"Platform_Version\":\"10.10\"}",
        "5877b5825c7ea2bb798db71043ed75b1\t{\"Browser_Bits\":\"32\",\"Platform\":\"Win7\",\"Platform_Version\":\"6.1\",\"Win32\":true}",
        "58df9d065ded97a0571b77335051dc22\t{\"Browser_Bits\":\"32\",\"Platform\":\"Win7\",\"Platform_Version\":\"6.1\",\"Win32\":true}",
        "58dc95f36e1417ed3a61cdfdd52a7fb5\t{\"Browser_Bits\":\"32\",\"Platform\":\"MacOSX\",\"Platform_Version\":\"10\"}",
        "58fd409911a37d57643d9547f184e6ce\t{\"Browser_Bits\":\"32\",\"Platform\":\"MacOSX\",\"Platform_Version\":\"10.10\"}",
        "5898afb8c50c101ceb473dd4a626d574\t{\"Browser_Bits\":\"32\",\"Platform\":\"WinXP\",\"Platform_Version\":\"5.1\",\"Win32\":true}",
        "587bc7ba8c7928dbc25b4fdf4c3ad0a0\t{\"Browser_Bits\":\"32\",\"Platform\":\"Win8.1\",\"Platform_Version\":\"6.3\",\"Win32\":true}",
        "58bc2079fd598e0a5b92d90caa992cbc\t{\"Browser_Bits\":\"32\",\"Platform\":\"WinVista\",\"Platform_Version\":\"6.0\",\"Win32\":true}",
        "58fe3747b27b5abae53a0ba463c7d805\t{\"Browser_Bits\":\"32\",\"Platform\":\"Win8.1\",\"Platform_Version\":\"6.3\",\"Win32\":true}",
        "58fa08ecc9e933e3bb0d5d839ea17697\t{\"Browser_Bits\":\"32\",\"Platform\":\"MacOSX\",\"Platform_Version\":\"10\"}",
        "58b4c57471d0533e10af4b0da2840b4b\t{\"Browser_Bits\":\"32\",\"Platform\":\"WinXP\",\"Platform_Version\":\"5.2\",\"Win32\":true}",
        "5805817f821310644aa75534aaab80e4\t{\"Browser_Bits\":\"32\",\"Platform\":\"WinXP\",\"Platform_Version\":\"5.1\",\"Win32\":true}",
        "58d8025da80d713bda2f4eee57180bb4\t{\"Browser_Bits\":\"32\",\"Platform\":\"Linux\"}",
        "58b405f9691e2bae8657fbaf5ed50e55\t{\"Browser_Bits\":\"32\",\"Platform\":\"Linux\"}",
        "58587b39132415dba7d2fc6e5a4208d7\t{\"Browser_Bits\":\"32\",\"Platform\":\"WinXP\",\"Platform_Version\":\"5.2\",\"Win32\":true}",
        "585881a6e571faa4185190a8c6721d84\t{\"Browser_Bits\":\"32\",\"Platform\":\"MacOSX\",\"Platform_Version\":\"10\"}",
        "5864127509b8342255621146b3de174e\t{\"Browser_Bits\":\"32\",\"Platform\":\"Win8\",\"Platform_Version\":\"6.2\",\"Win32\":true}",
        "58ef7f098fafd5009f8b9259f11790f8\t{\"Browser_Bits\":\"32\",\"Platform\":\"WinXP\",\"Platform_Version\":\"5.1\",\"Win32\":true}",
        "5888cd05b95033bc12f1e5e79186ca6d\t{\"Browser_Bits\":\"32\",\"Platform\":\"WinXP\",\"Platform_Version\":\"5.1\",\"Win32\":true}",
        "5855e5be62afa66e4582545e5261babb\t{\"Browser_Bits\":\"32\",\"Platform\":\"WinXP\",\"Platform_Version\":\"5.2\",\"Win32\":true}",
        "580fc7f41b97343cb34bd9091c37ffe7\t{\"Browser_Bits\":\"32\",\"Platform\":\"Win32\",\"Win32\":true}",
        "58f8140a29ce3cb3ea30fcae7ed15480\t{\"Browser_Bits\":\"32\",\"Platform\":\"Linux\"}",
        "58e0bd1e8e8b354303eb442571c8cf5a\t{\"Browser_Bits\":\"32\",\"Platform\":\"Win8.1\",\"Platform_Version\":\"6.3\",\"Win32\":true}",
        "58ba94247994b55d55df76211cb1c5da\t{\"Browser_Bits\":\"32\",\"Platform\":\"Linux\"}",
        "58e3851345a90a8d1bfc7571d5b808f3\t{\"Browser_Bits\":\"32\",\"Platform\":\"WinXP\",\"Platform_Version\":\"5.2\",\"Win32\":true}",
        "58ddf8e7d279323373525b0d03e24e94\t{\"Browser_Bits\":\"32\",\"Platform\":\"iOS\",\"isMobileDevice\":true}",
        "5894f21ca6f3ae402898c49eaf54198d\t{\"Platform_Version\":\"8.4\"}",
        "58e5907bc1f07938e48e6b4a46a6063b\t{\"Browser_Bits\":\"32\",\"Platform\":\"Android\",\"isTablet\":true}",
        "5888b18baaf212686e549866495a2fd2\t{\"Browser_Bits\":\"32\",\"Platform\":\"Android\"}",
        "583e64dcfaa650a54703c8f8892b9de7\t{\"Browser_Bits\":\"32\",\"Platform\":\"iOS\",\"Platform_Version\":\"8.3\"}",
        "5862d17f3d1fd7b4729ff2249a67a4cb\t{\"Browser_Bits\":\"32\",\"Platform\":\"WinVista\",\"Platform_Version\":\"6.0\",\"Win32\":true}",
        "58fa8ce737c463e8a6844d16d1f043d0\t{\"Browser_Bits\":\"32\",\"Platform\":\"WinXP\",\"Platform_Version\":\"5.1\",\"Win32\":true}",
        "584062f6ec239146d17fa6330c73dad2\t{\"Browser_Bits\":\"32\",\"Platform\":\"WinXP\",\"Platform_Version\":\"5.2\",\"Win32\":true}",
        "584a153616c66c805c93f81201a785f9\t{\"Browser_Bits\":\"32\",\"Platform\":\"WinXP\",\"Platform_Version\":\"5.1\",\"Win32\":true}",
        "58079cd42943282e34a1cc14de051a1b\t{\"Browser_Bits\":\"32\",\"Platform\":\"WinXP\",\"Platform_Version\":\"5.2\",\"Win32\":true}",
        "58234e49f3d1d9da0aeb18c0784e00e4\t{\"Platform_Version\":\"7.1\"}",
        "5890b5914fe40c2065078f8c5d5157fe\t{\"Browser_Bits\":\"32\",\"Platform\":\"Win8\",\"Platform_Version\":\"6.2\",\"Win32\":true}",
        "583c843c2eb84964824da857bd983244\t{\"Browser_Bits\":\"32\",\"Platform\":\"WinVista\",\"Platform_Version\":\"6.0\",\"Win32\":true}",
        "581fb156b9fe6c3d08a989fff29aafee\t{\"Platform_Version\":\"4.2\"}",
        "58053247f1a262b2cb7770ae58cdeb6f\t{\"Platform_Version\":\"4.4\",\"isTablet\":true}",
        "582bf9bb11d592ed8390c3485826b8a1\t{\"Platform_Version\":\"4.2\",\"isTablet\":true}",
        "58c2b7a1ef40c6b1f7e968a08705a7a5\t[]",
        "58eab2006ce71e234f783ddee2045a11\t{\"isTablet\":true}",
        "58c37ed937ed2904b9356428dddabf7d\t[]",
        "589ca77490abca7109d11e3cacbffbaa\t{\"Browser_Bits\":\"32\",\"Platform\":\"Win10\",\"Platform_Version\":\"10.0\",\"Win32\":true}",
        "588aea7d2fc0e1efa4a39f00726465e5\t{\"Platform_Version\":\"4.2\",\"isTablet\":true}",
        "58cba5cf144385cde7186e09817f6424\t{\"Platform_Version\":\"4.3\",\"isTablet\":true}",
        "5862e38134b8021f3594534206590354\t{\"Platform_Version\":\"9.0\"}",
        "5847de892627c88a8822043562434815\t{\"Platform_Version\":\"4.2\",\"isTablet\":true}",
        "583c5710530be841b4d22af74ca9a739\t{\"Platform_Version\":\"4.4\",\"isTablet\":true}",
        "58f80bb3442df9dd85ab63c50f724a44\t{\"Platform_Version\":\"4.2\",\"isTablet\":true}",
        "58b138823de9fb46a5a2f490cef3a6d5\t{\"Platform_Version\":\"4.3\",\"isTablet\":true}",
        "582bbdc6d109ab2944fdf60f12062dc3\t{\"Platform_Version\":\"9.1\",\"isTablet\":true}",
        "58a7b187469bc2f50532c5f929fc49aa\t{\"Platform_Version\":\"4.3\"}",
        "58d745bb2162a9a979fff2b11a796aaf\t{\"Platform_Version\":\"4.3\",\"isTablet\":true}",
        "58e0f0c1c7353bc4949699e9c5811b1e\t[]",
        "58d2b84f8b86b921b4681cdf6aa2b677\t{\"Platform_Version\":\"4.4\",\"isTablet\":true}",
        "586185ebf69aed63415a7b5cebe31b7e\t{\"Platform_Version\":\"10.3\"}",
        "5894d654a8204f83ba621f8beced3cb6\t{\"Platform_Version\":\"4.4\",\"isTablet\":true}",
        "58b4a9603c40fafa3533f5e9e894205d\t{\"Platform_Version\":\"4.3\"}",
        "58b85e7f5dc924b952fb1c8490f7994a\t{\"Platform_Version\":\"10.3\",\"isTablet\":true}",
        "589bc574d8794dbe7a277480f03a416e\t{\"Platform_Version\":\"9.2\"}",
        "580a983ed955e678af58827c414a44c8\t{\"Platform_Version\":\"4.4\",\"isTablet\":true}",
        "58919d00862f6fd010c635c9014be9bf\t{\"Platform_Version\":\"4.2\",\"isTablet\":true}",
        "58eb24b7556e584f4f86e75c3eb2be51\t{\"Platform_Version\":\"4.3\",\"isTablet\":true}",
        "58b0970cd0444b71eee95c8b68b8b6e2\t{\"Platform_Version\":\"10.2\",\"isTablet\":true}",
        "58c51dfd05d0ad9c5b5fc51f3a6e5149\t{\"Browser_Bits\":\"32\",\"Platform\":\"OpenBSD\"}",
        "5855dc86aa212443415621b8ee11cdfd\t{\"Browser_Bits\":\"32\",\"Platform\":\"Linux\"}",
        "58a114be758f1c6c5366403d04d608b9\t{\"Platform_Version\":\"5.1\",\"isTablet\":true}",
        "582cc8bb5aeccc21b07e6a21b71b39ae\t{\"Platform_Version\":\"4.4\",\"isTablet\":true}",
        "586e7a19205d4e6a6b26738b199ec509\t{\"Platform_Version\":\"4.4\",\"isTablet\":true}",
        "58d207063fabfb0f15bc2eca6a337057\t{\"Platform_Version\":\"4.2\",\"isTablet\":true}",
        "5879265343223014ceb17c81951bc14c\t{\"Platform_Version\":\"7.1\"}",
        "58f4e5a22a8ae2bffa07721036620545\t{\"Platform_Version\":\"8.2\"}",
        "58184c1cd8db0f1eefb82dc6f64d3c78\t{\"Platform_Version\":\"4.3\",\"isTablet\":true}",
        "5816efc4d09d6a88c11155e9a5b7b7bc\t{\"Platform_Version\":\"7.1\"}",
        "5864c4750c6263e69bb98827c2f3a88a\t{\"Platform_Version\":\"9.2\"}",
        "5880227cfb07b29e7fc24f65714081aa\t{\"Platform_Version\":\"4.3\",\"isTablet\":true}",
        "58f9286f239c46d22c3829d6755d96a3\t{\"Browser_Bits\":\"32\",\"Platform\":\"Win10\",\"Platform_Version\":\"6.4\",\"Win32\":true}",
        "589fe3a48a314cbcf3f4d6ff691f39a9\t{\"Browser_Bits\":\"32\",\"Platform\":\"Win10\",\"Platform_Version\":\"10.0\",\"Win32\":true}",
        "5805d6cc7608a7fc3c5f7e86faf01402\t{\"Platform_Version\":\"4.3\",\"isTablet\":true}",
        "584297d4ef9936ea52729c0c38a9bf84\t{\"Platform_Version\":\"4.3\",\"isTablet\":true}",
        "582592ca5851bee3168d4711aaf014af\t{\"Platform_Version\":\"4.4\",\"isTablet\":true}",
        "58606289250a7f0373fcc5c2bebba915\t{\"Platform_Version\":\"4.4\"}",
        "585bd330f00b74932e6d24c0c9c1642a\t{\"Platform_Version\":\"7.1\"}",
        "586475b2cf9ddb68c489617e61942347\t{\"Platform_Version\":\"4.2\",\"isTablet\":true}",
        "58b9f0dc1dfdd371539d7bc617d224c7\t{\"Platform_Version\":\"4.4\",\"isTablet\":true}",
        "5897b2ee6b1adbb29013b96384368ea4\t{\"Platform_Version\":\"4.2\",\"isTablet\":true}",
        "58edb572164692d1cc81b76f267d7fb4\t{\"Platform_Version\":\"7.1\"}",
        "58b3fe7c072a33eb5b9b3685e67097d0\t{\"Platform_Version\":\"4.4\",\"isTablet\":true}",
        "588e47038fe12d24b79131c309846e21\t{\"Platform_Version\":\"4.4\",\"isTablet\":true}",
        "588997a074ce95fc9aa1f7427038f692\t{\"Platform_Version\":\"4.4\",\"isTablet\":true}",
        "58cc2c593e804f96cf98955064d46a5d\t{\"Platform_Version\":\"4.3\",\"isTablet\":true}",
        "58c275bfae6b5a5fe3737ec810052e63\t{\"Platform_Version\":\"4.2\",\"isTablet\":true}",
        "58876081cd193fcaa4b8912dc458d0b0\t{\"Platform_Version\":\"8.3\"}",
        "58bc8d02b9b369802a10e2c2a28e5eee\t{\"Platform_Version\":\"4.4\",\"isTablet\":true}",
        "58f25901c55d05bb570c2c60d1246608\t{\"Platform_Version\":\"4.2\",\"isTablet\":true}",
        "58ba91c641f9b1026281f94247f67ec5\t{\"Platform_Version\":\"7.1\"}",
        "5834055c2c6e14039998d646e417d6d7\t{\"Platform_Version\":\"4.4\",\"isTablet\":true}",
        "5829389b1e2a820cc8939c61af77bc03\t{\"Platform_Version\":\"4.3\",\"isTablet\":true}",
        "586b11b2fbfd71dd62591e10c0fc8c1a\t{\"Platform_Version\":\"4.2\",\"isTablet\":true}",
        "5825c1971d34525261751c00be7812d5\t{\"Platform_Version\":\"4.2\",\"isTablet\":true}",
        "5817e37bc902010e74bc70ce08009748\t{\"Platform_Version\":\"4.2\",\"isTablet\":true}",
        "584b466f41c9a80a065328ea7d0e1e4b\t{\"Platform_Version\":\"4.2\",\"isTablet\":true}",
        "58a7f70c7096244311f4d99f7abfc72b\t{\"Platform_Version\":\"9.3\"}",
        "5816c297ecc14f69a5077cf2c08451d1\t{\"Platform_Version\":\"4.2\",\"isTablet\":true}",
        "58718d809ff609fbc60b1a77c2e82a85\t{\"Platform_Version\":\"4.2\",\"isTablet\":true}",
        "5864f2a24ce3525e2c0ec6fa6b88a82e\t{\"Platform_Version\":\"4.4\",\"isTablet\":true}",
        "580af78cc8897efe3bfbd4b1de33d797\t{\"Platform_Version\":\"4.2\",\"isTablet\":true}",
        "580e6e0140674acf275e46084cddc18c\t{\"Browser_Bits\":\"32\",\"Platform\":\"WinXP\",\"Platform_Version\":\"5.1\",\"Win32\":true}",
        "588e7ef161804b5b2503dd27b315a4b9\t{\"Browser_Bits\":\"32\",\"Platform\":\"Win7\",\"Platform_Version\":\"6.1\",\"Win32\":true}",
        "5886b018f28e8e86dcb1cae552094248\t{\"isTablet\":true}",
        "58e57d787b83e27e9a113e8c633b4a3c\t{\"Platform_Version\":\"7.1\",\"isTablet\":true}",
        "58741cdc8d038dd0870f6eedc0c755cb\t{\"Browser_Bits\":\"32\",\"Platform\":\"MacOSX\",\"Platform_Version\":\"10\"}",
        "58613951e913cbf2fea747d7b5e3cf3a\t{\"Browser_Bits\":\"32\",\"Platform\":\"Win32\",\"Win32\":true}",
        "584922ff0f8a7b0ebff87a866085e79f\t[]",
        "581bee379b5e9259d24f1faa0fc7bd46\t{\"Browser_Bits\":\"32\",\"Platform\":\"MacOSX\",\"Platform_Version\":\"10\"}",
        "58ebb799db085bd1f2facf6f3183d0bc\t{\"Browser_Bits\":\"32\",\"Platform\":\"WinXP\",\"Platform_Version\":\"5.2\",\"Win32\":true}",
        "581a6817def5ec8eec9acd09e0e08e3c\t{\"Browser_Bits\":\"32\",\"Platform\":\"WinXP\",\"Platform_Version\":\"5.2\",\"Win32\":true}",
        "58dea3d9c4c6e2d2df62b0870b3e5a2d\t{\"Browser_Bits\":\"32\",\"Platform\":\"Win32\",\"Win32\":true}",
        "589b28dde013faf1e36fe23361a1e306\t{\"Platform_Version\":\"8.1\"}",
        "58706c25e1e331fb7c6962d099c3170a\t{\"Platform_Version\":\"8.4\",\"isTablet\":true}",
        "5825d549e9f8f94606bb1c49476aedc3\t{\"Platform_Version\":\"9.3\"}",
        "5894476c3853b055c4e2cfed8da6093d\t{\"isTablet\":true}",
        "581d1e4f4bb5e7b75bf0b597242bddb5\t{\"Browser_Bits\":\"32\",\"Platform\":\"MeeGo\",\"isMobileDevice\":false}",
        "58696d30c703cf3ddaa762f830422d65\t{\"Platform_Version\":\"6.0\"}",
        "5848cc9bf182c87f2ecbb2499b35f395\t{\"Platform_Version\":\"10.3\"}",
        "58422a59a681a7c391dde91a046e475e\t{\"Platform_Version\":\"8.0\"}",
        "586a2e0609ce97a5ef9c8e23a0e74095\t[]",
        "58a7ec6e3af3ca72cd65678cafc719e6\t{\"Browser_Bits\":\"32\",\"Platform\":\"iOS\"}",
        "5823db8f31b4cbfd5740cb8fad9e47cb\t{\"Platform_Version\":\"7.0\"}",
        "5805996bb585794b698ced776e666db3\t[]",
        "58ce94eab6e904f010b275e8b94fc466\t[]",
        "5856df79e6e18d39b99c7f5393f4edda\t{\"Browser_Bits\":\"32\",\"Platform\":\"Android\",\"isMobileDevice\":true}",
        "5890974a57a95bbc1c8c85bc5fd6cf1d\t[]",
        "582fe20303e52981df1c4259da8de10f\t{\"Browser_Bits\":\"32\",\"Platform\":\"OrbisOS\"}",
        "580539d9b9ef426e1f52e2d856055af7\t{\"Platform_Version\":\"7.0\"}",
        "58cface9a0cebba7a50784d9abb06984\t{\"Platform_Version\":\"4.4\"}",
        "58352731cbf360f06886af38a72bc804\t{\"Browser_Bits\":\"32\",\"Platform\":\"Android\",\"isMobileDevice\":true}",
        "58e5eece5aab188d86f2fc7d816bd6bb\t{\"Platform_Version\":\"4.3\"}",
        "58e3bdb2fc6439809a60c1656530ee5d\t{\"Platform_Version\":\"4.3\",\"isTablet\":true}",
        "58434f35a78c914bf49d8570c2377e47\t{\"Platform_Version\":\"4.2\",\"isTablet\":true}",
        "587abd80127396ef43147916d9887791\t{\"Platform_Version\":\"4.2\",\"isTablet\":true}",
        "5824ee33538c0ac2159f8e1dbd70aab9\t{\"Platform_Version\":\"4.2\",\"isTablet\":true}",
        "584281cdbb1929c09b3c686a49072a9f\t{\"Platform_Version\":\"4.4\"}",
        "584f0e4c5efbffe7f5a05db2dbd7f8f1\t{\"Browser_Bits\":\"32\",\"Platform\":\"iOS\",\"Platform_Version\":\"9.0\",\"isTablet\":true}",
        "587e7fa709cfeec9c4df364ff8977986\t{\"Browser_Bits\":\"32\",\"Platform\":\"iOS\",\"Platform_Version\":\"9.1\",\"isTablet\":true}",
        "5899141eee39792733abfd53b3fe5776\t{\"Browser_Bits\":\"32\",\"Platform\":\"iOS\",\"Platform_Version\":\"8.2\",\"isTablet\":true}",
        "580695f1a3db967abee3ad9aca56552f\t{\"Browser_Bits\":\"32\",\"Platform\":\"SymbianOS\"}",
        "5869af2b2c5e3388c985db1f558979ea\t{\"Browser_Bits\":\"32\",\"Platform\":\"iOS\",\"isTablet\":true}",
        "5899a9e1483d85f22128229dee2c0f4a\t{\"Browser_Bits\":\"32\",\"Platform\":\"Brew\",\"Platform_Version\":\"2.0\"}",
        "584075aaa9e5f336617aaaacd844aa51\t{\"Browser_Bits\":\"32\",\"Platform\":\"Linux\"}",
        "5869a6f45347f20076dfecec2688e8c6\t{\"Browser_Bits\":\"32\",\"Platform\":\"Linux\"}",
        "58108c508b645481f184d549021c7ec0\t{\"Platform_Version\":\"8.0\"}",
        "585038ae52db208b2ec37a624742863b\t{\"Platform_Version\":\"9.2\",\"isTablet\":true}",
        "582bec2df262c5bc8d8078e83157a4f4\t{\"Platform_Version\":\"9.2\"}",
        "58ff60e54716f03697585d4051c8df4f\t{\"Platform_Version\":\"8.3\"}",
        "586087857d00b2a341e73b419a0cafda\t{\"isTablet\":true}",
        "58cd0bfc123522546da7d016cc9519a4\t{\"Platform_Version\":\"10.1\"}",
        "58ca4c243cea17e4aa830be54138b869\t{\"Platform_Version\":\"8.2\",\"isTablet\":true}",
        "581667cc3b1148bf5be7d4bec5f63b59\t{\"Platform_Version\":\"8.3\"}",
        "588a91b207ae7484f7e7272f43a1e8fe\t{\"Platform_Version\":\"8.3\",\"isTablet\":true}",
        "58cf72d84e09801c78106327bcaecfa5\t{\"Platform_Version\":\"9.0\"}",
        "5807e96c768b6d6dbf947e79ffcf38ff\t{\"Platform_Version\":\"9.0\"}",
        "582ece71913904beea8675f5b0b0aafe\t{\"Platform_Version\":\"8.4\",\"isTablet\":true}",
        "585be94c2f5bdde906333bb762a24b53\t{\"Platform_Version\":\"10.3\"}",
        "58a16e64920bd04ac215356b9379cdfb\t{\"Platform_Version\":\"8.0\",\"isTablet\":true}",
        "58ece73432c84ace8c34447e2d7ee4b1\t{\"Platform_Version\":\"8.3\"}",
        "5889671a373ff88eff8e266c62dfe09c\t{\"Platform_Version\":\"8.1\",\"isTablet\":true}",
        "582dabdef1c9dc2a21ce14ae678f2044\t{\"Platform_Version\":\"8.2\",\"isTablet\":true}",
        "58e58a9fcdb917ff28043c1edf15507e\t{\"Platform_Version\":\"9.2\",\"isTablet\":true}",
        "580976051648841113411a094d68e993\t{\"Platform_Version\":\"8.4\",\"isTablet\":true}",
        "5855a3460ea55863cbce4e2db80a992c\t{\"Platform_Version\":\"7.1\",\"isTablet\":true}",
        "58599b04ede3beaa3d82ed1eb10123bb\t{\"Browser_Bits\":\"32\",\"Platform\":\"iOS\",\"isMobileDevice\":true}",
        "588e2331cf061f5b07904022ff847329\t{\"Platform_Version\":\"8.0\"}",
        "58d6be9ddda5761115209ea341f64177\t{\"Platform_Version\":\"9.2\"}",
        "589a507502af82af4cf3e02635b58802\t{\"Platform_Version\":\"8.4\",\"isTablet\":true}",
        "58d9f8573e05c86e1db2b2a29ee81c53\t{\"Platform_Version\":\"7.1\"}",
        "58766d752e708174d04c9ec26c50350a\t{\"Platform_Version\":\"8.0\",\"isTablet\":true}",
        "583ab493203a680ebdc9c7e358eaf804\t{\"Platform_Version\":\"9.2\"}",
        "58373f88466b200857d9264532276916\t{\"Platform_Version\":\"8.0\"}",
        "58304e580e5b14b5c531ee90d7db6944\t{\"Platform_Version\":\"9.1\"}",
        "58cff00add7c0f2ad877bd4a8ca1e628\t{\"Platform_Version\":\"4.4\",\"isTablet\":true}",
        "589a4039a63e1d6305debb8c86f69748\t{\"Browser_Bits\":\"32\",\"Platform\":\"iOS\",\"Platform_Version\":\"8.0\"}",
        "58a5f9da72bef27fce87b48efcd3482d\t{\"Browser_Bits\":\"32\",\"Platform\":\"Android\",\"isMobileDevice\":true}",
        "58bef01ddef60c9502f6a074c1a0a9fd\t{\"Platform_Version\":\"8.1\"}",
        "583a2addc9cd0b499ee7e4f38d564abc\t{\"Platform_Version\":\"8.0\",\"isTablet\":true}",
        "58cd3ec435aa3b8073186198734178a3\t{\"Platform_Version\":\"8.0\"}",
        "586e7bb599e65e27b7a3e0b575817353\t{\"Platform_Version\":\"8.1\"}",
        "58f9f0b5e5fc5c50d44eb9ebefb18517\t{\"Platform_Version\":\"8.2\"}",
        "5803b01bd60053b0875ae406dfc8979d\t{\"Platform\":\"Win8\",\"Platform_Version\":\"6.2\",\"Win32\":true}",
        "58eaa693f8849d10d582d8de91e8697f\t[]",
        "583562bb9198a3c8fa912b0792ff1929\t{\"Browser_Bits\":\"32\",\"Platform\":\"MacOSX\",\"Platform_Version\":\"10.9\"}",
        "584f7184f9b69dcef222b5902611f5e9\t{\"Browser_Bits\":\"32\",\"Platform\":\"WinXP\",\"Platform_Version\":\"5.1\",\"Win32\":true}",
        "5883dde4c6dec43a6b52ee0d40f1ce75\t{\"Browser_Bits\":\"32\",\"Platform\":\"Win7\",\"Platform_Version\":\"6.1\",\"Win32\":true}",
        "58e3d8c6a80e8727a66dae19d6dfb3ce\t{\"Browser_Bits\":\"32\",\"Platform\":\"WinXP\",\"Platform_Version\":\"5.2\",\"Win32\":true}",
        "58c29e4bc0711ec9371084f4c9bd096a\t{\"Browser_Bits\":\"32\",\"Platform\":\"Win7\",\"Platform_Version\":\"6.1\",\"Win32\":true}",
        "58b58433f7c94c6a340fb31a5fdefaee\t{\"Browser_Bits\":\"32\",\"Platform\":\"MacOSX\",\"Platform_Version\":\"10.9\"}",
        "58b94a95ab3fe7c1e1fd1aabbc06bc13\t{\"Browser_Bits\":\"32\",\"Platform\":\"MacOSX\",\"Platform_Version\":\"10\"}",
        "582e973bd09415d489a67524802b4eee\t{\"Browser_Bits\":\"32\",\"Platform\":\"Linux\"}",
        "58d95e7b15cadd1a8c850dad8bf46c1d\t{\"Browser_Bits\":\"32\",\"Platform\":\"OpenBSD\"}",
        "58b93a529d16dd442822a2edfd3d706c\t{\"Browser_Bits\":\"32\",\"Platform\":\"Win10\",\"Platform_Version\":\"10.0\",\"Win32\":true}",
        "5815c1c2c10019c6f5e80d26ce6c2b37\t{\"Browser_Bits\":\"32\",\"Platform\":\"Win8\",\"Platform_Version\":\"6.2\",\"Win32\":true}",
        "580dc3ca6908cd666685596fb87f4d43\t{\"Browser_Bits\":\"32\",\"Platform\":\"MacOSX\",\"Platform_Version\":\"10.11\"}",
        "589ba698f7e140d97398244d4386a0d7\t{\"Platform\":\"WinVista\",\"Platform_Version\":\"6.0\"}",
        "587935923b96a790df533be277500f57\t{\"Platform\":\"WinVista\",\"Platform_Version\":\"6.0\"}",
        "58ed5724f09fb293dc3fae56dc78299f\t{\"Browser_Bits\":\"32\",\"Platform\":\"WinXP\",\"Platform_Version\":\"5.2\",\"Win32\":true}",
        "58556ff81bac68fc02ae63a42b3b4765\t{\"Platform_Version\":\"10.10\"}",
        "589e5c833c434c31b0bb777b64797a4e\t{\"Browser_Bits\":\"32\",\"Platform\":\"WinXP\",\"Platform_Version\":\"5.1\",\"Win32\":true}",
        "58dc76e44561b91e633affb0c48d3aff\t{\"Browser_Bits\":\"32\",\"Platform\":\"WinXP\",\"Platform_Version\":\"5.1\",\"Win32\":true}",
        "58a8a50df0012c27808fa8dd4199a830\t{\"Browser_Bits\":\"32\",\"Platform\":\"Win7\",\"Platform_Version\":\"6.1\",\"Win32\":true}",
        "58da5b9ad403ccbdfcb126cfc809ea60\t{\"Browser_Bits\":\"32\",\"Platform\":\"MacOSX\",\"Platform_Version\":\"10\"}",
        "5830c4a32eabce81e524bf794e8b77d5\t{\"Browser_Bits\":\"32\",\"Platform\":\"OpenBSD\"}",
        "584a41908ed3918f837c6802d8c52564\t{\"Browser_Bits\":\"32\",\"Platform\":\"Win7\",\"Platform_Version\":\"6.1\",\"Win32\":true}",
        "587cda8ac4d48365f48e670a351e4c25\t{\"Browser_Bits\":\"32\",\"Platform\":\"MacOSX\",\"Platform_Version\":\"10\"}",
        "58f98cc50f8fe3114ee3bba7931355fb\t{\"Browser_Bits\":\"32\",\"Platform\":\"MacOSX\",\"Platform_Version\":\"10.10\"}",
        "584393acc47f1ece54861a9074718e69\t{\"Browser_Bits\":\"32\",\"Platform\":\"MacOSX\",\"Platform_Version\":\"10\"}",
        "585d197b33f4da2fed8fcb3bf09079aa\t{\"Browser_Bits\":\"32\",\"Platform\":\"WinVista\",\"Platform_Version\":\"6.0\",\"Win32\":true}",
        "585b6f7eed6949f00251723aa9ac7e41\t{\"Browser_Bits\":\"32\",\"Platform\":\"Linux\"}",
        "58914f3383c42af32c9fcdcb69e29359\t{\"Browser_Bits\":\"32\",\"Platform\":\"Win7\",\"Platform_Version\":\"6.1\",\"Win32\":true}",
        "58fcb333730d892a850de284b9960e7b\t{\"Browser_Bits\":\"32\",\"Platform\":\"WinVista\",\"Platform_Version\":\"6.0\",\"Win32\":true}",
        "581935580c709a11afc1ff5ca45316d1\t{\"Browser_Bits\":\"32\",\"Platform\":\"WinXP\",\"Platform_Version\":\"5.1\",\"Win32\":true}",
        "5880ec26bb7c860efea0d2abf270d0cb\t{\"Browser_Bits\":\"32\",\"Platform\":\"Win8\",\"Platform_Version\":\"6.2\",\"Win32\":true}",
        "5855e1b306a3390194465eb4f4448a75\t{\"Browser_Bits\":\"32\",\"Platform\":\"Win7\",\"Platform_Version\":\"6.1\",\"Win32\":true,\"isMobileDevice\":false}",
        "588a7a52f2e9e2c97c925071bdc25771\t{\"Browser_Bits\":\"32\",\"Platform\":\"Win7\",\"Platform_Version\":\"6.1\",\"Win32\":true,\"isMobileDevice\":false}",
        "58a998a5a41213275a6e6eeb3ebe7b6f\t{\"Browser_Bits\":\"32\",\"Platform\":\"WinXP\",\"Platform_Version\":\"5.1\",\"Win32\":true}",
        "5898aca41b506e0330dc783685c7fcf9\t{\"Platform\":\"Win8\",\"Platform_Version\":\"6.2\"}",
        "586e25e0dc381bf7fe412581dc94146f\t[]",
        "58e7decf54ee703ba9af8fa15747c303\t{\"Browser_Bits\":\"32\",\"Platform\":\"MacOSX\",\"Platform_Version\":\"10.9\"}",
        "5815024257b4d1ede0a4f25d58d5d0bc\t{\"isTablet\":true}",
        "58e51563771c5c1e85333ac1bfd278a0\t{\"Browser_Bits\":\"32\",\"Platform\":\"Android\",\"isMobileDevice\":true}",
        "58a93a63c020150db7816879b02e0878\t{\"Platform_Version\":\"7.1\"}",
        "580141320da8789ef31050e8808932ee\t{\"Platform_Version\":\"5.1\"}",
        "58f4ff8bd4c59bed98e86d05a3a4abc2\t{\"Browser_Bits\":\"32\",\"Platform\":\"MacOSX\",\"Platform_Version\":\"10.9\"}",
        "5810e024381ebea0a90d35bddc090607\t{\"Browser_Bits\":\"32\",\"Platform\":\"Win8.1\",\"Platform_Version\":\"6.3\",\"Win32\":true}",
        "58306789c1bd34abe2633c65ea9d71c8\t{\"Browser_Bits\":\"32\",\"Platform\":\"Win7\",\"Platform_Version\":\"6.1\",\"Win32\":true}",
        "5828ba852b94881faa29d6f5b41e0f31\t{\"Browser_Bits\":\"32\",\"Platform\":\"MacOSX\",\"Platform_Version\":\"10.9\"}",
        "58b7018482ed04ed9a712610a50181ba\t{\"Browser_Bits\":\"32\",\"Platform\":\"Win8.1\",\"Platform_Version\":\"6.3\",\"Win32\":true}",
        "58f0fd02e4979a717864b68cceeba8cb\t{\"Browser_Bits\":\"32\",\"Platform\":\"HP-UX\"}",
        "5818c2b5e69337bf3de6bf54f52fff99\t{\"Browser_Bits\":\"32\",\"Platform\":\"Win7\",\"Platform_Version\":\"6.1\",\"Win32\":true}",
        "58abd294e206fbb08e4745f1e59b248c\t{\"Browser_Bits\":\"32\",\"Platform\":\"OpenBSD\"}",
        "58a55421a19c5dd6a9912982a5c89512\t{\"Browser_Bits\":\"32\",\"Platform\":\"MacOSX\",\"Platform_Version\":\"10.11\"}",
        "58c0f10edff984786b2d5aea56ae89b2\t{\"Browser_Bits\":\"32\",\"Platform\":\"SunOS\"}",
        "58e89d7cebd69497dd85233b6d4572ea\t{\"Browser_Bits\":\"32\",\"Platform\":\"macOS\",\"Platform_Version\":\"10.12\"}",
        "5827fa8292d290580621e18fc1e50057\t{\"Browser_Bits\":\"32\",\"Platform\":\"MacOSX\",\"Platform_Version\":\"10\"}",
        "583d05d9941cfd639833a9c54fe31c85\t{\"Browser_Bits\":\"32\",\"Platform\":\"WinVista\",\"Platform_Version\":\"6.0\",\"Win32\":true}",
        "586d9f49f2e6086d865895e0312fec1a\t{\"Browser_Bits\":\"32\",\"Platform\":\"MacOSX\",\"Platform_Version\":\"10.9\"}",
        "589e1983982253a09702e1f765951d8a\t{\"Browser_Bits\":\"32\",\"Platform\":\"MacOSX\",\"Platform_Version\":\"10.10\"}",
        "58e9f5178c7edeaf8d6715fd31a8252b\t[]",
        "58ab1db60fb219464b0e72b36c1d5a19\t{\"Browser_Bits\":\"32\",\"Platform\":\"MacOSX\",\"Platform_Version\":\"10.9\"}",
        "58eaaab0047f174f5f5771c5c43d9e51\t{\"Browser_Bits\":\"32\",\"Platform\":\"MacOSX\",\"Platform_Version\":\"10.9\"}",
        "58dc046a3182109cde3aac2c9c98bb2a\t{\"Browser_Bits\":\"32\",\"Platform\":\"MacOSX\",\"Platform_Version\":\"10\"}",
        "583d6cfedd648fa2307ab3cfec661fba\t{\"Browser_Bits\":\"32\",\"Platform\":\"Darwin\"}",
        "5885c5f42097a95af09cbcadbcc6d3a3\t{\"Browser_Bits\":\"32\",\"Platform\":\"Win8\",\"Platform_Version\":\"6.2\",\"Win32\":true}",
        "58ca36d82f8358d707e3a3c283a127e0\t{\"Browser_Bits\":\"32\",\"Platform\":\"Win7\",\"Platform_Version\":\"6.1\",\"Win32\":true}",
        "58a105c0aeb491aeec5cd8d5d4906715\t{\"Platform\":\"Win7\",\"Platform_Version\":\"6.1\"}",
        "58dd7e0390342efb6da75f20511ec11e\t{\"Browser_Bits\":\"32\",\"Platform\":\"Linux\"}",
        "58eafd8c777850880ced18d0975190a1\t[]",
        "586623d9604d6e4b663afcecf2abcf97\t{\"Browser_Bits\":\"32\",\"Platform\":\"Linux\"}",
        "5814071c81d19ea4f2f122e054bcbfa7\t{\"Browser_Bits\":\"32\",\"Platform\":\"MacOSX\",\"Platform_Version\":\"10\"}",
        "58758af35b6aa01a61f9666db1b6a1a4\t{\"Browser_Bits\":\"32\",\"Platform\":\"Win32\",\"Win32\":true}",
        "585070797ed3851fe5d0c3049068c8b4\t[]",
        "58a4ea477c761003338781dd70f28612\t{\"Browser_Bits\":\"64\",\"Platform\":\"Win64\",\"Win64\":true}",
        "586d52123d4dbe7ac7ba91cfa4c6000e\t{\"Platform_Version\":\"10.10\"}",
        "584de10086c4144759e9b8ace09b5ac5\t{\"Platform_Version\":\"7.1\"}",
        "58220335f9e9e026a4cb3ae9130b1266\t{\"Browser_Bits\":\"32\",\"Platform\":\"iOS\",\"Platform_Version\":\"9.0\"}",
        "580542c7547e0ff9e203990b8ea28116\t{\"Platform_Version\":\"8.1\"}",
        "58270d2a9b85d2c9fecf4c6d7aca320d\t[]",
        "5874acadf7c8da4eefda4c455d90cd54\t[]",
        "586b95fcd0305295432acec495acc123\t[]",
        "5891039f466340b4ac16d681711596e0\t[]",
        "583e1bc4f494a728cc1137d726dc9692\t{\"Browser_Bits\":\"32\",\"Platform\":\"iOS\",\"isMobileDevice\":true,\"isTablet\":true}",
        "58a658853bf258f7259a95303dcf367c\t{\"Platform_Version\":\"8.0\"}",
        "58490ef35bf28f9388ffb3b60dff49b4\t[]",
        "58751fcb16254a75cfb6eab539249157\t[]",
        "58d2701b1c0c4400d0886af40cbb98c2\t{\"Browser_Bits\":\"32\",\"Platform\":\"Maemo\"}"
    ]
}