{
    "content": [
        "cc097ddebfd53df2ee6417699eaa0727\t[]",
        "cccc7d36cec2d0edad35a6e7de3b6d22\t[]",
        "ccaa022878ad4adda072a81808ee4d4d\t[]",
        "cc1d9a2561f5b5e7d32cb3a88405516f\t[]",
        "ccb9880a472b93f9d4aa54c76a6d94ac\t[]",
        "cc1d695d55edf522130fd1c21d9ec69c\t[]",
        "ccb87127dac021be30f266bae690a468\t[]",
        "cc4aa0eddba2650f96b4058b33ad7710\t[]",
        "cc2895dff1477dce5ab55665776595a6\t[]",
        "ccf44628de2593031cd153a40d5e9078\t[]",
        "ccc7d2cb16120ce4e9946bc30857c29f\t[]",
        "cc1a02def3dfdc90160b82fbd3e86040\t[]",
        "ccdfde34d908688c2005dff2efae5564\t[]",
        "cc735e1d30802b14ed73a2fd155d392c\t[]",
        "cc71a4747255b43690f3a3df74fa76fb\t[]",
        "cc65cd6e7a847643fe44dec44a24a33d\t[]",
        "ccb74edbaeadd362f2ff6e51424d284b\t{\"Browser_Bits\":\"32\",\"Platform\":\"Darwin\"}",
        "cce972885f722413ab05167c90dd9d35\t[]",
        "cc3c5929f5169b70132f6ec6887f5780\t{\"Platform_Version\":\"6.1\"}",
        "cc62edfe25a2255686555ec2f2c41003\t[]",
        "cc180649925514d24f68d68b2c37e678\t{\"Platform\":\"MacOSX\",\"Platform_Version\":\"10.11\",\"Win32\":false}",
        "cc041d7f4338f4440ae0ada33d73b3e5\t{\"Platform\":\"iOS\",\"Platform_Version\":\"9.0\",\"Win32\":false,\"isMobileDevice\":true,\"isTablet\":true}",
        "cca1b19dee9bea02553bd64713019288\t{\"Platform\":\"MacOSX\",\"Platform_Version\":\"10.10\",\"Win32\":false}",
        "ccb898f1d12ccf82865cba51e8ad47cb\t{\"Platform\":\"Linux\",\"Win32\":false}",
        "ccfea6c4a62bbd58cfa6cc331d34bffc\t{\"Platform_Version\":\"10.0\",\"isTablet\":true}",
        "ccd5fcf500ab3b027d69b6817c13c554\t{\"Platform_Version\":\"9.3\"}",
        "ccb2f6c29f37b9205187acfb1d346491\t{\"Platform_Version\":\"10.3\",\"isTablet\":true}",
        "cc157af27866366e5c2429a7558cfaff\t{\"isTablet\":true}",
        "ccc9f3da834b23fd012dcc02b8b2872b\t{\"Platform\":\"iOS\",\"Platform_Version\":\"10.3\",\"Win32\":false,\"isMobileDevice\":true,\"isTablet\":true}",
        "cc58b24ae2fe799445d6b09facf4a3d6\t{\"Platform_Version\":\"4.2\",\"isTablet\":true}",
        "cc3668e095217f82cebf69e808383436\t{\"Platform_Version\":\"4.4\",\"isTablet\":true}",
        "cc22c2f745efe3a22973b63aef7a791a\t{\"Platform\":\"iOS\",\"Platform_Version\":\"8.0\"}",
        "cc915a7d817e3506164466f20810b966\t{\"Platform_Version\":\"4.4\",\"isTablet\":true}",
        "ccf03985d36bb991918a2feabdcb2bec\t{\"Platform\":\"iOS\",\"Platform_Version\":\"10.0\",\"isTablet\":true}",
        "cc0b3950483223abe63b2795f91e13d7\t{\"Platform\":\"iOS\",\"isTablet\":true}",
        "cc3e5017f7a99064c0c5378e95e14fb6\t{\"Platform\":\"iOS\",\"Platform_Version\":\"8.4\"}",
        "cc3139338132d6f2af212bb146721e2b\t{\"Platform\":\"iOS\",\"Platform_Version\":\"7.1\"}",
        "cc8065594e08be6fd656054c933422c2\t{\"Browser_Bits\":\"32\",\"Platform\":\"Android\",\"isMobileDevice\":true}",
        "ccb7e1ab05bc39bc92f9962de72a0986\t{\"Platform_Version\":\"4.2\",\"isTablet\":true}",
        "cc87f46995045e7014ce59ae89e33016\t{\"Platform_Version\":\"4.2\"}",
        "cc50e634519957fc368be0117e1a92e5\t{\"Platform_Version\":\"4.2\",\"isTablet\":true}",
        "cca88f85267d202069bf16a057a8e2a8\t{\"Browser_Bits\":\"32\",\"Platform\":\"Android\",\"Platform_Version\":\"4.3\"}",
        "ccd11fa835578722d688fcfcad5471aa\t{\"Browser_Bits\":\"32\",\"Platform\":\"Android\",\"Platform_Version\":\"4.2\"}",
        "ccef83e15f0ad61934c0a6b2f749cdef\t{\"Browser_Bits\":\"32\",\"Platform\":\"WinXP\",\"Platform_Version\":\"5.1\",\"Win32\":true}",
        "cc663704cdcc1c4a8e56c9e8e373de2a\t[]",
        "ccedaebcfda6e98c15393e13cebe13d3\t{\"Platform\":\"iOS\",\"Platform_Version\":\"8.1\"}",
        "ccd386cf28c77a316fa6a4446a5f0d36\t{\"Platform_Version\":\"10.3\",\"isTablet\":true}",
        "cc69d01656ecea3b5479a2d1e35c7626\t{\"Platform\":\"JAVA\"}",
        "cce07e190ccbf833e710e61a8c5d7414\t{\"Platform_Version\":\"4.4\",\"isTablet\":true}",
        "cc1c94cb7be97f64ee47fd970b4dd1a3\t[]",
        "cc7b571e2619bd9b3a6b511bdf14a907\t{\"Platform\":\"WinXP\",\"Platform_Version\":\"5.1\"}",
        "ccf424e30ea4f86dd36910b1884c53c7\t{\"Platform\":\"MacOSX\",\"Platform_Version\":\"10.9\",\"Win32\":false}",
        "cc57ac3ce5cd27111da1996d450c7b0b\t{\"Platform\":\"Win7\",\"Platform_Version\":\"6.1\",\"Win32\":true}",
        "ccdd548bc405b7ddee7a04c92b59407e\t{\"Platform\":\"WinXP\",\"Platform_Version\":\"5.1\",\"Win32\":true}",
        "cc3fd634e09a5033cd76cd065b6e4753\t{\"Platform\":\"Win8\",\"Platform_Version\":\"6.2\",\"Win32\":true}",
        "cc66e10ddbbe004f8214a86657e666ed\t{\"Browser_Bits\":\"32\",\"Platform\":\"Linux\"}",
        "cc7de31cd964bd69764f8768e66de173\t{\"Platform\":\"Win8.1\",\"Platform_Version\":\"6.3\",\"Win32\":true}",
        "ccb0438df840676a01fa499d0854fcd3\t{\"Platform\":\"Win8.1\",\"Platform_Version\":\"6.3\",\"Win32\":true}",
        "cc7d640c7247920014e0e3512dcb3790\t{\"Platform\":\"Win7\",\"Platform_Version\":\"6.1\",\"Win32\":true}",
        "cc3b58f604f425dff4d016db53f04bab\t{\"Platform\":\"WinXP\",\"Platform_Version\":\"5.2\",\"Win32\":true}",
        "cc4bbd5d516da2daa405187140aad60d\t{\"Platform\":\"Win10\",\"Platform_Version\":\"10.0\",\"Win32\":true}",
        "cc16398c5181b6139b3317640b0f30cb\t{\"Platform\":\"Win8\",\"Platform_Version\":\"6.2\",\"Win32\":true}",
        "cc1249da9862f7bb94a26a12b390648e\t{\"Platform_Version\":\"8.1\"}",
        "cc6867fec92a301d67b789d846544e7f\t{\"Platform_Version\":\"6.1\"}",
        "cc46a596aad067c669c9042f4c69832b\t{\"Platform\":\"Win8.1\",\"Platform_Version\":\"6.3\",\"Win32\":true}",
        "ccb66ec5a44f35aebfc1f940fc07438f\t{\"Platform\":\"Win7\",\"Platform_Version\":\"6.1\",\"Win32\":true}",
        "cc50bcbdde750dfb29206be20709dcd5\t{\"Platform\":\"Win7\",\"Platform_Version\":\"6.1\",\"Win32\":true}",
        "cc4b569ed62900016b111fdef343f95c\t{\"Platform_Version\":\"4.2\",\"isTablet\":true}",
        "cc04e38d61928b1330931518a952e6a8\t{\"Platform_Version\":\"4.4\",\"isTablet\":true}",
        "ccbeb23685adda98fbe0781bede13483\t{\"Platform_Version\":\"4.3\",\"isTablet\":true}",
        "cc7fe62347f372b495de7e5cbaf5b97a\t{\"Platform_Version\":\"5.1\"}",
        "cc7d3e23198f978d8566ca511fb4b3a0\t{\"Platform_Version\":\"5.0\",\"isTablet\":true}",
        "cc993ddf90c8d0b43a29a8c70c82bb0d\t{\"Platform_Version\":\"5.0\",\"isTablet\":true}",
        "cc95c9cda56b5df5d71fcc01a4fac387\t{\"Platform_Version\":\"5.0\"}",
        "cccb58a537c338ba712f9b025fbdf150\t{\"Platform_Version\":\"5.0\",\"isTablet\":true}",
        "cc090433aa4eb7e3e9ca6e8fe8142014\t[]",
        "cc9184511faf711abc7f1019b7345a36\t{\"Platform_Version\":\"4.2\",\"isTablet\":true}",
        "cc8693f17473c26ff7ef9de5a2357860\t{\"Platform_Version\":\"4.3\",\"isTablet\":true}",
        "ccfd8999c6bc31b81e80d168dabaec5c\t{\"Platform_Version\":\"4.4\",\"isTablet\":true}",
        "cc9c316f23e83a19be9393a9fb6bbf2d\t{\"Platform_Version\":\"4.2\",\"isTablet\":true}",
        "cc2a5b4e12b827749dabb9e887d21bdc\t{\"Platform_Version\":\"4.3\"}",
        "cca1db82e56eae9cb0c7b23cbf19cf69\t{\"Browser_Bits\":\"32\",\"Platform\":\"Android\",\"Platform_Version\":\"6.0\"}",
        "cce900069125d7a050b0c6767524afcd\t{\"Browser_Bits\":\"32\",\"Platform\":\"Android\",\"Platform_Version\":\"5.0\"}",
        "cc58c3028708ab03ebe6ca5edecc48fa\t{\"isMobileDevice\":true}",
        "ccec174daf80fb533668674dcdaca1ab\t{\"Browser_Bits\":\"32\",\"Platform\":\"Android\",\"Platform_Version\":\"4.2\"}",
        "cc85d2b8b0ef9cb44346c97234f84892\t{\"Browser_Bits\":\"32\",\"Platform\":\"Android\",\"Platform_Version\":\"4.4\"}",
        "cce3a51bccdc0ab53b0190cf09b7d747\t{\"Platform_Version\":\"7.1\"}",
        "cc2bbbf5b7eb47764129062b9dc31849\t[]",
        "cca1132c160058574068a488efc3c138\t{\"Platform_Version\":\"8.1\"}",
        "cce03462390f1ba973e82ea08aa4d28f\t{\"Platform_Version\":\"7.1\"}",
        "cc51e6739715b62597084d8a3f6f5a25\t{\"Platform_Version\":\"8.4\"}",
        "ccab333435f94ebc98d2466390993dc6\t{\"Browser_Bits\":\"32\",\"Platform\":\"Win10\",\"Platform_Version\":\"10.0\",\"Win32\":true}",
        "cc42475c88cf4c6e6cfecbb1598134aa\t{\"Browser_Bits\":\"32\",\"Platform\":\"WinXP\",\"Platform_Version\":\"5.1\",\"Win32\":true}",
        "cc0cf43efd67f808c0445e93fc5c94e4\t{\"Platform_Version\":\"4.4\",\"isTablet\":true}",
        "ccf19d54458a4e5b2f40172466bdb66f\t{\"Platform_Version\":\"9.3\"}",
        "ccb0d7e5c4f189f7b6284b586ec3e887\t{\"Platform_Version\":\"4.4\",\"isTablet\":true}",
        "cc0025e4ef0be58edca1c44281cf1c35\t{\"Platform_Version\":\"9.1\"}",
        "cc4e74c393e8a4c473a7a151c1576ca7\t{\"Platform_Version\":\"8.4\"}",
        "ccbcb81e5435abbd75550b07b16c2c67\t{\"Platform_Version\":\"5.0\",\"isTablet\":true}",
        "ccd2f29a51db9d01259a767c03fb1ba7\t{\"Platform_Version\":\"4.2\"}",
        "ccc05a1cb215dcdb3db541fd3bfc9d1e\t{\"Platform_Version\":\"4.2\",\"isTablet\":true}",
        "cc9a10f79fa67dba0008045d916131c2\t{\"Platform_Version\":\"4.2\",\"isTablet\":true}",
        "ccf4dc0876c0f7cc99af70bb49b8cb80\t{\"Browser_Bits\":\"32\",\"Platform\":\"WinXP\",\"Platform_Version\":\"5.1\",\"Win32\":true}",
        "cc39cf7f4eadc5707fabbcedacfe0a64\t{\"Browser_Bits\":\"32\",\"Platform\":\"Linux\"}",
        "cc66a0c2532e227bc7c1894964bd656b\t{\"Platform_Version\":\"8.3\"}",
        "ccecfa4205bbb847f036aec71285499e\t{\"Platform_Version\":\"9.1\"}",
        "cca87f082ba618f7957df530fc8b34c7\t{\"Platform_Version\":\"10.2\"}",
        "cc69db503bf1b52adadad50eb24f9a3a\t{\"Platform_Version\":\"4.2\",\"isTablet\":true}",
        "ccd7530b319bfc745ba62b456565d578\t{\"Platform_Version\":\"4.2\",\"isTablet\":true}",
        "cc42125eae6cf4dc03394c4ef4232e48\t{\"Platform_Version\":\"4.4\",\"isTablet\":true}",
        "cc1ede4c731c4524154c31ad334768a0\t{\"Platform_Version\":\"4.4\",\"isTablet\":true}",
        "cc5d9c746c7d0e56e959d880e51f998f\t{\"Platform_Version\":\"4.2\"}",
        "cc35e095646c48cccc4f0c5f9bbfaeab\t{\"Platform_Version\":\"4.2\",\"isTablet\":true}",
        "cc91da82dc05d5a39a26e22f4bc4e95b\t{\"Browser_Bits\":\"32\",\"Platform\":\"WinVista\",\"Platform_Version\":\"6.0\",\"Win32\":true}",
        "cc01e140759495c469115e46fdfad595\t{\"Browser_Bits\":\"32\",\"Platform\":\"SunOS\"}",
        "cc30ae55fcfc08ef61ee66f1bde78128\t{\"Browser_Bits\":\"32\",\"Platform\":\"Win8\",\"Platform_Version\":\"6.2\",\"Win32\":true}",
        "ccd3972c3b81525c07bcf5f7f8ba1abd\t{\"Browser_Bits\":\"32\",\"Platform\":\"Win8.1\",\"Platform_Version\":\"6.3\",\"Win32\":true}",
        "ccb8a28ea58662bb5a73a342cbe9dd0e\t{\"Browser_Bits\":\"32\",\"Platform\":\"WinVista\",\"Platform_Version\":\"6.0\",\"Win32\":true}",
        "cc8b3423b692184d173ff964f824054d\t{\"Browser_Bits\":\"32\",\"Platform\":\"Win8\",\"Platform_Version\":\"6.2\",\"Win32\":true}",
        "cc113de4d3df5a5be221cf108739841d\t{\"Browser_Bits\":\"32\",\"Platform\":\"WinXP\",\"Platform_Version\":\"5.2\",\"Win32\":true}",
        "cc69fe0c367d98d8ae0708b6c14b6f01\t{\"Browser_Bits\":\"32\",\"Platform\":\"WinVista\",\"Platform_Version\":\"6.0\",\"Win32\":true}",
        "ccb100f85b250e5529ef915447b6f8f5\t{\"Browser_Bits\":\"32\",\"Platform\":\"WinXP\",\"Platform_Version\":\"5.2\",\"Win32\":true}",
        "ccd015c40fa918beeb362a36c4114938\t{\"Browser_Bits\":\"32\",\"Platform\":\"Win7\",\"Platform_Version\":\"6.1\",\"Win32\":true}",
        "ccf538362f1679a4a83be0e3e80c54a5\t{\"Browser_Bits\":\"32\",\"Platform\":\"WinXP\",\"Platform_Version\":\"5.2\",\"Win32\":true}",
        "cc680602eb7e90028a1408d1dcd07ae1\t{\"Browser_Bits\":\"32\",\"Platform\":\"Win8.1\",\"Platform_Version\":\"6.3\",\"Win32\":true}",
        "cc039cd90d6de0c84b990364f2b14831\t{\"Browser_Bits\":\"32\",\"Platform\":\"Linux\"}",
        "cccc485a11b95c3c1e189a107b414722\t{\"Browser_Bits\":\"32\",\"Platform\":\"FreeBSD\"}",
        "ccb43fc4b2e4079738daabc6f3a6ef98\t{\"Browser_Bits\":\"32\",\"Platform\":\"WinVista\",\"Platform_Version\":\"6.0\",\"Win32\":true}",
        "cc57ee2fb6b869167457730a562e3fc6\t{\"Browser_Bits\":\"32\",\"Platform\":\"WinXP\",\"Platform_Version\":\"5.2\",\"Win32\":true}",
        "cce573855915bea7d3d27b7e9c1de321\t{\"Browser_Bits\":\"32\",\"Platform\":\"Win7\",\"Platform_Version\":\"6.1\",\"Win32\":true}",
        "cc48989918af2f003889b21dfbb1368c\t{\"Browser_Bits\":\"32\",\"Platform\":\"MacOSX\",\"Platform_Version\":\"10.9\"}",
        "cc66ccb6a41a5a35fdd6115b36d0ffd5\t{\"Browser_Bits\":\"32\",\"Platform\":\"Win8.1\",\"Platform_Version\":\"6.3\",\"Win32\":true}",
        "cc8b986b1dd623a8211c4e81913e441c\t{\"Browser_Bits\":\"32\",\"Platform\":\"WinVista\",\"Platform_Version\":\"6.0\",\"Win32\":true}",
        "ccd1f83bba347f9fac00c4935569f3e8\t{\"Browser_Bits\":\"32\",\"Platform\":\"Win8.1\",\"Platform_Version\":\"6.3\",\"Win32\":true}",
        "cc7104175d853dbebd75f900773cd81c\t{\"Browser_Bits\":\"32\",\"Platform\":\"WinVista\",\"Platform_Version\":\"6.0\",\"Win32\":true}",
        "cc35327fec0d670b2808429667a38a9b\t{\"Browser_Bits\":\"32\",\"Platform\":\"MacOSX\",\"Platform_Version\":\"10.10\"}",
        "cca0eba6086ccbfd36c172774b4c80de\t{\"Browser_Bits\":\"32\",\"Platform\":\"Win8\",\"Platform_Version\":\"6.2\",\"Win32\":true}",
        "cc5f57e14e10523f12e7418128fbff39\t{\"Browser_Bits\":\"32\",\"Platform\":\"SunOS\"}",
        "cc09ec75758caab72ef8ff1ebd1db388\t{\"Browser_Bits\":\"32\",\"Platform\":\"WinXP\",\"Platform_Version\":\"5.2\",\"Win32\":true}",
        "ccd4c72c161065186d5a13a8f63139f6\t{\"Browser_Bits\":\"32\",\"Platform\":\"Win8.1\",\"Platform_Version\":\"6.3\",\"Win32\":true}",
        "cc2980e0bf6df8ad5fbb678035e74938\t{\"Browser_Bits\":\"32\",\"Platform\":\"FreeBSD\"}",
        "ccfa178bc0759a8199e0ce5e957e97a5\t{\"Browser_Bits\":\"32\",\"Platform\":\"Win8\",\"Platform_Version\":\"6.2\",\"Win32\":true}",
        "cc9c15148d41bfb62d321f0af299d93a\t{\"Browser_Bits\":\"32\",\"Platform\":\"MacOSX\",\"Platform_Version\":\"10\"}",
        "cc823444023c99ce178b701105d29bbf\t{\"Browser_Bits\":\"32\",\"Platform\":\"Win8.1\",\"Platform_Version\":\"6.3\",\"Win32\":true}",
        "cc66fdd055aea44540b384a71a261b38\t{\"Browser_Bits\":\"32\",\"Platform\":\"MacOSX\",\"Platform_Version\":\"10.10\"}",
        "ccd15774a6eb127fdb311f27aa503e6e\t{\"Browser_Bits\":\"32\",\"Platform\":\"Linux\"}",
        "cc43469d83aa940ca361bf2c614ef112\t{\"Browser_Bits\":\"32\",\"Platform\":\"Win7\",\"Platform_Version\":\"6.1\",\"Win32\":true}",
        "ccc197426c31b16b1518e9687bfb8054\t{\"Browser_Bits\":\"32\",\"Platform\":\"WinXP\",\"Platform_Version\":\"5.2\",\"Win32\":true}",
        "cc06e177451a71338afa452bd3504cf6\t{\"Browser_Bits\":\"32\",\"Platform\":\"MacOSX\",\"Platform_Version\":\"10\"}",
        "ccedfa1856f437a5c2e06ea159ca6b99\t{\"Browser_Bits\":\"32\",\"Platform\":\"WinXP\",\"Platform_Version\":\"5.1\",\"Win32\":true}",
        "cc5e8ae1da84cbdeb277cc820e2154e9\t{\"Browser_Bits\":\"32\",\"Platform\":\"WinXP\",\"Platform_Version\":\"5.2\",\"Win32\":true}",
        "cc9f86795f985f072a3e08a0d4af930a\t{\"Browser_Bits\":\"32\",\"Platform\":\"Win8.1\",\"Platform_Version\":\"6.3\",\"Win32\":true}",
        "ccb469a66ce3b6ee23f4a890cf686e0d\t{\"Browser_Bits\":\"32\",\"Platform\":\"MacOSX\",\"Platform_Version\":\"10.10\"}",
        "ccb720f4e2487df261a7ac0d9a16e57c\t{\"Platform_Version\":\"5.0\"}",
        "cc2c14db0678400fc140cff348e3c512\t[]",
        "ccf2c02275189fd57cdf5731e0c45c45\t{\"Browser_Bits\":\"32\",\"Platform\":\"iOS\",\"Platform_Version\":\"9.2\",\"isTablet\":true}",
        "cc76525880a0657bcc494597ea0e7abd\t{\"Browser_Bits\":\"32\",\"Platform\":\"MacOSX\",\"Platform_Version\":\"10.9\"}",
        "cc278d1293fdc1cb1bf25b067214d3fc\t{\"Browser_Bits\":\"32\",\"Platform\":\"WinXP\",\"Platform_Version\":\"5.2\",\"Win32\":true}",
        "ccf1a9d2514418c580151f837b6d4fc8\t{\"Browser_Bits\":\"32\",\"Platform\":\"MacOSX\",\"Platform_Version\":\"10.9\"}",
        "cccd57ca2b9bc5d24a64f99d8838ed23\t{\"Browser_Bits\":\"32\",\"Platform\":\"Win7\",\"Platform_Version\":\"6.1\",\"Win32\":true}",
        "ccbece0ee0601eec14a7701452e4bd5c\t{\"Browser_Bits\":\"32\",\"Platform\":\"MacOSX\",\"Platform_Version\":\"10.9\"}",
        "cc85c03c862833be24b8fc2659e55daa\t{\"Browser_Bits\":\"32\",\"Platform\":\"Win8\",\"Platform_Version\":\"6.2\",\"Win32\":true}",
        "cc882bb32fff5f053855369dcdab3525\t{\"Browser_Bits\":\"32\",\"Platform\":\"Win7\",\"Platform_Version\":\"6.1\",\"Win32\":true}",
        "cc12a6ed4dde812f3fe6b45afde58eec\t{\"Browser_Bits\":\"32\",\"Platform\":\"MacOSX\",\"Platform_Version\":\"10.9\"}",
        "cc50aec1cb6e995dfee739121da3890b\t{\"Browser_Bits\":\"32\",\"Platform\":\"Win8\",\"Platform_Version\":\"6.2\",\"Win32\":true}",
        "cc3e73f448e50cfd2ab776367ba8e52f\t{\"Platform_Version\":\"5.0\"}",
        "ccf2b5ac78ba01d2dc65781b19eaeddf\t{\"isTablet\":true}",
        "cc85cdd19117bc9220727c820ab158fc\t{\"Platform_Version\":\"4.4\"}",
        "cc4c89436878f7e3039b9df042778c25\t{\"Platform_Version\":\"4.2\",\"isTablet\":true}",
        "cc125776fdef18f98f5115826bf07475\t{\"Platform_Version\":\"4.2\",\"isTablet\":true}",
        "ccb1dfd1dc35476844baf3f790108822\t{\"isTablet\":true}",
        "cc11de5fdf7f99bede864a06ce0a984e\t{\"isTablet\":true}",
        "cc11ed5ffc341b22d27de830842e960c\t{\"isTablet\":true}",
        "ccf2c96b0200269a3bcfe5387c4a0f5b\t{\"Browser_Bits\":\"32\",\"Platform\":\"WinPhone10\",\"Platform_Version\":\"10.0\",\"isMobileDevice\":true}",
        "cc349da1f3de2458b116f5db1b9ace13\t{\"Browser_Bits\":\"32\",\"Platform\":\"Android\",\"isMobileDevice\":true}",
        "ccb3cb39bdc160ee1813676562495c8a\t{\"Browser_Bits\":\"32\",\"Platform\":\"Linux\"}",
        "ccd677916f6478827c509a7589551f28\t{\"Browser_Bits\":\"32\",\"Platform\":\"Win8\",\"Platform_Version\":\"6.2\",\"Win32\":true}",
        "ccc1077cc9e4f54ddb5634046224c188\t{\"Platform_Version\":\"4.4\",\"isTablet\":true}",
        "cc3f7917f5d3972a99754372028c800e\t{\"Platform_Version\":\"4.2\",\"isTablet\":true}",
        "cc82d65eef706df77058807eeb276fe2\t{\"Platform_Version\":\"4.2\",\"isTablet\":true}",
        "cc7d84e74bf0a149f8a0a77fc80b3160\t{\"Platform_Version\":\"4.4\",\"isTablet\":true}",
        "cca4eb51b1a0dd6a1c1d24d85bb3ed94\t{\"Platform_Version\":\"4.4\",\"isTablet\":true}",
        "ccee01d01a80bd0409af4aadf45b1424\t{\"Platform_Version\":\"4.3\",\"isTablet\":true}",
        "ccb59c8b87decb6631e7582e7ac97b1e\t{\"Platform_Version\":\"10.0\",\"isTablet\":true}",
        "cca75048c9b7b15190a25714b26936a5\t{\"Platform_Version\":\"4.2\"}",
        "cca68f6bbaa7f6efa94d384051316d6e\t{\"Platform_Version\":\"4.2\",\"isTablet\":true}",
        "cc7dd8b355251a7800f1c29f0cf95d19\t{\"Platform_Version\":\"4.2\",\"isTablet\":true}",
        "ccaf11d078113da3cdba2241f04dfe05\t{\"Platform_Version\":\"4.4\"}",
        "ccc304a4b13c9bc1ab4959b525294e47\t{\"Browser_Bits\":\"32\",\"Platform\":\"ChromeOS\"}",
        "ccbfa9829afa3508ee06fb1a45ea3a11\t{\"Platform_Version\":\"4.2\",\"isTablet\":true}",
        "ccb47fbe0605653b944de2048f29eeae\t{\"Platform_Version\":\"8.0\"}",
        "ccfdc103b901abbabfd577deffd0edf3\t{\"Platform_Version\":\"4.2\",\"isTablet\":true}",
        "ccb1ccc6643472e1867c15277465ed65\t{\"Platform_Version\":\"9.3\",\"isTablet\":true}",
        "cc7e106177ad121f002a51c4ef64641d\t{\"Platform_Version\":\"4.2\",\"isTablet\":true}",
        "cce3a5279d27f8d691a32cf61badcbaa\t{\"Platform_Version\":\"4.3\",\"isTablet\":true}",
        "ccc9ae09ce91927c1abc0cd9fd65f290\t{\"Platform_Version\":\"4.3\",\"isTablet\":true}",
        "cc01de17649c50cbe5a1ebe05f31e7b7\t{\"Platform_Version\":\"10.3\"}",
        "cc6aa4c02ac79dde80ee757651080dc1\t{\"Platform_Version\":\"8.4\"}",
        "ccb824c14e2dd0aebb6b58a42bb4d9d6\t{\"Platform_Version\":\"4.3\",\"isTablet\":true}",
        "cc1d8cd285ea512de951c415978a2384\t{\"Platform_Version\":\"4.2\",\"isTablet\":true}",
        "cc5d7f5f25906229721c206a3daac0c6\t{\"Platform_Version\":\"6.0\"}",
        "cccb6d895a2598313e42f3ca26044a34\t{\"Platform_Version\":\"5.0\"}",
        "ccdeaca653bbc6bfda5c5503c098262f\t{\"Platform_Version\":\"4.2\",\"isTablet\":true}",
        "ccbd9563c666437011587ac692eb8306\t{\"Platform_Version\":\"4.3\",\"isTablet\":true}",
        "ccbac53b6e8a1fe5399f8b9abfbfa18a\t{\"Platform_Version\":\"4.2\",\"isTablet\":true}",
        "cc2ef6fc7d28a1aefbdb96878c88b6f1\t{\"Platform_Version\":\"5.0\"}",
        "ccaffa62d8f0eb6a9159dedce0528442\t{\"Platform_Version\":\"10.0\",\"isTablet\":true}",
        "cc57c6a3f5b15be2010f110d9a4f6691\t{\"Platform_Version\":\"4.2\",\"isTablet\":true}",
        "cc5778a0426146d7d9065382298185da\t{\"Browser_Bits\":\"32\",\"Platform\":\"Android\",\"isMobileDevice\":true}",
        "cc98c82e3bf8846e87b75d3ebc632165\t{\"Platform_Version\":\"4.2\",\"isTablet\":true}",
        "cc0bd117d7d9d1bf8f8ffcba8ea1b89e\t{\"Platform_Version\":\"4.2\",\"isTablet\":true}",
        "cc434daa4453d6494200d1542f8df0c6\t{\"Platform_Version\":\"4.2\",\"isTablet\":true}",
        "cc6a09e89221c078338fe075beb7063e\t{\"Platform_Version\":\"4.2\",\"isTablet\":true}",
        "ccbeb536b62a753cd5462bb129ca117a\t{\"Browser_Bits\":\"32\",\"Platform\":\"OpenBSD\"}",
        "cca98e3d499db95eb56b77b71b2a7bc3\t{\"Platform_Version\":\"10.0\"}",
        "ccf0c7b28d9892d49980bf145a368275\t{\"Browser_Bits\":\"32\",\"Platform\":\"MacOSX\",\"Platform_Version\":\"10\"}",
        "cc2a34163190f017f6d19917af802484\t{\"Platform_Version\":\"4.2\",\"isTablet\":true}",
        "cc48888cf27cbc7937b39804f715a348\t{\"Platform_Version\":\"8.1\",\"isTablet\":true}",
        "cc9815f7127bafae41ae2e1cd17fa5ac\t{\"Platform_Version\":\"4.3\",\"isTablet\":true}",
        "cc0dc4becfb8be085b47b88e2b62832d\t{\"Platform_Version\":\"4.3\",\"isTablet\":true}",
        "ccd70bf61ebb964ff6923c623c733865\t{\"Platform_Version\":\"4.2\",\"isTablet\":true}",
        "cc6120fc8d6c7e2c5765d60855dc6830\t{\"Platform_Version\":\"10.0\"}",
        "cca3805f8b67fbba7a1803b1ea790609\t{\"Platform_Version\":\"4.4\",\"isTablet\":true}",
        "ccbad7ce49a2565df3e05b28defc59f2\t{\"Platform_Version\":\"4.2\",\"isTablet\":true}",
        "cc84083418e2ccaf8df171c8663336d7\t[]",
        "ccfd885e42cb6073b46a206314ba44dc\t{\"Platform_Version\":\"4.2\",\"isTablet\":true}",
        "cc399ab5e8cbe6fb28d89097126b5839\t{\"Platform_Version\":\"4.2\",\"isTablet\":true}",
        "cc2bf5af60bebe0450191bea3b7c341c\t{\"Platform_Version\":\"10.0\"}",
        "ccdaeb98a926b2b19ca399ca6d7034d5\t{\"Platform_Version\":\"5.1\"}",
        "ccfb40bc0cb35c997bda3352865e66f4\t{\"Platform_Version\":\"9.2\"}",
        "cca9181e3c9c30aa52692efb989f32e6\t{\"Browser_Bits\":\"32\",\"Platform\":\"FreeBSD\"}",
        "ccc96317dfcd15645d739cf7fd6a24fd\t{\"Browser_Bits\":\"32\",\"Platform\":\"WinXP\",\"Platform_Version\":\"5.1\",\"Win32\":true}",
        "cce5e8b9250edffee87eb18cd058ffda\t{\"Platform_Version\":\"4.3\",\"isTablet\":true}",
        "cc7bd7eb2cf198240609cf969fcdc7c0\t{\"Platform_Version\":\"4.2\",\"isTablet\":true}",
        "ccba4cadf59a3343f3d7ce26b3a32b61\t{\"Platform_Version\":\"4.2\",\"isTablet\":true}",
        "cc92d287c3d3fa9d583a7e21bd1aa471\t{\"Platform_Version\":\"10.1\"}",
        "cc61c0b05e5e50a70f97a353ce8c6cd6\t{\"Platform_Version\":\"4.4\",\"isTablet\":true}",
        "cc8d693eeac2f70b63841d56159b2bce\t{\"Platform_Version\":\"4.2\",\"isTablet\":true}",
        "cc191a3086fdcd9c133d86891d7268f9\t{\"Platform_Version\":\"4.4\",\"isTablet\":true}",
        "ccb61eedd75721db76b9bb2320590447\t{\"Platform_Version\":\"4.4\",\"isTablet\":true}",
        "ccb7ec6ac6ebd67df627890fac425c62\t{\"Platform_Version\":\"4.2\",\"isTablet\":true}",
        "ccbcb2e0744e08975a51330a60b14edd\t{\"isTablet\":true}",
        "cc71f8e4538f09a63f23f276da34eded\t{\"Platform_Version\":\"4.3\",\"isTablet\":true}",
        "cc2d84a3b5e60344212dd048db2414fb\t{\"Platform_Version\":\"4.2\",\"isTablet\":true}",
        "cccc871f924027e88d72e17b78b6d7ee\t{\"Browser_Bits\":\"32\",\"Platform\":\"Win7\",\"Platform_Version\":\"6.1\",\"Win32\":true}",
        "cc80d4687bdca107c2b835c0b2746b52\t{\"Platform_Version\":\"7.0\",\"isTablet\":true}",
        "cc6151ba58db7fb2d9cf65c810018b5c\t{\"Browser_Bits\":\"32\",\"Platform\":\"WinVista\",\"Platform_Version\":\"6.0\",\"Win32\":true}",
        "ccab8090f9de211cd33f342c06de7c88\t{\"Platform_Version\":\"4.2\",\"isTablet\":true}",
        "cc319c5a040a257a074a6e1deecede80\t{\"Browser_Bits\":\"32\",\"Platform\":\"WinVista\",\"Platform_Version\":\"6.0\",\"Win32\":true}",
        "cc646574df5797faedd00465fb9f6333\t{\"Browser_Bits\":\"32\",\"Platform\":\"WinVista\",\"Platform_Version\":\"6.0\",\"Win32\":true}",
        "cc0e0c21588341d6d76a0a9cc8913fda\t{\"Platform_Version\":\"8.1\"}",
        "ccdb8e7c894c70e20046957ab35ed7df\t{\"Platform_Version\":\"8.3\"}",
        "ccfef0e8e9eb3803831d9cdc3c6d5b9c\t[]",
        "cc2b7a907be101e3b29b31d2fa310a39\t{\"Platform_Version\":\"8.4\"}",
        "ccc808abd5e7abbf24bda5f243296a45\t{\"Browser_Bits\":\"32\",\"Platform\":\"ChromeOS\"}",
        "cc774f5a20417e18c24e723444fdc17a\t{\"Platform_Version\":\"5.0\",\"isTablet\":true}",
        "cc746ed2cfa8d5d6c99d29fd3349a5cb\t{\"Platform_Version\":\"10.3\",\"isTablet\":true}",
        "ccd142c25b20f9848b10fac2888a6a84\t{\"Platform_Version\":\"8.2\"}",
        "cc413abee3d49f06a258d14aa8167d68\t{\"Browser_Bits\":\"32\",\"Platform\":\"WinPhone8.1\",\"Platform_Version\":\"8.1\"}",
        "cc5da8dea3167527da6bf59fea244f82\t{\"Browser_Bits\":\"32\",\"Platform\":\"Linux\"}",
        "cce7037137642691de9ea9b994cbb28a\t{\"isMobileDevice\":false}",
        "cc08759d425ab3276359d02e2ba0da7d\t[]",
        "cce1ac132a298069c962826a777ee0e0\t{\"Browser_Bits\":\"32\",\"Platform\":\"Win7\",\"Platform_Version\":\"6.1\",\"Win32\":true}",
        "cce7bb2cf7fadd206a0addb564658b5e\t{\"Browser_Bits\":\"32\",\"Platform\":\"RIM OS\"}",
        "ccd10da9878c8df727c6306b002be8b3\t{\"Browser_Bits\":\"32\",\"Platform\":\"Win10\",\"Platform_Version\":\"6.4\",\"Win32\":true}",
        "cc1d3fe93d9f004d7429f149599f3e30\t{\"Platform_Version\":\"5.0\"}",
        "ccf590aba5945e0f8a8e0b6686a6962d\t{\"Browser_Bits\":\"32\",\"Platform\":\"Android\",\"isMobileDevice\":true}",
        "cc953da78feadc96eec6b28cda5423c7\t{\"Browser_Bits\":\"32\",\"Platform\":\"Android\",\"isMobileDevice\":true}",
        "cc5e0ea24d1554555e1f3bdd38638b96\t{\"Browser_Bits\":\"32\",\"Platform\":\"iOS\",\"Platform_Version\":\"9.1\"}",
        "cced4d44cf87831b465c7778e3bd4b44\t{\"Browser_Bits\":\"32\",\"Platform\":\"iOS\",\"Platform_Version\":\"9.3\"}",
        "cc47408cd18f5f6da2f51162454e9745\t{\"isMobileDevice\":true}",
        "cc7f0eb1fa1d109f6dfa5054ed4b342e\t{\"Browser_Bits\":\"32\",\"Platform\":\"JAVA\"}",
        "cc1488aac2ecec54006f9a27744d79a2\t{\"Browser_Bits\":\"32\",\"Platform\":\"Android\"}",
        "cc21da4dbcd1e84911708bf44103c907\t{\"Browser_Bits\":\"32\",\"Platform\":\"FreeBSD\"}",
        "ccc0eb19e5f640d830d21dc57a049e17\t{\"Platform_Version\":\"9.2\",\"isTablet\":true}",
        "ccf8121fb009138693a75222c67e51a3\t{\"Browser_Bits\":\"32\",\"Platform\":\"iOS\",\"isMobileDevice\":true}",
        "cc56f9bda68a35e699b48f58ac9ca8b6\t{\"Platform_Version\":\"8.3\"}",
        "cc0d59a59131da7d74d84f713e19248c\t{\"Platform_Version\":\"7.0\",\"isTablet\":true}",
        "cc2dc8cc46475500f9fa0b1b0fce1685\t{\"Platform_Version\":\"9.0\"}",
        "cc68239bb3ef717ca101f73a8bcf27c8\t{\"Platform_Version\":\"10.0\",\"isTablet\":true}",
        "cc8012f0f5d8e36cf2df1c8468d6be9b\t{\"Platform_Version\":\"8.3\"}",
        "cc5b2b1891eba0ed10d4c8dc18f6c24f\t{\"Platform_Version\":\"7.1\"}",
        "cc7b52a51319b5869df3617084ff9356\t{\"isTablet\":true}",
        "cc413e1fd069b0f46470a40046577d2c\t{\"Platform_Version\":\"10.2\",\"isTablet\":true}",
        "ccf8e2f60ebd09842ff440cf5ebefea7\t{\"Platform_Version\":\"9.2\",\"isTablet\":true}",
        "cc730eb9f6ec0b4f5c4e553f394cd5d6\t{\"Platform_Version\":\"7.0\"}",
        "cccf54315328b7b3839ba8d9f2ba3af3\t{\"Platform_Version\":\"10.0\"}",
        "cc18c36a2dac3d1f9f18cd3cd9006061\t{\"Platform_Version\":\"8.1\",\"isTablet\":true}",
        "cc0cc088f89f1d35850e4f94137a8985\t{\"Platform_Version\":\"8.1\"}",
        "ccb2d4271f46a928b43418e5bb6bd862\t{\"Platform_Version\":\"9.3\"}",
        "cceea1aa18a0937d277d4b53fcea3d04\t{\"Platform_Version\":\"9.3\"}",
        "cc848c76e3496013735674ceb6285ff0\t{\"Platform_Version\":\"8.3\",\"isTablet\":true}",
        "cc29a9799478322a6f69494fd02af493\t{\"Platform_Version\":\"10.2\"}",
        "cc36927103aff8c3a58c1f2d38b281e9\t{\"Platform_Version\":\"8.1\"}",
        "cc6620c15b498b28ce9a8618dcecdb16\t{\"Platform_Version\":\"8.1\",\"isTablet\":true}",
        "cc246677fe760453c5c0cf8b59b30d49\t{\"Platform_Version\":\"8.2\"}",
        "ccb6110a88ba76924d5becf8173a9b46\t{\"Platform_Version\":\"7.1\"}",
        "cc7ccb00eab1f06c43a0418ad6c5580f\t{\"Platform_Version\":\"8.3\"}",
        "cc3a6f50964c9916fbecf30b4a954310\t{\"Platform_Version\":\"8.3\"}",
        "cc8cf5dfa3d92a4a6bfacaeca4ba9307\t{\"Platform_Version\":\"8.4\",\"isTablet\":true}",
        "cc2987fc1f379595ff525a0ea97282ab\t{\"Platform_Version\":\"8.1\",\"isTablet\":true}",
        "ccaac85bf1dd6891befa7893026dd77f\t{\"Platform_Version\":\"8.2\"}",
        "ccc6e7c265c4e23b0a628633bc4702a2\t{\"Browser_Bits\":\"32\",\"Platform\":\"macOS\",\"Platform_Version\":\"10.12\"}",
        "ccb35a68afa577cbb324d212e3af8f2a\t{\"Platform_Version\":\"9.3\"}",
        "cc6cdded4733a606ad306963da8c71f0\t{\"Browser_Bits\":\"32\",\"Platform\":\"Win8.1\",\"Platform_Version\":\"6.3\",\"Win32\":true}",
        "ccee770edcd0fa5ee904240c5b7020f3\t{\"isTablet\":true}",
        "cc1f02f03604b4aaa92290f30411d989\t{\"Browser_Bits\":\"32\",\"Platform\":\"iOS\",\"isMobileDevice\":true}",
        "ccde3cc18dcef9317f597da88f768626\t{\"Platform_Version\":\"9.2\",\"isTablet\":true}",
        "cc8a6cfa06bb199896d1dbde623af533\t{\"Platform_Version\":\"10.0\"}",
        "cc13827c638c810735b4a382fccab54f\t{\"Platform_Version\":\"9.2\"}",
        "cc0c3ae4241ea94283d7c2fde9f171bd\t{\"Platform_Version\":\"9.2\",\"isTablet\":true}",
        "cc05b1661a14d305ffa71a9b54a06abd\t{\"isTablet\":true}",
        "cc7266037487f5a29c6e94e77ca34d01\t{\"Browser_Bits\":\"32\",\"Platform\":\"Linux\"}",
        "cce546e5fef720f36def84ffe16ade6e\t{\"Platform_Version\":\"8.4\"}",
        "ccebbeab1602cbb895467dde968ed445\t{\"Platform_Version\":\"8.4\"}",
        "cc33dead25c66d0153bcd03e71247e75\t{\"Platform\":\"Win8.1\",\"Platform_Version\":\"6.3\",\"Win32\":true}",
        "ccae01eba36f73f1271342264f4251ed\t{\"Platform\":\"WinVista\",\"Platform_Version\":\"6.0\"}",
        "cc78505541530f2f40b6a485cf2b6481\t{\"Browser_Bits\":\"32\",\"Platform\":\"Linux\"}",
        "ccbe2f40bc45b24d42c4e21457b1307a\t{\"Platform_Version\":\"10.9\"}",
        "cccdf2ddbe414c88d3ac2582c4bb5578\t{\"Browser_Bits\":\"32\",\"Platform\":\"WinXP\",\"Platform_Version\":\"5.2\",\"Win32\":true}",
        "cc98d37c23cd4d7e593053f176c94ab2\t{\"Browser_Bits\":\"32\",\"Platform\":\"WinXP\",\"Platform_Version\":\"5.1\",\"Win32\":true}",
        "ccb38dec178280e1ef4427a6701d69cf\t{\"Browser_Bits\":\"32\",\"Platform\":\"Win7\",\"Platform_Version\":\"6.1\",\"Win32\":true}",
        "ccf2345a84fe619f8137dc1b087e81e9\t{\"Browser_Bits\":\"32\",\"Platform\":\"MacOSX\",\"Platform_Version\":\"10.9\"}",
        "cc033001f8ce75e7701a79b03c5d415a\t{\"Browser_Bits\":\"32\",\"Platform\":\"FreeBSD\"}",
        "cc45886d12e19da1782d886ca254463d\t{\"Browser_Bits\":\"32\",\"Platform\":\"Win7\",\"Platform_Version\":\"6.1\",\"Win32\":true}",
        "cc03eca8db6ae08442a18f459af42a16\t{\"Browser_Bits\":\"32\",\"Platform\":\"Linux\"}",
        "cc5498f3e9178993fdf2cb16283ace79\t{\"Browser_Bits\":\"32\",\"Platform\":\"Win10\",\"Platform_Version\":\"6.4\",\"Win32\":true}",
        "cc5c7d02103e2372423fc25b84847ccc\t{\"Browser_Bits\":\"32\",\"Platform\":\"WinVista\",\"Platform_Version\":\"6.0\",\"Win32\":true}",
        "cc23c4785189d090c3f64d512ef191c1\t{\"Browser_Bits\":\"32\",\"Platform\":\"Win7\",\"Platform_Version\":\"6.1\",\"Win32\":true}",
        "ccbe9f4ed5b083e9856c7b93f216c254\t{\"Browser_Bits\":\"32\",\"Platform\":\"MacOSX\",\"Platform_Version\":\"10.9\"}",
        "ccdf52b7fecc325fcd5208c833814ec7\t[]",
        "ccf811d879ece96870e715beb25ef2be\t{\"Browser_Bits\":\"32\",\"Platform\":\"Win10\",\"Platform_Version\":\"10.0\",\"Win32\":true}",
        "cc3b4711c76838a93063603d848d0d48\t{\"Platform\":\"WinXP\",\"Platform_Version\":\"5.1\"}",
        "ccddb7cbc1f166fce764dc162139b18e\t{\"Platform\":\"Win7\",\"Platform_Version\":\"6.1\"}",
        "cc95bffd9825470649bbdab34a5b72f2\t[]",
        "ccb12fe7329113e3e694f16e04a63af3\t{\"Browser_Bits\":\"32\",\"Platform\":\"Win8\",\"Platform_Version\":\"6.2\",\"Win32\":true}",
        "cc4bdc813bec0e70b07a00a71fcb4461\t{\"Browser_Bits\":\"32\",\"Platform\":\"Win32\",\"Win32\":true}",
        "cc798f92a3fe31606665d82343477978\t{\"Browser_Bits\":\"32\",\"Platform\":\"WinXP\",\"Platform_Version\":\"5.1\",\"Win32\":true}",
        "cc8a123f4f052f3efe5545370654bad7\t{\"Browser_Bits\":\"32\",\"Platform\":\"Win8\",\"Platform_Version\":\"6.2\",\"Win32\":true}",
        "ccec24cffa347d9fa272bffb9d602dfe\t[]",
        "ccc564fb79522d9580506ca67a850f38\t{\"Browser_Bits\":\"32\",\"Platform\":\"MacOSX\",\"Platform_Version\":\"10\"}",
        "ccb55cdf1d0f580f20f9d32588c8bd03\t{\"Browser_Bits\":\"32\",\"Platform\":\"Linux\"}",
        "cc220fada0b56df4b4e4f2fd7399fd5d\t{\"Browser_Bits\":\"32\",\"Platform\":\"MacOSX\",\"Platform_Version\":\"10.9\"}",
        "ccb4e82cda05fe0335b2d9280d9ead28\t{\"Browser_Bits\":\"32\",\"Platform\":\"Win7\",\"Platform_Version\":\"6.1\",\"Win32\":true}",
        "cc941f24eb859df5ebce0c87813e46da\t{\"Browser_Bits\":\"32\",\"Platform\":\"Win10\",\"Platform_Version\":\"6.4\",\"Win32\":true}",
        "cc13f82ba1279f104059af2b1bd0a9c8\t{\"Browser_Bits\":\"32\",\"Platform\":\"MacOSX\",\"Platform_Version\":\"10.9\"}",
        "cc49827d5abaf804d78093a5962eb772\t{\"Browser_Bits\":\"32\",\"Platform\":\"WinVista\",\"Platform_Version\":\"6.0\",\"Win32\":true}",
        "cce4c0ba8edf92bafe64fefad8827169\t{\"Browser_Bits\":\"32\",\"Platform\":\"SunOS\"}",
        "cc64aa488d63051b32d50a1745dc85ee\t{\"Browser_Bits\":\"32\",\"Platform\":\"Win8.1\",\"Platform_Version\":\"6.3\",\"Win32\":true}",
        "cc60b5f90bc6be84924bbd2a59237156\t{\"Browser_Bits\":\"32\",\"Platform\":\"WinVista\",\"Platform_Version\":\"6.0\",\"Win32\":true}",
        "ccf44a5b149ac9d1732bea3ea9ce5e43\t{\"Browser_Bits\":\"32\",\"Platform\":\"WinVista\",\"Platform_Version\":\"6.0\",\"Win32\":true}",
        "ccd11a93f7181cee4ec09024a874c258\t{\"Platform_Version\":\"10.1\",\"isTablet\":true}",
        "ccc0aacb0a4b0847f1fbc720948ff38e\t[]",
        "cc85de371b7721bf26d1862a59eb170d\t{\"Browser_Bits\":\"32\",\"Platform\":\"WinXP\",\"Platform_Version\":\"5.1\",\"Win32\":true}",
        "cc2cbb8e8cd9fa4eca9490ffc86b6066\t{\"Browser_Bits\":\"32\",\"Platform\":\"WinVista\",\"Platform_Version\":\"6.0\",\"Win32\":true}",
        "cce49df7f7b04a52ed8068407015fb4e\t{\"Browser_Bits\":\"32\",\"Platform\":\"WinVista\",\"Platform_Version\":\"6.0\",\"Win32\":true}",
        "cca5f514deaf91bbe3e4fd554fc67672\t{\"Platform_Version\":\"9.0\",\"isTablet\":true}",
        "ccbcb0de19912314d0fe0242ce1506f1\t{\"Platform_Version\":\"8.1\",\"isTablet\":true}",
        "cc310a4a318687664330c9ef8948116e\t{\"Platform\":\"FirefoxOS\"}",
        "cc9ecf161c7fe40aa008f4fbb42cad79\t{\"Browser_Bits\":\"32\",\"Platform\":\"Win8.1\",\"Platform_Version\":\"6.3\",\"Win32\":true}",
        "cc58280d982d633ba0f99f5a82767963\t{\"Browser_Bits\":\"32\",\"Platform\":\"WinXP\",\"Platform_Version\":\"5.2\",\"Win32\":true}",
        "cca9834da93d0a7793309c91f9135e5b\t{\"Browser_Bits\":\"32\",\"Platform\":\"OpenBSD\"}",
        "ccc552537baa8f15c00e0a36e254c864\t{\"Browser_Bits\":\"32\",\"Platform\":\"macOS\",\"Platform_Version\":\"10.12\"}",
        "ccd546ce1c02236000abc15cbbf1f86f\t{\"Platform_Version\":\"7.0\"}",
        "cca555dfeaff2b63910cd2fe7d3c347a\t{\"Platform_Version\":\"4.4\"}",
        "cc746b75115949c6e8fc6b604f97e5aa\t{\"Platform_Version\":\"7.1\",\"isTablet\":true}",
        "ccc790b533673c677e6c0d140da83609\t{\"Platform_Version\":\"7.0\"}",
        "cc10265bf08016083c364a7fc161a178\t{\"Browser_Bits\":\"32\",\"Platform\":\"macOS\",\"Platform_Version\":\"10.12\"}",
        "cc52a2453b7f1c8bffc10d2489ce3166\t{\"Browser_Bits\":\"32\",\"Platform\":\"Win10\",\"Platform_Version\":\"6.4\",\"Win32\":true}",
        "ccc6eec19fe30310ed92f306ba85a5ef\t{\"Browser_Bits\":\"32\",\"Platform\":\"Win10\",\"Platform_Version\":\"6.4\",\"Win32\":true}",
        "cc01602b4689187cad5e3c7db3295fe3\t{\"Browser_Bits\":\"32\",\"Platform\":\"WinXP\",\"Platform_Version\":\"5.1\",\"Win32\":true}",
        "cce0925b2dd979d1b7268c4037686c07\t{\"Browser_Bits\":\"32\",\"Platform\":\"Win8\",\"Platform_Version\":\"6.2\",\"Win32\":true}",
        "ccb0609e3e4b5c42e9ac5b5aefe49626\t{\"Browser_Bits\":\"32\",\"Platform\":\"Win8.1\",\"Platform_Version\":\"6.3\",\"Win32\":true}",
        "cc7f449e0247daad7fcb41c56eef4ac1\t[]",
        "cc2e762f2e84419637c3a40ef2d6b8e8\t{\"Browser_Bits\":\"32\",\"Platform\":\"WinVista\",\"Platform_Version\":\"6.0\",\"Win32\":true}",
        "cca25f42b26ce698e1c262055076059f\t{\"Browser_Bits\":\"32\",\"Platform\":\"Win8.1\",\"Platform_Version\":\"6.3\",\"Win32\":true}",
        "cc6491af8feffb2dda15f4e988cffdcc\t{\"Browser_Bits\":\"32\",\"Platform\":\"WinVista\",\"Platform_Version\":\"6.0\",\"Win32\":true}",
        "cc86ee6ebd46420754d9fc6f3f1b6d95\t{\"Browser_Bits\":\"32\",\"Platform\":\"OS\\\/2\"}",
        "cc81fd9e5a08708ecb31858509550fcb\t{\"Browser_Bits\":\"32\",\"Platform\":\"Win8\",\"Platform_Version\":\"6.2\",\"Win32\":true}",
        "cc25bdd87f943081a5e94866ca173c40\t{\"Browser_Bits\":\"32\",\"Platform\":\"MacOSX\",\"Platform_Version\":\"10\"}",
        "cc2563091ffa0e2d49dfc63bb0df1aad\t{\"Browser_Bits\":\"32\",\"Platform\":\"FreeBSD\"}",
        "ccb45103079da6aa29e8659f17df2149\t{\"Browser_Bits\":\"32\",\"Platform\":\"WinVista\",\"Platform_Version\":\"6.0\",\"Win32\":true}",
        "cc61046a6dbf3e80991b512047feba11\t{\"Browser_Bits\":\"32\",\"Platform\":\"AIX\"}",
        "ccf8707719c4b1aa815ac98aacc3d859\t{\"Browser_Bits\":\"32\",\"Platform\":\"WinXP\",\"Platform_Version\":\"5.1\",\"Win32\":true}",
        "cc8cdc3d05243b33c47a07c7ece02a07\t{\"Platform\":\"WinXP\",\"Platform_Version\":\"5.2\",\"Win32\":true}",
        "cc4122beb4f9f63fe52855ab264d74bb\t{\"Browser_Bits\":\"32\",\"Platform\":\"Win32\",\"Win32\":true}",
        "cc3f9510f6e785860bba28576984ba60\t[]",
        "cc806544986ebf4ee2123291b60570aa\t[]",
        "cc0be0a9c9f647b02ee425f5e8fafcb3\t[]",
        "cc4ce50e417b6b7ae6e62f802fb19c8e\t[]",
        "cc92d4464d61b291417557fd1e80ca29\t[]",
        "ccc3e26036ddd5ef9e428a4b4cf86ecb\t{\"Browser_Bits\":\"32\",\"Platform\":\"MacOSX\",\"Platform_Version\":\"10\"}",
        "cc572d345b1cb71d4bab2d0ee0b29db0\t[]",
        "cc37a5ca148cebbf3cac1e9e4b6f1691\t[]",
        "ccb9a50b850bebcc27ce13e3ff5ee2f1\t{\"Platform_Version\":\"7.0\"}",
        "ccec04ff06bbf6a2e386e2084644011f\t[]"
    ]
}